Date, Sleep Time, Wake Time, Hours,Note
16/12/13,02:46,13:02,10.2,
15/12/13,03:19,10:30,7.19,
14/12/13,03:33,09:00,5.44,
13/12/13,02:58,13:06,10.1,
12/12/13,02:08,07:35,5.44,
10/12/13,02:44,11:42,8.97,
