[SMSSensor] error:null Stack:java.lang.NullPointerException
	at com.ubiqlog.sensors.SMSSensor$SMSContentObserver.onChange(SMSSensor.java:92)
	at android.database.ContentObserver$NotificationRunnable.run(ContentObserver.java:57)
	at android.os.Handler.handleCallback(Handler.java:587)
	at android.os.Handler.dispatchMessage(Handler.java:92)
	at android.os.Looper.loop(Looper.java:143)
	at android.app.ActivityThread.main(ActivityThread.java:5068)
	at java.lang.reflect.Method.invokeNative(Native Method)
	at java.lang.reflect.Method.invoke(Method.java:521)
	at com.android.internal.os.ZygoteInit$MethodAndArgsCaller.run(ZygoteInit.java:868)
	at com.android.internal.os.ZygoteInit.main(ZygoteInit.java:626)
	at dalvik.system.NativeStart.main(Native Method)

