{"Application":{"ProcessName":"com.jb.gosms","Start":"12-13-2013 09:00:26","End":"12-13-2013 09:00:57"}}
{"Call": {"Number":"0935305####","Duration":"15","Time":"12-12-2013 20:26:21","Type":"2"}}
{"Call": {"Number":"0935305####","Duration":"15","Time":"12-12-2013 20:26:21","Type":"2"}}
{"Call": {"Number":"0935305####","Duration":"15","Time":"12-12-2013 20:26:21","Type":"2"}}
{"Call": {"Number":"0935305####","Duration":"15","Time":"12-12-2013 20:26:21","Type":"2"}}
{"Call": {"Number":"0935305####","Duration":"15","Time":"12-12-2013 20:26:21","Type":"2"}}
{"Call": {"Number":"0935305####","Duration":"15","Time":"12-12-2013 20:26:21","Type":"2"}}
{"Call": {"Number":"0935305####","Duration":"15","Time":"12-12-2013 20:26:21","Type":"2"}}
{"Call": {"Number":"0935305####","Duration":"15","Time":"12-12-2013 20:26:21","Type":"2"}}
{"Call": {"Number":"0935305####","Duration":"15","Time":"12-12-2013 20:26:21","Type":"2"}}
{"Call": {"Number":"0935305####","Duration":"15","Time":"12-12-2013 20:26:21","Type":"2"}}
{"Call": {"Number":"0935305####","Duration":"15","Time":"12-12-2013 20:26:21","Type":"2"}}
{"Call": {"Number":"0935305####","Duration":"15","Time":"12-12-2013 20:26:21","Type":"2"}}
{"Call": {"Number":"0935305####","Duration":"15","Time":"12-12-2013 20:26:21","Type":"2"}}
{"Call": {"Number":"0935305####","Duration":"15","Time":"12-12-2013 20:26:21","Type":"2"}}
{"Call": {"Number":"0935305####","Duration":"15","Time":"12-12-2013 20:26:21","Type":"2"}}
{"SMS":{"Address":"+983000266600####","type":"1","date":"12-13-2013 09:01:04","body":"ANONYMIZED","Type":"1", "metadata": {"name": ""}}}
{"Call": {"Number":"0935305####","Duration":"15","Time":"12-12-2013 20:26:21","Type":"2"}}
{"Call": {"Number":"0935305####","Duration":"15","Time":"12-12-2013 20:26:21","Type":"2"}}
{"Call": {"Number":"0935305####","Duration":"15","Time":"12-12-2013 20:26:21","Type":"2"}}
{"Call": {"Number":"0935305####","Duration":"15","Time":"12-12-2013 20:26:21","Type":"2"}}
{"Call": {"Number":"0935305####","Duration":"15","Time":"12-12-2013 20:26:21","Type":"2"}}
{"Call": {"Number":"0935305####","Duration":"15","Time":"12-12-2013 20:26:21","Type":"2"}}
{"Call": {"Number":"0935305####","Duration":"15","Time":"12-12-2013 20:26:21","Type":"2"}}
{"Call": {"Number":"0935305####","Duration":"15","Time":"12-12-2013 20:26:21","Type":"2"}}
{"Call": {"Number":"0935305####","Duration":"15","Time":"12-12-2013 20:26:21","Type":"2"}}
{"Call": {"Number":"0935305####","Duration":"15","Time":"12-12-2013 20:26:21","Type":"2"}}
{"Call": {"Number":"0935305####","Duration":"15","Time":"12-12-2013 20:26:21","Type":"2"}}
{"Call": {"Number":"0935305####","Duration":"15","Time":"12-12-2013 20:26:21","Type":"2"}}
{"Call": {"Number":"0935305####","Duration":"15","Time":"12-12-2013 20:26:21","Type":"2"}}
{"Call": {"Number":"0935305####","Duration":"15","Time":"12-12-2013 20:26:21","Type":"2"}}
{"Call": {"Number":"0935305####","Duration":"15","Time":"12-12-2013 20:26:21","Type":"2"}}
{"Call": {"Number":"0935305####","Duration":"15","Time":"12-12-2013 20:26:21","Type":"2"}}
{"Call": {"Number":"0935305####","Duration":"15","Time":"12-12-2013 20:26:21","Type":"2"}}
{"Call": {"Number":"0935305####","Duration":"15","Time":"12-12-2013 20:26:21","Type":"2"}}
{"Call": {"Number":"0935305####","Duration":"15","Time":"12-12-2013 20:26:21","Type":"2"}}
{"Call": {"Number":"0935305####","Duration":"15","Time":"12-12-2013 20:26:21","Type":"2"}}
{"Call": {"Number":"0935305####","Duration":"15","Time":"12-12-2013 20:26:21","Type":"2"}}
{"Call": {"Number":"0935305####","Duration":"15","Time":"12-12-2013 20:26:21","Type":"2"}}
{"Call": {"Number":"0935305####","Duration":"15","Time":"12-12-2013 20:26:21","Type":"2"}}
{"Call": {"Number":"0935305####","Duration":"15","Time":"12-12-2013 20:26:21","Type":"2"}}
{"Call": {"Number":"0935305####","Duration":"15","Time":"12-12-2013 20:26:21","Type":"2"}}
{"Call": {"Number":"0935305####","Duration":"15","Time":"12-12-2013 20:26:21","Type":"2"}}
{"Application":{"ProcessName":"com.jb.gosms","Start":"12-13-2013 09:01:27","End":"12-13-2013 09:06:28"}}
{"Application":{"ProcessName":"com.jb.gosms","Start":"12-13-2013 09:06:28","End":"12-13-2013 09:11:28"}}
{"Application":{"ProcessName":"com.jb.gosms","Start":"12-13-2013 09:11:28","End":"12-13-2013 09:16:29"}}
{"Application":{"ProcessName":"com.jb.gosms","Start":"12-13-2013 09:16:29","End":"12-13-2013 09:21:29"}}
{"Application":{"ProcessName":"com.androidapps.widget.weather2","Start":"12-13-2013 09:23:00","End":"12-13-2013 09:23:03"}}
{"Application":{"ProcessName":"com.jb.gosms","Start":"12-13-2013 09:21:29","End":"12-13-2013 09:26:30"}}
{"Application":{"ProcessName":"com.jb.gosms","Start":"12-13-2013 09:26:30","End":"12-13-2013 09:31:31"}}
{"Application":{"ProcessName":"com.jb.gosms","Start":"12-13-2013 09:31:31","End":"12-13-2013 09:36:31"}}
{"SMS":{"Address":"+98912597####","type":"1","date":"12-13-2013 09:40:24","body":"ANONYMIZED","Type":"1", "metadata": {"name": "fayezeh ashraf"}}}
{"Application":{"ProcessName":"com.android.htccontacts","Start":"12-13-2013 09:40:26","End":"12-13-2013 09:40:32"}}
{"SMS":{"Address":"+98912597####","type":"2","date":"12-13-2013 09:41:21","body":"ANONYMIZED","Type":"2", "metadata": {"name": "fayezeh ashraf"}}}
{"Application":{"ProcessName":"com.jb.gosms","Start":"12-13-2013 09:36:31","End":"12-13-2013 09:41:34"}}
{"Application":{"ProcessName":"com.jb.gosms","Start":"12-13-2013 09:41:34","End":"12-13-2013 09:46:35"}}
{"Application":{"ProcessName":"com.jb.gosms","Start":"12-13-2013 09:46:35","End":"12-13-2013 09:48:47"}}
{"Application":{"ProcessName":"com.jb.gosms","Start":"12-13-2013 10:18:39","End":"12-13-2013 10:18:49"}}
{"Application":{"ProcessName":"com.adobe.psmobile","Start":"12-13-2013 10:18:41","End":"12-13-2013 10:18:49"}}
{"Application":{"ProcessName":"com.jb.gosms","Start":"12-13-2013 10:19:11","End":"12-13-2013 10:19:19"}}
{"Application":{"ProcessName":"com.android.browser","Start":"12-13-2013 10:19:11","End":"12-13-2013 10:21:19"}}
{"Application":{"ProcessName":"com.android.browser","Start":"12-13-2013 10:21:39","End":"12-13-2013 10:21:49"}}
{"Application":{"ProcessName":"com.android.settings","Start":"12-13-2013 10:21:49","End":"12-13-2013 10:21:59"}}
{"SMS":{"Address":"+98918580####","type":"1","date":"12-13-2013 11:02:03","body":"ANONYMIZED","Type":"1", "metadata": {"name": "masomeh Khahar"}}}
{"Application":{"ProcessName":"com.jb.gosms","Start":"12-13-2013 11:02:06","End":"12-13-2013 11:02:16"}}
{"Application":{"ProcessName":"com.jb.gosms","Start":"12-13-2013 11:03:05","End":"12-13-2013 11:08:06"}}
{"Application":{"ProcessName":"com.jb.gosms","Start":"12-13-2013 11:08:06","End":"12-13-2013 11:13:06"}}
{"Application":{"ProcessName":"com.google.android.apps.maps","Start":"12-13-2013 11:15:17","End":"12-13-2013 11:15:17"}}
{"Application":{"ProcessName":"com.google.android.apps.maps","Start":"12-13-2013 11:15:27","End":"12-13-2013 11:15:28"}}
{"Application":{"ProcessName":"com.jb.gosms","Start":"12-13-2013 11:13:06","End":"12-13-2013 11:18:07"}}
{"Application":{"ProcessName":"com.jb.gosms","Start":"12-13-2013 11:18:07","End":"12-13-2013 11:23:08"}}
{"Application":{"ProcessName":"com.jb.gosms","Start":"12-13-2013 11:23:08","End":"12-13-2013 11:28:08"}}
{"Application":{"ProcessName":"com.jb.gosms","Start":"12-13-2013 11:28:08","End":"12-13-2013 11:33:09"}}
{"Application":{"ProcessName":"com.androidapps.widget.weather2","Start":"12-13-2013 11:33:00","End":"12-13-2013 11:33:09"}}
{"Application":{"ProcessName":"com.androidapps.widget.weather2","Start":"12-13-2013 11:34:00","End":"12-13-2013 11:34:09"}}
{"Application":{"ProcessName":"com.androidapps.widget.weather2","Start":"12-13-2013 11:37:00","End":"12-13-2013 11:37:00"}}
{"Application":{"ProcessName":"com.androidapps.widget.weather2","Start":"12-13-2013 11:38:00","End":"12-13-2013 11:38:00"}}
{"Application":{"ProcessName":"com.jb.gosms","Start":"12-13-2013 11:33:09","End":"12-13-2013 11:38:10"}}
{"Application":{"ProcessName":"com.jb.gosms","Start":"12-13-2013 11:38:10","End":"12-13-2013 11:43:10"}}
{"Application":{"ProcessName":"com.jb.gosms","Start":"12-13-2013 11:43:10","End":"12-13-2013 11:48:11"}}
{"SMS":{"Address":"+98935305####","type":"1","date":"12-13-2013 11:51:13","body":"ANONYMIZED","Type":"1", "metadata": {"name": "Robikjan"}}}
{"SMS":{"Address":"+98935305####","type":"2","date":"12-13-2013 11:52:18","body":"ANONYMIZED","Type":"2", "metadata": {"name": "Robikjan"}}}
{"Application":{"ProcessName":"com.jb.gosms","Start":"12-13-2013 11:48:11","End":"12-13-2013 11:53:13"}}
{"SMS":{"Address":"+98935305####","type":"1","date":"12-13-2013 11:53:45","body":"ANONYMIZED","Type":"1", "metadata": {"name": "Robikjan"}}}
{"Application":{"ProcessName":"com.jb.gosms","Start":"12-13-2013 11:53:13","End":"12-13-2013 11:58:14"}}
{"Application":{"ProcessName":"com.jb.gosms","Start":"12-13-2013 11:58:14","End":"12-13-2013 12:03:14"}}
{"Application":{"ProcessName":"com.jb.gosms","Start":"12-13-2013 12:03:14","End":"12-13-2013 12:08:15"}}
{"Application":{"ProcessName":"com.jb.gosms","Start":"12-13-2013 12:08:15","End":"12-13-2013 12:13:16"}}
{"SMS":{"Address":"+982030","type":"1","date":"12-13-2013 12:16:02","body":"ANONYMIZED","Type":"1", "metadata": {"name": ""}}}
{"Application":{"ProcessName":"com.jb.gosms","Start":"12-13-2013 12:13:16","End":"12-13-2013 12:16:56"}}
{"Application":{"ProcessName":"com.android.mms","Start":"12-13-2013 12:16:56","End":"12-13-2013 12:17:36"}}
{"SMS":{"Address":"+98935305####","type":"1","date":"12-13-2013 11:53:45","body":"ANONYMIZED","Type":"1", "metadata": {"name": "Robikjan"}}}
{"SMS":{"Address":"+9820202","type":"1","date":"12-13-2013 12:48:57","body":"ANONYMIZED","Type":"1", "metadata": {"name": ""}}}
{"Application":{"ProcessName":"com.jb.gosms","Start":"12-13-2013 12:49:01","End":"12-13-2013 12:49:11"}}
{"SMS":{"Address":"+98935305####","type":"1","date":"12-13-2013 11:53:45","body":"ANONYMIZED","Type":"1", "metadata": {"name": "Robikjan"}}}
{"Application":{"ProcessName":"com.jb.gosms","Start":"12-13-2013 12:49:20","End":"12-13-2013 12:49:32"}}
{"SMS":{"Address":"+98935305####","type":"1","date":"12-13-2013 13:57:35","body":"ANONYMIZED","Type":"1", "metadata": {"name": "Robikjan"}}}
{"Application":{"ProcessName":"com.jb.gosms","Start":"12-13-2013 13:57:39","End":"12-13-2013 13:57:49"}}
{"Application":{"ProcessName":"com.htc.bg","Start":"12-13-2013 15:44:43","End":"12-13-2013 15:44:43"}}
{"Application":{"ProcessName":"com.androidapps.widget.weather2","Start":"12-13-2013 15:44:43","End":"12-13-2013 15:44:53"}}
{"Application":{"ProcessName":"com.adobe.psmobile","Start":"12-13-2013 15:44:43","End":"12-13-2013 15:44:53"}}
{"Application":{"ProcessName":"com.jb.gosms","Start":"12-13-2013 15:44:43","End":"12-13-2013 15:45:43"}}
{"SMS":{"Address":"+98935305####","type":"2","date":"12-13-2013 15:45:35","body":"ANONYMIZED","Type":"2", "metadata": {"name": "Robikjan"}}}
{"Application":{"ProcessName":"com.androidapps.widget.weather2","Start":"12-13-2013 16:43:00","End":"12-13-2013 16:43:00"}}
{"Call": {"Number":"+98935566####","Duration":"1","Time":"12-13-2013 16:42:51","Type":"1"}}
{"Call": {"Number":"+98935566####","Duration":"1","Time":"12-13-2013 16:42:51","Type":"1"}}
{"Application":{"ProcessName":"tw.nicky.HDCallerID:remote","Start":"12-13-2013 16:43:30","End":"12-13-2013 16:43:30"}}
{"Application":{"ProcessName":"com.androidapps.widget.weather2","Start":"12-13-2013 16:44:01","End":"12-13-2013 16:44:11"}}
{"Call": {"Number":"+98935566####","Duration":"251","Time":"12-13-2013 16:43:29","Type":"2"}}
{"Call": {"Number":"+98935566####","Duration":"251","Time":"12-13-2013 16:43:29","Type":"2"}}
{"SMS":{"Address":"+98935305####","type":"2","date":"12-13-2013 17:20:00","body":"ANONYMIZED","Type":"2", "metadata": {"name": "Robikjan"}}}
{"Application":{"ProcessName":"com.android.mms","Start":"12-13-2013 17:19:55","End":"12-13-2013 17:21:00"}}
{"SMS":{"Address":"+98935305####","type":"1","date":"12-13-2013 17:21:15","body":"ANONYMIZED","Type":"1", "metadata": {"name": "Robikjan"}}}
{"Application":{"ProcessName":"com.jb.gosms","Start":"12-13-2013 17:21:20","End":"12-13-2013 17:21:35"}}
{"SMS":{"Address":"+98935305####","type":"2","date":"12-13-2013 17:21:36","body":"ANONYMIZED","Type":"2", "metadata": {"name": "Robikjan"}}}
{"SMS":{"Address":"+98935305####","type":"1","date":"12-13-2013 17:22:32","body":"ANONYMIZED","Type":"1", "metadata": {"name": "Robikjan"}}}
{"Application":{"ProcessName":"com.jb.gosms","Start":"12-13-2013 17:22:35","End":"12-13-2013 17:27:36"}}
{"Application":{"ProcessName":"com.viber.voip","Start":"12-13-2013 17:31:02","End":"12-13-2013 17:31:06"}}
{"Application":{"ProcessName":"com.jb.gosms","Start":"12-13-2013 17:27:36","End":"12-13-2013 17:32:37"}}
{"SMS":{"Address":"+98935305####","type":"1","date":"12-13-2013 17:34:34","body":"ANONYMIZED","Type":"1", "metadata": {"name": "Robikjan"}}}
{"Application":{"ProcessName":"com.jb.gosms","Start":"12-13-2013 17:32:37","End":"12-13-2013 17:37:37"}}
{"Application":{"ProcessName":"com.jb.gosms","Start":"12-13-2013 17:37:37","End":"12-13-2013 17:42:38"}}
{"Application":{"ProcessName":"com.jb.gosms","Start":"12-13-2013 17:42:38","End":"12-13-2013 17:47:38"}}
{"Application":{"ProcessName":"com.jb.gosms","Start":"12-13-2013 17:47:38","End":"12-13-2013 17:52:30"}}
{"SMS":{"Address":"+98935305####","type":"2","date":"12-13-2013 17:52:22","body":"ANONYMIZED","Type":"2", "metadata": {"name": "Robikjan"}}}
{"SMS":{"Address":"+98935305####","type":"2","date":"12-13-2013 17:57:42","body":"ANONYMIZED","Type":"2", "metadata": {"name": "Robikjan"}}}
{"Application":{"ProcessName":"com.android.mms","Start":"12-13-2013 17:57:21","End":"12-13-2013 18:02:22"}}
{"Application":{"ProcessName":"com.android.mms","Start":"12-13-2013 18:02:22","End":"12-13-2013 18:07:22"}}
{"Application":{"ProcessName":"com.android.mms","Start":"12-13-2013 18:07:22","End":"12-13-2013 18:12:23"}}
{"Application":{"ProcessName":"com.android.mms","Start":"12-13-2013 18:12:23","End":"12-13-2013 18:17:24"}}
{"Application":{"ProcessName":"com.android.mms","Start":"12-13-2013 18:17:24","End":"12-13-2013 18:22:24"}}
{"Application":{"ProcessName":"com.android.mms","Start":"12-13-2013 18:22:24","End":"12-13-2013 18:27:25"}}
{"Application":{"ProcessName":"com.androidapps.widget.weather2","Start":"12-13-2013 18:32:00","End":"12-13-2013 18:32:05"}}
{"Application":{"ProcessName":"com.android.mms","Start":"12-13-2013 18:27:25","End":"12-13-2013 18:32:25"}}
{"Application":{"ProcessName":"com.android.mms","Start":"12-13-2013 18:32:25","End":"12-13-2013 18:37:26"}}
{"Application":{"ProcessName":"com.android.mms","Start":"12-13-2013 18:37:26","End":"12-13-2013 18:42:27"}}
{"Application":{"ProcessName":"com.android.mms","Start":"12-13-2013 18:42:27","End":"12-13-2013 18:47:27"}}
{"Application":{"ProcessName":"com.android.mms","Start":"12-13-2013 18:47:27","End":"12-13-2013 18:52:28"}}
{"Application":{"ProcessName":"com.android.mms","Start":"12-13-2013 18:52:28","End":"12-13-2013 18:57:29"}}
{"Application":{"ProcessName":"com.android.mms","Start":"12-13-2013 18:57:29","End":"12-13-2013 19:02:29"}}
{"Application":{"ProcessName":"com.androidapps.widget.weather2","Start":"12-13-2013 19:03:00","End":"12-13-2013 19:03:03"}}
{"Application":{"ProcessName":"com.androidapps.widget.weather2","Start":"12-13-2013 19:04:00","End":"12-13-2013 19:04:04"}}
{"Application":{"ProcessName":"com.android.mms","Start":"12-13-2013 19:02:29","End":"12-13-2013 19:07:30"}}
{"Application":{"ProcessName":"com.android.mms","Start":"12-13-2013 19:07:30","End":"12-13-2013 19:12:31"}}
{"Application":{"ProcessName":"com.android.mms","Start":"12-13-2013 19:12:31","End":"12-13-2013 19:17:32"}}
{"Application":{"ProcessName":"com.android.mms","Start":"12-13-2013 19:17:32","End":"12-13-2013 19:22:32"}}
{"Application":{"ProcessName":"com.android.mms","Start":"12-13-2013 19:22:32","End":"12-13-2013 19:27:33"}}
{"Application":{"ProcessName":"com.android.mms","Start":"12-13-2013 19:27:33","End":"12-13-2013 19:32:33"}}
{"Application":{"ProcessName":"com.android.mms","Start":"12-13-2013 19:32:33","End":"12-13-2013 19:37:34"}}
{"Application":{"ProcessName":"com.android.mms","Start":"12-13-2013 19:37:34","End":"12-13-2013 19:42:35"}}
{"Application":{"ProcessName":"com.android.mms","Start":"12-13-2013 19:42:35","End":"12-13-2013 19:47:35"}}
{"Application":{"ProcessName":"com.androidapps.widget.weather2","Start":"12-13-2013 19:49:00","End":"12-13-2013 19:49:06"}}
