{"Application":{"ProcessName":"com.jb.gosms","Start":"12-18-2013 23:56:18","End":"12-19-2013 00:01:18"}}
{"Application":{"ProcessName":"com.jb.gosms","Start":"12-19-2013 00:01:18","End":"12-19-2013 00:06:19"}}
{"Application":{"ProcessName":"com.androidapps.widget.weather2","Start":"12-19-2013 00:10:00","End":"12-19-2013 00:10:08"}}
{"Application":{"ProcessName":"com.androidapps.widget.weather2","Start":"12-19-2013 00:11:00","End":"12-19-2013 00:11:08"}}
{"Application":{"ProcessName":"com.jb.gosms","Start":"12-19-2013 00:06:19","End":"12-19-2013 00:11:20"}}
{"Application":{"ProcessName":"com.jb.gosms","Start":"12-19-2013 00:11:20","End":"12-19-2013 00:16:21"}}
{"Application":{"ProcessName":"com.jb.gosms","Start":"12-19-2013 00:16:21","End":"12-19-2013 00:21:21"}}
{"Application":{"ProcessName":"com.androidapps.widget.weather2","Start":"12-19-2013 00:25:00","End":"12-19-2013 00:25:02"}}
{"Application":{"ProcessName":"com.jb.gosms","Start":"12-19-2013 00:21:21","End":"12-19-2013 00:26:22"}}
{"Application":{"ProcessName":"com.androidapps.widget.weather2","Start":"12-19-2013 00:27:00","End":"12-19-2013 00:27:02"}}
{"Application":{"ProcessName":"com.jb.gosms","Start":"12-19-2013 00:26:22","End":"12-19-2013 00:31:23"}}
{"Application":{"ProcessName":"com.jb.gosms","Start":"12-19-2013 00:31:23","End":"12-19-2013 00:36:23"}}
{"Application":{"ProcessName":"com.jb.gosms","Start":"12-19-2013 00:36:23","End":"12-19-2013 00:41:24"}}
{"Application":{"ProcessName":"com.jb.gosms","Start":"12-19-2013 00:41:24","End":"12-19-2013 00:46:25"}}
{"Application":{"ProcessName":"com.jb.gosms","Start":"12-19-2013 00:46:25","End":"12-19-2013 00:51:25"}}
{"Application":{"ProcessName":"com.jb.gosms","Start":"12-19-2013 00:51:25","End":"12-19-2013 00:56:26"}}
{"Application":{"ProcessName":"com.jb.gosms","Start":"12-19-2013 00:56:26","End":"12-19-2013 01:01:27"}}
{"Application":{"ProcessName":"com.jb.gosms","Start":"12-19-2013 01:01:27","End":"12-19-2013 01:06:27"}}
{"Application":{"ProcessName":"com.jb.gosms","Start":"12-19-2013 01:06:27","End":"12-19-2013 01:11:28"}}
{"Application":{"ProcessName":"com.jb.gosms","Start":"12-19-2013 01:11:28","End":"12-19-2013 01:16:29"}}
{"Application":{"ProcessName":"com.jb.gosms","Start":"12-19-2013 01:16:29","End":"12-19-2013 01:21:29"}}
{"Application":{"ProcessName":"com.jb.gosms","Start":"12-19-2013 01:21:29","End":"12-19-2013 01:26:30"}}
{"Application":{"ProcessName":"com.jb.gosms","Start":"12-19-2013 01:26:30","End":"12-19-2013 01:31:31"}}
{"Application":{"ProcessName":"com.jb.gosms","Start":"12-19-2013 01:31:31","End":"12-19-2013 01:36:32"}}
{"Application":{"ProcessName":"com.androidapps.widget.weather2","Start":"12-19-2013 01:37:00","End":"12-19-2013 01:37:02"}}
{"Application":{"ProcessName":"com.jb.gosms","Start":"12-19-2013 01:36:32","End":"12-19-2013 01:41:32"}}
{"Application":{"ProcessName":"com.jb.gosms","Start":"12-19-2013 01:41:32","End":"12-19-2013 01:46:33"}}
{"Application":{"ProcessName":"com.jb.gosms","Start":"12-19-2013 01:46:33","End":"12-19-2013 01:51:34"}}
{"Application":{"ProcessName":"com.jb.gosms","Start":"12-19-2013 01:51:34","End":"12-19-2013 01:56:34"}}
{"Application":{"ProcessName":"com.jb.gosms","Start":"12-19-2013 01:56:34","End":"12-19-2013 02:01:35"}}
{"Application":{"ProcessName":"com.jb.gosms","Start":"12-19-2013 02:01:35","End":"12-19-2013 02:06:36"}}
{"Application":{"ProcessName":"com.jb.gosms","Start":"12-19-2013 02:06:36","End":"12-19-2013 02:11:36"}}
{"Application":{"ProcessName":"com.jb.gosms","Start":"12-19-2013 02:11:36","End":"12-19-2013 02:16:37"}}
{"Application":{"ProcessName":"com.jb.gosms","Start":"12-19-2013 02:16:37","End":"12-19-2013 02:21:38"}}
{"Application":{"ProcessName":"com.jb.gosms","Start":"12-19-2013 02:21:38","End":"12-19-2013 02:26:38"}}
{"Application":{"ProcessName":"com.jb.gosms","Start":"12-19-2013 02:26:38","End":"12-19-2013 02:31:39"}}
{"Application":{"ProcessName":"com.jb.gosms","Start":"12-19-2013 02:31:39","End":"12-19-2013 02:36:39"}}
{"Application":{"ProcessName":"com.androidapps.widget.weather2","Start":"12-19-2013 02:37:00","End":"12-19-2013 02:37:08"}}
{"Application":{"ProcessName":"com.androidapps.widget.weather2","Start":"12-19-2013 02:38:00","End":"12-19-2013 02:38:08"}}
{"Application":{"ProcessName":"com.jb.gosms","Start":"12-19-2013 02:36:39","End":"12-19-2013 02:41:40"}}
{"Application":{"ProcessName":"com.jb.gosms","Start":"12-19-2013 02:41:40","End":"12-19-2013 02:46:41"}}
{"Application":{"ProcessName":"com.androidapps.widget.weather2","Start":"12-19-2013 02:51:00","End":"12-19-2013 02:51:02"}}
{"Application":{"ProcessName":"com.jb.gosms","Start":"12-19-2013 02:46:41","End":"12-19-2013 02:51:42"}}
{"Application":{"ProcessName":"com.androidapps.widget.weather2","Start":"12-19-2013 02:52:00","End":"12-19-2013 02:52:02"}}
{"Application":{"ProcessName":"com.jb.gosms","Start":"12-19-2013 02:51:42","End":"12-19-2013 02:56:42"}}
{"Application":{"ProcessName":"com.jb.gosms","Start":"12-19-2013 02:56:42","End":"12-19-2013 03:01:43"}}
{"Application":{"ProcessName":"com.jb.gosms","Start":"12-19-2013 03:01:43","End":"12-19-2013 03:06:44"}}
{"Application":{"ProcessName":"com.jb.gosms","Start":"12-19-2013 03:06:44","End":"12-19-2013 03:11:44"}}
{"Application":{"ProcessName":"com.jb.gosms","Start":"12-19-2013 03:11:44","End":"12-19-2013 03:16:45"}}
{"Application":{"ProcessName":"com.jb.gosms","Start":"12-19-2013 03:16:45","End":"12-19-2013 03:21:46"}}
{"Application":{"ProcessName":"com.jb.gosms","Start":"12-19-2013 03:21:46","End":"12-19-2013 03:26:46"}}
{"Application":{"ProcessName":"com.jb.gosms","Start":"12-19-2013 03:26:46","End":"12-19-2013 03:31:47"}}
{"Application":{"ProcessName":"com.jb.gosms","Start":"12-19-2013 03:31:47","End":"12-19-2013 03:36:48"}}
{"Application":{"ProcessName":"com.jb.gosms","Start":"12-19-2013 03:36:48","End":"12-19-2013 03:41:49"}}
{"Application":{"ProcessName":"com.jb.gosms","Start":"12-19-2013 03:41:49","End":"12-19-2013 03:46:49"}}
{"Application":{"ProcessName":"com.androidapps.widget.weather2","Start":"12-19-2013 03:49:00","End":"12-19-2013 03:49:07"}}
{"Application":{"ProcessName":"com.androidapps.widget.weather2","Start":"12-19-2013 03:50:00","End":"12-19-2013 03:50:08"}}
{"Application":{"ProcessName":"com.jb.gosms","Start":"12-19-2013 03:46:49","End":"12-19-2013 03:51:50"}}
{"Application":{"ProcessName":"com.jb.gosms","Start":"12-19-2013 03:51:50","End":"12-19-2013 03:56:51"}}
{"Application":{"ProcessName":"com.jb.gosms","Start":"12-19-2013 03:56:51","End":"12-19-2013 04:01:52"}}
{"Application":{"ProcessName":"com.androidapps.widget.weather2","Start":"12-19-2013 04:04:00","End":"12-19-2013 04:04:02"}}
{"Application":{"ProcessName":"com.androidapps.widget.weather2","Start":"12-19-2013 04:05:00","End":"12-19-2013 04:05:02"}}
{"Application":{"ProcessName":"com.jb.gosms","Start":"12-19-2013 04:01:52","End":"12-19-2013 04:06:52"}}
{"Application":{"ProcessName":"com.jb.gosms","Start":"12-19-2013 04:06:52","End":"12-19-2013 04:11:53"}}
{"Application":{"ProcessName":"com.jb.gosms","Start":"12-19-2013 04:11:53","End":"12-19-2013 04:16:54"}}
{"Application":{"ProcessName":"com.jb.gosms","Start":"12-19-2013 04:16:54","End":"12-19-2013 04:21:54"}}
{"Application":{"ProcessName":"com.jb.gosms","Start":"12-19-2013 04:21:54","End":"12-19-2013 04:26:55"}}
{"Application":{"ProcessName":"com.jb.gosms","Start":"12-19-2013 04:26:55","End":"12-19-2013 04:31:56"}}
{"Application":{"ProcessName":"com.jb.gosms","Start":"12-19-2013 04:31:56","End":"12-19-2013 04:36:34"}}
{"Application":{"ProcessName":"com.androidapps.widget.weather2","Start":"12-19-2013 05:02:00","End":"12-19-2013 05:02:08"}}
{"Application":{"ProcessName":"com.androidapps.widget.weather2","Start":"12-19-2013 05:16:00","End":"12-19-2013 05:16:01"}}
{"Application":{"ProcessName":"com.androidapps.widget.weather2","Start":"12-19-2013 05:17:00","End":"12-19-2013 05:17:02"}}
{"Application":{"ProcessName":"com.htc.android.worldclock","Start":"12-19-2013 06:01:05","End":"12-19-2013 06:01:25"}}
{"Application":{"ProcessName":"com.htc.android.worldclock","Start":"12-19-2013 06:01:55","End":"12-19-2013 06:02:05"}}
{"Call": {"Number":"0912357####","Duration":"0","Time":"12-19-2013 09:48:36","Type":"2"}}
{"Call": {"Number":"0912357####","Duration":"0","Time":"12-19-2013 09:48:36","Type":"2"}}
{"Call": {"Number":"0912357####","Duration":"0","Time":"12-19-2013 09:48:56","Type":"2"}}
{"Call": {"Number":"0912357####","Duration":"0","Time":"12-19-2013 09:48:56","Type":"2"}}
{"Call": {"Number":"0912357####","Duration":"0","Time":"12-19-2013 09:49:10","Type":"2"}}
{"Call": {"Number":"0912357####","Duration":"0","Time":"12-19-2013 09:49:10","Type":"2"}}
{"Call": {"Number":"0912357####","Duration":"0","Time":"12-19-2013 09:49:31","Type":"2"}}
{"Call": {"Number":"0912357####","Duration":"0","Time":"12-19-2013 09:49:31","Type":"2"}}
{"Call": {"Number":"0912357####","Duration":"29","Time":"12-19-2013 09:50:15","Type":"2"}}
{"Call": {"Number":"0912357####","Duration":"29","Time":"12-19-2013 09:50:15","Type":"2"}}
{"Call": {"Number":"0912357####","Duration":"0","Time":"12-19-2013 09:53:13","Type":"2"}}
{"Call": {"Number":"0912357####","Duration":"0","Time":"12-19-2013 09:53:13","Type":"2"}}
{"Application":{"ProcessName":"com.androidapps.widget.weather2","Start":"12-19-2013 09:58:47","End":"12-19-2013 09:58:50"}}
{"Call": {"Number":"0912803####","Duration":"0","Time":"12-19-2013 09:58:26","Type":"2"}}
{"Call": {"Number":"0912803####","Duration":"0","Time":"12-19-2013 09:58:26","Type":"2"}}
{"SMS":{"Address":"+981000####","type":"1","date":"12-19-2013 10:07:49","body":"ANONYMIZED","Type":"1", "metadata": {"name": ""}}}
{"Application":{"ProcessName":"com.jb.gosms","Start":"12-19-2013 10:07:58","End":"12-19-2013 10:08:49"}}
{"Application":{"ProcessName":"com.jb.gosms","Start":"12-19-2013 10:11:24","End":"12-19-2013 10:11:29"}}
{"SMS":{"Address":"HAMRAH####","type":"1","date":"12-18-2013 23:11:05","body":"ANONYMIZED","Type":"1", "metadata": {"name": ""}}}
{"Application":{"ProcessName":"com.android.camera","Start":"12-19-2013 10:11:29","End":"12-19-2013 10:12:36"}}
{"Application":{"ProcessName":"com.htc.album","Start":"12-19-2013 10:12:36","End":"12-19-2013 10:12:46"}}
{"Call": {"Number":"+98918580####","Duration":"0","Time":"12-19-2013 10:26:23","Type":"3"}}
{"Call": {"Number":"+98918580####","Duration":"0","Time":"12-19-2013 10:26:23","Type":"3"}}
{"Call": {"Number":"+98918580####","Duration":"0","Time":"12-19-2013 10:26:23","Type":"3"}}
{"Application":{"ProcessName":"com.android.htccontacts","Start":"12-19-2013 10:27:18","End":"12-19-2013 10:27:29"}}
{"Call": {"Number":"+98918580####","Duration":"59","Time":"12-19-2013 10:27:25","Type":"2"}}
{"Call": {"Number":"+98918580####","Duration":"59","Time":"12-19-2013 10:27:25","Type":"2"}}
{"Call": {"Number":"+98912803####","Duration":"0","Time":"12-19-2013 10:28:44","Type":"3"}}
{"Call": {"Number":"+98912803####","Duration":"0","Time":"12-19-2013 10:28:44","Type":"3"}}
{"Call": {"Number":"+98912803####","Duration":"0","Time":"12-19-2013 10:28:44","Type":"3"}}
{"SMS":{"Address":"+9820####","type":"1","date":"12-19-2013 10:40:03","body":"ANONYMIZED","Type":"1", "metadata": {"name": ""}}}
{"Application":{"ProcessName":"com.jb.gosms","Start":"12-19-2013 10:40:12","End":"12-19-2013 10:40:22"}}
{"Application":{"ProcessName":"com.jb.gosms","Start":"12-19-2013 11:03:05","End":"12-19-2013 11:03:15"}}
{"SMS":{"Address":"+98935305####","type":"1","date":"12-19-2013 11:09:47","body":"ANONYMIZED","Type":"1", "metadata": {"name": "Robikjan"}}}
{"Application":{"ProcessName":"com.jb.gosms","Start":"12-19-2013 11:09:56","End":"12-19-2013 11:10:36"}}
{"SMS":{"Address":"+98935305####","type":"2","date":"12-19-2013 11:10:37","body":"ANONYMIZED","Type":"2", "metadata": {"name": "Robikjan"}}}
{"SMS":{"Address":"+98935305####","type":"1","date":"12-19-2013 11:14:47","body":"ANONYMIZED","Type":"1", "metadata": {"name": "Robikjan"}}}
{"Application":{"ProcessName":"com.jb.gosms","Start":"12-19-2013 11:14:57","End":"12-19-2013 11:15:17"}}
{"SMS":{"Address":"+98935305####","type":"2","date":"12-19-2013 11:15:14","body":"ANONYMIZED","Type":"2", "metadata": {"name": "Robikjan"}}}
{"SMS":{"Address":"+981000####","type":"1","date":"12-19-2013 11:45:48","body":"ANONYMIZED","Type":"1", "metadata": {"name": ""}}}
{"Application":{"ProcessName":"com.jb.gosms","Start":"12-19-2013 11:45:56","End":"12-19-2013 11:46:23"}}
{"SMS":{"Address":"+98935305####","type":"2","date":"12-19-2013 11:15:14","body":"ANONYMIZED","Type":"2", "metadata": {"name": "Robikjan"}}}
{"SMS":{"Address":"+983000####","type":"1","date":"12-19-2013 11:55:48","body":"ANONYMIZED","Type":"1", "metadata": {"name": ""}}}
{"Application":{"ProcessName":"com.jb.gosms","Start":"12-19-2013 11:55:54","End":"12-19-2013 11:56:04"}}
{"Application":{"ProcessName":"com.jb.gosms","Start":"12-19-2013 12:03:35","End":"12-19-2013 12:03:48"}}
{"SMS":{"Address":"+98912858####","type":"1","date":"12-19-2013 12:22:56","body":"ANONYMIZED","Type":"1", "metadata": {"name": "mahboobeh zanbardarrobik"}}}
{"Application":{"ProcessName":"com.jb.gosms","Start":"12-19-2013 12:23:01","End":"12-19-2013 12:23:11"}}
{"Application":{"ProcessName":"com.androidapps.widget.weather2","Start":"12-19-2013 12:37:00","End":"12-19-2013 12:37:03"}}
{"Application":{"ProcessName":"com.jb.gosms","Start":"12-19-2013 12:36:53","End":"12-19-2013 12:37:10"}}
{"Application":{"ProcessName":"com.jb.gosms","Start":"12-19-2013 12:44:21","End":"12-19-2013 12:44:31"}}
{"Application":{"ProcessName":"com.android.mms","Start":"12-19-2013 12:44:42","End":"12-19-2013 12:45:36"}}
{"SMS":{"Address":"+98912858####","type":"2","date":"12-19-2013 12:45:22","body":"ANONYMIZED","Type":"2", "metadata": {"name": "mahboobeh zanbardarrobik"}}}
{"Call": {"Number":"+98912803####","Duration":"0","Time":"12-19-2013 10:28:44","Type":"3"}}
{"Call": {"Number":"+98912803####","Duration":"0","Time":"12-19-2013 10:28:44","Type":"3"}}
{"Call": {"Number":"+98912803####","Duration":"0","Time":"12-19-2013 10:28:44","Type":"3"}}
{"Call": {"Number":"+98912803####","Duration":"0","Time":"12-19-2013 10:28:44","Type":"3"}}
{"Call": {"Number":"+98912803####","Duration":"0","Time":"12-19-2013 10:28:44","Type":"3"}}
{"Call": {"Number":"+98912803####","Duration":"0","Time":"12-19-2013 10:28:44","Type":"3"}}
{"Call": {"Number":"+98912803####","Duration":"0","Time":"12-19-2013 10:28:44","Type":"3"}}
{"Call": {"Number":"+98912803####","Duration":"0","Time":"12-19-2013 10:28:44","Type":"3"}}
{"Call": {"Number":"+98912803####","Duration":"0","Time":"12-19-2013 10:28:44","Type":"3"}}
{"Call": {"Number":"+98912803####","Duration":"0","Time":"12-19-2013 10:28:44","Type":"3"}}
{"Call": {"Number":"+98912803####","Duration":"0","Time":"12-19-2013 10:28:44","Type":"3"}}
{"Call": {"Number":"+98912803####","Duration":"0","Time":"12-19-2013 10:28:44","Type":"3"}}
{"Call": {"Number":"+98912803####","Duration":"0","Time":"12-19-2013 10:28:44","Type":"3"}}
{"Call": {"Number":"+98912803####","Duration":"0","Time":"12-19-2013 10:28:44","Type":"3"}}
{"Call": {"Number":"+98912803####","Duration":"0","Time":"12-19-2013 10:28:44","Type":"3"}}
{"Call": {"Number":"+98912803####","Duration":"0","Time":"12-19-2013 10:28:44","Type":"3"}}
{"Call": {"Number":"+98912803####","Duration":"0","Time":"12-19-2013 10:28:44","Type":"3"}}
{"Call": {"Number":"+98912803####","Duration":"0","Time":"12-19-2013 10:28:44","Type":"3"}}
{"Call": {"Number":"+98912803####","Duration":"0","Time":"12-19-2013 10:28:44","Type":"3"}}
{"Call": {"Number":"+98912803####","Duration":"0","Time":"12-19-2013 10:28:44","Type":"3"}}
{"Call": {"Number":"+98912803####","Duration":"0","Time":"12-19-2013 10:28:44","Type":"3"}}
{"Call": {"Number":"+98912803####","Duration":"0","Time":"12-19-2013 10:28:44","Type":"3"}}
{"Call": {"Number":"+98912803####","Duration":"0","Time":"12-19-2013 10:28:44","Type":"3"}}
{"Call": {"Number":"+98912803####","Duration":"0","Time":"12-19-2013 10:28:44","Type":"3"}}
{"Call": {"Number":"+98912803####","Duration":"0","Time":"12-19-2013 10:28:44","Type":"3"}}
{"Call": {"Number":"+98912803####","Duration":"0","Time":"12-19-2013 10:28:44","Type":"3"}}
{"Call": {"Number":"+98912803####","Duration":"0","Time":"12-19-2013 10:28:44","Type":"3"}}
{"Call": {"Number":"+98912803####","Duration":"0","Time":"12-19-2013 10:28:44","Type":"3"}}
{"Call": {"Number":"+98912803####","Duration":"0","Time":"12-19-2013 10:28:44","Type":"3"}}
{"Call": {"Number":"+98912803####","Duration":"0","Time":"12-19-2013 10:28:44","Type":"3"}}
{"Call": {"Number":"+98912803####","Duration":"0","Time":"12-19-2013 10:28:44","Type":"3"}}
{"Call": {"Number":"+98912803####","Duration":"0","Time":"12-19-2013 10:28:44","Type":"3"}}
{"Call": {"Number":"+98912803####","Duration":"0","Time":"12-19-2013 10:28:44","Type":"3"}}
{"Call": {"Number":"+98912803####","Duration":"0","Time":"12-19-2013 10:28:44","Type":"3"}}
{"Call": {"Number":"+98912803####","Duration":"0","Time":"12-19-2013 10:28:44","Type":"3"}}
{"Call": {"Number":"+98912803####","Duration":"0","Time":"12-19-2013 10:28:44","Type":"3"}}
{"Call": {"Number":"+98912858####","Duration":"0","Time":"12-19-2013 14:13:27","Type":"3"}}
{"Call": {"Number":"+98912858####","Duration":"0","Time":"12-19-2013 14:13:27","Type":"3"}}
{"Application":{"ProcessName":"com.androidapps.widget.weather2","Start":"12-19-2013 14:24:00","End":"12-19-2013 14:24:01"}}
{"SMS":{"Address":"+98912858####","type":"2","date":"12-19-2013 12:47:10","body":"ANONYMIZED","Type":"2", "metadata": {"name": "mahboobeh zanbardarrobik"}}}
{"SMS":{"Address":"+98912858####","type":"1","date":"12-19-2013 14:42:01","body":"ANONYMIZED","Type":"1", "metadata": {"name": "mahboobeh zanbardarrobik"}}}
{"SMS":{"Address":"+98935305####","type":"1","date":"12-19-2013 14:45:20","body":"ANONYMIZED","Type":"1", "metadata": {"name": "Robikjan"}}}
{"Application":{"ProcessName":"com.jb.gosms","Start":"12-19-2013 14:42:04","End":"12-19-2013 14:47:04"}}
{"Application":{"ProcessName":"com.jb.gosms","Start":"12-19-2013 14:47:04","End":"12-19-2013 14:52:05"}}
{"Application":{"ProcessName":"com.jb.gosms","Start":"12-19-2013 14:52:05","End":"12-19-2013 14:57:06"}}
{"Application":{"ProcessName":"com.jb.gosms","Start":"12-19-2013 14:57:06","End":"12-19-2013 15:02:06"}}
{"Application":{"ProcessName":"com.jb.gosms","Start":"12-19-2013 15:02:06","End":"12-19-2013 15:07:07"}}
{"Application":{"ProcessName":"com.jb.gosms","Start":"12-19-2013 15:07:07","End":"12-19-2013 15:12:08"}}
{"Application":{"ProcessName":"com.jb.gosms","Start":"12-19-2013 15:12:08","End":"12-19-2013 15:17:08"}}
{"Application":{"ProcessName":"com.htc.bg","Start":"12-19-2013 15:20:59","End":"12-19-2013 15:21:09"}}
{"SMS":{"Address":"+98935305####","type":"2","date":"12-19-2013 15:21:34","body":"ANONYMIZED","Type":"2", "metadata": {"name": "Robikjan"}}}
{"Application":{"ProcessName":"com.jb.gosms","Start":"12-19-2013 15:17:08","End":"12-19-2013 15:22:12"}}
{"Application":{"ProcessName":"com.jb.gosms","Start":"12-19-2013 15:22:12","End":"12-19-2013 15:22:22"}}
{"SMS":{"Address":"+98912858####","type":"2","date":"12-19-2013 15:22:09","body":"ANONYMIZED","Type":"2", "metadata": {"name": "mahboobeh zanbardarrobik"}}}
{"SMS":{"Address":"+98912858####","type":"1","date":"12-19-2013 15:47:00","body":"ANONYMIZED","Type":"1", "metadata": {"name": "mahboobeh zanbardarrobik"}}}
{"Application":{"ProcessName":"jp.naver.line.android","Start":"12-19-2013 15:47:16","End":"12-19-2013 15:47:26"}}
{"Application":{"ProcessName":"com.jb.gosms","Start":"12-19-2013 15:47:05","End":"12-19-2013 15:48:58"}}
{"SMS":{"Address":"+98912858####","type":"2","date":"12-19-2013 15:48:52","body":"ANONYMIZED","Type":"2", "metadata": {"name": "mahboobeh zanbardarrobik"}}}
{"SMS":{"Address":"+98912858####","type":"1","date":"12-19-2013 15:50:18","body":"ANONYMIZED","Type":"1", "metadata": {"name": "mahboobeh zanbardarrobik"}}}
{"Application":{"ProcessName":"com.jb.gosms","Start":"12-19-2013 15:50:29","End":"12-19-2013 15:50:39"}}
{"Application":{"ProcessName":"com.jb.gosms","Start":"12-19-2013 15:52:49","End":"12-19-2013 15:52:59"}}
{"Application":{"ProcessName":"com.jb.gosms","Start":"12-19-2013 17:50:48","End":"12-19-2013 17:50:55"}}
{"Application":{"ProcessName":"cn.menue.applock.international","Start":"12-19-2013 17:50:48","End":"12-19-2013 17:50:55"}}
{"Call": {"Number":"+98912858####","Duration":"0","Time":"12-19-2013 14:13:27","Type":"3"}}
{"Application":{"ProcessName":"com.android.htccontacts","Start":"12-19-2013 17:50:58","End":"12-19-2013 17:51:05"}}
{"SMS":{"Address":"0935305####","type":"2","date":"12-19-2013 17:52:51","body":"ANONYMIZED","Type":"2", "metadata": {"name": "Robikjan"}}}
{"SMS":{"Address":"+98935305####","type":"1","date":"12-19-2013 17:55:00","body":"ANONYMIZED","Type":"1", "metadata": {"name": "Robikjan"}}}
{"Application":{"ProcessName":"com.android.mms","Start":"12-19-2013 17:52:35","End":"12-19-2013 17:55:06"}}
{"Application":{"ProcessName":"com.jb.gosms","Start":"12-19-2013 17:55:06","End":"12-19-2013 17:55:16"}}
{"Call": {"Number":"+98939283####","Duration":"448","Time":"12-19-2013 17:55:09","Type":"1"}}
{"Call": {"Number":"+98939283####","Duration":"448","Time":"12-19-2013 17:55:09","Type":"1"}}
{"Application":{"ProcessName":"com.jb.gosms","Start":"12-19-2013 18:02:47","End":"12-19-2013 18:03:28"}}
{"Application":{"ProcessName":"com.android.mms","Start":"12-19-2013 18:03:28","End":"12-19-2013 18:03:54"}}
{"SMS":{"Address":"+98935305####","type":"2","date":"12-19-2013 18:03:29","body":"ANONYMIZED","Type":"2", "metadata": {"name": "Robikjan"}}}
{"Application":{"ProcessName":"com.androidapps.widget.weather2","Start":"12-19-2013 18:03:54","End":"12-19-2013 18:04:04"}}
{"Application":{"ProcessName":"com.android.settings","Start":"12-19-2013 18:04:04","End":"12-19-2013 18:04:14"}}
{"Application":{"ProcessName":"com.htc.bg","Start":"12-19-2013 18:04:15","End":"12-19-2013 18:04:25"}}
{"Location":{"Latitude":"35.6253289","Longtitude":"51.4184456","Altitude":"0.0","time":"12-19-2013 18:04:36","Accuracy":"1942.0","Provider":"network"}}
{"Application":{"ProcessName":"com.htc.android.htcime","Start":"12-19-2013 18:05:36","End":"12-19-2013 18:05:46"}}
{"Location":{"Latitude":"35.631951","Longtitude":"51.4149287","Altitude":"0.0","time":"12-19-2013 18:08:37","Accuracy":"1705.0","Provider":"network"}}
{"Application":{"ProcessName":"com.android.browser","Start":"12-19-2013 18:05:16","End":"12-19-2013 18:10:17"}}
{"Application":{"ProcessName":"com.android.browser","Start":"12-19-2013 18:10:17","End":"12-19-2013 18:14:28"}}
{"Application":{"ProcessName":"com.htc.android.mail","Start":"12-19-2013 18:14:28","End":"12-19-2013 18:14:38"}}
{"Application":{"ProcessName":"com.android.settings","Start":"12-19-2013 18:14:38","End":"12-19-2013 18:14:48"}}
{"Application":{"ProcessName":"com.androidapps.widget.weather2","Start":"12-19-2013 18:45:12","End":"12-19-2013 18:45:23"}}
{"Call": {"Number":"+98212237####","Duration":"304","Time":"12-19-2013 18:45:12","Type":"1"}}
{"Call": {"Number":"+98212237####","Duration":"304","Time":"12-19-2013 18:45:12","Type":"1"}}
{"SMS":{"Address":"+98935305####","type":"2","date":"12-19-2013 18:56:24","body":"ANONYMIZED","Type":"2", "metadata": {"name": "Robikjan"}}}
{"Application":{"ProcessName":"com.android.mms","Start":"12-19-2013 18:56:14","End":"12-19-2013 18:57:26"}}
{"SMS":{"Address":"+98935305####","type":"1","date":"12-19-2013 18:57:39","body":"ANONYMIZED","Type":"1", "metadata": {"name": "Robikjan"}}}
{"Application":{"ProcessName":"com.jb.gosms","Start":"12-19-2013 18:57:46","End":"12-19-2013 18:58:06"}}
{"SMS":{"Address":"+98935305####","type":"2","date":"12-19-2013 18:58:08","body":"ANONYMIZED","Type":"2", "metadata": {"name": "Robikjan"}}}
{"Application":{"ProcessName":"com.android.mms","Start":"12-19-2013 18:58:06","End":"12-19-2013 18:59:10"}}
{"SMS":{"Address":"+98935305####","type":"1","date":"12-19-2013 18:59:58","body":"ANONYMIZED","Type":"1", "metadata": {"name": "Robikjan"}}}
{"Application":{"ProcessName":"com.jb.gosms","Start":"12-19-2013 19:00:12","End":"12-19-2013 19:01:02"}}
{"Call": {"Number":"+98939283####","Duration":"23","Time":"12-19-2013 19:00:56","Type":"1"}}
{"Call": {"Number":"+98939283####","Duration":"23","Time":"12-19-2013 19:00:56","Type":"1"}}
{"Application":{"ProcessName":"com.jb.gosms","Start":"12-19-2013 19:01:42","End":"12-19-2013 19:01:52"}}
{"Application":{"ProcessName":"com.android.htccontacts","Start":"12-19-2013 19:02:13","End":"12-19-2013 19:04:54"}}
{"Application":{"ProcessName":"com.android.htccontacts","Start":"12-19-2013 19:07:34","End":"12-19-2013 19:07:44"}}
{"Application":{"ProcessName":"com.android.htccontacts","Start":"12-19-2013 19:07:54","End":"12-19-2013 19:08:14"}}
{"SMS":{"Address":"+98939283####","type":"2","date":"12-19-2013 19:08:28","body":"ANONYMIZED","Type":"2", "metadata": {"name": "bahram"}}}
{"Application":{"ProcessName":"com.android.mms","Start":"12-19-2013 19:08:14","End":"12-19-2013 19:08:55"}}
{"Application":{"ProcessName":"com.android.htccontacts","Start":"12-19-2013 19:08:55","End":"12-19-2013 19:08:55"}}
{"Application":{"ProcessName":"com.androidapps.widget.weather2","Start":"12-19-2013 19:08:55","End":"12-19-2013 19:09:05"}}
{"Application":{"ProcessName":"com.htc.bgp","Start":"12-19-2013 19:09:05","End":"12-19-2013 19:09:05"}}
{"Application":{"ProcessName":"com.android.htccontacts","Start":"12-19-2013 19:09:05","End":"12-19-2013 19:09:15"}}
{"Call": {"Number":"+98939283####","Duration":"0","Time":"12-19-2013 19:11:08","Type":"3"}}
{"Call": {"Number":"+98939283####","Duration":"0","Time":"12-19-2013 19:11:08","Type":"3"}}
{"Call": {"Number":"+98939283####","Duration":"0","Time":"12-19-2013 19:12:24","Type":"3"}}
{"Call": {"Number":"+98939283####","Duration":"0","Time":"12-19-2013 19:12:24","Type":"3"}}
{"Call": {"Number":"+98939283####","Duration":"0","Time":"12-19-2013 19:12:24","Type":"3"}}
