{"Application":{"ProcessName":"com.jb.gosms","Start":"11-19-2013 22:57:28","End":"11-19-2013 23:02:28"}}
{"Application":{"ProcessName":"com.jb.gosms","Start":"11-19-2013 23:02:28","End":"11-19-2013 23:07:29"}}
{"Application":{"ProcessName":"com.viber.voip","Start":"11-19-2013 23:11:34","End":"11-19-2013 23:11:40"}}
{"Application":{"ProcessName":"com.androidapps.widget.weather2","Start":"11-19-2013 23:12:00","End":"11-19-2013 23:12:04"}}
{"Application":{"ProcessName":"com.jb.gosms","Start":"11-19-2013 23:07:29","End":"11-19-2013 23:12:30"}}
{"Application":{"ProcessName":"com.jb.gosms","Start":"11-19-2013 23:12:30","End":"11-19-2013 23:17:31"}}
{"Application":{"ProcessName":"com.jb.gosms","Start":"11-19-2013 23:17:31","End":"11-19-2013 23:22:31"}}
{"Application":{"ProcessName":"com.jb.gosms","Start":"11-19-2013 23:22:31","End":"11-19-2013 23:27:32"}}
{"Application":{"ProcessName":"com.jb.gosms","Start":"11-19-2013 23:27:32","End":"11-19-2013 23:32:33"}}
{"Application":{"ProcessName":"com.jb.gosms","Start":"11-19-2013 23:32:33","End":"11-19-2013 23:37:33"}}
{"Application":{"ProcessName":"com.jb.gosms","Start":"11-19-2013 23:37:33","End":"11-19-2013 23:42:34"}}
{"Application":{"ProcessName":"com.jb.gosms","Start":"11-19-2013 23:42:34","End":"11-19-2013 23:47:34"}}
{"Application":{"ProcessName":"com.jb.gosms","Start":"11-19-2013 23:47:34","End":"11-19-2013 23:52:35"}}
{"Application":{"ProcessName":"com.androidapps.widget.weather2","Start":"11-19-2013 23:55:00","End":"11-19-2013 23:55:05"}}
{"Application":{"ProcessName":"com.jb.gosms","Start":"11-19-2013 23:52:35","End":"11-19-2013 23:57:36"}}
{"Application":{"ProcessName":"com.jb.gosms","Start":"11-19-2013 23:57:36","End":"11-20-2013 00:02:37"}}
{"Application":{"ProcessName":"com.jb.gosms","Start":"11-20-2013 00:02:37","End":"11-20-2013 00:07:37"}}
{"Application":{"ProcessName":"com.jb.gosms","Start":"11-20-2013 00:07:37","End":"11-20-2013 00:12:38"}}
{"Application":{"ProcessName":"com.jb.gosms","Start":"11-20-2013 00:12:38","End":"11-20-2013 00:17:38"}}
{"Application":{"ProcessName":"com.jb.gosms","Start":"11-20-2013 00:17:38","End":"11-20-2013 00:22:39"}}
{"Application":{"ProcessName":"com.jb.gosms","Start":"11-20-2013 00:22:39","End":"11-20-2013 00:27:40"}}
{"Application":{"ProcessName":"com.jb.gosms","Start":"11-20-2013 00:27:40","End":"11-20-2013 00:32:41"}}
{"Application":{"ProcessName":"com.jb.gosms","Start":"11-20-2013 00:32:41","End":"11-20-2013 00:37:41"}}
{"Application":{"ProcessName":"com.jb.gosms","Start":"11-20-2013 00:37:41","End":"11-20-2013 00:42:42"}}
{"Application":{"ProcessName":"com.jb.gosms","Start":"11-20-2013 00:42:42","End":"11-20-2013 00:47:43"}}
{"Application":{"ProcessName":"com.jb.gosms","Start":"11-20-2013 00:47:43","End":"11-20-2013 00:52:43"}}
{"Application":{"ProcessName":"com.jb.gosms","Start":"11-20-2013 00:52:43","End":"11-20-2013 00:57:44"}}
{"Application":{"ProcessName":"com.jb.gosms","Start":"11-20-2013 00:57:44","End":"11-20-2013 01:02:45"}}
{"Application":{"ProcessName":"com.jb.gosms","Start":"11-20-2013 01:02:45","End":"11-20-2013 01:07:45"}}
{"Application":{"ProcessName":"com.jb.gosms","Start":"11-20-2013 01:07:45","End":"11-20-2013 01:12:46"}}
{"Application":{"ProcessName":"com.androidapps.widget.weather2","Start":"11-20-2013 01:13:00","End":"11-20-2013 01:13:06"}}
{"Application":{"ProcessName":"com.jb.gosms","Start":"11-20-2013 01:12:46","End":"11-20-2013 01:17:47"}}
{"Application":{"ProcessName":"com.jb.gosms","Start":"11-20-2013 01:17:47","End":"11-20-2013 01:22:47"}}
{"Application":{"ProcessName":"com.jb.gosms","Start":"11-20-2013 01:22:47","End":"11-20-2013 01:27:48"}}
{"Application":{"ProcessName":"com.jb.gosms","Start":"11-20-2013 01:27:48","End":"11-20-2013 01:32:49"}}
{"Application":{"ProcessName":"com.jb.gosms","Start":"11-20-2013 01:32:49","End":"11-20-2013 01:37:49"}}
{"Application":{"ProcessName":"com.jb.gosms","Start":"11-20-2013 01:37:49","End":"11-20-2013 01:42:50"}}
{"Application":{"ProcessName":"com.jb.gosms","Start":"11-20-2013 01:42:50","End":"11-20-2013 01:47:51"}}
{"Application":{"ProcessName":"com.jb.gosms","Start":"11-20-2013 01:47:51","End":"11-20-2013 01:52:51"}}
{"Application":{"ProcessName":"com.jb.gosms","Start":"11-20-2013 01:52:51","End":"11-20-2013 01:57:52"}}
{"Application":{"ProcessName":"com.jb.gosms","Start":"11-20-2013 01:57:52","End":"11-20-2013 02:02:53"}}
{"Application":{"ProcessName":"com.jb.gosms","Start":"11-20-2013 02:02:53","End":"11-20-2013 02:07:53"}}
{"Application":{"ProcessName":"com.jb.gosms","Start":"11-20-2013 02:07:53","End":"11-20-2013 02:12:54"}}
{"Application":{"ProcessName":"com.jb.gosms","Start":"11-20-2013 02:12:54","End":"11-20-2013 02:17:55"}}
{"Application":{"ProcessName":"com.jb.gosms","Start":"11-20-2013 02:17:55","End":"11-20-2013 02:22:55"}}
{"Application":{"ProcessName":"com.jb.gosms","Start":"11-20-2013 02:22:55","End":"11-20-2013 02:27:56"}}
{"Application":{"ProcessName":"com.jb.gosms","Start":"11-20-2013 02:27:56","End":"11-20-2013 02:32:56"}}
{"Application":{"ProcessName":"com.androidapps.widget.weather2","Start":"11-20-2013 02:33:00","End":"11-20-2013 02:33:06"}}
{"Application":{"ProcessName":"com.jb.gosms","Start":"11-20-2013 02:32:56","End":"11-20-2013 02:37:57"}}
{"Application":{"ProcessName":"com.jb.gosms","Start":"11-20-2013 02:37:57","End":"11-20-2013 02:42:58"}}
{"Application":{"ProcessName":"com.jb.gosms","Start":"11-20-2013 02:42:58","End":"11-20-2013 02:47:58"}}
{"Application":{"ProcessName":"com.jb.gosms","Start":"11-20-2013 02:47:58","End":"11-20-2013 02:52:59"}}
{"Application":{"ProcessName":"com.jb.gosms","Start":"11-20-2013 02:52:59","End":"11-20-2013 02:58:00"}}
{"Application":{"ProcessName":"com.androidapps.widget.weather2","Start":"11-20-2013 02:58:00","End":"11-20-2013 02:58:03"}}
{"Application":{"ProcessName":"com.jb.gosms","Start":"11-20-2013 02:58:00","End":"11-20-2013 03:03:00"}}
{"Application":{"ProcessName":"com.jb.gosms","Start":"11-20-2013 03:03:00","End":"11-20-2013 03:08:01"}}
{"Application":{"ProcessName":"com.jb.gosms","Start":"11-20-2013 03:08:01","End":"11-20-2013 03:13:02"}}
{"Application":{"ProcessName":"com.jb.gosms","Start":"11-20-2013 03:13:02","End":"11-20-2013 03:18:02"}}
{"Application":{"ProcessName":"com.viber.voip","Start":"11-20-2013 03:21:36","End":"11-20-2013 03:21:43"}}
{"Application":{"ProcessName":"com.jb.gosms","Start":"11-20-2013 03:18:02","End":"11-20-2013 03:23:03"}}
{"Application":{"ProcessName":"com.jb.gosms","Start":"11-20-2013 03:23:03","End":"11-20-2013 03:28:04"}}
{"Application":{"ProcessName":"com.jb.gosms","Start":"11-20-2013 03:28:04","End":"11-20-2013 03:33:04"}}
{"Application":{"ProcessName":"com.htc.googlereader","Start":"11-20-2013 03:35:18","End":"11-20-2013 03:35:25"}}
{"Application":{"ProcessName":"com.jb.gosms","Start":"11-20-2013 03:33:04","End":"11-20-2013 03:38:05"}}
{"Application":{"ProcessName":"com.jb.gosms","Start":"11-20-2013 03:38:05","End":"11-20-2013 03:43:06"}}
{"Application":{"ProcessName":"com.jb.gosms","Start":"11-20-2013 03:43:06","End":"11-20-2013 03:48:06"}}
{"Application":{"ProcessName":"com.jb.gosms","Start":"11-20-2013 03:48:06","End":"11-20-2013 03:50:00"}}
{"Application":{"ProcessName":"com.htc.android.worldclock","Start":"11-20-2013 06:00:03","End":"11-20-2013 06:00:23"}}
{"Application":{"ProcessName":"com.adobe.reader","Start":"11-20-2013 06:00:23","End":"11-20-2013 06:05:23"}}
{"Application":{"ProcessName":"com.adobe.reader","Start":"11-20-2013 06:05:23","End":"11-20-2013 06:10:24"}}
{"Application":{"ProcessName":"com.adobe.reader","Start":"11-20-2013 06:10:24","End":"11-20-2013 06:15:24"}}
{"Application":{"ProcessName":"com.adobe.reader","Start":"11-20-2013 06:15:24","End":"11-20-2013 06:20:25"}}
{"Application":{"ProcessName":"com.adobe.reader","Start":"11-20-2013 06:20:25","End":"11-20-2013 06:25:26"}}
{"SMS":{"Address":"+989963####","type":"1","date":"11-20-2013 06:29:56","body":"ANONYMIZED","Type":"1", "metadata": {"name": ""}}}
{"Application":{"ProcessName":"com.adobe.reader","Start":"11-20-2013 06:25:26","End":"11-20-2013 06:29:59"}}
{"Application":{"ProcessName":"com.jb.gosms","Start":"11-20-2013 06:29:59","End":"11-20-2013 06:34:59"}}
{"Application":{"ProcessName":"com.androidapps.widget.weather2","Start":"11-20-2013 06:36:00","End":"11-20-2013 06:36:07"}}
{"Application":{"ProcessName":"com.jb.gosms","Start":"11-20-2013 06:34:59","End":"11-20-2013 06:40:00"}}
{"Application":{"ProcessName":"com.jb.gosms","Start":"11-20-2013 06:40:00","End":"11-20-2013 06:45:01"}}
{"Application":{"ProcessName":"com.jb.gosms","Start":"11-20-2013 06:45:01","End":"11-20-2013 06:47:38"}}
{"Application":{"ProcessName":"com.jb.gosms","Start":"11-20-2013 06:52:42","End":"11-20-2013 06:53:11"}}
{"Application":{"ProcessName":"com.adobe.reader","Start":"11-20-2013 06:53:11","End":"11-20-2013 06:53:21"}}
{"Application":{"ProcessName":"com.adobe.reader","Start":"11-20-2013 06:55:05","End":"11-20-2013 06:55:32"}}
{"Application":{"ProcessName":"com.adobe.reader","Start":"11-20-2013 08:05:41","End":"11-20-2013 08:05:44"}}
{"Application":{"ProcessName":"com.android.mms","Start":"11-20-2013 08:06:01","End":"11-20-2013 08:06:41"}}
{"Application":{"ProcessName":"com.htc.bgp","Start":"11-20-2013 08:50:06","End":"11-20-2013 08:50:16"}}
{"Application":{"ProcessName":"com.htc.calendar","Start":"11-20-2013 08:50:06","End":"11-20-2013 08:50:16"}}
{"Application":{"ProcessName":"com.htc.calendar","Start":"11-20-2013 08:50:26","End":"11-20-2013 08:50:36"}}
{"Application":{"ProcessName":"com.htc.bgp","Start":"11-20-2013 08:50:26","End":"11-20-2013 08:50:36"}}
{"Application":{"ProcessName":"com.htc.calendar","Start":"11-20-2013 09:28:41","End":"11-20-2013 09:29:01"}}
{"Application":{"ProcessName":"com.htc.bgp","Start":"11-20-2013 09:28:41","End":"11-20-2013 09:29:01"}}
{"Call": {"Number":"+98938306####","Duration":"0","Time":"11-19-2013 22:12:15","Type":"3"}}
{"Call": {"Number":"0912259####","Duration":"0","Time":"11-20-2013 09:29:42","Type":"2"}}
{"Call": {"Number":"0912259####","Duration":"0","Time":"11-20-2013 09:29:42","Type":"2"}}
{"Call": {"Number":"+98938306####","Duration":"0","Time":"11-20-2013 09:30:56","Type":"3"}}
{"Call": {"Number":"+98938306####","Duration":"0","Time":"11-20-2013 09:30:56","Type":"3"}}
{"SMS":{"Address":"0938306####","type":"2","date":"11-20-2013 09:30:48","body":"ANONYMIZED","Type":"2", "metadata": {"name": "Mohammadreza"}}}
{"SMS":{"Address":"+98938306####","type":"1","date":"11-20-2013 09:31:29","body":"ANONYMIZED","Type":"1", "metadata": {"name": "Mohammadreza"}}}
{"Application":{"ProcessName":"com.android.mms","Start":"11-20-2013 09:30:32","End":"11-20-2013 09:31:36"}}
{"Application":{"ProcessName":"com.jb.gosms","Start":"11-20-2013 09:31:36","End":"11-20-2013 09:31:42"}}
{"Call": {"Number":"+98938306####","Duration":"0","Time":"11-20-2013 09:30:56","Type":"3"}}
{"Application":{"ProcessName":"com.android.htccontacts","Start":"11-20-2013 09:44:04","End":"11-20-2013 09:44:54"}}
{"SMS":{"Address":"+98935305####","type":"1","date":"11-20-2013 09:49:10","body":"ANONYMIZED","Type":"1", "metadata": {"name": "Robikjan"}}}
{"Application":{"ProcessName":"com.jb.gosms","Start":"11-20-2013 09:49:14","End":"11-20-2013 09:49:55"}}
{"SMS":{"Address":"+98935305####","type":"2","date":"11-20-2013 09:49:52","body":"ANONYMIZED","Type":"2", "metadata": {"name": "Robikjan"}}}
{"SMS":{"Address":"+98935305####","type":"1","date":"11-20-2013 09:52:04","body":"ANONYMIZED","Type":"1", "metadata": {"name": "Robikjan"}}}
{"Application":{"ProcessName":"com.jb.gosms","Start":"11-20-2013 09:52:08","End":"11-20-2013 09:52:18"}}
{"Call": {"Number":"+98215554####","Duration":"37","Time":"11-20-2013 09:53:09","Type":"1"}}
{"Call": {"Number":"+98215554####","Duration":"37","Time":"11-20-2013 09:53:09","Type":"1"}}
{"Application":{"ProcessName":"com.jb.gosms","Start":"11-20-2013 09:53:56","End":"11-20-2013 09:54:00"}}
{"Call": {"Number":"+98912381####","Duration":"0","Time":"11-20-2013 09:54:59","Type":"3"}}
{"Call": {"Number":"+98912381####","Duration":"0","Time":"11-20-2013 09:54:59","Type":"3"}}
{"Application":{"ProcessName":"tw.nicky.HDCallerID:remote","Start":"11-20-2013 09:55:06","End":"11-20-2013 09:55:10"}}
{"Call": {"Number":"+98912381####","Duration":"0","Time":"11-20-2013 09:54:59","Type":"3"}}
{"Application":{"ProcessName":"com.android.htccontacts","Start":"11-20-2013 09:55:46","End":"11-20-2013 09:56:20"}}
{"Call": {"Number":"####","Duration":"0","Time":"11-20-2013 09:56:22","Type":"2"}}
{"Call": {"Number":"####","Duration":"0","Time":"11-20-2013 09:56:22","Type":"2"}}
{"Application":{"ProcessName":"tw.nicky.HDCallerID:remote","Start":"11-20-2013 09:56:30","End":"11-20-2013 09:56:37"}}
{"Call": {"Number":"+98912381####","Duration":"62","Time":"11-20-2013 09:56:49","Type":"2"}}
{"Call": {"Number":"+98912381####","Duration":"62","Time":"11-20-2013 09:56:49","Type":"2"}}
{"Application":{"ProcessName":"com.htc.bgp","Start":"11-20-2013 09:58:01","End":"11-20-2013 09:58:07"}}
{"Application":{"ProcessName":"com.android.htccontacts","Start":"11-20-2013 09:58:01","End":"11-20-2013 09:58:07"}}
{"SMS":{"Address":"+9820####","type":"1","date":"11-20-2013 09:59:51","body":"ANONYMIZED","Type":"1", "metadata": {"name": ""}}}
{"Application":{"ProcessName":"com.android.mms","Start":"11-20-2013 09:58:07","End":"11-20-2013 10:02:44"}}
{"Application":{"ProcessName":"com.android.mms","Start":"11-20-2013 10:03:24","End":"11-20-2013 10:03:34"}}
{"SMS":{"Address":"+9820####","type":"1","date":"11-20-2013 10:03:55","body":"ANONYMIZED","Type":"1", "metadata": {"name": ""}}}
{"Application":{"ProcessName":"com.jb.gosms","Start":"11-20-2013 10:04:05","End":"11-20-2013 10:04:15"}}
{"SMS":{"Address":"+9820####","type":"1","date":"11-20-2013 10:04:57","body":"ANONYMIZED","Type":"1", "metadata": {"name": ""}}}
{"SMS":{"Address":"+9820####","type":"1","date":"11-20-2013 10:05:07","body":"ANONYMIZED","Type":"1", "metadata": {"name": ""}}}
{"Application":{"ProcessName":"com.jb.gosms","Start":"11-20-2013 10:05:08","End":"11-20-2013 10:05:38"}}
{"Application":{"ProcessName":"com.jb.gosms","Start":"11-20-2013 10:07:58","End":"11-20-2013 10:08:08"}}
{"SMS":{"Address":"+983000885235####","type":"1","date":"11-20-2013 10:13:41","body":"ANONYMIZED","Type":"1", "metadata": {"name": ""}}}
{"Application":{"ProcessName":"com.htc.cs:remote","Start":"11-20-2013 10:13:49","End":"11-20-2013 10:13:49"}}
{"SMS":{"Address":"+9820####","type":"1","date":"11-20-2013 10:05:07","body":"ANONYMIZED","Type":"1", "metadata": {"name": ""}}}
{"Application":{"ProcessName":"com.jb.gosms","Start":"11-20-2013 10:13:49","End":"11-20-2013 10:14:01"}}
{"Application":{"ProcessName":"com.htc.bg","Start":"11-20-2013 10:13:49","End":"11-20-2013 10:14:01"}}
{"Call": {"Number":"0####","Duration":"0","Time":"11-20-2013 10:22:32","Type":"2"}}
{"Call": {"Number":"0####","Duration":"0","Time":"11-20-2013 10:22:32","Type":"2"}}
{"Application":{"ProcessName":"com.android.mms","Start":"11-20-2013 10:24:32","End":"11-20-2013 10:24:42"}}
{"Call": {"Number":"+98912149####","Duration":"0","Time":"11-20-2013 10:31:28","Type":"3"}}
{"Call": {"Number":"+98912149####","Duration":"0","Time":"11-20-2013 10:31:28","Type":"3"}}
{"Call": {"Number":"+98912149####","Duration":"0","Time":"11-20-2013 10:31:50","Type":"3"}}
{"Call": {"Number":"+98912149####","Duration":"0","Time":"11-20-2013 10:31:50","Type":"3"}}
{"Application":{"ProcessName":"tw.nicky.HDCallerID:remote","Start":"11-20-2013 10:37:43","End":"11-20-2013 10:37:44"}}
{"Application":{"ProcessName":"com.androidapps.widget.weather2","Start":"11-20-2013 10:37:44","End":"11-20-2013 10:37:54"}}
{"SMS":{"Address":"+9820####","type":"1","date":"11-20-2013 10:38:35","body":"ANONYMIZED","Type":"1", "metadata": {"name": ""}}}
{"Application":{"ProcessName":"com.jb.gosms","Start":"11-20-2013 10:38:45","End":"11-20-2013 10:38:45"}}
{"Call": {"Number":"+98919216####","Duration":"55","Time":"11-20-2013 10:37:43","Type":"1"}}
{"Call": {"Number":"+98919216####","Duration":"55","Time":"11-20-2013 10:37:43","Type":"1"}}
{"Application":{"ProcessName":"com.htc.cs:remote","Start":"11-20-2013 10:38:56","End":"11-20-2013 10:39:05"}}
{"Call": {"Number":"+98919216####","Duration":"55","Time":"11-20-2013 10:37:43","Type":"1"}}
{"Application":{"ProcessName":"com.android.mms","Start":"11-20-2013 10:39:05","End":"11-20-2013 10:39:25"}}
{"Application":{"ProcessName":"com.htc.messagecs","Start":"11-20-2013 10:39:37","End":"11-20-2013 10:39:47"}}
{"Application":{"ProcessName":"com.htc.messagecs","Start":"11-20-2013 10:40:07","End":"11-20-2013 10:40:17"}}
{"Call": {"Number":"####","Duration":"0","Time":"11-20-2013 10:40:45","Type":"2"}}
{"Call": {"Number":"####","Duration":"0","Time":"11-20-2013 10:40:45","Type":"2"}}
{"Application":{"ProcessName":"com.android.browser","Start":"11-20-2013 10:40:57","End":"11-20-2013 10:41:08"}}
{"Call": {"Number":"####","Duration":"0","Time":"11-20-2013 10:41:06","Type":"2"}}
{"Call": {"Number":"####","Duration":"0","Time":"11-20-2013 10:41:06","Type":"2"}}
{"Application":{"ProcessName":"tw.nicky.HDCallerID:remote","Start":"11-20-2013 10:41:08","End":"11-20-2013 10:41:18"}}
{"Application":{"ProcessName":"tw.nicky.HDCallerID","Start":"11-20-2013 10:41:18","End":"11-20-2013 10:41:28"}}
{"Call": {"Number":"####","Duration":"63","Time":"11-20-2013 10:41:18","Type":"2"}}
{"Call": {"Number":"####","Duration":"63","Time":"11-20-2013 10:41:18","Type":"2"}}
{"Call": {"Number":"####","Duration":"0","Time":"11-20-2013 10:42:29","Type":"2"}}
{"Call": {"Number":"####","Duration":"0","Time":"11-20-2013 10:42:29","Type":"2"}}
{"Call": {"Number":"####","Duration":"0","Time":"11-20-2013 10:42:43","Type":"2"}}
{"Call": {"Number":"####","Duration":"0","Time":"11-20-2013 10:42:43","Type":"2"}}
{"Application":{"ProcessName":"tw.nicky.HDCallerID:remote","Start":"11-20-2013 10:42:38","End":"11-20-2013 10:42:48"}}
{"Call": {"Number":"####","Duration":"0","Time":"11-20-2013 10:46:38","Type":"2"}}
{"Call": {"Number":"####","Duration":"0","Time":"11-20-2013 10:46:38","Type":"2"}}
{"Call": {"Number":"####","Duration":"0","Time":"11-20-2013 10:46:38","Type":"2"}}
{"Call": {"Number":"####","Duration":"0","Time":"11-20-2013 10:46:38","Type":"2"}}
{"Call": {"Number":"####","Duration":"0","Time":"11-20-2013 10:46:38","Type":"2"}}
{"Call": {"Number":"####","Duration":"0","Time":"11-20-2013 10:46:38","Type":"2"}}
{"Call": {"Number":"####","Duration":"0","Time":"11-20-2013 10:46:38","Type":"2"}}
{"Call": {"Number":"####","Duration":"0","Time":"11-20-2013 10:46:38","Type":"2"}}
{"Call": {"Number":"####","Duration":"0","Time":"11-20-2013 10:46:38","Type":"2"}}
{"Call": {"Number":"####","Duration":"0","Time":"11-20-2013 10:46:38","Type":"2"}}
{"Call": {"Number":"####","Duration":"0","Time":"11-20-2013 10:46:38","Type":"2"}}
{"Call": {"Number":"####","Duration":"0","Time":"11-20-2013 10:46:38","Type":"2"}}
{"Call": {"Number":"####","Duration":"0","Time":"11-20-2013 10:46:38","Type":"2"}}
{"Call": {"Number":"####","Duration":"0","Time":"11-20-2013 10:46:38","Type":"2"}}
{"Call": {"Number":"####","Duration":"0","Time":"11-20-2013 10:46:38","Type":"2"}}
{"Call": {"Number":"####","Duration":"0","Time":"11-20-2013 10:46:38","Type":"2"}}
{"Call": {"Number":"####","Duration":"0","Time":"11-20-2013 10:46:38","Type":"2"}}
{"Call": {"Number":"####","Duration":"0","Time":"11-20-2013 10:46:38","Type":"2"}}
{"Call": {"Number":"####","Duration":"0","Time":"11-20-2013 10:46:38","Type":"2"}}
{"Call": {"Number":"####","Duration":"0","Time":"11-20-2013 10:46:38","Type":"2"}}
{"Call": {"Number":"####","Duration":"0","Time":"11-20-2013 10:46:38","Type":"2"}}
{"Call": {"Number":"####","Duration":"0","Time":"11-20-2013 10:46:38","Type":"2"}}
{"Call": {"Number":"####","Duration":"0","Time":"11-20-2013 10:46:38","Type":"2"}}
{"Call": {"Number":"####","Duration":"0","Time":"11-20-2013 10:46:38","Type":"2"}}
{"Call": {"Number":"####","Duration":"0","Time":"11-20-2013 10:46:38","Type":"2"}}
{"Call": {"Number":"####","Duration":"0","Time":"11-20-2013 10:46:38","Type":"2"}}
{"Call": {"Number":"####","Duration":"0","Time":"11-20-2013 10:46:38","Type":"2"}}
{"Call": {"Number":"####","Duration":"0","Time":"11-20-2013 10:46:38","Type":"2"}}
{"Call": {"Number":"####","Duration":"0","Time":"11-20-2013 10:46:38","Type":"2"}}
{"Call": {"Number":"####","Duration":"0","Time":"11-20-2013 10:46:38","Type":"2"}}
{"Call": {"Number":"####","Duration":"0","Time":"11-20-2013 10:46:38","Type":"2"}}
{"Call": {"Number":"####","Duration":"0","Time":"11-20-2013 10:46:38","Type":"2"}}
{"Call": {"Number":"####","Duration":"0","Time":"11-20-2013 10:46:38","Type":"2"}}
{"Call": {"Number":"####","Duration":"0","Time":"11-20-2013 10:46:38","Type":"2"}}
{"Call": {"Number":"####","Duration":"0","Time":"11-20-2013 10:46:38","Type":"2"}}
{"Call": {"Number":"####","Duration":"0","Time":"11-20-2013 10:46:38","Type":"2"}}
{"Call": {"Number":"####","Duration":"0","Time":"11-20-2013 10:46:38","Type":"2"}}
{"SMS":{"Address":"+981000102030####","type":"1","date":"11-20-2013 10:59:04","body":"ANONYMIZED","Type":"1", "metadata": {"name": ""}}}
{"Application":{"ProcessName":"com.jb.gosms","Start":"11-20-2013 10:59:11","End":"11-20-2013 10:59:21"}}
{"Call": {"Number":"+98218416####","Duration":"148","Time":"11-20-2013 11:04:57","Type":"1"}}
{"Call": {"Number":"+98218416####","Duration":"148","Time":"11-20-2013 11:04:57","Type":"1"}}
{"Application":{"ProcessName":"tw.nicky.HDCallerID","Start":"11-20-2013 11:07:33","End":"11-20-2013 11:07:36"}}
{"Application":{"ProcessName":"tw.nicky.HDCallerID:remote","Start":"11-20-2013 11:07:36","End":"11-20-2013 11:07:43"}}
{"Application":{"ProcessName":"com.jb.gosms","Start":"11-20-2013 11:07:36","End":"11-20-2013 11:07:58"}}
{"SMS":{"Address":"+9820####","type":"1","date":"11-20-2013 10:46:36","body":"ANONYMIZED","Type":"1", "metadata": {"name": ""}}}
{"SMS":{"Address":"+982000####","type":"1","date":"11-20-2013 11:10:32","body":"ANONYMIZED","Type":"1", "metadata": {"name": ""}}}
{"Application":{"ProcessName":"com.jb.gosms","Start":"11-20-2013 11:10:38","End":"11-20-2013 11:10:48"}}
{"Application":{"ProcessName":"com.jb.gosms","Start":"11-20-2013 11:11:48","End":"11-20-2013 11:11:54"}}
{"Call": {"Number":"+98912149####","Duration":"0","Time":"11-20-2013 11:12:14","Type":"3"}}
{"Call": {"Number":"+98912149####","Duration":"0","Time":"11-20-2013 11:12:14","Type":"3"}}
{"Application":{"ProcessName":"com.android.htccontacts","Start":"11-20-2013 11:11:54","End":"11-20-2013 11:12:24"}}
{"Application":{"ProcessName":"tw.nicky.HDCallerID:remote","Start":"11-20-2013 11:12:18","End":"11-20-2013 11:12:24"}}
{"Call": {"Number":"+98912149####","Duration":"0","Time":"11-20-2013 11:12:14","Type":"3"}}
{"Application":{"ProcessName":"com.android.htccontacts","Start":"11-20-2013 11:12:34","End":"11-20-2013 11:12:39"}}
{"Application":{"ProcessName":"com.androidapps.widget.weather2","Start":"11-20-2013 11:12:39","End":"11-20-2013 11:12:44"}}
{"Call": {"Number":"+98912149####","Duration":"0","Time":"11-20-2013 11:12:41","Type":"3"}}
{"Call": {"Number":"+98912149####","Duration":"0","Time":"11-20-2013 11:12:41","Type":"3"}}
{"Application":{"ProcessName":"tw.nicky.HDCallerID:remote","Start":"11-20-2013 11:12:55","End":"11-20-2013 11:12:59"}}
{"Call": {"Number":"+98912149####","Duration":"0","Time":"11-20-2013 11:12:41","Type":"3"}}
{"Application":{"ProcessName":"com.android.htccontacts","Start":"11-20-2013 12:39:30","End":"11-20-2013 12:39:36"}}
{"Call": {"Number":"####","Duration":"0","Time":"11-20-2013 12:39:31","Type":"2"}}
{"Call": {"Number":"####","Duration":"0","Time":"11-20-2013 12:39:31","Type":"2"}}
{"Application":{"ProcessName":"tw.nicky.HDCallerID:remote","Start":"11-20-2013 12:40:12","End":"11-20-2013 12:40:16"}}
{"Call": {"Number":"####","Duration":"0","Time":"11-20-2013 12:40:12","Type":"2"}}
{"Call": {"Number":"####","Duration":"0","Time":"11-20-2013 12:40:12","Type":"2"}}
{"Application":{"ProcessName":"com.android.htccontacts","Start":"11-20-2013 12:40:42","End":"11-20-2013 12:40:46"}}
{"Call": {"Number":"####","Duration":"0","Time":"11-20-2013 12:40:44","Type":"2"}}
{"Call": {"Number":"####","Duration":"0","Time":"11-20-2013 12:40:44","Type":"2"}}
{"Application":{"ProcessName":"com.android.htccontacts","Start":"11-20-2013 12:41:13","End":"11-20-2013 12:41:23"}}
{"Call": {"Number":"####","Duration":"116","Time":"11-20-2013 12:41:20","Type":"2"}}
{"Call": {"Number":"####","Duration":"116","Time":"11-20-2013 12:41:20","Type":"2"}}
{"Application":{"ProcessName":"tw.nicky.HDCallerID","Start":"11-20-2013 12:43:27","End":"11-20-2013 12:43:33"}}
{"Call": {"Number":"####","Duration":"12","Time":"11-20-2013 12:43:30","Type":"2"}}
{"Call": {"Number":"####","Duration":"12","Time":"11-20-2013 12:43:30","Type":"2"}}
{"Application":{"ProcessName":"com.android.htccontacts","Start":"11-20-2013 12:43:53","End":"11-20-2013 12:43:57"}}
{"Call": {"Number":"####","Duration":"78","Time":"11-20-2013 12:43:53","Type":"2"}}
{"Call": {"Number":"####","Duration":"78","Time":"11-20-2013 12:43:53","Type":"2"}}
{"Application":{"ProcessName":"com.androidapps.widget.weather2","Start":"11-20-2013 13:01:00","End":"11-20-2013 13:01:05"}}
{"Application":{"ProcessName":"com.androidapps.widget.weather2","Start":"11-20-2013 13:02:00","End":"11-20-2013 13:02:06"}}
{"Application":{"ProcessName":"com.androidapps.widget.weather2","Start":"11-20-2013 13:35:00","End":"11-20-2013 13:35:04"}}
{"Application":{"ProcessName":"com.androidapps.widget.weather2","Start":"11-20-2013 13:36:00","End":"11-20-2013 13:36:04"}}
{"Call": {"Number":"+98218416####","Duration":"20","Time":"11-20-2013 14:58:03","Type":"1"}}
{"Call": {"Number":"+98218416####","Duration":"20","Time":"11-20-2013 14:58:03","Type":"1"}}
{"Application":{"ProcessName":"tw.nicky.HDCallerID:remote","Start":"11-20-2013 14:58:50","End":"11-20-2013 14:58:54"}}
{"Call": {"Number":"####","Duration":"93","Time":"11-20-2013 14:59:13","Type":"2"}}
{"Call": {"Number":"####","Duration":"93","Time":"11-20-2013 14:59:13","Type":"2"}}
{"SMS":{"Address":"+98999","type":"1","date":"11-20-2013 15:01:38","body":"ANONYMIZED","Type":"1", "metadata": {"name": ""}}}
{"SMS":{"Address":"+9820####","type":"1","date":"11-20-2013 15:01:47","body":"ANONYMIZED","Type":"1", "metadata": {"name": ""}}}
{"Application":{"ProcessName":"com.jb.gosms","Start":"11-20-2013 15:01:45","End":"11-20-2013 15:01:52"}}
{"Application":{"ProcessName":"com.jb.gosms","Start":"11-20-2013 15:11:24","End":"11-20-2013 15:11:34"}}
{"Call": {"Number":"0912349####","Duration":"0","Time":"11-20-2013 15:11:43","Type":"2"}}
{"Application":{"ProcessName":"com.jb.gosms","Start":"11-20-2013 15:11:44","End":"11-20-2013 15:11:46"}}
{"Call": {"Number":"0912349####","Duration":"0","Time":"11-20-2013 15:11:43","Type":"2"}}
{"Application":{"ProcessName":"com.androidapps.widget.weather2","Start":"11-20-2013 15:11:56","End":"11-20-2013 15:12:04"}}
{"SMS":{"Address":"+98200####","type":"1","date":"11-20-2013 16:30:24","body":"ANONYMIZED","Type":"1", "metadata": {"name": ""}}}
{"Application":{"ProcessName":"com.jb.gosms","Start":"11-20-2013 16:30:33","End":"11-20-2013 16:30:43"}}
{"Application":{"ProcessName":"com.jb.gosms","Start":"11-20-2013 17:52:24","End":"11-20-2013 17:52:27"}}
{"SMS":{"Address":"+9820####","type":"1","date":"11-20-2013 15:01:47","body":"ANONYMIZED","Type":"1", "metadata": {"name": ""}}}
{"Application":{"ProcessName":"com.android.mms","Start":"11-20-2013 17:52:44","End":"11-20-2013 17:54:57"}}
{"Application":{"ProcessName":"com.android.mms","Start":"11-20-2013 17:55:04","End":"11-20-2013 17:55:24"}}
{"Application":{"ProcessName":"com.tencent.mm","Start":"11-20-2013 17:56:27","End":"11-20-2013 17:56:34"}}
{"Application":{"ProcessName":"com.android.settings","Start":"11-20-2013 17:56:37","End":"11-20-2013 17:56:47"}}
{"Application":{"ProcessName":"com.tencent.mm","Start":"11-20-2013 17:56:57","End":"11-20-2013 17:58:08"}}
{"Location":{"Latitude":"35.6321605","Longtitude":"51.4149407","Altitude":"0.0","time":"11-20-2013 17:58:15","Accuracy":"1718.0","Provider":"network"}}
{"Application":{"ProcessName":"com.htc.android.worldclock","Start":"11-20-2013 17:58:35","End":"11-20-2013 17:58:38"}}
{"Application":{"ProcessName":"com.htc.Weather","Start":"11-20-2013 17:58:45","End":"11-20-2013 17:59:15"}}
{"Application":{"ProcessName":"com.android.settings","Start":"11-20-2013 17:59:15","End":"11-20-2013 17:59:18"}}
{"Application":{"ProcessName":"com.androidapps.widget.weather2","Start":"11-20-2013 17:59:18","End":"11-20-2013 17:59:25"}}
{"Application":{"ProcessName":"com.adobe.reader","Start":"11-20-2013 18:01:55","End":"11-20-2013 18:06:56"}}
{"Application":{"ProcessName":"com.adobe.reader","Start":"11-20-2013 18:06:56","End":"11-20-2013 18:11:56"}}
{"Application":{"ProcessName":"com.androidapps.widget.weather2","Start":"11-20-2013 18:15:00","End":"11-20-2013 18:15:06"}}
{"Application":{"ProcessName":"com.adobe.reader","Start":"11-20-2013 18:11:56","End":"11-20-2013 18:16:57"}}
{"Application":{"ProcessName":"com.adobe.reader","Start":"11-20-2013 18:16:57","End":"11-20-2013 18:21:57"}}
{"Application":{"ProcessName":"com.adobe.reader","Start":"11-20-2013 18:21:57","End":"11-20-2013 18:23:02"}}
{"Application":{"ProcessName":"com.adobe.reader","Start":"11-20-2013 18:24:17","End":"11-20-2013 18:27:58"}}
{"Application":{"ProcessName":"com.adobe.reader","Start":"11-20-2013 18:28:02","End":"11-20-2013 18:28:22"}}
{"Application":{"ProcessName":"com.adobe.reader","Start":"11-20-2013 18:32:03","End":"11-20-2013 18:34:35"}}
{"Application":{"ProcessName":"com.androidapps.widget.weather2","Start":"11-20-2013 18:39:00","End":"11-20-2013 18:39:05"}}
{"Application":{"ProcessName":"com.adobe.reader","Start":"11-20-2013 18:35:15","End":"11-20-2013 18:40:15"}}
{"Application":{"ProcessName":"com.adobe.reader","Start":"11-20-2013 18:40:15","End":"11-20-2013 18:45:16"}}
{"Application":{"ProcessName":"com.adobe.reader","Start":"11-20-2013 18:45:16","End":"11-20-2013 18:50:16"}}
{"Application":{"ProcessName":"com.adobe.reader","Start":"11-20-2013 18:50:16","End":"11-20-2013 18:50:36"}}
{"Application":{"ProcessName":"com.adobe.reader","Start":"11-20-2013 18:52:27","End":"11-20-2013 18:57:27"}}
{"Application":{"ProcessName":"com.adobe.reader","Start":"11-20-2013 18:57:27","End":"11-20-2013 18:58:42"}}
{"Application":{"ProcessName":"com.adobe.reader","Start":"11-20-2013 19:00:12","End":"11-20-2013 19:04:53"}}
{"Application":{"ProcessName":"com.adobe.reader","Start":"11-20-2013 19:07:13","End":"11-20-2013 19:08:33"}}
{"Application":{"ProcessName":"com.adobe.reader","Start":"11-20-2013 19:13:59","End":"11-20-2013 19:15:39"}}
{"Application":{"ProcessName":"com.adobe.reader","Start":"11-20-2013 19:15:54","End":"11-20-2013 19:19:10"}}
{"Application":{"ProcessName":"com.adobe.reader","Start":"11-20-2013 19:23:20","End":"11-20-2013 19:28:15"}}
{"Application":{"ProcessName":"com.androidapps.widget.weather2","Start":"11-20-2013 19:29:21","End":"11-20-2013 19:29:26"}}
{"Application":{"ProcessName":"com.adobe.reader","Start":"11-20-2013 19:29:16","End":"11-20-2013 19:31:01"}}
{"Application":{"ProcessName":"com.htc.bgp","Start":"11-20-2013 19:31:16","End":"11-20-2013 19:31:21"}}
{"Application":{"ProcessName":"com.adobe.reader","Start":"11-20-2013 19:31:16","End":"11-20-2013 19:33:46"}}
{"Application":{"ProcessName":"com.adobe.reader","Start":"11-20-2013 19:33:56","End":"11-20-2013 19:35:42"}}
{"Application":{"ProcessName":"com.adobe.reader","Start":"11-20-2013 19:35:46","End":"11-20-2013 19:40:46"}}
{"Application":{"ProcessName":"com.adobe.reader","Start":"11-20-2013 19:40:46","End":"11-20-2013 19:45:47"}}
{"Application":{"ProcessName":"com.adobe.reader","Start":"11-20-2013 19:45:47","End":"11-20-2013 19:50:23"}}
{"Application":{"ProcessName":"com.adobe.reader","Start":"11-20-2013 19:50:28","End":"11-20-2013 19:51:33"}}
{"Application":{"ProcessName":"com.androidapps.widget.weather2","Start":"11-20-2013 20:00:09","End":"11-20-2013 20:00:14"}}
{"Application":{"ProcessName":"com.androidapps.widget.weather2","Start":"11-20-2013 20:01:15","End":"11-20-2013 20:01:19"}}
{"Application":{"ProcessName":"com.androidapps.widget.weather2","Start":"11-20-2013 20:04:00","End":"11-20-2013 20:04:06"}}
{"Application":{"ProcessName":"com.adobe.reader","Start":"11-20-2013 20:00:09","End":"11-20-2013 20:05:10"}}
{"Application":{"ProcessName":"com.adobe.reader","Start":"11-20-2013 20:05:10","End":"11-20-2013 20:05:16"}}
{"Application":{"ProcessName":"com.adobe.reader","Start":"11-20-2013 20:09:00","End":"11-20-2013 20:10:07"}}
{"Application":{"ProcessName":"com.adobe.reader","Start":"11-20-2013 20:10:57","End":"11-20-2013 20:15:59"}}
{"Application":{"ProcessName":"com.adobe.reader","Start":"11-20-2013 20:15:59","End":"11-20-2013 20:19:52"}}
{"Application":{"ProcessName":"com.adobe.reader","Start":"11-20-2013 20:20:09","End":"11-20-2013 20:22:52"}}
{"Application":{"ProcessName":"com.adobe.reader","Start":"11-20-2013 21:03:15","End":"11-20-2013 21:03:17"}}
{"Call": {"Number":"+98865824####","Duration":"0","Time":"11-20-2013 21:06:09","Type":"2"}}
{"Call": {"Number":"+98865824####","Duration":"0","Time":"11-20-2013 21:06:09","Type":"2"}}
{"Call": {"Number":"+98865824####","Duration":"0","Time":"11-20-2013 21:06:19","Type":"2"}}
{"Call": {"Number":"+98865824####","Duration":"0","Time":"11-20-2013 21:06:19","Type":"2"}}
{"Application":{"ProcessName":"tw.nicky.HDCallerID:remote","Start":"11-20-2013 21:06:28","End":"11-20-2013 21:06:35"}}
{"Application":{"ProcessName":"com.android.htccontacts","Start":"11-20-2013 21:06:38","End":"11-20-2013 21:06:46"}}
{"Call": {"Number":"+98865824####","Duration":"0","Time":"11-20-2013 21:06:40","Type":"2"}}
{"Call": {"Number":"+98865824####","Duration":"0","Time":"11-20-2013 21:06:40","Type":"2"}}
{"Application":{"ProcessName":"tw.nicky.HDCallerID:remote","Start":"11-20-2013 21:07:16","End":"11-20-2013 21:07:18"}}
{"Application":{"ProcessName":"com.android.htccontacts","Start":"11-20-2013 21:07:16","End":"11-20-2013 21:08:18"}}
{"Application":{"ProcessName":"com.android.htccontacts","Start":"11-20-2013 22:00:45","End":"11-20-2013 22:01:02"}}
{"Application":{"ProcessName":"com.android.htccontacts","Start":"11-20-2013 22:46:41","End":"11-20-2013 22:46:58"}}
{"Application":{"ProcessName":"com.android.htccontacts","Start":"11-20-2013 23:18:42","End":"11-20-2013 23:19:02"}}
{"Application":{"ProcessName":"com.android.htccontacts","Start":"11-20-2013 23:20:05","End":"11-20-2013 23:25:06"}}
{"Application":{"ProcessName":"com.android.htccontacts","Start":"11-20-2013 23:25:06","End":"11-20-2013 23:30:07"}}
{"Application":{"ProcessName":"com.android.htccontacts","Start":"11-20-2013 23:30:07","End":"11-20-2013 23:35:07"}}
{"Application":{"ProcessName":"com.android.htccontacts","Start":"11-20-2013 23:35:07","End":"11-20-2013 23:40:08"}}
{"Application":{"ProcessName":"com.android.htccontacts","Start":"11-20-2013 23:40:08","End":"11-20-2013 23:45:09"}}
{"Application":{"ProcessName":"com.viber.voip","Start":"11-20-2013 23:49:06","End":"11-20-2013 23:49:09"}}
{"Application":{"ProcessName":"com.android.htccontacts","Start":"11-20-2013 23:45:09","End":"11-20-2013 23:50:09"}}
{"Application":{"ProcessName":"com.androidapps.widget.weather2","Start":"11-20-2013 23:51:00","End":"11-20-2013 23:51:07"}}
{"Application":{"ProcessName":"com.androidapps.widget.weather2","Start":"11-20-2013 23:52:00","End":"11-20-2013 23:52:07"}}
