{"Location":{"Latitude":"35.7789274","Longtitude":"51.3795455","Altitude":"0.0","time":"12-23-2013 23:43:41","Accuracy":"43.014","Provider":"fused","Speed":"0.0"}}
{"Location":{"Latitude":"35.7789274","Longtitude":"51.3795455","Altitude":"0.0","time":"12-23-2013 23:44:41","Accuracy":"43.014","Provider":"fused","Speed":"0.0"}}
{"Location":{"Latitude":"35.7789274","Longtitude":"51.3795455","Altitude":"0.0","time":"12-23-2013 23:45:42","Accuracy":"43.014","Provider":"fused","Speed":"0.0"}}
{"Location":{"Latitude":"35.7789274","Longtitude":"51.3795455","Altitude":"0.0","time":"12-23-2013 23:46:42","Accuracy":"43.014","Provider":"fused","Speed":"0.0"}}
{"Location":{"Latitude":"35.7789274","Longtitude":"51.3795455","Altitude":"0.0","time":"12-23-2013 23:47:42","Accuracy":"43.014","Provider":"fused","Speed":"0.0"}}
{"Location":{"Latitude":"35.7789274","Longtitude":"51.3795455","Altitude":"0.0","time":"12-23-2013 23:49:42","Accuracy":"43.014","Provider":"fused","Speed":"0.0"}}
{"Location":{"Latitude":"35.7789274","Longtitude":"51.3795455","Altitude":"0.0","time":"12-23-2013 23:50:43","Accuracy":"43.014","Provider":"fused","Speed":"0.0"}}
{"Location":{"Latitude":"35.7789274","Longtitude":"51.3795455","Altitude":"0.0","time":"12-23-2013 23:52:43","Accuracy":"43.014","Provider":"fused","Speed":"0.0"}}
{"Location":{"Latitude":"35.7789274","Longtitude":"51.3795455","Altitude":"0.0","time":"12-23-2013 23:53:43","Accuracy":"43.014","Provider":"fused","Speed":"0.0"}}
{"Location":{"Latitude":"35.7789274","Longtitude":"51.3795455","Altitude":"0.0","time":"12-23-2013 23:54:43","Accuracy":"43.014","Provider":"fused","Speed":"0.0"}}
{"Location":{"Latitude":"35.7789274","Longtitude":"51.3795455","Altitude":"0.0","time":"12-23-2013 23:55:43","Accuracy":"43.014","Provider":"fused","Speed":"0.0"}}
{"Location":{"Latitude":"35.7789274","Longtitude":"51.3795455","Altitude":"0.0","time":"12-23-2013 23:57:43","Accuracy":"43.014","Provider":"fused","Speed":"0.0"}}
{"Location":{"Latitude":"35.7789274","Longtitude":"51.3795455","Altitude":"0.0","time":"12-23-2013 23:58:44","Accuracy":"43.014","Provider":"fused","Speed":"0.0"}}
{"Location":{"Latitude":"35.7789274","Longtitude":"51.3795455","Altitude":"0.0","time":"12-23-2013 23:59:44","Accuracy":"43.014","Provider":"fused","Speed":"0.0"}}
{"Location":{"Latitude":"35.7789274","Longtitude":"51.3795455","Altitude":"0.0","time":"12-24-2013 00:01:44","Accuracy":"43.014","Provider":"fused","Speed":"0.0"}}
{"Location":{"Latitude":"35.7789274","Longtitude":"51.3795455","Altitude":"0.0","time":"12-24-2013 00:02:44","Accuracy":"43.014","Provider":"fused","Speed":"0.0"}}
{"Location":{"Latitude":"35.7789274","Longtitude":"51.3795455","Altitude":"0.0","time":"12-24-2013 00:03:46","Accuracy":"43.014","Provider":"fused","Speed":"0.0"}}
{"Location":{"Latitude":"35.7789274","Longtitude":"51.3795455","Altitude":"0.0","time":"12-24-2013 00:04:46","Accuracy":"43.014","Provider":"fused","Speed":"0.0"}}
{"Location":{"Latitude":"35.7789274","Longtitude":"51.3795455","Altitude":"0.0","time":"12-24-2013 00:05:48","Accuracy":"43.014","Provider":"fused","Speed":"0.0"}}
{"Location":{"Latitude":"35.7789274","Longtitude":"51.3795455","Altitude":"0.0","time":"12-24-2013 00:06:49","Accuracy":"43.014","Provider":"fused","Speed":"0.0"}}
{"Location":{"Latitude":"35.7789274","Longtitude":"51.3795455","Altitude":"0.0","time":"12-24-2013 00:07:49","Accuracy":"43.014","Provider":"fused","Speed":"0.0"}}
{"Location":{"Latitude":"35.7789274","Longtitude":"51.3795455","Altitude":"0.0","time":"12-24-2013 00:08:50","Accuracy":"43.014","Provider":"fused","Speed":"0.0"}}
{"Location":{"Latitude":"35.7789274","Longtitude":"51.3795455","Altitude":"0.0","time":"12-24-2013 00:09:51","Accuracy":"43.014","Provider":"fused","Speed":"0.0"}}
{"Location":{"Latitude":"35.7789274","Longtitude":"51.3795455","Altitude":"0.0","time":"12-24-2013 00:10:51","Accuracy":"43.014","Provider":"fused","Speed":"0.0"}}
{"Location":{"Latitude":"35.7789274","Longtitude":"51.3795455","Altitude":"0.0","time":"12-24-2013 00:12:52","Accuracy":"43.014","Provider":"fused","Speed":"0.0"}}
{"Location":{"Latitude":"35.7789274","Longtitude":"51.3795455","Altitude":"0.0","time":"12-24-2013 00:13:52","Accuracy":"43.014","Provider":"fused","Speed":"0.0"}}
{"Location":{"Latitude":"35.7789274","Longtitude":"51.3795455","Altitude":"0.0","time":"12-24-2013 00:14:53","Accuracy":"43.014","Provider":"fused","Speed":"0.0"}}
{"Application":{"ProcessName":"com.lookout","Start":"12-24-2013 00:15:34","End":"12-24-2013 00:15:44"}}
{"Application":{"ProcessName":"com.sec.android.app.launcher","Start":"12-24-2013 00:15:34","End":"12-24-2013 00:15:54"}}
{"Location":{"Latitude":"35.7789274","Longtitude":"51.3795455","Altitude":"0.0","time":"12-24-2013 00:16:53","Accuracy":"48.992","Provider":"fused","Speed":"0.0"}}
{"Location":{"Latitude":"35.7789274","Longtitude":"51.3795455","Altitude":"0.0","time":"12-24-2013 00:17:53","Accuracy":"49.246","Provider":"fused","Speed":"0.0"}}
{"Location":{"Latitude":"35.7789274","Longtitude":"51.3795455","Altitude":"0.0","time":"12-24-2013 00:19:53","Accuracy":"50.251","Provider":"fused","Speed":"0.0"}}
{"Application":{"ProcessName":"com.samsung.android.providers.context","Start":"12-24-2013 00:15:34","End":"12-24-2013 00:20:34"}}
{"Application":{"ProcessName":"com.sec.android.provider.logsprovider","Start":"12-24-2013 00:15:34","End":"12-24-2013 00:20:34"}}
{"Application":{"ProcessName":"com.sec.android.app.twdvfs","Start":"12-24-2013 00:15:34","End":"12-24-2013 00:20:34"}}
{"Application":{"ProcessName":"com.android.nfc","Start":"12-24-2013 00:15:34","End":"12-24-2013 00:20:34"}}
{"Application":{"ProcessName":"com.sec.android.app.sysscope","Start":"12-24-2013 00:15:34","End":"12-24-2013 00:20:34"}}
{"Application":{"ProcessName":"com.sec.android.app.FlashBarService","Start":"12-24-2013 00:15:34","End":"12-24-2013 00:20:34"}}
{"Location":{"Latitude":"35.7789274","Longtitude":"51.3795455","Altitude":"0.0","time":"12-24-2013 00:20:53","Accuracy":"50.251","Provider":"fused","Speed":"0.0"}}
{"Application":{"ProcessName":"com.mobinmobile","Start":"12-24-2013 00:15:54","End":"12-24-2013 00:20:54"}}
{"Application":{"ProcessName":"com.mobinmobile","Start":"12-24-2013 00:20:54","End":"12-24-2013 00:21:44"}}
{"Location":{"Latitude":"35.7789114","Longtitude":"51.3797343","Altitude":"0.0","time":"12-24-2013 00:21:54","Accuracy":"40.256","Provider":"fused","Speed":"0.0"}}
{"WiFi":{"SSID":"maria","BSSID":"f4:3e:61:e1:8f:5c","capabilities":"[WPA-PSK-TKIP][ESS]","level":"-44","frequency":"2462","time":"Tuesday, December 24, 2013 12:27:36 AM Iran Standard Time"}}
{"WiFi":{"SSID":"KOUROSH","BSSID":"00:21:27:e6:43:5c","capabilities":"[WEP][ESS]","level":"-73","frequency":"2447","time":"Tuesday, December 24, 2013 12:27:36 AM Iran Standard Time"}}
{"WiFi":{"SSID":"Virus3","BSSID":"00:1f:fb:63:ec:34","capabilities":"[WPA2-PSK-CCMP][ESS]","level":"-83","frequency":"2412","time":"Tuesday, December 24, 2013 12:27:36 AM Iran Standard Time"}}
{"WiFi":{"SSID":"Financial","BSSID":"90:94:e4:d1:20:60","capabilities":"[WPA-PSK-TKIP+CCMP][WPA2-PSK-TKIP+CCMP][WPS][ESS]","level":"-87","frequency":"2427","time":"Tuesday, December 24, 2013 12:27:36 AM Iran Standard Time"}}
{"WiFi":{"SSID":"ARAD","BSSID":"00:23:f8:93:c0:78","capabilities":"[WEP][ESS]","level":"-90","frequency":"2437","time":"Tuesday, December 24, 2013 12:27:36 AM Iran Standard Time"}}
{"WiFi":{"SSID":"azimi","BSSID":"00:27:19:ca:9a:c8","capabilities":"[WEP][ESS]","level":"-88","frequency":"2447","time":"Tuesday, December 24, 2013 12:27:36 AM Iran Standard Time"}}
{"Location":{"Latitude":"35.7757101","Longtitude":"51.3753829","Altitude":"0.0","time":"12-24-2013 00:27:56","Accuracy":"1726.0","Provider":"fused","Speed":"0.0"}}
{"Location":{"Latitude":"35.777603","Longtitude":"51.3807131","Altitude":"0.0","time":"12-24-2013 00:28:02","Accuracy":"1496.0","Provider":"fused","Speed":"0.0"}}
{"Application":{"ProcessName":"com.google.process.location","Start":"12-24-2013 00:27:56","End":"12-24-2013 00:28:06"}}
{"Application":{"ProcessName":"com.nqmobile.antivirus20","Start":"12-24-2013 00:28:16","End":"12-24-2013 00:28:26"}}
{"WiFi":{"SSID":"maria","BSSID":"f4:3e:61:e1:8f:5c","capabilities":"[WPA-PSK-TKIP][ESS]","level":"-23","frequency":"2462","time":"Tuesday, December 24, 2013 12:28:36 AM Iran Standard Time"}}
{"WiFi":{"SSID":"KOUROSH","BSSID":"00:21:27:e6:43:5c","capabilities":"[WEP][ESS]","level":"-67","frequency":"2447","time":"Tuesday, December 24, 2013 12:28:36 AM Iran Standard Time"}}
{"WiFi":{"SSID":"Virus3","BSSID":"00:1f:fb:63:ec:34","capabilities":"[WPA2-PSK-CCMP][ESS]","level":"-77","frequency":"2412","time":"Tuesday, December 24, 2013 12:28:36 AM Iran Standard Time"}}
{"WiFi":{"SSID":"Financial","BSSID":"90:94:e4:d1:20:60","capabilities":"[WPA-PSK-TKIP+CCMP][WPA2-PSK-TKIP+CCMP][WPS][ESS]","level":"-82","frequency":"2427","time":"Tuesday, December 24, 2013 12:28:36 AM Iran Standard Time"}}
{"WiFi":{"SSID":"hsmc","BSSID":"78:cd:8e:9a:95:22","capabilities":"[WPA2-PSK-CCMP][ESS]","level":"-81","frequency":"2437","time":"Tuesday, December 24, 2013 12:28:36 AM Iran Standard Time"}}
{"WiFi":{"SSID":"keyvan","BSSID":"98:42:46:04:1b:ba","capabilities":"[WPA-PSK-TKIP][ESS]","level":"-84","frequency":"2462","time":"Tuesday, December 24, 2013 12:28:36 AM Iran Standard Time"}}
{"WiFi":{"SSID":"BlackFalcon","BSSID":"58:6d:8f:69:f9:76","capabilities":"[WPA-PSK-TKIP+CCMP][WPA2-PSK-TKIP+CCMP][WPS][ESS]","level":"-94","frequency":"2462","time":"Tuesday, December 24, 2013 12:28:36 AM Iran Standard Time"}}
{"WiFi":{"SSID":"Atabaki","BSSID":"c8:d1:5e:89:63:c4","capabilities":"[WPA-PSK-TKIP+CCMP][WPA2-PSK-TKIP+CCMP][ESS]","level":"-95","frequency":"2442","time":"Tuesday, December 24, 2013 12:28:36 AM Iran Standard Time"}}
{"WiFi":{"SSID":"saied","BSSID":"00:1e:58:82:ea:2e","capabilities":"[WEP][ESS]","level":"-89","frequency":"2437","time":"Tuesday, December 24, 2013 12:28:36 AM Iran Standard Time"}}
{"WiFi":{"SSID":"BlackFalcon-guest","BSSID":"58:6d:8f:69:f9:78","capabilities":"[ESS]","level":"-92","frequency":"2462","time":"Tuesday, December 24, 2013 12:28:36 AM Iran Standard Time"}}
{"Application":{"ProcessName":"com.wssyncmldm","Start":"12-24-2013 00:28:26","End":"12-24-2013 00:28:36"}}
{"Application":{"ProcessName":"com.vlingo.midas","Start":"12-24-2013 00:28:36","End":"12-24-2013 00:28:46"}}
{"Application":{"ProcessName":"com.gtcsoft.xingplayer.am1","Start":"12-24-2013 00:29:16","End":"12-24-2013 00:29:26"}}
{"WiFi":{"SSID":"maria","BSSID":"f4:3e:61:e1:8f:5c","capabilities":"[WPA-PSK-TKIP][ESS]","level":"-23","frequency":"2462","time":"Tuesday, December 24, 2013 12:29:36 AM Iran Standard Time"}}
{"WiFi":{"SSID":"KOUROSH","BSSID":"00:21:27:e6:43:5c","capabilities":"[WEP][ESS]","level":"-67","frequency":"2447","time":"Tuesday, December 24, 2013 12:29:36 AM Iran Standard Time"}}
{"WiFi":{"SSID":"Virus3","BSSID":"00:1f:fb:63:ec:34","capabilities":"[WPA2-PSK-CCMP][ESS]","level":"-77","frequency":"2412","time":"Tuesday, December 24, 2013 12:29:36 AM Iran Standard Time"}}
{"WiFi":{"SSID":"Financial","BSSID":"90:94:e4:d1:20:60","capabilities":"[WPA-PSK-TKIP+CCMP][WPA2-PSK-TKIP+CCMP][WPS][ESS]","level":"-82","frequency":"2427","time":"Tuesday, December 24, 2013 12:29:36 AM Iran Standard Time"}}
{"WiFi":{"SSID":"hsmc","BSSID":"78:cd:8e:9a:95:22","capabilities":"[WPA2-PSK-CCMP][ESS]","level":"-81","frequency":"2437","time":"Tuesday, December 24, 2013 12:29:36 AM Iran Standard Time"}}
{"WiFi":{"SSID":"keyvan","BSSID":"98:42:46:04:1b:ba","capabilities":"[WPA-PSK-TKIP][ESS]","level":"-84","frequency":"2462","time":"Tuesday, December 24, 2013 12:29:36 AM Iran Standard Time"}}
{"WiFi":{"SSID":"BlackFalcon","BSSID":"58:6d:8f:69:f9:76","capabilities":"[WPA-PSK-TKIP+CCMP][WPA2-PSK-TKIP+CCMP][WPS][ESS]","level":"-94","frequency":"2462","time":"Tuesday, December 24, 2013 12:29:36 AM Iran Standard Time"}}
{"WiFi":{"SSID":"Atabaki","BSSID":"c8:d1:5e:89:63:c4","capabilities":"[WPA-PSK-TKIP+CCMP][WPA2-PSK-TKIP+CCMP][ESS]","level":"-95","frequency":"2442","time":"Tuesday, December 24, 2013 12:29:36 AM Iran Standard Time"}}
{"WiFi":{"SSID":"saied","BSSID":"00:1e:58:82:ea:2e","capabilities":"[WEP][ESS]","level":"-89","frequency":"2437","time":"Tuesday, December 24, 2013 12:29:36 AM Iran Standard Time"}}
{"WiFi":{"SSID":"BlackFalcon-guest","BSSID":"58:6d:8f:69:f9:78","capabilities":"[ESS]","level":"-92","frequency":"2462","time":"Tuesday, December 24, 2013 12:29:36 AM Iran Standard Time"}}
{"WiFi":{"SSID":"maria","BSSID":"f4:3e:61:e1:8f:5c","capabilities":"[WPA-PSK-TKIP][ESS]","level":"-23","frequency":"2462","time":"Tuesday, December 24, 2013 12:30:36 AM Iran Standard Time"}}
{"WiFi":{"SSID":"KOUROSH","BSSID":"00:21:27:e6:43:5c","capabilities":"[WEP][ESS]","level":"-67","frequency":"2447","time":"Tuesday, December 24, 2013 12:30:36 AM Iran Standard Time"}}
{"WiFi":{"SSID":"Virus3","BSSID":"00:1f:fb:63:ec:34","capabilities":"[WPA2-PSK-CCMP][ESS]","level":"-77","frequency":"2412","time":"Tuesday, December 24, 2013 12:30:36 AM Iran Standard Time"}}
{"WiFi":{"SSID":"Financial","BSSID":"90:94:e4:d1:20:60","capabilities":"[WPA-PSK-TKIP+CCMP][WPA2-PSK-TKIP+CCMP][WPS][ESS]","level":"-82","frequency":"2427","time":"Tuesday, December 24, 2013 12:30:36 AM Iran Standard Time"}}
{"WiFi":{"SSID":"hsmc","BSSID":"78:cd:8e:9a:95:22","capabilities":"[WPA2-PSK-CCMP][ESS]","level":"-81","frequency":"2437","time":"Tuesday, December 24, 2013 12:30:36 AM Iran Standard Time"}}
{"WiFi":{"SSID":"keyvan","BSSID":"98:42:46:04:1b:ba","capabilities":"[WPA-PSK-TKIP][ESS]","level":"-84","frequency":"2462","time":"Tuesday, December 24, 2013 12:30:36 AM Iran Standard Time"}}
{"WiFi":{"SSID":"BlackFalcon","BSSID":"58:6d:8f:69:f9:76","capabilities":"[WPA-PSK-TKIP+CCMP][WPA2-PSK-TKIP+CCMP][WPS][ESS]","level":"-94","frequency":"2462","time":"Tuesday, December 24, 2013 12:30:36 AM Iran Standard Time"}}
{"WiFi":{"SSID":"Atabaki","BSSID":"c8:d1:5e:89:63:c4","capabilities":"[WPA-PSK-TKIP+CCMP][WPA2-PSK-TKIP+CCMP][ESS]","level":"-95","frequency":"2442","time":"Tuesday, December 24, 2013 12:30:36 AM Iran Standard Time"}}
{"WiFi":{"SSID":"saied","BSSID":"00:1e:58:82:ea:2e","capabilities":"[WEP][ESS]","level":"-89","frequency":"2437","time":"Tuesday, December 24, 2013 12:30:36 AM Iran Standard Time"}}
{"WiFi":{"SSID":"BlackFalcon-guest","BSSID":"58:6d:8f:69:f9:78","capabilities":"[ESS]","level":"-92","frequency":"2462","time":"Tuesday, December 24, 2013 12:30:36 AM Iran Standard Time"}}
{"Application":{"ProcessName":"com.dropbox.android","Start":"12-24-2013 00:30:46","End":"12-24-2013 00:30:56"}}
{"Application":{"ProcessName":"com.yahoo.mobile.client.android.im","Start":"12-24-2013 00:31:16","End":"12-24-2013 00:31:26"}}
{"Application":{"ProcessName":"com.google.process.location","Start":"12-24-2013 00:31:16","End":"12-24-2013 00:31:26"}}
{"WiFi":{"SSID":"maria","BSSID":"f4:3e:61:e1:8f:5c","capabilities":"[WPA-PSK-TKIP][ESS]","level":"-25","frequency":"2462","time":"Tuesday, December 24, 2013 12:31:36 AM Iran Standard Time"}}
{"WiFi":{"SSID":"hsmc","BSSID":"78:cd:8e:9a:95:22","capabilities":"[WPA2-PSK-CCMP][ESS]","level":"-83","frequency":"2437","time":"Tuesday, December 24, 2013 12:31:36 AM Iran Standard Time"}}
{"WiFi":{"SSID":"Financial","BSSID":"90:94:e4:d1:20:60","capabilities":"[WPA-PSK-TKIP+CCMP][WPA2-PSK-TKIP+CCMP][WPS][ESS]","level":"-84","frequency":"2427","time":"Tuesday, December 24, 2013 12:31:36 AM Iran Standard Time"}}
{"WiFi":{"SSID":"sanam","BSSID":"ac:81:12:72:48:a5","capabilities":"[WPA2-PSK-TKIP][ESS]","level":"-86","frequency":"2412","time":"Tuesday, December 24, 2013 12:31:36 AM Iran Standard Time"}}
{"WiFi":{"SSID":"amir","BSSID":"98:42:46:05:9c:d4","capabilities":"[WPA2-PSK-TKIP+CCMP][ESS]","level":"-87","frequency":"2452","time":"Tuesday, December 24, 2013 12:31:36 AM Iran Standard Time"}}
{"WiFi":{"SSID":"keyvan","BSSID":"98:42:46:04:1b:ba","capabilities":"[WPA-PSK-TKIP][ESS]","level":"-88","frequency":"2462","time":"Tuesday, December 24, 2013 12:31:36 AM Iran Standard Time"}}
{"WiFi":{"SSID":"KOUROSH","BSSID":"00:21:27:e6:43:5c","capabilities":"[WEP][ESS]","level":"-72","frequency":"2447","time":"Tuesday, December 24, 2013 12:31:36 AM Iran Standard Time"}}
{"WiFi":{"SSID":"azimi","BSSID":"00:27:19:ca:9a:c8","capabilities":"[WEP][ESS]","level":"-84","frequency":"2447","time":"Tuesday, December 24, 2013 12:31:36 AM Iran Standard Time"}}
{"WiFi":{"SSID":"roonak","BSSID":"74:ea:3a:fb:15:4a","capabilities":"[WEP][ESS]","level":"-86","frequency":"2442","time":"Tuesday, December 24, 2013 12:31:36 AM Iran Standard Time"}}
{"Application":{"ProcessName":"com.samsung.android.providers.context","Start":"12-24-2013 00:27:16","End":"12-24-2013 00:32:17"}}
{"Application":{"ProcessName":"com.sec.android.provider.logsprovider","Start":"12-24-2013 00:27:16","End":"12-24-2013 00:32:17"}}
{"Application":{"ProcessName":"com.sec.android.app.twdvfs","Start":"12-24-2013 00:27:16","End":"12-24-2013 00:32:17"}}
{"Application":{"ProcessName":"com.android.nfc","Start":"12-24-2013 00:27:16","End":"12-24-2013 00:32:17"}}
{"Application":{"ProcessName":"com.cloudmosa.puffin","Start":"12-24-2013 00:27:16","End":"12-24-2013 00:32:17"}}
{"Application":{"ProcessName":"com.sec.android.app.sysscope","Start":"12-24-2013 00:27:16","End":"12-24-2013 00:32:17"}}
{"Application":{"ProcessName":"com.sec.android.app.FlashBarService","Start":"12-24-2013 00:27:16","End":"12-24-2013 00:32:17"}}
{"WiFi":{"SSID":"maria","BSSID":"f4:3e:61:e1:8f:5c","capabilities":"[WPA-PSK-TKIP][ESS]","level":"-34","frequency":"2462","time":"Tuesday, December 24, 2013 12:32:36 AM Iran Standard Time"}}
{"WiFi":{"SSID":"hsmc","BSSID":"78:cd:8e:9a:95:22","capabilities":"[WPA2-PSK-CCMP][ESS]","level":"-92","frequency":"2437","time":"Tuesday, December 24, 2013 12:32:36 AM Iran Standard Time"}}
{"WiFi":{"SSID":"sanam","BSSID":"ac:81:12:72:48:a5","capabilities":"[WPA2-PSK-TKIP][ESS]","level":"-94","frequency":"2412","time":"Tuesday, December 24, 2013 12:32:36 AM Iran Standard Time"}}
{"WiFi":{"SSID":"keyvan","BSSID":"98:42:46:04:1b:ba","capabilities":"[WPA-PSK-TKIP][ESS]","level":"-89","frequency":"2462","time":"Tuesday, December 24, 2013 12:32:36 AM Iran Standard Time"}}
{"WiFi":{"SSID":"KOUROSH","BSSID":"00:21:27:e6:43:5c","capabilities":"[WEP][ESS]","level":"-74","frequency":"2447","time":"Tuesday, December 24, 2013 12:32:36 AM Iran Standard Time"}}
{"WiFi":{"SSID":"M-Khalili","BSSID":"f4:3e:61:25:fe:37","capabilities":"[WPA2-PSK-CCMP][ESS]","level":"-93","frequency":"2462","time":"Tuesday, December 24, 2013 12:32:36 AM Iran Standard Time"}}
{"Application":{"ProcessName":"com.nqmobile.antivirus20","Start":"12-24-2013 00:32:27","End":"12-24-2013 00:32:37"}}
{"Application":{"ProcessName":"com.sec.android.provider.badge","Start":"12-24-2013 00:32:47","End":"12-24-2013 00:32:57"}}
{"Application":{"ProcessName":"com.yahoo.mobile.client.android.imvideo","Start":"12-24-2013 00:33:07","End":"12-24-2013 00:33:17"}}
{"WiFi":{"SSID":"maria","BSSID":"f4:3e:61:e1:8f:5c","capabilities":"[WPA-PSK-TKIP][ESS]","level":"-34","frequency":"2462","time":"Tuesday, December 24, 2013 12:33:36 AM Iran Standard Time"}}
{"WiFi":{"SSID":"hsmc","BSSID":"78:cd:8e:9a:95:22","capabilities":"[WPA2-PSK-CCMP][ESS]","level":"-92","frequency":"2437","time":"Tuesday, December 24, 2013 12:33:36 AM Iran Standard Time"}}
{"WiFi":{"SSID":"sanam","BSSID":"ac:81:12:72:48:a5","capabilities":"[WPA2-PSK-TKIP][ESS]","level":"-94","frequency":"2412","time":"Tuesday, December 24, 2013 12:33:36 AM Iran Standard Time"}}
{"WiFi":{"SSID":"keyvan","BSSID":"98:42:46:04:1b:ba","capabilities":"[WPA-PSK-TKIP][ESS]","level":"-89","frequency":"2462","time":"Tuesday, December 24, 2013 12:33:36 AM Iran Standard Time"}}
{"WiFi":{"SSID":"KOUROSH","BSSID":"00:21:27:e6:43:5c","capabilities":"[WEP][ESS]","level":"-74","frequency":"2447","time":"Tuesday, December 24, 2013 12:33:36 AM Iran Standard Time"}}
{"WiFi":{"SSID":"M-Khalili","BSSID":"f4:3e:61:25:fe:37","capabilities":"[WPA2-PSK-CCMP][ESS]","level":"-93","frequency":"2462","time":"Tuesday, December 24, 2013 12:33:36 AM Iran Standard Time"}}
{"Application":{"ProcessName":"com.vlingo.midas","Start":"12-24-2013 00:33:27","End":"12-24-2013 00:33:37"}}
{"Application":{"ProcessName":"com.gtcsoft.xingplayer.am1","Start":"12-24-2013 00:33:57","End":"12-24-2013 00:34:07"}}
{"Application":{"ProcessName":"com.sds.android.process.ttpod.support","Start":"12-24-2013 00:34:07","End":"12-24-2013 00:34:17"}}
{"WiFi":{"SSID":"maria","BSSID":"f4:3e:61:e1:8f:5c","capabilities":"[WPA-PSK-TKIP][ESS]","level":"-34","frequency":"2462","time":"Tuesday, December 24, 2013 12:34:36 AM Iran Standard Time"}}
{"WiFi":{"SSID":"hsmc","BSSID":"78:cd:8e:9a:95:22","capabilities":"[WPA2-PSK-CCMP][ESS]","level":"-92","frequency":"2437","time":"Tuesday, December 24, 2013 12:34:36 AM Iran Standard Time"}}
{"WiFi":{"SSID":"sanam","BSSID":"ac:81:12:72:48:a5","capabilities":"[WPA2-PSK-TKIP][ESS]","level":"-94","frequency":"2412","time":"Tuesday, December 24, 2013 12:34:36 AM Iran Standard Time"}}
{"WiFi":{"SSID":"keyvan","BSSID":"98:42:46:04:1b:ba","capabilities":"[WPA-PSK-TKIP][ESS]","level":"-89","frequency":"2462","time":"Tuesday, December 24, 2013 12:34:36 AM Iran Standard Time"}}
{"WiFi":{"SSID":"KOUROSH","BSSID":"00:21:27:e6:43:5c","capabilities":"[WEP][ESS]","level":"-74","frequency":"2447","time":"Tuesday, December 24, 2013 12:34:36 AM Iran Standard Time"}}
{"WiFi":{"SSID":"M-Khalili","BSSID":"f4:3e:61:25:fe:37","capabilities":"[WPA2-PSK-CCMP][ESS]","level":"-93","frequency":"2462","time":"Tuesday, December 24, 2013 12:34:36 AM Iran Standard Time"}}
{"Application":{"ProcessName":"com.sec.chaton","Start":"12-24-2013 00:35:17","End":"12-24-2013 00:35:27"}}
{"WiFi":{"SSID":"maria","BSSID":"f4:3e:61:e1:8f:5c","capabilities":"[WPA-PSK-TKIP][ESS]","level":"-34","frequency":"2462","time":"Tuesday, December 24, 2013 12:35:36 AM Iran Standard Time"}}
{"WiFi":{"SSID":"hsmc","BSSID":"78:cd:8e:9a:95:22","capabilities":"[WPA2-PSK-CCMP][ESS]","level":"-92","frequency":"2437","time":"Tuesday, December 24, 2013 12:35:36 AM Iran Standard Time"}}
{"WiFi":{"SSID":"sanam","BSSID":"ac:81:12:72:48:a5","capabilities":"[WPA2-PSK-TKIP][ESS]","level":"-94","frequency":"2412","time":"Tuesday, December 24, 2013 12:35:36 AM Iran Standard Time"}}
{"WiFi":{"SSID":"keyvan","BSSID":"98:42:46:04:1b:ba","capabilities":"[WPA-PSK-TKIP][ESS]","level":"-89","frequency":"2462","time":"Tuesday, December 24, 2013 12:35:36 AM Iran Standard Time"}}
{"WiFi":{"SSID":"KOUROSH","BSSID":"00:21:27:e6:43:5c","capabilities":"[WEP][ESS]","level":"-74","frequency":"2447","time":"Tuesday, December 24, 2013 12:35:36 AM Iran Standard Time"}}
{"WiFi":{"SSID":"M-Khalili","BSSID":"f4:3e:61:25:fe:37","capabilities":"[WPA2-PSK-CCMP][ESS]","level":"-93","frequency":"2462","time":"Tuesday, December 24, 2013 12:35:36 AM Iran Standard Time"}}
{"Application":{"ProcessName":"com.dropbox.android","Start":"12-24-2013 00:36:07","End":"12-24-2013 00:36:17"}}
{"WiFi":{"SSID":"maria","BSSID":"f4:3e:61:e1:8f:5c","capabilities":"[WPA-PSK-TKIP][ESS]","level":"-32","frequency":"2462","time":"Tuesday, December 24, 2013 12:36:36 AM Iran Standard Time"}}
{"WiFi":{"SSID":"SaeidNet","BSSID":"40:4a:03:c5:5d:d4","capabilities":"[WPA2-PSK-CCMP][ESS]","level":"-84","frequency":"2437","time":"Tuesday, December 24, 2013 12:36:36 AM Iran Standard Time"}}
{"WiFi":{"SSID":"keyvan","BSSID":"98:42:46:04:1b:ba","capabilities":"[WPA-PSK-TKIP][ESS]","level":"-85","frequency":"2462","time":"Tuesday, December 24, 2013 12:36:36 AM Iran Standard Time"}}
{"WiFi":{"SSID":"hsmc","BSSID":"78:cd:8e:9a:95:22","capabilities":"[WPA2-PSK-CCMP][ESS]","level":"-87","frequency":"2437","time":"Tuesday, December 24, 2013 12:36:36 AM Iran Standard Time"}}
{"WiFi":{"SSID":"sanam","BSSID":"ac:81:12:72:48:a5","capabilities":"[WPA2-PSK-TKIP][ESS]","level":"-89","frequency":"2412","time":"Tuesday, December 24, 2013 12:36:36 AM Iran Standard Time"}}
{"WiFi":{"SSID":"KOUROSH","BSSID":"00:21:27:e6:43:5c","capabilities":"[WEP][ESS]","level":"-72","frequency":"2447","time":"Tuesday, December 24, 2013 12:36:36 AM Iran Standard Time"}}
{"WiFi":{"SSID":"azimi","BSSID":"00:27:19:ca:9a:c8","capabilities":"[WEP][ESS]","level":"-82","frequency":"2447","time":"Tuesday, December 24, 2013 12:36:36 AM Iran Standard Time"}}
{"WiFi":{"SSID":"NV-MirTorabi","BSSID":"d8:5d:4c:c2:81:80","capabilities":"[WEP][ESS]","level":"-89","frequency":"2457","time":"Tuesday, December 24, 2013 12:36:36 AM Iran Standard Time"}}
{"Application":{"ProcessName":"com.nqmobile.antivirus20","Start":"12-24-2013 00:36:37","End":"12-24-2013 00:36:47"}}
{"Application":{"ProcessName":"com.lookout","Start":"12-24-2013 00:36:57","End":"12-24-2013 00:37:07"}}
{"Application":{"ProcessName":"com.samsung.android.providers.context","Start":"12-24-2013 00:32:17","End":"12-24-2013 00:37:17"}}
{"Application":{"ProcessName":"com.yahoo.mobile.client.android.mail","Start":"12-24-2013 00:37:07","End":"12-24-2013 00:37:17"}}
{"Application":{"ProcessName":"com.sec.android.provider.logsprovider","Start":"12-24-2013 00:32:17","End":"12-24-2013 00:37:17"}}
{"Application":{"ProcessName":"com.sec.android.app.twdvfs","Start":"12-24-2013 00:32:17","End":"12-24-2013 00:37:17"}}
{"Application":{"ProcessName":"com.android.nfc","Start":"12-24-2013 00:32:17","End":"12-24-2013 00:37:17"}}
{"Application":{"ProcessName":"com.cloudmosa.puffin","Start":"12-24-2013 00:32:17","End":"12-24-2013 00:37:17"}}
{"Application":{"ProcessName":"com.google.process.location","Start":"12-24-2013 00:37:07","End":"12-24-2013 00:37:17"}}
{"Application":{"ProcessName":"com.sec.android.app.sysscope","Start":"12-24-2013 00:32:17","End":"12-24-2013 00:37:17"}}
{"Application":{"ProcessName":"com.sec.android.app.FlashBarService","Start":"12-24-2013 00:32:17","End":"12-24-2013 00:37:17"}}
{"WiFi":{"SSID":"maria","BSSID":"f4:3e:61:e1:8f:5c","capabilities":"[WPA-PSK-TKIP][ESS]","level":"-32","frequency":"2462","time":"Tuesday, December 24, 2013 12:37:36 AM Iran Standard Time"}}
{"WiFi":{"SSID":"SaeidNet","BSSID":"40:4a:03:c5:5d:d4","capabilities":"[WPA2-PSK-CCMP][ESS]","level":"-86","frequency":"2437","time":"Tuesday, December 24, 2013 12:37:36 AM Iran Standard Time"}}
{"WiFi":{"SSID":"keyvan","BSSID":"98:42:46:04:1b:ba","capabilities":"[WPA-PSK-TKIP][ESS]","level":"-91","frequency":"2462","time":"Tuesday, December 24, 2013 12:37:36 AM Iran Standard Time"}}
{"WiFi":{"SSID":"hsmc","BSSID":"78:cd:8e:9a:95:22","capabilities":"[WPA2-PSK-CCMP][ESS]","level":"-81","frequency":"2437","time":"Tuesday, December 24, 2013 12:37:36 AM Iran Standard Time"}}
{"WiFi":{"SSID":"sanam","BSSID":"ac:81:12:72:48:a5","capabilities":"[WPA2-PSK-TKIP][ESS]","level":"-86","frequency":"2412","time":"Tuesday, December 24, 2013 12:37:36 AM Iran Standard Time"}}
{"WiFi":{"SSID":"KOUROSH","BSSID":"00:21:27:e6:43:5c","capabilities":"[WEP][ESS]","level":"-76","frequency":"2447","time":"Tuesday, December 24, 2013 12:37:36 AM Iran Standard Time"}}
{"WiFi":{"SSID":"azimi","BSSID":"00:27:19:ca:9a:c8","capabilities":"[WEP][ESS]","level":"-86","frequency":"2447","time":"Tuesday, December 24, 2013 12:37:36 AM Iran Standard Time"}}
{"WiFi":{"SSID":"Virus3","BSSID":"00:1f:fb:63:ec:34","capabilities":"[WPA2-PSK-CCMP][ESS]","level":"-77","frequency":"2412","time":"Tuesday, December 24, 2013 12:37:36 AM Iran Standard Time"}}
{"WiFi":{"SSID":"Financial","BSSID":"90:94:e4:d1:20:60","capabilities":"[WPA-PSK-TKIP+CCMP][WPA2-PSK-TKIP+CCMP][WPS][ESS]","level":"-80","frequency":"2427","time":"Tuesday, December 24, 2013 12:37:36 AM Iran Standard Time"}}
{"WiFi":{"SSID":"M-Khalili","BSSID":"f4:3e:61:25:fe:37","capabilities":"[WPA2-PSK-CCMP][ESS]","level":"-87","frequency":"2462","time":"Tuesday, December 24, 2013 12:37:36 AM Iran Standard Time"}}
{"WiFi":{"SSID":"roonak","BSSID":"74:ea:3a:fb:15:4a","capabilities":"[WEP][ESS]","level":"-87","frequency":"2442","time":"Tuesday, December 24, 2013 12:37:36 AM Iran Standard Time"}}
{"Application":{"ProcessName":"com.osp.app.signin","Start":"12-24-2013 00:37:57","End":"12-24-2013 00:38:07"}}
{"Application":{"ProcessName":"com.sec.pcw","Start":"12-24-2013 00:37:57","End":"12-24-2013 00:38:07"}}
{"WiFi":{"SSID":"maria","BSSID":"f4:3e:61:e1:8f:5c","capabilities":"[WPA-PSK-TKIP][ESS]","level":"-31","frequency":"2462","time":"Tuesday, December 24, 2013 12:38:36 AM Iran Standard Time"}}
{"WiFi":{"SSID":"KOUROSH","BSSID":"00:21:27:e6:43:5c","capabilities":"[WEP][ESS]","level":"-72","frequency":"2447","time":"Tuesday, December 24, 2013 12:38:36 AM Iran Standard Time"}}
{"WiFi":{"SSID":"Financial","BSSID":"90:94:e4:d1:20:60","capabilities":"[WPA-PSK-TKIP+CCMP][WPA2-PSK-TKIP+CCMP][WPS][ESS]","level":"-82","frequency":"2427","time":"Tuesday, December 24, 2013 12:38:36 AM Iran Standard Time"}}
{"Application":{"ProcessName":"com.sds.android.process.ttpod","Start":"12-24-2013 00:38:37","End":"12-24-2013 00:38:48"}}
{"WiFi":{"SSID":"maria","BSSID":"f4:3e:61:e1:8f:5c","capabilities":"[WPA-PSK-TKIP][ESS]","level":"-37","frequency":"2462","time":"Tuesday, December 24, 2013 12:39:36 AM Iran Standard Time"}}
{"WiFi":{"SSID":"KOUROSH","BSSID":"00:21:27:e6:43:5c","capabilities":"[WEP][ESS]","level":"-73","frequency":"2447","time":"Tuesday, December 24, 2013 12:39:36 AM Iran Standard Time"}}
{"WiFi":{"SSID":"sanam","BSSID":"ac:81:12:72:48:a5","capabilities":"[WPA2-PSK-TKIP][ESS]","level":"-90","frequency":"2412","time":"Tuesday, December 24, 2013 12:39:36 AM Iran Standard Time"}}
{"WiFi":{"SSID":"zyXEL03","BSSID":"50:67:f0:84:87:77","capabilities":"[WPA-PSK-TKIP][ESS]","level":"-92","frequency":"2462","time":"Tuesday, December 24, 2013 12:39:36 AM Iran Standard Time"}}
{"WiFi":{"SSID":"keyvan","BSSID":"98:42:46:04:1b:ba","capabilities":"[WPA-PSK-TKIP][ESS]","level":"-92","frequency":"2462","time":"Tuesday, December 24, 2013 12:39:36 AM Iran Standard Time"}}
{"WiFi":{"SSID":"maria","BSSID":"f4:3e:61:e1:8f:5c","capabilities":"[WPA-PSK-TKIP][ESS]","level":"-36","frequency":"2462","time":"Tuesday, December 24, 2013 12:40:36 AM Iran Standard Time"}}
{"WiFi":{"SSID":"KOUROSH","BSSID":"00:21:27:e6:43:5c","capabilities":"[WEP][ESS]","level":"-78","frequency":"2447","time":"Tuesday, December 24, 2013 12:40:36 AM Iran Standard Time"}}
{"WiFi":{"SSID":"keyvan","BSSID":"98:42:46:04:1b:ba","capabilities":"[WPA-PSK-TKIP][ESS]","level":"-91","frequency":"2462","time":"Tuesday, December 24, 2013 12:40:36 AM Iran Standard Time"}}
{"Application":{"ProcessName":"com.yahoo.mobile.client.android.weather","Start":"12-24-2013 00:40:28","End":"12-24-2013 00:40:38"}}
{"WiFi":{"SSID":"maria","BSSID":"f4:3e:61:e1:8f:5c","capabilities":"[WPA-PSK-TKIP][ESS]","level":"-36","frequency":"2462","time":"Tuesday, December 24, 2013 12:41:36 AM Iran Standard Time"}}
{"WiFi":{"SSID":"KOUROSH","BSSID":"00:21:27:e6:43:5c","capabilities":"[WEP][ESS]","level":"-78","frequency":"2447","time":"Tuesday, December 24, 2013 12:41:36 AM Iran Standard Time"}}
{"WiFi":{"SSID":"keyvan","BSSID":"98:42:46:04:1b:ba","capabilities":"[WPA-PSK-TKIP][ESS]","level":"-91","frequency":"2462","time":"Tuesday, December 24, 2013 12:41:36 AM Iran Standard Time"}}
{"Application":{"ProcessName":"com.nqmobile.antivirus20","Start":"12-24-2013 00:41:48","End":"12-24-2013 00:41:58"}}
{"Application":{"ProcessName":"com.samsung.android.providers.context","Start":"12-24-2013 00:37:17","End":"12-24-2013 00:42:18"}}
{"Application":{"ProcessName":"com.sec.android.provider.logsprovider","Start":"12-24-2013 00:37:17","End":"12-24-2013 00:42:18"}}
{"Application":{"ProcessName":"com.sec.android.app.twdvfs","Start":"12-24-2013 00:37:17","End":"12-24-2013 00:42:18"}}
{"Application":{"ProcessName":"com.android.nfc","Start":"12-24-2013 00:37:17","End":"12-24-2013 00:42:18"}}
{"Application":{"ProcessName":"com.cloudmosa.puffin","Start":"12-24-2013 00:37:17","End":"12-24-2013 00:42:18"}}
{"Application":{"ProcessName":"com.sec.android.app.sysscope","Start":"12-24-2013 00:37:17","End":"12-24-2013 00:42:18"}}
{"Application":{"ProcessName":"com.sec.android.app.FlashBarService","Start":"12-24-2013 00:37:17","End":"12-24-2013 00:42:18"}}
{"Application":{"ProcessName":"com.google.android.apps.maps","Start":"12-24-2013 00:42:18","End":"12-24-2013 00:42:28"}}
{"WiFi":{"SSID":"maria","BSSID":"f4:3e:61:e1:8f:5c","capabilities":"[WPA-PSK-TKIP][ESS]","level":"-36","frequency":"2462","time":"Tuesday, December 24, 2013 12:42:36 AM Iran Standard Time"}}
{"WiFi":{"SSID":"KOUROSH","BSSID":"00:21:27:e6:43:5c","capabilities":"[WEP][ESS]","level":"-78","frequency":"2447","time":"Tuesday, December 24, 2013 12:42:36 AM Iran Standard Time"}}
{"WiFi":{"SSID":"keyvan","BSSID":"98:42:46:04:1b:ba","capabilities":"[WPA-PSK-TKIP][ESS]","level":"-91","frequency":"2462","time":"Tuesday, December 24, 2013 12:42:36 AM Iran Standard Time"}}
{"Application":{"ProcessName":"com.yahoo.mobile.client.android.weather","Start":"12-24-2013 00:43:18","End":"12-24-2013 00:43:28"}}
{"WiFi":{"SSID":"maria","BSSID":"f4:3e:61:e1:8f:5c","capabilities":"[WPA-PSK-TKIP][ESS]","level":"-26","frequency":"2462","time":"Tuesday, December 24, 2013 12:43:36 AM Iran Standard Time"}}
{"WiFi":{"SSID":"KOUROSH","BSSID":"00:21:27:e6:43:5c","capabilities":"[WEP][ESS]","level":"-72","frequency":"2447","time":"Tuesday, December 24, 2013 12:43:36 AM Iran Standard Time"}}
{"WiFi":{"SSID":"keyvan","BSSID":"98:42:46:04:1b:ba","capabilities":"[WPA-PSK-TKIP][ESS]","level":"-87","frequency":"2462","time":"Tuesday, December 24, 2013 12:43:36 AM Iran Standard Time"}}
{"WiFi":{"SSID":"zyXEL03","BSSID":"50:67:f0:84:87:77","capabilities":"[WPA-PSK-TKIP][ESS]","level":"-89","frequency":"2462","time":"Tuesday, December 24, 2013 12:43:36 AM Iran Standard Time"}}
{"WiFi":{"SSID":"azimi","BSSID":"00:27:19:ca:9a:c8","capabilities":"[WEP][ESS]","level":"-82","frequency":"2447","time":"Tuesday, December 24, 2013 12:43:36 AM Iran Standard Time"}}
{"WiFi":{"SSID":"roonak","BSSID":"74:ea:3a:fb:15:4a","capabilities":"[WEP][ESS]","level":"-89","frequency":"2442","time":"Tuesday, December 24, 2013 12:43:36 AM Iran Standard Time"}}
{"Application":{"ProcessName":"com.yahoo.mobile.client.android.im","Start":"12-24-2013 00:43:48","End":"12-24-2013 00:43:58"}}
{"WiFi":{"SSID":"maria","BSSID":"f4:3e:61:e1:8f:5c","capabilities":"[WPA-PSK-TKIP][ESS]","level":"-25","frequency":"2462","time":"Tuesday, December 24, 2013 12:44:36 AM Iran Standard Time"}}
{"WiFi":{"SSID":"KOUROSH","BSSID":"00:21:27:e6:43:5c","capabilities":"[WEP][ESS]","level":"-74","frequency":"2447","time":"Tuesday, December 24, 2013 12:44:36 AM Iran Standard Time"}}
{"WiFi":{"SSID":"keyvan","BSSID":"98:42:46:04:1b:ba","capabilities":"[WPA-PSK-TKIP][ESS]","level":"-89","frequency":"2462","time":"Tuesday, December 24, 2013 12:44:36 AM Iran Standard Time"}}
{"WiFi":{"SSID":"azimi","BSSID":"00:27:19:ca:9a:c8","capabilities":"[WEP][ESS]","level":"-84","frequency":"2447","time":"Tuesday, December 24, 2013 12:44:36 AM Iran Standard Time"}}
{"WiFi":{"SSID":"roonak","BSSID":"74:ea:3a:fb:15:4a","capabilities":"[WEP][ESS]","level":"-86","frequency":"2442","time":"Tuesday, December 24, 2013 12:44:36 AM Iran Standard Time"}}
{"WiFi":{"SSID":"sanam","BSSID":"ac:81:12:72:48:a5","capabilities":"[WPA2-PSK-TKIP][ESS]","level":"-90","frequency":"2412","time":"Tuesday, December 24, 2013 12:44:36 AM Iran Standard Time"}}
{"WiFi":{"SSID":"maria","BSSID":"f4:3e:61:e1:8f:5c","capabilities":"[WPA-PSK-TKIP][ESS]","level":"-31","frequency":"2462","time":"Tuesday, December 24, 2013 12:45:36 AM Iran Standard Time"}}
{"WiFi":{"SSID":"KOUROSH","BSSID":"00:21:27:e6:43:5c","capabilities":"[WEP][ESS]","level":"-78","frequency":"2447","time":"Tuesday, December 24, 2013 12:45:36 AM Iran Standard Time"}}
{"WiFi":{"SSID":"keyvan","BSSID":"98:42:46:04:1b:ba","capabilities":"[WPA-PSK-TKIP][ESS]","level":"-88","frequency":"2462","time":"Tuesday, December 24, 2013 12:45:36 AM Iran Standard Time"}}
{"WiFi":{"SSID":"azimi","BSSID":"00:27:19:ca:9a:c8","capabilities":"[WEP][ESS]","level":"-89","frequency":"2447","time":"Tuesday, December 24, 2013 12:45:36 AM Iran Standard Time"}}
{"WiFi":{"SSID":"Financial","BSSID":"90:94:e4:d1:20:60","capabilities":"[WPA-PSK-TKIP+CCMP][WPA2-PSK-TKIP+CCMP][WPS][ESS]","level":"-81","frequency":"2427","time":"Tuesday, December 24, 2013 12:45:36 AM Iran Standard Time"}}
{"WiFi":{"SSID":"hsmc","BSSID":"78:cd:8e:9a:95:22","capabilities":"[WPA2-PSK-CCMP][ESS]","level":"-85","frequency":"2437","time":"Tuesday, December 24, 2013 12:45:36 AM Iran Standard Time"}}
{"WiFi":{"SSID":"amir","BSSID":"98:42:46:05:9c:d4","capabilities":"[WPA2-PSK-TKIP+CCMP][ESS]","level":"-86","frequency":"2452","time":"Tuesday, December 24, 2013 12:45:36 AM Iran Standard Time"}}
{"WiFi":{"SSID":"Virus3","BSSID":"00:1f:fb:63:ec:34","capabilities":"[WPA2-PSK-CCMP][ESS]","level":"-88","frequency":"2412","time":"Tuesday, December 24, 2013 12:45:36 AM Iran Standard Time"}}
{"WiFi":{"SSID":"maria","BSSID":"f4:3e:61:e1:8f:5c","capabilities":"[WPA-PSK-TKIP][ESS]","level":"-27","frequency":"2462","time":"Tuesday, December 24, 2013 12:46:36 AM Iran Standard Time"}}
{"WiFi":{"SSID":"KOUROSH","BSSID":"00:21:27:e6:43:5c","capabilities":"[WEP][ESS]","level":"-76","frequency":"2447","time":"Tuesday, December 24, 2013 12:46:36 AM Iran Standard Time"}}
{"WiFi":{"SSID":"keyvan","BSSID":"98:42:46:04:1b:ba","capabilities":"[WPA-PSK-TKIP][ESS]","level":"-88","frequency":"2462","time":"Tuesday, December 24, 2013 12:46:36 AM Iran Standard Time"}}
{"WiFi":{"SSID":"azimi","BSSID":"00:27:19:ca:9a:c8","capabilities":"[WEP][ESS]","level":"-86","frequency":"2447","time":"Tuesday, December 24, 2013 12:46:36 AM Iran Standard Time"}}
{"WiFi":{"SSID":"Financial","BSSID":"90:94:e4:d1:20:60","capabilities":"[WPA-PSK-TKIP+CCMP][WPA2-PSK-TKIP+CCMP][WPS][ESS]","level":"-89","frequency":"2427","time":"Tuesday, December 24, 2013 12:46:36 AM Iran Standard Time"}}
{"WiFi":{"SSID":"amir","BSSID":"98:42:46:05:9c:d4","capabilities":"[WPA2-PSK-TKIP+CCMP][ESS]","level":"-87","frequency":"2452","time":"Tuesday, December 24, 2013 12:46:36 AM Iran Standard Time"}}
{"WiFi":{"SSID":"Virus3","BSSID":"00:1f:fb:63:ec:34","capabilities":"[WPA2-PSK-CCMP][ESS]","level":"-78","frequency":"2412","time":"Tuesday, December 24, 2013 12:46:36 AM Iran Standard Time"}}
{"WiFi":{"SSID":"zyXEL03","BSSID":"50:67:f0:84:87:77","capabilities":"[WPA-PSK-TKIP][ESS]","level":"-86","frequency":"2462","time":"Tuesday, December 24, 2013 12:46:36 AM Iran Standard Time"}}
{"WiFi":{"SSID":"persiangulfoptic","BSSID":"00:1f:fb:33:4e:5a","capabilities":"[WPA-PSK-TKIP][ESS]","level":"-89","frequency":"2417","time":"Tuesday, December 24, 2013 12:46:36 AM Iran Standard Time"}}
{"Application":{"ProcessName":"com.samsung.android.providers.context","Start":"12-24-2013 00:42:18","End":"12-24-2013 00:47:18"}}
{"Application":{"ProcessName":"com.sec.android.provider.logsprovider","Start":"12-24-2013 00:42:18","End":"12-24-2013 00:47:18"}}
{"Application":{"ProcessName":"com.sec.android.app.twdvfs","Start":"12-24-2013 00:42:18","End":"12-24-2013 00:47:18"}}
{"Application":{"ProcessName":"com.android.nfc","Start":"12-24-2013 00:42:18","End":"12-24-2013 00:47:18"}}
{"Application":{"ProcessName":"com.cloudmosa.puffin","Start":"12-24-2013 00:42:18","End":"12-24-2013 00:47:18"}}
{"Application":{"ProcessName":"com.sec.android.app.sysscope","Start":"12-24-2013 00:42:18","End":"12-24-2013 00:47:18"}}
{"Application":{"ProcessName":"com.sec.android.app.FlashBarService","Start":"12-24-2013 00:42:18","End":"12-24-2013 00:47:18"}}
{"WiFi":{"SSID":"maria","BSSID":"f4:3e:61:e1:8f:5c","capabilities":"[WPA-PSK-TKIP][ESS]","level":"-30","frequency":"2462","time":"Tuesday, December 24, 2013 12:47:36 AM Iran Standard Time"}}
{"WiFi":{"SSID":"KOUROSH","BSSID":"00:21:27:e6:43:5c","capabilities":"[WEP][ESS]","level":"-75","frequency":"2447","time":"Tuesday, December 24, 2013 12:47:36 AM Iran Standard Time"}}
{"WiFi":{"SSID":"keyvan","BSSID":"98:42:46:04:1b:ba","capabilities":"[WPA-PSK-TKIP][ESS]","level":"-88","frequency":"2462","time":"Tuesday, December 24, 2013 12:47:36 AM Iran Standard Time"}}
{"WiFi":{"SSID":"azimi","BSSID":"00:27:19:ca:9a:c8","capabilities":"[WEP][ESS]","level":"-83","frequency":"2447","time":"Tuesday, December 24, 2013 12:47:36 AM Iran Standard Time"}}
{"WiFi":{"SSID":"Financial","BSSID":"90:94:e4:d1:20:60","capabilities":"[WPA-PSK-TKIP+CCMP][WPA2-PSK-TKIP+CCMP][WPS][ESS]","level":"-81","frequency":"2427","time":"Tuesday, December 24, 2013 12:47:36 AM Iran Standard Time"}}
{"WiFi":{"SSID":"Virus3","BSSID":"00:1f:fb:63:ec:34","capabilities":"[WPA2-PSK-CCMP][ESS]","level":"-83","frequency":"2412","time":"Tuesday, December 24, 2013 12:47:36 AM Iran Standard Time"}}
{"WiFi":{"SSID":"saeed","BSSID":"ac:e8:7b:1f:f0:5e","capabilities":"[WPA-PSK-CCMP][ESS]","level":"-87","frequency":"2437","time":"Tuesday, December 24, 2013 12:47:36 AM Iran Standard Time"}}
{"WiFi":{"SSID":"hsmc","BSSID":"78:cd:8e:9a:95:22","capabilities":"[WPA2-PSK-CCMP][ESS]","level":"-88","frequency":"2437","time":"Tuesday, December 24, 2013 12:47:36 AM Iran Standard Time"}}
{"Application":{"ProcessName":"com.google.android.apps.maps:FriendService","Start":"12-24-2013 00:59:27","End":"12-24-2013 00:59:37"}}
{"Application":{"ProcessName":"com.google.process.location","Start":"12-24-2013 00:59:27","End":"12-24-2013 00:59:37"}}
{"Application":{"ProcessName":"com.farsitel.bazaar","Start":"12-24-2013 01:00:17","End":"12-24-2013 01:00:27"}}
{"Application":{"ProcessName":"com.real.RealPlayer","Start":"12-24-2013 01:00:27","End":"12-24-2013 01:00:37"}}
{"Application":{"ProcessName":"com.vlingo.midas","Start":"12-24-2013 01:00:57","End":"12-24-2013 01:01:07"}}
{"Application":{"ProcessName":"com.samsung.android.providers.context","Start":"12-24-2013 00:59:17","End":"12-24-2013 01:02:34"}}
{"Application":{"ProcessName":"com.sec.android.provider.logsprovider","Start":"12-24-2013 00:59:17","End":"12-24-2013 01:02:34"}}
{"Application":{"ProcessName":"com.sec.android.app.twdvfs","Start":"12-24-2013 00:59:17","End":"12-24-2013 01:02:34"}}
{"Application":{"ProcessName":"com.android.nfc","Start":"12-24-2013 00:59:17","End":"12-24-2013 01:02:34"}}
{"Application":{"ProcessName":"com.sec.android.app.clockpackage","Start":"12-24-2013 00:59:17","End":"12-24-2013 01:02:34"}}
{"Application":{"ProcessName":"com.sec.android.app.sysscope","Start":"12-24-2013 00:59:17","End":"12-24-2013 01:02:34"}}
{"Application":{"ProcessName":"com.sec.android.app.FlashBarService","Start":"12-24-2013 00:59:17","End":"12-24-2013 01:02:34"}}
{"Application":{"ProcessName":"com.samsung.android.providers.context","Start":"12-24-2013 05:42:03","End":"12-24-2013 05:46:24"}}
{"Application":{"ProcessName":"com.sec.android.provider.logsprovider","Start":"12-24-2013 05:42:03","End":"12-24-2013 05:46:24"}}
{"Application":{"ProcessName":"com.sec.android.app.twdvfs","Start":"12-24-2013 05:42:03","End":"12-24-2013 05:46:24"}}
{"Application":{"ProcessName":"com.android.nfc","Start":"12-24-2013 05:42:03","End":"12-24-2013 05:46:24"}}
{"Application":{"ProcessName":"com.sec.android.app.clockpackage","Start":"12-24-2013 05:42:03","End":"12-24-2013 05:46:24"}}
{"Application":{"ProcessName":"com.sec.android.app.sysscope","Start":"12-24-2013 05:42:03","End":"12-24-2013 05:46:24"}}
{"Application":{"ProcessName":"com.sec.android.app.FlashBarService","Start":"12-24-2013 05:42:03","End":"12-24-2013 05:46:24"}}
{"Application":{"ProcessName":"com.samsung.android.providers.context","Start":"12-24-2013 05:50:03","End":"12-24-2013 05:51:23"}}
{"Application":{"ProcessName":"com.sec.android.provider.logsprovider","Start":"12-24-2013 05:50:03","End":"12-24-2013 05:51:23"}}
{"Application":{"ProcessName":"com.sec.android.app.twdvfs","Start":"12-24-2013 05:50:03","End":"12-24-2013 05:51:23"}}
{"Application":{"ProcessName":"com.android.nfc","Start":"12-24-2013 05:50:03","End":"12-24-2013 05:51:23"}}
{"Application":{"ProcessName":"com.sec.android.app.clockpackage","Start":"12-24-2013 05:50:03","End":"12-24-2013 05:51:23"}}
{"Application":{"ProcessName":"com.sec.android.app.sysscope","Start":"12-24-2013 05:50:03","End":"12-24-2013 05:51:23"}}
{"Application":{"ProcessName":"com.sec.android.app.FlashBarService","Start":"12-24-2013 05:50:03","End":"12-24-2013 05:51:23"}}
{"Application":{"ProcessName":"com.samsung.android.providers.context","Start":"12-24-2013 05:55:08","End":"12-24-2013 05:56:44"}}
{"Application":{"ProcessName":"com.sec.android.provider.logsprovider","Start":"12-24-2013 05:55:08","End":"12-24-2013 05:56:44"}}
{"Application":{"ProcessName":"com.sec.android.app.twdvfs","Start":"12-24-2013 05:55:08","End":"12-24-2013 05:56:44"}}
{"Application":{"ProcessName":"com.android.nfc","Start":"12-24-2013 05:55:08","End":"12-24-2013 05:56:44"}}
{"Application":{"ProcessName":"com.sec.android.app.clockpackage","Start":"12-24-2013 05:55:08","End":"12-24-2013 05:56:44"}}
{"Application":{"ProcessName":"com.sec.android.app.sysscope","Start":"12-24-2013 05:55:08","End":"12-24-2013 05:56:44"}}
{"Application":{"ProcessName":"com.sec.android.app.FlashBarService","Start":"12-24-2013 05:55:08","End":"12-24-2013 05:56:44"}}
{"Application":{"ProcessName":"com.samsung.android.providers.context","Start":"12-24-2013 06:00:00","End":"12-24-2013 06:01:26"}}
{"Application":{"ProcessName":"com.sec.android.provider.logsprovider","Start":"12-24-2013 06:00:00","End":"12-24-2013 06:01:26"}}
{"Application":{"ProcessName":"com.sec.android.app.twdvfs","Start":"12-24-2013 06:00:12","End":"12-24-2013 06:01:26"}}
{"Application":{"ProcessName":"com.sec.android.app.clockpackage","Start":"12-24-2013 06:00:12","End":"12-24-2013 06:01:26"}}
{"Application":{"ProcessName":"com.android.nfc","Start":"12-24-2013 06:00:00","End":"12-24-2013 06:01:26"}}
{"Application":{"ProcessName":"com.sec.android.app.sysscope","Start":"12-24-2013 06:00:00","End":"12-24-2013 06:01:26"}}
{"Application":{"ProcessName":"com.sec.android.app.FlashBarService","Start":"12-24-2013 06:00:00","End":"12-24-2013 06:01:26"}}
{"Application":{"ProcessName":"com.samsung.android.providers.context","Start":"12-24-2013 07:30:04","End":"12-24-2013 07:31:15"}}
{"Application":{"ProcessName":"com.sec.android.provider.logsprovider","Start":"12-24-2013 07:30:04","End":"12-24-2013 07:31:15"}}
{"Application":{"ProcessName":"com.sec.android.app.twdvfs","Start":"12-24-2013 07:30:04","End":"12-24-2013 07:31:15"}}
{"Application":{"ProcessName":"com.android.nfc","Start":"12-24-2013 07:30:04","End":"12-24-2013 07:31:15"}}
{"Application":{"ProcessName":"com.sec.android.app.clockpackage","Start":"12-24-2013 07:30:04","End":"12-24-2013 07:31:15"}}
{"Application":{"ProcessName":"com.sec.android.app.sysscope","Start":"12-24-2013 07:30:04","End":"12-24-2013 07:31:15"}}
{"Application":{"ProcessName":"com.sec.android.app.FlashBarService","Start":"12-24-2013 07:30:04","End":"12-24-2013 07:31:15"}}
{"Application":{"ProcessName":"com.samsung.android.providers.context","Start":"12-24-2013 07:35:06","End":"12-24-2013 07:36:36"}}
{"Application":{"ProcessName":"com.yahoo.mobile.client.android.mail","Start":"12-24-2013 07:36:06","End":"12-24-2013 07:36:36"}}
{"Application":{"ProcessName":"com.sec.android.provider.logsprovider","Start":"12-24-2013 07:35:06","End":"12-24-2013 07:36:36"}}
{"Application":{"ProcessName":"com.sec.android.app.twdvfs","Start":"12-24-2013 07:35:06","End":"12-24-2013 07:36:36"}}
{"Application":{"ProcessName":"com.android.nfc","Start":"12-24-2013 07:35:06","End":"12-24-2013 07:36:36"}}
{"Application":{"ProcessName":"com.sec.android.app.clockpackage","Start":"12-24-2013 07:35:06","End":"12-24-2013 07:36:36"}}
{"Application":{"ProcessName":"com.sec.android.app.sysscope","Start":"12-24-2013 07:35:06","End":"12-24-2013 07:36:36"}}
{"Application":{"ProcessName":"com.sec.android.app.FlashBarService","Start":"12-24-2013 07:35:06","End":"12-24-2013 07:36:36"}}
{"Application":{"ProcessName":"com.samsung.android.providers.context","Start":"12-24-2013 07:40:00","End":"12-24-2013 07:41:11"}}
{"Application":{"ProcessName":"com.sec.android.provider.logsprovider","Start":"12-24-2013 07:40:00","End":"12-24-2013 07:41:11"}}
{"Application":{"ProcessName":"com.sec.android.app.twdvfs","Start":"12-24-2013 07:40:11","End":"12-24-2013 07:41:11"}}
{"Application":{"ProcessName":"com.sec.android.app.clockpackage","Start":"12-24-2013 07:40:11","End":"12-24-2013 07:41:11"}}
{"Application":{"ProcessName":"com.android.nfc","Start":"12-24-2013 07:40:00","End":"12-24-2013 07:41:11"}}
{"Application":{"ProcessName":"com.sec.android.app.sysscope","Start":"12-24-2013 07:40:00","End":"12-24-2013 07:41:11"}}
{"Application":{"ProcessName":"com.sec.android.app.FlashBarService","Start":"12-24-2013 07:40:00","End":"12-24-2013 07:41:11"}}
{"Application":{"ProcessName":"com.samsung.android.providers.context","Start":"12-24-2013 07:45:04","End":"12-24-2013 07:46:39"}}
{"Application":{"ProcessName":"com.sec.android.provider.logsprovider","Start":"12-24-2013 07:45:04","End":"12-24-2013 07:46:39"}}
{"Application":{"ProcessName":"com.sec.android.app.twdvfs","Start":"12-24-2013 07:45:04","End":"12-24-2013 07:46:39"}}
{"Application":{"ProcessName":"com.android.nfc","Start":"12-24-2013 07:45:04","End":"12-24-2013 07:46:39"}}
{"Application":{"ProcessName":"com.sec.android.app.clockpackage","Start":"12-24-2013 07:45:04","End":"12-24-2013 07:46:39"}}
{"Application":{"ProcessName":"com.sec.android.app.sysscope","Start":"12-24-2013 07:45:04","End":"12-24-2013 07:46:39"}}
{"Application":{"ProcessName":"com.sec.android.app.FlashBarService","Start":"12-24-2013 07:45:04","End":"12-24-2013 07:46:39"}}
{"Application":{"ProcessName":"com.sec.android.gallery3d","Start":"12-24-2013 12:31:37","End":"12-24-2013 12:31:47"}}
{"Application":{"ProcessName":"com.appall.optimizationbox","Start":"12-24-2013 12:31:47","End":"12-24-2013 12:31:57"}}
{"Application":{"ProcessName":"com.samsung.android.providers.context","Start":"12-24-2013 12:31:37","End":"12-24-2013 12:32:08"}}
{"Application":{"ProcessName":"com.sec.android.provider.logsprovider","Start":"12-24-2013 12:31:37","End":"12-24-2013 12:32:08"}}
{"Application":{"ProcessName":"com.sec.android.app.twdvfs","Start":"12-24-2013 12:31:37","End":"12-24-2013 12:32:08"}}
{"Application":{"ProcessName":"com.android.nfc","Start":"12-24-2013 12:31:37","End":"12-24-2013 12:32:08"}}
{"Application":{"ProcessName":"com.sec.android.app.sysscope","Start":"12-24-2013 12:31:37","End":"12-24-2013 12:32:08"}}
{"Application":{"ProcessName":"com.katecca.screenofflock","Start":"12-24-2013 12:31:57","End":"12-24-2013 12:32:08"}}
{"Application":{"ProcessName":"com.sec.android.app.FlashBarService","Start":"12-24-2013 12:31:37","End":"12-24-2013 12:32:08"}}
{"Application":{"ProcessName":"cm.aptoide.pt","Start":"12-24-2013 13:53:43","End":"12-24-2013 13:53:53"}}
{"Application":{"ProcessName":"com.yahoo.mobile.client.android.mail:com.yahoo.snp.service","Start":"12-24-2013 13:53:53","End":"12-24-2013 13:54:03"}}
{"Application":{"ProcessName":"com.jb.gosms:freemsg","Start":"12-24-2013 13:53:53","End":"12-24-2013 13:54:03"}}
{"Location":{"Latitude":"35.7787709","Longtitude":"51.3795412","Altitude":"0.0","time":"12-24-2013 13:54:06","Accuracy":"88.299","Provider":"fused","Speed":"0.0"}}
{"Application":{"ProcessName":"com.sec.android.app.launcher","Start":"12-24-2013 13:53:33","End":"12-24-2013 13:54:13"}}
{"WiFi":{"SSID":"maria","BSSID":"f4:3e:61:e1:8f:5c","capabilities":"[WPA-PSK-TKIP][ESS]","level":"-17","frequency":"2462","time":"Tuesday, December 24, 2013 1:54:16 PM Iran Standard Time"}}
{"WiFi":{"SSID":"mehdi","BSSID":"64:16:f0:6e:8f:8e","capabilities":"[WPA-PSK-TKIP][ESS]","level":"-76","frequency":"2412","time":"Tuesday, December 24, 2013 1:54:16 PM Iran Standard Time"}}
{"WiFi":{"SSID":"BlackFalcon","BSSID":"58:6d:8f:69:f9:76","capabilities":"[WPA-PSK-TKIP+CCMP][WPA2-PSK-TKIP+CCMP][WPS][ESS]","level":"-82","frequency":"2437","time":"Tuesday, December 24, 2013 1:54:16 PM Iran Standard Time"}}
{"WiFi":{"SSID":"KOUROSH","BSSID":"00:21:27:e6:43:5c","capabilities":"[WEP][ESS]","level":"-72","frequency":"2447","time":"Tuesday, December 24, 2013 1:54:16 PM Iran Standard Time"}}
{"WiFi":{"SSID":"BlackFalcon-guest","BSSID":"58:6d:8f:69:f9:78","capabilities":"[ESS]","level":"-82","frequency":"2437","time":"Tuesday, December 24, 2013 1:54:16 PM Iran Standard Time"}}
{"WiFi":{"SSID":"donya1","BSSID":"b0:48:7a:da:6f:d8","capabilities":"[WPA-PSK-TKIP+CCMP][WPA2-PSK-TKIP+CCMP][WPS][ESS]","level":"-91","frequency":"2452","time":"Tuesday, December 24, 2013 1:54:16 PM Iran Standard Time"}}
{"Application":{"ProcessName":"com.google.android.talk","Start":"12-24-2013 13:54:13","End":"12-24-2013 13:54:23"}}
{"Location":{"Latitude":"35.7757101","Longtitude":"51.3753829","Altitude":"0.0","time":"12-24-2013 13:59:39","Accuracy":"1726.0","Provider":"fused","Speed":"0.0"}}
{"Application":{"ProcessName":"com.google.process.location","Start":"12-24-2013 13:59:30","End":"12-24-2013 13:59:40"}}
{"WiFi":{"SSID":"maria","BSSID":"f4:3e:61:e1:8f:5c","capabilities":"[WPA-PSK-TKIP][ESS]","level":"-27","frequency":"2462","time":"Tuesday, December 24, 2013 1:59:50 PM Iran Standard Time"}}
{"WiFi":{"SSID":"mehdi","BSSID":"64:16:f0:6e:8f:8e","capabilities":"[WPA-PSK-TKIP][ESS]","level":"-78","frequency":"2412","time":"Tuesday, December 24, 2013 1:59:50 PM Iran Standard Time"}}
{"WiFi":{"SSID":"KOUROSH","BSSID":"00:21:27:e6:43:5c","capabilities":"[WEP][ESS]","level":"-75","frequency":"2447","time":"Tuesday, December 24, 2013 1:59:50 PM Iran Standard Time"}}
{"WiFi":{"SSID":"keyvan","BSSID":"98:42:46:04:1b:ba","capabilities":"[WPA-PSK-TKIP][ESS]","level":"-85","frequency":"2462","time":"Tuesday, December 24, 2013 1:59:50 PM Iran Standard Time"}}
{"WiFi":{"SSID":"Virus3","BSSID":"00:1f:fb:63:ec:34","capabilities":"[WPA2-PSK-CCMP][ESS]","level":"-82","frequency":"2412","time":"Tuesday, December 24, 2013 1:59:50 PM Iran Standard Time"}}
{"WiFi":{"SSID":"sakheifar","BSSID":"f4:3e:61:25:e5:a3","capabilities":"[WPA2-PSK-CCMP][ESS]","level":"-88","frequency":"2462","time":"Tuesday, December 24, 2013 1:59:50 PM Iran Standard Time"}}
{"WiFi":{"SSID":"Financial","BSSID":"90:94:e4:d1:20:60","capabilities":"[WPA-PSK-TKIP+CCMP][WPA2-PSK-TKIP+CCMP][WPS][ESS]","level":"-84","frequency":"2427","time":"Tuesday, December 24, 2013 1:59:50 PM Iran Standard Time"}}
{"WiFi":{"SSID":"Atabaki","BSSID":"c8:d1:5e:89:63:c4","capabilities":"[WPA-PSK-TKIP+CCMP][WPA2-PSK-TKIP+CCMP][ESS]","level":"-90","frequency":"2442","time":"Tuesday, December 24, 2013 1:59:50 PM Iran Standard Time"}}
{"WiFi":{"SSID":"BAHARAN","BSSID":"1c:af:f7:b3:19:e3","capabilities":"[WPA-PSK-TKIP+CCMP][WPA2-PSK-TKIP+CCMP][ESS]","level":"-92","frequency":"2462","time":"Tuesday, December 24, 2013 1:59:50 PM Iran Standard Time"}}
{"WiFi":{"SSID":"BlackFalcon-guest","BSSID":"58:6d:8f:69:f9:78","capabilities":"[ESS]","level":"-92","frequency":"2437","time":"Tuesday, December 24, 2013 1:59:50 PM Iran Standard Time"}}
{"Application":{"ProcessName":"com.sec.android.app.clockpackage","Start":"12-24-2013 14:00:00","End":"12-24-2013 14:00:10"}}
{"Application":{"ProcessName":"com.sec.android.widgetapp.alarmclock","Start":"12-24-2013 14:00:00","End":"12-24-2013 14:00:10"}}
{"Application":{"ProcessName":"com.vlingo.midas","Start":"12-24-2013 14:00:00","End":"12-24-2013 14:00:10"}}
{"Application":{"ProcessName":"com.wssyncmldm","Start":"12-24-2013 14:00:10","End":"12-24-2013 14:00:20"}}
{"Application":{"ProcessName":"com.nqmobile.antivirus20","Start":"12-24-2013 14:00:20","End":"12-24-2013 14:00:30"}}
{"WiFi":{"SSID":"maria","BSSID":"f4:3e:61:e1:8f:5c","capabilities":"[WPA-PSK-TKIP][ESS]","level":"-27","frequency":"2462","time":"Tuesday, December 24, 2013 2:00:50 PM Iran Standard Time"}}
{"WiFi":{"SSID":"mehdi","BSSID":"64:16:f0:6e:8f:8e","capabilities":"[WPA-PSK-TKIP][ESS]","level":"-68","frequency":"2412","time":"Tuesday, December 24, 2013 2:00:50 PM Iran Standard Time"}}
{"WiFi":{"SSID":"KOUROSH","BSSID":"00:21:27:e6:43:5c","capabilities":"[WEP][ESS]","level":"-75","frequency":"2447","time":"Tuesday, December 24, 2013 2:00:50 PM Iran Standard Time"}}
{"WiFi":{"SSID":"keyvan","BSSID":"98:42:46:04:1b:ba","capabilities":"[WPA-PSK-TKIP][ESS]","level":"-87","frequency":"2462","time":"Tuesday, December 24, 2013 2:00:50 PM Iran Standard Time"}}
{"WiFi":{"SSID":"Virus3","BSSID":"00:1f:fb:63:ec:34","capabilities":"[WPA2-PSK-CCMP][ESS]","level":"-77","frequency":"2412","time":"Tuesday, December 24, 2013 2:00:50 PM Iran Standard Time"}}
{"WiFi":{"SSID":"sakheifar","BSSID":"f4:3e:61:25:e5:a3","capabilities":"[WPA2-PSK-CCMP][ESS]","level":"-89","frequency":"2462","time":"Tuesday, December 24, 2013 2:00:50 PM Iran Standard Time"}}
{"WiFi":{"SSID":"Financial","BSSID":"90:94:e4:d1:20:60","capabilities":"[WPA-PSK-TKIP+CCMP][WPA2-PSK-TKIP+CCMP][WPS][ESS]","level":"-83","frequency":"2427","time":"Tuesday, December 24, 2013 2:00:50 PM Iran Standard Time"}}
{"WiFi":{"SSID":"azimi","BSSID":"00:27:19:ca:9a:c8","capabilities":"[WEP][ESS]","level":"-86","frequency":"2447","time":"Tuesday, December 24, 2013 2:00:50 PM Iran Standard Time"}}
{"WiFi":{"SSID":"maria","BSSID":"f4:3e:61:e1:8f:5c","capabilities":"[WPA-PSK-TKIP][ESS]","level":"-44","frequency":"2462","time":"Tuesday, December 24, 2013 2:16:11 PM Iran Standard Time"}}
{"WiFi":{"SSID":"mehdi","BSSID":"64:16:f0:6e:8f:8e","capabilities":"[WPA-PSK-TKIP][ESS]","level":"-71","frequency":"2412","time":"Tuesday, December 24, 2013 2:16:11 PM Iran Standard Time"}}
{"WiFi":{"SSID":"Financial","BSSID":"90:94:e4:d1:20:60","capabilities":"[WPA-PSK-TKIP+CCMP][WPA2-PSK-TKIP+CCMP][WPS][ESS]","level":"-89","frequency":"2427","time":"Tuesday, December 24, 2013 2:16:11 PM Iran Standard Time"}}
{"WiFi":{"SSID":"KOUROSH","BSSID":"00:21:27:e6:43:5c","capabilities":"[WEP][ESS]","level":"-68","frequency":"2447","time":"Tuesday, December 24, 2013 2:16:11 PM Iran Standard Time"}}
{"WiFi":{"SSID":"azimi","BSSID":"00:27:19:ca:9a:c8","capabilities":"[WEP][ESS]","level":"-87","frequency":"2447","time":"Tuesday, December 24, 2013 2:16:11 PM Iran Standard Time"}}
{"WiFi":{"SSID":"NV-MirTorabi","BSSID":"d8:5d:4c:c2:81:80","capabilities":"[WEP][ESS]","level":"-92","frequency":"2457","time":"Tuesday, December 24, 2013 2:16:11 PM Iran Standard Time"}}
{"WiFi":{"SSID":"maria","BSSID":"f4:3e:61:e1:8f:5c","capabilities":"[WPA-PSK-TKIP][ESS]","level":"-41","frequency":"2462","time":"Tuesday, December 24, 2013 2:17:11 PM Iran Standard Time"}}
{"WiFi":{"SSID":"mehdi","BSSID":"64:16:f0:6e:8f:8e","capabilities":"[WPA-PSK-TKIP][ESS]","level":"-75","frequency":"2412","time":"Tuesday, December 24, 2013 2:17:11 PM Iran Standard Time"}}
{"WiFi":{"SSID":"KOUROSH","BSSID":"00:21:27:e6:43:5c","capabilities":"[WEP][ESS]","level":"-72","frequency":"2447","time":"Tuesday, December 24, 2013 2:17:11 PM Iran Standard Time"}}
{"WiFi":{"SSID":"keyvan","BSSID":"98:42:46:04:1b:ba","capabilities":"[WPA-PSK-TKIP][ESS]","level":"-88","frequency":"2462","time":"Tuesday, December 24, 2013 2:17:11 PM Iran Standard Time"}}
{"WiFi":{"SSID":"sanam","BSSID":"ac:81:12:72:48:a5","capabilities":"[WPA2-PSK-TKIP][ESS]","level":"-92","frequency":"2412","time":"Tuesday, December 24, 2013 2:17:11 PM Iran Standard Time"}}
{"WiFi":{"SSID":"SEC_LinkShare_5c97d8","BSSID":"d0:66:7b:a7:84:15","capabilities":"[WPA2-PSK-CCMP][WPS][ESS]","level":"-95","frequency":"2442","time":"Tuesday, December 24, 2013 2:17:11 PM Iran Standard Time"}}
{"Location":{"Latitude":"35.777603","Longtitude":"51.3807131","Altitude":"0.0","time":"12-24-2013 14:17:31","Accuracy":"1496.0","Provider":"fused","Speed":"0.0"}}
{"Location":{"Latitude":"35.777603","Longtitude":"51.3807131","Altitude":"0.0","time":"12-24-2013 14:17:31","Accuracy":"1496.0","Provider":"fused","Speed":"0.0"}}
{"WiFi":{"SSID":"maria","BSSID":"f4:3e:61:e1:8f:5c","capabilities":"[WPA-PSK-TKIP][ESS]","level":"-49","frequency":"2462","time":"Tuesday, December 24, 2013 2:18:11 PM Iran Standard Time"}}
{"WiFi":{"SSID":"mehdi","BSSID":"64:16:f0:6e:8f:8e","capabilities":"[WPA-PSK-TKIP][ESS]","level":"-78","frequency":"2412","time":"Tuesday, December 24, 2013 2:18:11 PM Iran Standard Time"}}
{"WiFi":{"SSID":"KOUROSH","BSSID":"00:21:27:e6:43:5c","capabilities":"[WEP][ESS]","level":"-74","frequency":"2447","time":"Tuesday, December 24, 2013 2:18:11 PM Iran Standard Time"}}
{"WiFi":{"SSID":"keyvan","BSSID":"98:42:46:04:1b:ba","capabilities":"[WPA-PSK-TKIP][ESS]","level":"-89","frequency":"2462","time":"Tuesday, December 24, 2013 2:18:11 PM Iran Standard Time"}}
{"WiFi":{"SSID":"Financial","BSSID":"90:94:e4:d1:20:60","capabilities":"[WPA-PSK-TKIP+CCMP][WPA2-PSK-TKIP+CCMP][WPS][ESS]","level":"-89","frequency":"2427","time":"Tuesday, December 24, 2013 2:18:11 PM Iran Standard Time"}}
{"WiFi":{"SSID":"azimi","BSSID":"00:27:19:ca:9a:c8","capabilities":"[WEP][ESS]","level":"-87","frequency":"2447","time":"Tuesday, December 24, 2013 2:18:11 PM Iran Standard Time"}}
{"Location":{"Latitude":"35.7789059","Longtitude":"51.3797608","Altitude":"0.0","time":"12-24-2013 14:18:59","Accuracy":"32.787","Provider":"fused","Speed":"0.0"}}
{"Application":{"ProcessName":"com.google.process.location","Start":"12-24-2013 16:48:20","End":"12-24-2013 16:48:30"}}
{"SMS":{"Address":"+98937108####","type":"1","date":"12-24-2013 16:41:35","body":"ANONYMIZED","Type":"1"}}
{"Application":{"ProcessName":"com.jb.gosms","Start":"12-24-2013 16:47:59","End":"12-24-2013 16:49:00"}}
{"Application":{"ProcessName":"com.dropbox.android","Start":"12-24-2013 16:48:50","End":"12-24-2013 16:49:00"}}
{"SMS":{"Address":"+98937108####","type":"2","date":"12-24-2013 16:48:59","body":"ANONYMIZED","Type":"2"}}
{"Application":{"ProcessName":"com.yahoo.mobile.client.android.imvideo","Start":"12-24-2013 16:49:30","End":"12-24-2013 16:49:40"}}
{"Application":{"ProcessName":"com.gtcsoft.xingplayer.am1","Start":"12-24-2013 16:49:50","End":"12-24-2013 16:50:00"}}
{"Application":{"ProcessName":"com.sec.android.app.clockpackage","Start":"12-24-2013 16:49:00","End":"12-24-2013 16:50:10"}}
{"Application":{"ProcessName":"com.sec.android.app.launcher","Start":"12-24-2013 16:50:10","End":"12-24-2013 16:50:20"}}
{"Application":{"ProcessName":"com.yahoo.mobile.client.android.im","Start":"12-24-2013 16:50:30","End":"12-24-2013 16:50:40"}}
{"Application":{"ProcessName":"com.google.android.apps.plus","Start":"12-24-2013 16:50:40","End":"12-24-2013 16:50:50"}}
{"SMS":{"Address":"0937108####","type":"2","date":"12-24-2013 16:50:46","body":"ANONYMIZED","Type":"2"}}
{"Application":{"ProcessName":"com.jb.gosms","Start":"12-24-2013 16:50:20","End":"12-24-2013 16:51:00"}}
{"Application":{"ProcessName":"com.lookout","Start":"12-24-2013 16:51:10","End":"12-24-2013 16:51:20"}}
{"Application":{"ProcessName":"com.google.android.apps.plus","Start":"12-24-2013 16:51:20","End":"12-24-2013 16:51:30"}}
{"Application":{"ProcessName":"com.real.RealPlayer","Start":"12-24-2013 16:51:20","End":"12-24-2013 16:51:30"}}
{"Application":{"ProcessName":"com.sec.chaton","Start":"12-24-2013 16:51:30","End":"12-24-2013 16:51:40"}}
{"Application":{"ProcessName":"com.dropbox.android","Start":"12-24-2013 16:51:40","End":"12-24-2013 16:51:50"}}
{"Application":{"ProcessName":"com.yahoo.mobile.client.android.weather","Start":"12-24-2013 16:51:50","End":"12-24-2013 16:52:00"}}
{"Application":{"ProcessName":"com.yahoo.mobile.client.android.im","Start":"12-24-2013 16:51:50","End":"12-24-2013 16:52:00"}}
{"Application":{"ProcessName":"com.sec.android.app.clockpackage","Start":"12-24-2013 16:52:00","End":"12-24-2013 16:52:10"}}
{"Application":{"ProcessName":"com.sec.android.widgetapp.alarmclock","Start":"12-24-2013 16:52:00","End":"12-24-2013 16:52:10"}}
{"Application":{"ProcessName":"com.samsung.android.providers.context","Start":"12-24-2013 16:47:59","End":"12-24-2013 16:53:15"}}
{"Application":{"ProcessName":"com.sec.android.provider.logsprovider","Start":"12-24-2013 16:47:59","End":"12-24-2013 16:53:15"}}
{"Application":{"ProcessName":"com.sec.android.app.twdvfs","Start":"12-24-2013 16:47:59","End":"12-24-2013 16:53:15"}}
{"Application":{"ProcessName":"com.android.nfc","Start":"12-24-2013 16:47:59","End":"12-24-2013 16:53:15"}}
{"Application":{"ProcessName":"com.sec.android.app.sysscope","Start":"12-24-2013 16:47:59","End":"12-24-2013 16:53:15"}}
{"Application":{"ProcessName":"com.sec.android.app.launcher","Start":"12-24-2013 16:51:00","End":"12-24-2013 16:53:15"}}
{"Application":{"ProcessName":"com.sec.android.app.FlashBarService","Start":"12-24-2013 16:47:59","End":"12-24-2013 16:53:15"}}
{"SMS":{"Address":"+98937108####","type":"1","date":"12-24-2013 16:54:30","body":"ANONYMIZED","Type":"1"}}
{"Application":{"ProcessName":"com.samsung.android.providers.context","Start":"12-24-2013 16:54:33","End":"12-24-2013 16:54:43"}}
{"Application":{"ProcessName":"com.nqmobile.antivirus20","Start":"12-24-2013 16:54:33","End":"12-24-2013 16:54:43"}}
{"Application":{"ProcessName":"com.jb.gosms","Start":"12-24-2013 16:54:33","End":"12-24-2013 16:54:43"}}
{"Application":{"ProcessName":"com.sec.android.provider.logsprovider","Start":"12-24-2013 16:54:33","End":"12-24-2013 16:54:43"}}
{"Application":{"ProcessName":"com.sec.android.app.twdvfs","Start":"12-24-2013 16:54:33","End":"12-24-2013 16:54:43"}}
{"Application":{"ProcessName":"com.android.nfc","Start":"12-24-2013 16:54:33","End":"12-24-2013 16:54:43"}}
{"Application":{"ProcessName":"com.sec.android.app.sysscope","Start":"12-24-2013 16:54:33","End":"12-24-2013 16:54:43"}}
{"Application":{"ProcessName":"com.sec.android.app.FlashBarService","Start":"12-24-2013 16:54:33","End":"12-24-2013 16:54:43"}}
{"Application":{"ProcessName":"com.sec.android.widgetapp.ap.hero.accuweather.widget:remote","Start":"12-24-2013 16:55:02","End":"12-24-2013 16:55:12"}}
{"SMS":{"Address":"+98937108####","type":"2","date":"12-24-2013 16:55:16","body":"ANONYMIZED","Type":"2"}}
{"Application":{"ProcessName":"com.jb.gosms","Start":"12-24-2013 16:55:02","End":"12-24-2013 16:55:22"}}
{"Application":{"ProcessName":"com.samsung.android.providers.context","Start":"12-24-2013 16:55:02","End":"12-24-2013 16:57:23"}}
{"Application":{"ProcessName":"com.sec.android.provider.logsprovider","Start":"12-24-2013 16:55:02","End":"12-24-2013 16:57:23"}}
{"Application":{"ProcessName":"com.sec.android.app.twdvfs","Start":"12-24-2013 16:55:02","End":"12-24-2013 16:57:23"}}
{"Application":{"ProcessName":"com.android.nfc","Start":"12-24-2013 16:55:02","End":"12-24-2013 16:57:23"}}
{"Application":{"ProcessName":"com.sec.android.app.sysscope","Start":"12-24-2013 16:55:02","End":"12-24-2013 16:57:23"}}
{"Application":{"ProcessName":"com.sec.android.app.launcher","Start":"12-24-2013 16:55:22","End":"12-24-2013 16:57:23"}}
{"Application":{"ProcessName":"com.sec.android.app.FlashBarService","Start":"12-24-2013 16:55:02","End":"12-24-2013 16:57:23"}}
{"Application":{"ProcessName":"com.yahoo.mobile.client.android.im","Start":"12-24-2013 17:10:59","End":"12-24-2013 17:11:09"}}
{"Application":{"ProcessName":"com.yahoo.mobile.client.android.mail","Start":"12-24-2013 17:11:09","End":"12-24-2013 17:11:20"}}
{"Application":{"ProcessName":"com.tencent.mm:tools","Start":"12-24-2013 17:11:20","End":"12-24-2013 17:11:30"}}
{"Application":{"ProcessName":"com.dropbox.android","Start":"12-24-2013 17:11:20","End":"12-24-2013 17:11:30"}}
{"Application":{"ProcessName":"fast.dic.dict","Start":"12-24-2013 17:10:59","End":"12-24-2013 17:11:40"}}
{"Application":{"ProcessName":"com.google.process.location","Start":"12-24-2013 17:11:50","End":"12-24-2013 17:12:00"}}
{"Application":{"ProcessName":"com.google.android.gms","Start":"12-24-2013 17:11:50","End":"12-24-2013 17:12:00"}}
{"Application":{"ProcessName":"com.sec.android.app.clockpackage","Start":"12-24-2013 17:12:00","End":"12-24-2013 17:12:10"}}
{"Application":{"ProcessName":"com.sec.android.widgetapp.alarmclock","Start":"12-24-2013 17:12:00","End":"12-24-2013 17:12:10"}}
{"Application":{"ProcessName":"com.sec.chaton","Start":"12-24-2013 17:12:20","End":"12-24-2013 17:12:30"}}
{"Application":{"ProcessName":"com.yahoo.mobile.client.android.mail","Start":"12-24-2013 17:12:50","End":"12-24-2013 17:13:00"}}
{"Application":{"ProcessName":"com.yahoo.mobile.client.android.weather","Start":"12-24-2013 17:12:50","End":"12-24-2013 17:13:00"}}
{"Application":{"ProcessName":"com.jb.gosms","Start":"12-24-2013 17:13:10","End":"12-24-2013 17:13:20"}}
{"Application":{"ProcessName":"com.samsung.android.providers.context","Start":"12-24-2013 17:10:59","End":"12-24-2013 17:13:40"}}
{"Application":{"ProcessName":"com.sec.android.provider.logsprovider","Start":"12-24-2013 17:10:59","End":"12-24-2013 17:13:40"}}
{"Application":{"ProcessName":"com.sec.android.app.twdvfs","Start":"12-24-2013 17:10:59","End":"12-24-2013 17:13:40"}}
{"Application":{"ProcessName":"com.android.nfc","Start":"12-24-2013 17:10:59","End":"12-24-2013 17:13:40"}}
{"Application":{"ProcessName":"com.sec.android.app.sysscope","Start":"12-24-2013 17:10:59","End":"12-24-2013 17:13:40"}}
{"Application":{"ProcessName":"com.sec.android.app.launcher","Start":"12-24-2013 17:11:40","End":"12-24-2013 17:13:40"}}
{"Application":{"ProcessName":"com.sec.android.app.FlashBarService","Start":"12-24-2013 17:10:59","End":"12-24-2013 17:13:40"}}
{"Application":{"ProcessName":"com.samsung.android.providers.context","Start":"12-24-2013 17:18:19","End":"12-24-2013 17:18:29"}}
{"Application":{"ProcessName":"com.sec.android.provider.logsprovider","Start":"12-24-2013 17:18:19","End":"12-24-2013 17:18:29"}}
{"Application":{"ProcessName":"com.sec.android.app.twdvfs","Start":"12-24-2013 17:18:19","End":"12-24-2013 17:18:29"}}
{"Application":{"ProcessName":"com.android.nfc","Start":"12-24-2013 17:18:19","End":"12-24-2013 17:18:29"}}
{"Application":{"ProcessName":"com.sec.android.app.sysscope","Start":"12-24-2013 17:18:19","End":"12-24-2013 17:18:29"}}
{"Application":{"ProcessName":"com.sec.android.app.launcher","Start":"12-24-2013 17:18:19","End":"12-24-2013 17:18:29"}}
{"Application":{"ProcessName":"com.sec.android.app.FlashBarService","Start":"12-24-2013 17:18:19","End":"12-24-2013 17:18:29"}}
