{"Application":{"ProcessName":"com.sonyericsson.home","Start":"12-13-2013 23:04:26","End":"12-13-2013 23:07:03"}}
{"Application":{"ProcessName":"com.sonyericsson.customization","Start":"12-13-2013 23:04:26","End":"12-13-2013 23:07:03"}}
{"Application":{"ProcessName":"com.sonyericsson.r2r.client","Start":"12-13-2013 23:04:26","End":"12-13-2013 23:07:03"}}
{"Application":{"ProcessName":"com.sonyericsson.eventstream","Start":"12-13-2013 23:04:26","End":"12-13-2013 23:07:03"}}
{"Application":{"ProcessName":"com.google.android.deskclock","Start":"12-14-2013 06:15:05","End":"12-14-2013 06:15:15"}}
{"Application":{"ProcessName":"com.sonyericsson.r2r.client","Start":"12-14-2013 06:15:05","End":"12-14-2013 06:21:44"}}
{"Application":{"ProcessName":"com.sonyericsson.home","Start":"12-14-2013 06:15:05","End":"12-14-2013 06:21:44"}}
{"Application":{"ProcessName":"com.sonyericsson.customization","Start":"12-14-2013 06:15:05","End":"12-14-2013 06:21:44"}}
{"Application":{"ProcessName":"com.sonyericsson.eventstream","Start":"12-14-2013 06:15:05","End":"12-14-2013 06:21:44"}}
{"Application":{"ProcessName":"com.sonyericsson.r2r.client","Start":"12-14-2013 06:25:27","End":"12-14-2013 06:40:01"}}
{"Application":{"ProcessName":"com.sonyericsson.home","Start":"12-14-2013 06:25:27","End":"12-14-2013 06:40:01"}}
{"Application":{"ProcessName":"com.sonyericsson.customization","Start":"12-14-2013 06:25:27","End":"12-14-2013 06:40:01"}}
{"Application":{"ProcessName":"com.sonyericsson.eventstream","Start":"12-14-2013 06:25:27","End":"12-14-2013 06:40:01"}}
{"Application":{"ProcessName":"com.sonyericsson.r2r.client","Start":"12-14-2013 06:40:01","End":"12-14-2013 06:40:02"}}
{"Application":{"ProcessName":"com.sonyericsson.home","Start":"12-14-2013 06:40:01","End":"12-14-2013 06:40:02"}}
{"Application":{"ProcessName":"com.sonyericsson.customization","Start":"12-14-2013 06:40:01","End":"12-14-2013 06:40:02"}}
{"Application":{"ProcessName":"com.sonyericsson.eventstream","Start":"12-14-2013 06:40:01","End":"12-14-2013 06:40:02"}}
{"Application":{"ProcessName":"com.android.settings","Start":"12-14-2013 07:50:52","End":"12-14-2013 07:50:53"}}
{"Application":{"ProcessName":"com.sonyericsson.fmradio","Start":"12-14-2013 07:51:13","End":"12-14-2013 07:51:50"}}
{"Application":{"ProcessName":"com.sonyericsson.r2r.client","Start":"12-14-2013 07:50:50","End":"12-14-2013 07:51:50"}}
{"Application":{"ProcessName":"com.sonyericsson.home","Start":"12-14-2013 07:50:50","End":"12-14-2013 07:51:50"}}
{"Application":{"ProcessName":"com.sonyericsson.customization","Start":"12-14-2013 07:50:50","End":"12-14-2013 07:51:50"}}
{"Application":{"ProcessName":"com.sonyericsson.eventstream","Start":"12-14-2013 07:50:50","End":"12-14-2013 07:51:50"}}
{"Application":{"ProcessName":"com.sonyericsson.fmradio","Start":"12-14-2013 07:51:52","End":"12-14-2013 07:52:25"}}
{"Application":{"ProcessName":"com.sonyericsson.r2r.client","Start":"12-14-2013 07:51:52","End":"12-14-2013 07:52:25"}}
{"Application":{"ProcessName":"com.sonyericsson.home","Start":"12-14-2013 07:51:52","End":"12-14-2013 07:52:25"}}
{"Application":{"ProcessName":"com.sonyericsson.customization","Start":"12-14-2013 07:51:52","End":"12-14-2013 07:52:25"}}
{"Application":{"ProcessName":"com.sonyericsson.eventstream","Start":"12-14-2013 07:51:52","End":"12-14-2013 07:52:25"}}
{"Application":{"ProcessName":"com.sonyericsson.fmradio","Start":"12-14-2013 07:53:23","End":"12-14-2013 07:54:46"}}
{"Application":{"ProcessName":"com.sonyericsson.r2r.client","Start":"12-14-2013 07:53:23","End":"12-14-2013 07:54:46"}}
{"Application":{"ProcessName":"com.sonyericsson.home","Start":"12-14-2013 07:53:23","End":"12-14-2013 07:54:46"}}
{"Application":{"ProcessName":"com.sonyericsson.customization","Start":"12-14-2013 07:53:23","End":"12-14-2013 07:54:46"}}
{"Application":{"ProcessName":"com.sonyericsson.eventstream","Start":"12-14-2013 07:53:23","End":"12-14-2013 07:54:46"}}
{"Application":{"ProcessName":"com.android.calculator2","Start":"12-14-2013 08:04:22","End":"12-14-2013 08:04:52"}}
{"Application":{"ProcessName":"com.sonyericsson.r2r.client","Start":"12-14-2013 08:04:22","End":"12-14-2013 08:04:52"}}
{"Application":{"ProcessName":"com.sonyericsson.home","Start":"12-14-2013 08:04:22","End":"12-14-2013 08:04:52"}}
{"Application":{"ProcessName":"com.sonyericsson.customization","Start":"12-14-2013 08:04:22","End":"12-14-2013 08:04:52"}}
{"Application":{"ProcessName":"com.sonyericsson.eventstream","Start":"12-14-2013 08:04:22","End":"12-14-2013 08:04:52"}}
{"SMS":{"Address":"+98919703####","type":"1","date":"12-14-2013 08:14:43","body":"ANONYMIZED","Type":"1", "metadata": {"name": "Pesaaaaraam :-)"}}}
{"Application":{"ProcessName":"com.sonyericsson.conversations","Start":"12-14-2013 08:14:51","End":"12-14-2013 08:15:11"}}
{"Application":{"ProcessName":"com.sonyericsson.r2r.client","Start":"12-14-2013 08:14:51","End":"12-14-2013 08:15:34"}}
{"Application":{"ProcessName":"com.sonyericsson.home","Start":"12-14-2013 08:14:51","End":"12-14-2013 08:15:34"}}
{"Application":{"ProcessName":"com.sonyericsson.customization","Start":"12-14-2013 08:14:51","End":"12-14-2013 08:15:34"}}
{"Application":{"ProcessName":"com.sonyericsson.eventstream","Start":"12-14-2013 08:14:51","End":"12-14-2013 08:15:34"}}
{"Application":{"ProcessName":"com.sonyericsson.music","Start":"12-14-2013 08:26:23","End":"12-14-2013 08:26:33"}}
{"Application":{"ProcessName":"com.sonyericsson.fmradio","Start":"12-14-2013 08:26:33","End":"12-14-2013 08:31:44"}}
{"Application":{"ProcessName":"com.sonyericsson.r2r.client","Start":"12-14-2013 08:23:28","End":"12-14-2013 08:31:44"}}
{"Application":{"ProcessName":"com.sonyericsson.home","Start":"12-14-2013 08:23:28","End":"12-14-2013 08:31:44"}}
{"Application":{"ProcessName":"com.sonyericsson.customization","Start":"12-14-2013 08:23:28","End":"12-14-2013 08:31:44"}}
{"Application":{"ProcessName":"com.sonyericsson.eventstream","Start":"12-14-2013 08:23:28","End":"12-14-2013 08:31:44"}}
{"Call": {"Number":"+98919703####","Duration":"0","Time":"12-14-2013 09:05:58","Type":"1"}}
{"Application":{"ProcessName":"com.sonyericsson.r2r.client","Start":"12-14-2013 09:05:59","End":"12-14-2013 09:13:44"}}
{"Application":{"ProcessName":"com.sonyericsson.home","Start":"12-14-2013 09:05:59","End":"12-14-2013 09:13:44"}}
{"Application":{"ProcessName":"com.sonyericsson.customization","Start":"12-14-2013 09:05:59","End":"12-14-2013 09:13:44"}}
{"Application":{"ProcessName":"com.sonyericsson.eventstream","Start":"12-14-2013 09:05:59","End":"12-14-2013 09:13:44"}}
{"Application":{"ProcessName":"com.sonyericsson.r2r.client","Start":"12-14-2013 09:13:44","End":"12-14-2013 09:19:11"}}
{"Application":{"ProcessName":"com.sonyericsson.home","Start":"12-14-2013 09:13:44","End":"12-14-2013 09:19:11"}}
{"Application":{"ProcessName":"com.sonyericsson.customization","Start":"12-14-2013 09:13:44","End":"12-14-2013 09:19:11"}}
{"Application":{"ProcessName":"com.sonyericsson.eventstream","Start":"12-14-2013 09:13:44","End":"12-14-2013 09:19:11"}}
{"Call": {"Number":"+98912699####","Duration":"0","Time":"12-14-2013 09:19:12","Type":"3"}}
{"Application":{"ProcessName":"com.sonyericsson.r2r.client","Start":"12-14-2013 09:19:13","End":"12-14-2013 09:24:18"}}
{"Application":{"ProcessName":"com.sonyericsson.home","Start":"12-14-2013 09:19:13","End":"12-14-2013 09:24:18"}}
{"Application":{"ProcessName":"com.sonyericsson.customization","Start":"12-14-2013 09:19:13","End":"12-14-2013 09:24:18"}}
{"Application":{"ProcessName":"com.sonyericsson.eventstream","Start":"12-14-2013 09:19:13","End":"12-14-2013 09:24:18"}}
{"Call": {"Number":"+98912699####","Duration":"0","Time":"12-14-2013 09:19:12","Type":"3"}}
{"Application":{"ProcessName":"com.sonyericsson.r2r.client","Start":"12-14-2013 09:24:18","End":"12-14-2013 09:24:30"}}
{"Application":{"ProcessName":"com.sonyericsson.home","Start":"12-14-2013 09:24:18","End":"12-14-2013 09:24:30"}}
{"Application":{"ProcessName":"com.sonyericsson.customization","Start":"12-14-2013 09:24:18","End":"12-14-2013 09:24:30"}}
{"Application":{"ProcessName":"com.sonyericsson.eventstream","Start":"12-14-2013 09:24:18","End":"12-14-2013 09:24:30"}}
{"Application":{"ProcessName":"com.sonyericsson.r2r.client","Start":"12-14-2013 09:54:46","End":"12-14-2013 10:01:01"}}
{"Application":{"ProcessName":"com.sonyericsson.home","Start":"12-14-2013 09:54:46","End":"12-14-2013 10:01:01"}}
{"Application":{"ProcessName":"com.sonyericsson.customization","Start":"12-14-2013 09:54:46","End":"12-14-2013 10:01:01"}}
{"Application":{"ProcessName":"com.sonyericsson.eventstream","Start":"12-14-2013 09:54:46","End":"12-14-2013 10:01:01"}}
{"Application":{"ProcessName":"com.sonyericsson.r2r.client","Start":"12-14-2013 10:01:01","End":"12-14-2013 10:07:26"}}
{"Application":{"ProcessName":"com.sonyericsson.home","Start":"12-14-2013 10:01:01","End":"12-14-2013 10:07:26"}}
{"Application":{"ProcessName":"com.sonyericsson.customization","Start":"12-14-2013 10:01:01","End":"12-14-2013 10:07:26"}}
{"Application":{"ProcessName":"com.sonyericsson.eventstream","Start":"12-14-2013 10:01:01","End":"12-14-2013 10:07:26"}}
{"Call": {"Number":"+98919703####","Duration":"0","Time":"12-14-2013 10:07:27","Type":"1"}}
{"Call": {"Number":"+98919703####","Duration":"0","Time":"12-14-2013 10:07:27","Type":"1"}}
{"Application":{"ProcessName":"com.sonyericsson.android.socialphonebook","Start":"12-14-2013 10:08:26","End":"12-14-2013 10:09:07"}}
{"Application":{"ProcessName":"com.sonyericsson.android.socialphonebook","Start":"12-14-2013 10:09:17","End":"12-14-2013 10:11:24"}}
{"Application":{"ProcessName":"com.sonyericsson.r2r.client","Start":"12-14-2013 10:07:28","End":"12-14-2013 10:13:51"}}
{"Application":{"ProcessName":"com.sonyericsson.home","Start":"12-14-2013 10:07:28","End":"12-14-2013 10:13:51"}}
{"Application":{"ProcessName":"com.sonyericsson.customization","Start":"12-14-2013 10:07:28","End":"12-14-2013 10:13:51"}}
{"Application":{"ProcessName":"com.sonyericsson.eventstream","Start":"12-14-2013 10:07:28","End":"12-14-2013 10:13:51"}}
{"Application":{"ProcessName":"com.sonyericsson.conversations","Start":"12-14-2013 10:14:31","End":"12-14-2013 10:15:21"}}
{"Application":{"ProcessName":"com.sonyericsson.android.socialphonebook","Start":"12-14-2013 10:15:21","End":"12-14-2013 10:15:32"}}
{"SMS":{"Address":"0912390####","type":"2","date":"12-14-2013 10:15:29","body":"ANONYMIZED","Type":"2", "metadata": {"name": "Nilo"}}}
{"Application":{"ProcessName":"com.sonyericsson.conversations","Start":"12-14-2013 10:15:32","End":"12-14-2013 10:19:53"}}
{"Application":{"ProcessName":"com.sonyericsson.r2r.client","Start":"12-14-2013 10:13:51","End":"12-14-2013 10:19:53"}}
{"Application":{"ProcessName":"com.sonyericsson.home","Start":"12-14-2013 10:13:51","End":"12-14-2013 10:19:53"}}
{"Application":{"ProcessName":"com.sonyericsson.customization","Start":"12-14-2013 10:13:51","End":"12-14-2013 10:19:53"}}
{"Application":{"ProcessName":"com.sonyericsson.eventstream","Start":"12-14-2013 10:13:51","End":"12-14-2013 10:19:53"}}
{"Call": {"Number":"+98919703####","Duration":"0","Time":"12-14-2013 10:19:53","Type":"3"}}
{"Call": {"Number":"+98919703####","Duration":"0","Time":"12-14-2013 10:19:53","Type":"3"}}
{"Application":{"ProcessName":"com.sonyericsson.conversations","Start":"12-14-2013 10:20:13","End":"12-14-2013 10:20:53"}}
{"Application":{"ProcessName":"com.sonyericsson.r2r.client","Start":"12-14-2013 10:19:54","End":"12-14-2013 10:21:53"}}
{"Application":{"ProcessName":"com.sonyericsson.home","Start":"12-14-2013 10:19:54","End":"12-14-2013 10:21:53"}}
{"Application":{"ProcessName":"com.sonyericsson.android.socialphonebook","Start":"12-14-2013 10:20:53","End":"12-14-2013 10:21:53"}}
{"Application":{"ProcessName":"com.sonyericsson.customization","Start":"12-14-2013 10:19:54","End":"12-14-2013 10:21:53"}}
{"Application":{"ProcessName":"com.sonyericsson.eventstream","Start":"12-14-2013 10:19:54","End":"12-14-2013 10:21:53"}}
{"SMS":{"Address":"0919090####","type":"2","date":"12-14-2013 10:44:12","body":"ANONYMIZED","Type":"2", "metadata": {"name": "Narges Aji :-)"}}}
{"Application":{"ProcessName":"com.sonyericsson.conversations","Start":"12-14-2013 10:43:13","End":"12-14-2013 10:44:34"}}
{"Application":{"ProcessName":"com.sonyericsson.r2r.client","Start":"12-14-2013 10:43:13","End":"12-14-2013 10:48:18"}}
{"Application":{"ProcessName":"com.sonyericsson.home","Start":"12-14-2013 10:43:13","End":"12-14-2013 10:48:18"}}
{"Application":{"ProcessName":"com.sonyericsson.customization","Start":"12-14-2013 10:43:13","End":"12-14-2013 10:48:18"}}
{"Application":{"ProcessName":"com.sonyericsson.eventstream","Start":"12-14-2013 10:43:13","End":"12-14-2013 10:48:18"}}
{"SMS":{"Address":"0919090####","type":"2","date":"12-14-2013 10:48:46","body":"ANONYMIZED","Type":"2", "metadata": {"name": "Narges Aji :-)"}}}
{"Application":{"ProcessName":"com.sonyericsson.conversations","Start":"12-14-2013 10:48:08","End":"12-14-2013 10:51:51"}}
{"Application":{"ProcessName":"com.sonyericsson.r2r.client","Start":"12-14-2013 10:48:18","End":"12-14-2013 10:51:51"}}
{"Application":{"ProcessName":"com.sonyericsson.home","Start":"12-14-2013 10:48:18","End":"12-14-2013 10:51:51"}}
{"Application":{"ProcessName":"com.sonyericsson.customization","Start":"12-14-2013 10:48:18","End":"12-14-2013 10:51:51"}}
{"Application":{"ProcessName":"com.sonyericsson.eventstream","Start":"12-14-2013 10:48:18","End":"12-14-2013 10:51:51"}}
{"Application":{"ProcessName":"com.sonyericsson.conversations","Start":"12-14-2013 10:53:20","End":"12-14-2013 10:56:06"}}
{"SMS":{"Address":"+98919646####","type":"2","date":"12-14-2013 10:57:36","body":"ANONYMIZED","Type":"2", "metadata": {"name": "Abji Faeze"}}}
{"Application":{"ProcessName":"com.google.android.googlequicksearchbox","Start":"12-14-2013 10:57:47","End":"12-14-2013 10:57:48"}}
{"Application":{"ProcessName":"com.sonyericsson.conversations","Start":"12-14-2013 10:56:47","End":"12-14-2013 10:57:58"}}
{"Application":{"ProcessName":"com.sonyericsson.r2r.client","Start":"12-14-2013 10:53:20","End":"12-14-2013 10:58:28"}}
{"Application":{"ProcessName":"com.sonyericsson.home","Start":"12-14-2013 10:53:20","End":"12-14-2013 10:58:28"}}
{"Application":{"ProcessName":"com.sonyericsson.customization","Start":"12-14-2013 10:53:20","End":"12-14-2013 10:58:28"}}
{"Application":{"ProcessName":"com.sonyericsson.eventstream","Start":"12-14-2013 10:53:20","End":"12-14-2013 10:58:28"}}
{"Application":{"ProcessName":"com.sonyericsson.r2r.client","Start":"12-14-2013 10:58:28","End":"12-14-2013 11:01:46"}}
{"Application":{"ProcessName":"com.sonyericsson.home","Start":"12-14-2013 10:58:28","End":"12-14-2013 11:01:46"}}
{"Application":{"ProcessName":"com.sonyericsson.customization","Start":"12-14-2013 10:58:28","End":"12-14-2013 11:01:46"}}
{"Application":{"ProcessName":"com.sonyericsson.eventstream","Start":"12-14-2013 10:58:28","End":"12-14-2013 11:01:46"}}
{"Call": {"Number":"+98937576####","Duration":"0","Time":"12-14-2013 11:02:54","Type":"1"}}
{"Call": {"Number":"+98937576####","Duration":"0","Time":"12-14-2013 11:02:54","Type":"1"}}
{"SMS":{"Address":"+98935174####","type":"1","date":"12-14-2013 11:11:00","body":"ANONYMIZED","Type":"1", "metadata": {"name": "Majid Dadash :-"}}}
{"Application":{"ProcessName":"com.sonyericsson.r2r.client","Start":"12-14-2013 11:03:01","End":"12-14-2013 11:11:02"}}
{"Application":{"ProcessName":"com.sonyericsson.home","Start":"12-14-2013 11:03:01","End":"12-14-2013 11:11:02"}}
{"Application":{"ProcessName":"com.sonyericsson.android.socialphonebook","Start":"12-14-2013 11:03:21","End":"12-14-2013 11:11:02"}}
{"Application":{"ProcessName":"com.sonyericsson.customization","Start":"12-14-2013 11:03:01","End":"12-14-2013 11:11:02"}}
{"Application":{"ProcessName":"com.sonyericsson.eventstream","Start":"12-14-2013 11:03:01","End":"12-14-2013 11:11:02"}}
{"SMS":{"Address":"0935174####","type":"2","date":"12-14-2013 11:11:46","body":"ANONYMIZED","Type":"2", "metadata": {"name": "Majid Dadash :-"}}}
{"Application":{"ProcessName":"com.sonyericsson.conversations","Start":"12-14-2013 11:11:12","End":"12-14-2013 11:12:12"}}
{"SMS":{"Address":"+98935174####","type":"1","date":"12-14-2013 11:15:01","body":"ANONYMIZED","Type":"1", "metadata": {"name": "Majid Dadash :-"}}}
{"Application":{"ProcessName":"com.sonyericsson.r2r.client","Start":"12-14-2013 11:11:12","End":"12-14-2013 11:15:03"}}
{"Application":{"ProcessName":"com.sonyericsson.home","Start":"12-14-2013 11:11:12","End":"12-14-2013 11:15:03"}}
{"Application":{"ProcessName":"com.sonyericsson.customization","Start":"12-14-2013 11:11:12","End":"12-14-2013 11:15:03"}}
{"Application":{"ProcessName":"com.sonyericsson.eventstream","Start":"12-14-2013 11:11:12","End":"12-14-2013 11:15:03"}}
{"SMS":{"Address":"0935174####","type":"2","date":"12-14-2013 11:15:23","body":"ANONYMIZED","Type":"2", "metadata": {"name": "Majid Dadash :-"}}}
{"Application":{"ProcessName":"com.sonyericsson.conversations","Start":"12-14-2013 11:15:13","End":"12-14-2013 11:16:35"}}
{"Application":{"ProcessName":"com.sonyericsson.infiniteview","Start":"12-14-2013 11:16:35","End":"12-14-2013 11:18:04"}}
{"Application":{"ProcessName":"com.sonyericsson.r2r.client","Start":"12-14-2013 11:15:13","End":"12-14-2013 11:18:04"}}
{"Application":{"ProcessName":"com.sonyericsson.home","Start":"12-14-2013 11:15:13","End":"12-14-2013 11:18:04"}}
{"Application":{"ProcessName":"com.sonyericsson.customization","Start":"12-14-2013 11:15:13","End":"12-14-2013 11:18:04"}}
{"Application":{"ProcessName":"com.sonyericsson.eventstream","Start":"12-14-2013 11:15:13","End":"12-14-2013 11:18:04"}}
{"SMS":{"Address":"0919090####","type":"2","date":"12-14-2013 11:21:36","body":"ANONYMIZED","Type":"2", "metadata": {"name": "Narges Aji :-)"}}}
{"Call": {"Number":"+98919646####","Duration":"0","Time":"12-14-2013 11:21:54","Type":"1"}}
{"Application":{"ProcessName":"com.sonyericsson.conversations","Start":"12-14-2013 11:20:49","End":"12-14-2013 11:23:00"}}
{"Application":{"ProcessName":"com.sonyericsson.r2r.client","Start":"12-14-2013 11:20:49","End":"12-14-2013 11:23:00"}}
{"Application":{"ProcessName":"com.sonyericsson.home","Start":"12-14-2013 11:20:49","End":"12-14-2013 11:23:00"}}
{"Application":{"ProcessName":"com.sonyericsson.customization","Start":"12-14-2013 11:20:49","End":"12-14-2013 11:23:00"}}
{"Application":{"ProcessName":"com.sonyericsson.eventstream","Start":"12-14-2013 11:20:49","End":"12-14-2013 11:23:00"}}
{"SMS":{"Address":"+98935174####","type":"1","date":"12-14-2013 11:24:20","body":"ANONYMIZED","Type":"1", "metadata": {"name": "Majid Dadash :-"}}}
{"Application":{"ProcessName":"com.sonyericsson.r2r.client","Start":"12-14-2013 11:23:17","End":"12-14-2013 11:24:21"}}
{"Application":{"ProcessName":"com.sonyericsson.home","Start":"12-14-2013 11:23:17","End":"12-14-2013 11:24:21"}}
{"Application":{"ProcessName":"com.sonyericsson.customization","Start":"12-14-2013 11:23:17","End":"12-14-2013 11:24:21"}}
{"Application":{"ProcessName":"com.sonyericsson.eventstream","Start":"12-14-2013 11:23:17","End":"12-14-2013 11:24:21"}}
{"SMS":{"Address":"0935174####","type":"2","date":"12-14-2013 11:27:23","body":"ANONYMIZED","Type":"2", "metadata": {"name": "Majid Dadash :-"}}}
{"Application":{"ProcessName":"com.sonyericsson.conversations","Start":"12-14-2013 11:24:31","End":"12-14-2013 11:27:38"}}
{"Application":{"ProcessName":"com.sonyericsson.r2r.client","Start":"12-14-2013 11:24:31","End":"12-14-2013 11:31:19"}}
{"Application":{"ProcessName":"com.sonyericsson.home","Start":"12-14-2013 11:24:31","End":"12-14-2013 11:31:19"}}
{"Application":{"ProcessName":"com.sonyericsson.customization","Start":"12-14-2013 11:24:31","End":"12-14-2013 11:31:19"}}
{"Application":{"ProcessName":"com.sonyericsson.eventstream","Start":"12-14-2013 11:24:31","End":"12-14-2013 11:31:19"}}
{"SMS":{"Address":"+98935174####","type":"1","date":"12-14-2013 11:32:03","body":"ANONYMIZED","Type":"1", "metadata": {"name": "Majid Dadash :-"}}}
{"Application":{"ProcessName":"com.sonyericsson.r2r.client","Start":"12-14-2013 11:31:19","End":"12-14-2013 11:32:19"}}
{"Application":{"ProcessName":"com.sonyericsson.home","Start":"12-14-2013 11:31:19","End":"12-14-2013 11:32:19"}}
{"Application":{"ProcessName":"com.sonyericsson.android.socialphonebook","Start":"12-14-2013 11:31:19","End":"12-14-2013 11:32:19"}}
{"Application":{"ProcessName":"com.sonyericsson.customization","Start":"12-14-2013 11:31:19","End":"12-14-2013 11:32:19"}}
{"Application":{"ProcessName":"com.sonyericsson.eventstream","Start":"12-14-2013 11:31:19","End":"12-14-2013 11:32:19"}}
{"SMS":{"Address":"0935174####","type":"2","date":"12-14-2013 11:33:38","body":"ANONYMIZED","Type":"2", "metadata": {"name": "Majid Dadash :-"}}}
{"Application":{"ProcessName":"com.sonyericsson.conversations","Start":"12-14-2013 11:32:30","End":"12-14-2013 11:34:31"}}
{"SMS":{"Address":"0935174####","type":"2","date":"12-14-2013 11:35:30","body":"ANONYMIZED","Type":"2", "metadata": {"name": "Majid Dadash :-"}}}
{"Call": {"Number":"+98937576####","Duration":"0","Time":"12-14-2013 11:36:14","Type":"1"}}
{"Application":{"ProcessName":"com.sonyericsson.conversations","Start":"12-14-2013 11:34:41","End":"12-14-2013 11:37:50"}}
{"Application":{"ProcessName":"com.sonyericsson.r2r.client","Start":"12-14-2013 11:32:30","End":"12-14-2013 11:37:50"}}
{"Application":{"ProcessName":"com.sonyericsson.home","Start":"12-14-2013 11:32:30","End":"12-14-2013 11:37:50"}}
{"Application":{"ProcessName":"com.sonyericsson.customization","Start":"12-14-2013 11:32:30","End":"12-14-2013 11:37:50"}}
{"Application":{"ProcessName":"com.sonyericsson.eventstream","Start":"12-14-2013 11:32:30","End":"12-14-2013 11:37:50"}}
{"Call": {"Number":"+98937576####","Duration":"0","Time":"12-14-2013 11:36:14","Type":"1"}}
{"Application":{"ProcessName":"com.sonyericsson.r2r.client","Start":"12-14-2013 11:39:18","End":"12-14-2013 11:41:15"}}
{"Application":{"ProcessName":"com.sonyericsson.home","Start":"12-14-2013 11:39:18","End":"12-14-2013 11:41:15"}}
{"Application":{"ProcessName":"com.sonyericsson.customization","Start":"12-14-2013 11:39:18","End":"12-14-2013 11:41:15"}}
{"Application":{"ProcessName":"com.sonyericsson.android.socialphonebook","Start":"12-14-2013 11:39:18","End":"12-14-2013 11:41:15"}}
{"Application":{"ProcessName":"com.sonyericsson.eventstream","Start":"12-14-2013 11:39:18","End":"12-14-2013 11:41:15"}}
{"Application":{"ProcessName":"com.sonyericsson.android.socialphonebook","Start":"12-14-2013 11:41:55","End":"12-14-2013 11:46:43"}}
{"Call": {"Number":"+98919703####","Duration":"0","Time":"12-14-2013 11:46:43","Type":"2"}}
{"Application":{"ProcessName":"com.sonyericsson.r2r.client","Start":"12-14-2013 11:41:55","End":"12-14-2013 11:47:03"}}
{"Application":{"ProcessName":"com.sonyericsson.home","Start":"12-14-2013 11:41:55","End":"12-14-2013 11:47:03"}}
{"Application":{"ProcessName":"com.sonyericsson.customization","Start":"12-14-2013 11:41:55","End":"12-14-2013 11:47:03"}}
{"Application":{"ProcessName":"com.sonyericsson.eventstream","Start":"12-14-2013 11:41:55","End":"12-14-2013 11:47:03"}}
{"SMS":{"Address":"+98937576####","type":"2","date":"12-14-2013 11:47:12","body":"ANONYMIZED","Type":"2", "metadata": {"name": ""}}}
{"Application":{"ProcessName":"com.sonyericsson.conversations","Start":"12-14-2013 11:46:53","End":"12-14-2013 11:47:34"}}
{"Application":{"ProcessName":"com.sonyericsson.android.socialphonebook","Start":"12-14-2013 11:47:34","End":"12-14-2013 11:48:04"}}
{"Application":{"ProcessName":"com.sonyericsson.r2r.client","Start":"12-14-2013 11:47:03","End":"12-14-2013 11:51:47"}}
{"Application":{"ProcessName":"com.sonyericsson.home","Start":"12-14-2013 11:47:03","End":"12-14-2013 11:51:47"}}
{"Application":{"ProcessName":"com.sonyericsson.customization","Start":"12-14-2013 11:47:03","End":"12-14-2013 11:51:47"}}
{"Application":{"ProcessName":"com.sonyericsson.eventstream","Start":"12-14-2013 11:47:03","End":"12-14-2013 11:51:47"}}
{"Application":{"ProcessName":"com.android.settings","Start":"12-14-2013 12:37:12","End":"12-14-2013 12:37:12"}}
{"SMS":{"Address":"+98919646####","type":"2","date":"12-14-2013 12:38:45","body":"ANONYMIZED","Type":"2", "metadata": {"name": "Abji Faeze"}}}
{"Application":{"ProcessName":"com.sonyericsson.conversations","Start":"12-14-2013 12:35:32","End":"12-14-2013 12:44:42"}}
{"Application":{"ProcessName":"com.sonyericsson.r2r.client","Start":"12-14-2013 12:35:22","End":"12-14-2013 12:44:42"}}
{"Application":{"ProcessName":"com.sonyericsson.home","Start":"12-14-2013 12:35:22","End":"12-14-2013 12:44:42"}}
{"Application":{"ProcessName":"com.sonyericsson.customization","Start":"12-14-2013 12:35:22","End":"12-14-2013 12:44:42"}}
{"Application":{"ProcessName":"com.sonyericsson.eventstream","Start":"12-14-2013 12:35:22","End":"12-14-2013 12:44:42"}}
{"SMS":{"Address":"+98919646####","type":"2","date":"12-14-2013 12:45:49","body":"ANONYMIZED","Type":"2", "metadata": {"name": "Abji Faeze"}}}
{"Application":{"ProcessName":"com.sonyericsson.conversations","Start":"12-14-2013 12:44:42","End":"12-14-2013 12:51:43"}}
{"Application":{"ProcessName":"com.sonyericsson.r2r.client","Start":"12-14-2013 12:44:42","End":"12-14-2013 12:51:43"}}
{"Application":{"ProcessName":"com.sonyericsson.home","Start":"12-14-2013 12:44:42","End":"12-14-2013 12:51:43"}}
{"Application":{"ProcessName":"com.sonyericsson.customization","Start":"12-14-2013 12:44:42","End":"12-14-2013 12:51:43"}}
{"Application":{"ProcessName":"com.sonyericsson.eventstream","Start":"12-14-2013 12:44:42","End":"12-14-2013 12:51:43"}}
{"Application":{"ProcessName":"com.sonyericsson.conversations","Start":"12-14-2013 12:51:43","End":"12-14-2013 12:52:03"}}
{"SMS":{"Address":"+98935174####","type":"1","date":"12-14-2013 12:56:22","body":"ANONYMIZED","Type":"1", "metadata": {"name": "Majid Dadash :-"}}}
{"Application":{"ProcessName":"com.sonyericsson.r2r.client","Start":"12-14-2013 12:51:43","End":"12-14-2013 12:56:47"}}
{"Application":{"ProcessName":"com.sonyericsson.home","Start":"12-14-2013 12:51:43","End":"12-14-2013 12:56:47"}}
{"Application":{"ProcessName":"com.sonyericsson.customization","Start":"12-14-2013 12:51:43","End":"12-14-2013 12:56:47"}}
{"Application":{"ProcessName":"com.sonyericsson.eventstream","Start":"12-14-2013 12:51:43","End":"12-14-2013 12:56:47"}}
{"SMS":{"Address":"0935174####","type":"2","date":"12-14-2013 12:56:45","body":"ANONYMIZED","Type":"2", "metadata": {"name": "Majid Dadash :-"}}}
{"Application":{"ProcessName":"com.sonyericsson.conversations","Start":"12-14-2013 12:56:37","End":"12-14-2013 12:57:07"}}
{"Application":{"ProcessName":"com.sonyericsson.r2r.client","Start":"12-14-2013 12:56:47","End":"12-14-2013 12:58:33"}}
{"Application":{"ProcessName":"com.sonyericsson.home","Start":"12-14-2013 12:56:47","End":"12-14-2013 12:58:33"}}
{"Application":{"ProcessName":"com.sonyericsson.customization","Start":"12-14-2013 12:56:47","End":"12-14-2013 12:58:33"}}
{"Application":{"ProcessName":"com.sonyericsson.eventstream","Start":"12-14-2013 12:56:47","End":"12-14-2013 12:58:33"}}
{"Call": {"Number":"+98217706####","Duration":"0","Time":"12-14-2013 13:03:32","Type":"1"}}
{"Application":{"ProcessName":"com.sonyericsson.r2r.client","Start":"12-14-2013 12:59:21","End":"12-14-2013 13:04:26"}}
{"Application":{"ProcessName":"com.sonyericsson.home","Start":"12-14-2013 12:59:21","End":"12-14-2013 13:04:26"}}
{"Application":{"ProcessName":"com.sonyericsson.customization","Start":"12-14-2013 12:59:21","End":"12-14-2013 13:04:26"}}
{"Application":{"ProcessName":"com.sonyericsson.eventstream","Start":"12-14-2013 12:59:21","End":"12-14-2013 13:04:26"}}
{"Application":{"ProcessName":"com.sonyericsson.r2r.client","Start":"12-14-2013 13:04:26","End":"12-14-2013 13:11:49"}}
{"Application":{"ProcessName":"com.sonyericsson.home","Start":"12-14-2013 13:04:26","End":"12-14-2013 13:11:49"}}
{"Application":{"ProcessName":"com.sonyericsson.customization","Start":"12-14-2013 13:04:26","End":"12-14-2013 13:11:49"}}
{"Application":{"ProcessName":"com.sonyericsson.eventstream","Start":"12-14-2013 13:04:26","End":"12-14-2013 13:11:49"}}
{"Application":{"ProcessName":"com.sonyericsson.conversations","Start":"12-14-2013 13:14:51","End":"12-14-2013 13:15:11"}}
{"Application":{"ProcessName":"com.sonyericsson.r2r.client","Start":"12-14-2013 13:14:51","End":"12-14-2013 13:16:41"}}
{"Application":{"ProcessName":"com.sonyericsson.home","Start":"12-14-2013 13:14:51","End":"12-14-2013 13:16:41"}}
{"Application":{"ProcessName":"com.sonyericsson.customization","Start":"12-14-2013 13:14:51","End":"12-14-2013 13:16:41"}}
{"Application":{"ProcessName":"com.sonyericsson.eventstream","Start":"12-14-2013 13:14:51","End":"12-14-2013 13:16:41"}}
{"SMS":{"Address":"+98919646####","type":"2","date":"12-14-2013 13:45:54","body":"ANONYMIZED","Type":"2", "metadata": {"name": "Abji Faeze"}}}
{"Application":{"ProcessName":"com.sonyericsson.conversations","Start":"12-14-2013 13:45:48","End":"12-14-2013 13:49:01"}}
{"Application":{"ProcessName":"com.sonyericsson.r2r.client","Start":"12-14-2013 13:45:48","End":"12-14-2013 13:54:16"}}
{"Application":{"ProcessName":"com.sonyericsson.home","Start":"12-14-2013 13:45:48","End":"12-14-2013 13:54:16"}}
{"Application":{"ProcessName":"com.sonyericsson.customization","Start":"12-14-2013 13:45:48","End":"12-14-2013 13:54:16"}}
{"Application":{"ProcessName":"com.sonyericsson.eventstream","Start":"12-14-2013 13:45:48","End":"12-14-2013 13:54:16"}}
{"SMS":{"Address":"0912390####","type":"2","date":"12-14-2013 13:56:43","body":"ANONYMIZED","Type":"2", "metadata": {"name": "Nilo"}}}
{"Application":{"ProcessName":"com.google.android.gallery3d","Start":"12-14-2013 13:56:54","End":"12-14-2013 13:56:54"}}
{"Application":{"ProcessName":"com.google.android.googlequicksearchbox","Start":"12-14-2013 13:56:54","End":"12-14-2013 13:57:04"}}
{"Application":{"ProcessName":"com.sonyericsson.conversations","Start":"12-14-2013 13:54:16","End":"12-14-2013 13:58:13"}}
{"Application":{"ProcessName":"com.sonyericsson.r2r.client","Start":"12-14-2013 13:54:16","End":"12-14-2013 13:58:13"}}
{"Application":{"ProcessName":"com.sonyericsson.home","Start":"12-14-2013 13:54:16","End":"12-14-2013 13:58:13"}}
{"Application":{"ProcessName":"com.sonyericsson.customization","Start":"12-14-2013 13:54:16","End":"12-14-2013 13:58:13"}}
{"Application":{"ProcessName":"com.sonyericsson.eventstream","Start":"12-14-2013 13:54:16","End":"12-14-2013 13:58:13"}}
{"Call": {"Number":"+98937576####","Duration":"0","Time":"12-14-2013 14:05:27","Type":"2"}}
{"Application":{"ProcessName":"com.sonyericsson.android.socialphonebook","Start":"12-14-2013 14:04:10","End":"12-14-2013 14:06:01"}}
{"Call": {"Number":"+98218834####","Duration":"0","Time":"12-14-2013 14:05:59","Type":"1"}}
{"Application":{"ProcessName":"com.sonyericsson.r2r.client","Start":"12-14-2013 14:04:00","End":"12-14-2013 14:15:03"}}
{"Application":{"ProcessName":"com.sonyericsson.home","Start":"12-14-2013 14:04:00","End":"12-14-2013 14:15:03"}}
{"Application":{"ProcessName":"com.sonyericsson.android.socialphonebook","Start":"12-14-2013 14:06:11","End":"12-14-2013 14:15:03"}}
{"Application":{"ProcessName":"com.sonyericsson.customization","Start":"12-14-2013 14:04:00","End":"12-14-2013 14:15:03"}}
{"Application":{"ProcessName":"com.sonyericsson.eventstream","Start":"12-14-2013 14:04:00","End":"12-14-2013 14:15:03"}}
{"Application":{"ProcessName":"com.sonyericsson.android.socialphonebook","Start":"12-14-2013 14:15:03","End":"12-14-2013 14:15:03"}}
{"Call": {"Number":"+98919703####","Duration":"0","Time":"12-14-2013 14:15:03","Type":"1"}}
{"Application":{"ProcessName":"com.sonyericsson.r2r.client","Start":"12-14-2013 14:15:03","End":"12-14-2013 14:21:50"}}
{"Application":{"ProcessName":"com.sonyericsson.home","Start":"12-14-2013 14:15:03","End":"12-14-2013 14:21:50"}}
{"Application":{"ProcessName":"com.sonyericsson.customization","Start":"12-14-2013 14:15:03","End":"12-14-2013 14:21:50"}}
{"Application":{"ProcessName":"com.sonyericsson.eventstream","Start":"12-14-2013 14:15:03","End":"12-14-2013 14:21:50"}}
{"Call": {"Number":"+98912699####","Duration":"0","Time":"12-14-2013 14:28:09","Type":"3"}}
{"Application":{"ProcessName":"com.sonyericsson.r2r.client","Start":"12-14-2013 14:28:13","End":"12-14-2013 14:29:43"}}
{"Application":{"ProcessName":"com.sonyericsson.home","Start":"12-14-2013 14:28:13","End":"12-14-2013 14:29:43"}}
{"Application":{"ProcessName":"com.sonyericsson.customization","Start":"12-14-2013 14:28:13","End":"12-14-2013 14:29:43"}}
{"Application":{"ProcessName":"com.sonyericsson.eventstream","Start":"12-14-2013 14:28:13","End":"12-14-2013 14:29:43"}}
{"Call": {"Number":"+98912699####","Duration":"0","Time":"12-14-2013 14:28:09","Type":"3"}}
{"Call": {"Number":"+98912699####","Duration":"0","Time":"12-14-2013 14:31:19","Type":"1"}}
{"Call": {"Number":"+98912699####","Duration":"0","Time":"12-14-2013 14:33:25","Type":"3"}}
{"Call": {"Number":"+98912699####","Duration":"0","Time":"12-14-2013 14:33:25","Type":"3"}}
{"Application":{"ProcessName":"com.sonyericsson.r2r.client","Start":"12-14-2013 14:29:59","End":"12-14-2013 14:34:16"}}
{"Application":{"ProcessName":"com.sonyericsson.home","Start":"12-14-2013 14:29:59","End":"12-14-2013 14:34:16"}}
{"Application":{"ProcessName":"com.sonyericsson.customization","Start":"12-14-2013 14:29:59","End":"12-14-2013 14:34:16"}}
{"Application":{"ProcessName":"com.sonyericsson.eventstream","Start":"12-14-2013 14:29:59","End":"12-14-2013 14:34:16"}}
{"SMS":{"Address":"0919703####","type":"2","date":"12-14-2013 14:39:34","body":"ANONYMIZED","Type":"2", "metadata": {"name": "Pesaaaaraam :-)"}}}
{"SMS":{"Address":"+98919703####","type":"1","date":"12-14-2013 14:40:47","body":"ANONYMIZED","Type":"1", "metadata": {"name": "Pesaaaaraam :-)"}}}
{"SMS":{"Address":"+98937576####","type":"2","date":"12-14-2013 14:41:11","body":"ANONYMIZED","Type":"2", "metadata": {"name": ""}}}
{"SMS":{"Address":"0919703####","type":"2","date":"12-14-2013 14:42:13","body":"ANONYMIZED","Type":"2", "metadata": {"name": "Pesaaaaraam :-)"}}}
{"SMS":{"Address":"0919703####","type":"2","date":"12-14-2013 14:43:02","body":"ANONYMIZED","Type":"2", "metadata": {"name": "Pesaaaaraam :-)"}}}
{"SMS":{"Address":"0919703####","type":"2","date":"12-14-2013 14:43:56","body":"ANONYMIZED","Type":"2", "metadata": {"name": "Pesaaaaraam :-)"}}}
{"Application":{"ProcessName":"com.sonyericsson.conversations","Start":"12-14-2013 14:39:19","End":"12-14-2013 14:44:20"}}
{"Application":{"ProcessName":"com.sonyericsson.r2r.client","Start":"12-14-2013 14:39:19","End":"12-14-2013 14:44:20"}}
{"Application":{"ProcessName":"com.sonyericsson.home","Start":"12-14-2013 14:39:19","End":"12-14-2013 14:44:20"}}
{"Application":{"ProcessName":"com.sonyericsson.customization","Start":"12-14-2013 14:39:19","End":"12-14-2013 14:44:20"}}
{"Application":{"ProcessName":"com.sonyericsson.eventstream","Start":"12-14-2013 14:39:19","End":"12-14-2013 14:44:20"}}
{"SMS":{"Address":"+98919703####","type":"1","date":"12-14-2013 14:45:11","body":"ANONYMIZED","Type":"1", "metadata": {"name": "Pesaaaaraam :-)"}}}
{"SMS":{"Address":"0919703####","type":"2","date":"12-14-2013 14:46:12","body":"ANONYMIZED","Type":"2", "metadata": {"name": "Pesaaaaraam :-)"}}}
{"SMS":{"Address":"0919703####","type":"2","date":"12-14-2013 14:49:05","body":"ANONYMIZED","Type":"2", "metadata": {"name": "Pesaaaaraam :-)"}}}
{"Application":{"ProcessName":"com.sonyericsson.conversations","Start":"12-14-2013 14:44:20","End":"12-14-2013 14:49:23"}}
{"Application":{"ProcessName":"com.sonyericsson.r2r.client","Start":"12-14-2013 14:44:20","End":"12-14-2013 14:49:23"}}
{"Application":{"ProcessName":"com.sonyericsson.home","Start":"12-14-2013 14:44:20","End":"12-14-2013 14:49:23"}}
{"Application":{"ProcessName":"com.sonyericsson.customization","Start":"12-14-2013 14:44:20","End":"12-14-2013 14:49:23"}}
{"Application":{"ProcessName":"com.sonyericsson.eventstream","Start":"12-14-2013 14:44:20","End":"12-14-2013 14:49:23"}}
{"Application":{"ProcessName":"com.sonyericsson.conversations","Start":"12-14-2013 14:49:23","End":"12-14-2013 14:53:27"}}
{"Call": {"Number":"+98937576####","Duration":"0","Time":"12-14-2013 14:53:26","Type":"1"}}
{"Application":{"ProcessName":"com.sonyericsson.conversations","Start":"12-14-2013 14:53:37","End":"12-14-2013 14:54:17"}}
{"Application":{"ProcessName":"com.sonyericsson.r2r.client","Start":"12-14-2013 14:49:23","End":"12-14-2013 14:54:28"}}
{"Application":{"ProcessName":"com.sonyericsson.home","Start":"12-14-2013 14:49:23","End":"12-14-2013 14:54:28"}}
{"Application":{"ProcessName":"com.sonyericsson.customization","Start":"12-14-2013 14:49:23","End":"12-14-2013 14:54:28"}}
{"Application":{"ProcessName":"com.sonyericsson.eventstream","Start":"12-14-2013 14:49:23","End":"12-14-2013 14:54:28"}}
{"Call": {"Number":"+98937576####","Duration":"0","Time":"12-14-2013 14:53:26","Type":"1"}}
{"Call": {"Number":"+98937576####","Duration":"0","Time":"12-14-2013 14:53:26","Type":"1"}}
{"Call": {"Number":"+98937576####","Duration":"0","Time":"12-14-2013 14:53:26","Type":"1"}}
{"Call": {"Number":"+98937576####","Duration":"0","Time":"12-14-2013 14:53:26","Type":"1"}}
{"Application":{"ProcessName":"com.sonyericsson.android.socialphonebook","Start":"12-14-2013 14:56:12","End":"12-14-2013 14:58:04"}}
{"Application":{"ProcessName":"com.sonyericsson.r2r.client","Start":"12-14-2013 14:54:28","End":"12-14-2013 15:00:06"}}
{"Application":{"ProcessName":"com.sonyericsson.home","Start":"12-14-2013 14:54:28","End":"12-14-2013 15:00:06"}}
{"Application":{"ProcessName":"com.sonyericsson.android.socialphonebook","Start":"12-14-2013 14:58:14","End":"12-14-2013 15:00:06"}}
{"Application":{"ProcessName":"com.sonyericsson.customization","Start":"12-14-2013 14:54:28","End":"12-14-2013 15:00:06"}}
{"Application":{"ProcessName":"com.sonyericsson.eventstream","Start":"12-14-2013 14:54:28","End":"12-14-2013 15:00:06"}}
{"Call": {"Number":"+98937576####","Duration":"0","Time":"12-14-2013 15:20:28","Type":"3"}}
{"Application":{"ProcessName":"com.sonyericsson.r2r.client","Start":"12-14-2013 15:20:29","End":"12-14-2013 15:25:30"}}
{"Application":{"ProcessName":"com.sonyericsson.home","Start":"12-14-2013 15:20:29","End":"12-14-2013 15:25:30"}}
{"Application":{"ProcessName":"com.sonyericsson.customization","Start":"12-14-2013 15:20:29","End":"12-14-2013 15:25:30"}}
{"Application":{"ProcessName":"com.sonyericsson.eventstream","Start":"12-14-2013 15:20:29","End":"12-14-2013 15:25:30"}}
{"Application":{"ProcessName":"com.sonyericsson.r2r.client","Start":"12-14-2013 15:25:30","End":"12-14-2013 15:30:30"}}
{"Application":{"ProcessName":"com.sonyericsson.home","Start":"12-14-2013 15:25:30","End":"12-14-2013 15:30:30"}}
{"Application":{"ProcessName":"com.sonyericsson.customization","Start":"12-14-2013 15:25:30","End":"12-14-2013 15:30:30"}}
{"Application":{"ProcessName":"com.sonyericsson.eventstream","Start":"12-14-2013 15:25:30","End":"12-14-2013 15:30:30"}}
{"Call": {"Number":"+98919500####","Duration":"0","Time":"12-14-2013 15:31:03","Type":"3"}}
{"Call": {"Number":"+98919500####","Duration":"0","Time":"12-14-2013 15:31:03","Type":"3"}}
{"Call": {"Number":"+98919500####","Duration":"0","Time":"12-14-2013 15:31:03","Type":"3"}}
{"Call": {"Number":"+98919500####","Duration":"0","Time":"12-14-2013 15:31:03","Type":"3"}}
{"Call": {"Number":"+98919500####","Duration":"0","Time":"12-14-2013 15:31:03","Type":"3"}}
{"Application":{"ProcessName":"com.sonyericsson.r2r.client","Start":"12-14-2013 15:30:30","End":"12-14-2013 15:34:41"}}
{"Application":{"ProcessName":"com.sonyericsson.home","Start":"12-14-2013 15:30:30","End":"12-14-2013 15:34:41"}}
{"Application":{"ProcessName":"com.sonyericsson.customization","Start":"12-14-2013 15:30:30","End":"12-14-2013 15:34:41"}}
{"Application":{"ProcessName":"com.sonyericsson.eventstream","Start":"12-14-2013 15:30:30","End":"12-14-2013 15:34:41"}}
{"Call": {"Number":"+98919703####","Duration":"0","Time":"12-14-2013 16:03:39","Type":"3"}}
{"Application":{"ProcessName":"com.sonyericsson.r2r.client","Start":"12-14-2013 16:03:44","End":"12-14-2013 16:08:44"}}
{"Application":{"ProcessName":"com.sonyericsson.home","Start":"12-14-2013 16:03:44","End":"12-14-2013 16:08:44"}}
{"Application":{"ProcessName":"com.sonyericsson.customization","Start":"12-14-2013 16:03:44","End":"12-14-2013 16:08:44"}}
{"Application":{"ProcessName":"com.sonyericsson.eventstream","Start":"12-14-2013 16:03:44","End":"12-14-2013 16:08:44"}}
{"Application":{"ProcessName":"com.sonyericsson.r2r.client","Start":"12-14-2013 16:08:44","End":"12-14-2013 16:13:45"}}
{"Application":{"ProcessName":"com.sonyericsson.home","Start":"12-14-2013 16:08:44","End":"12-14-2013 16:13:45"}}
{"Application":{"ProcessName":"com.sonyericsson.customization","Start":"12-14-2013 16:08:44","End":"12-14-2013 16:13:45"}}
{"Application":{"ProcessName":"com.sonyericsson.eventstream","Start":"12-14-2013 16:08:44","End":"12-14-2013 16:13:45"}}
{"Call": {"Number":"+98919703####","Duration":"0","Time":"12-14-2013 16:15:14","Type":"3"}}
{"Application":{"ProcessName":"com.sonyericsson.r2r.client","Start":"12-14-2013 16:13:45","End":"12-14-2013 16:18:46"}}
{"Application":{"ProcessName":"com.sonyericsson.home","Start":"12-14-2013 16:13:45","End":"12-14-2013 16:18:46"}}
{"Application":{"ProcessName":"com.sonyericsson.customization","Start":"12-14-2013 16:13:45","End":"12-14-2013 16:18:46"}}
{"Application":{"ProcessName":"com.sonyericsson.eventstream","Start":"12-14-2013 16:13:45","End":"12-14-2013 16:18:46"}}
{"Application":{"ProcessName":"com.sonyericsson.r2r.client","Start":"12-14-2013 16:18:46","End":"12-14-2013 16:23:46"}}
{"Application":{"ProcessName":"com.sonyericsson.home","Start":"12-14-2013 16:18:46","End":"12-14-2013 16:23:46"}}
{"Application":{"ProcessName":"com.sonyericsson.customization","Start":"12-14-2013 16:18:46","End":"12-14-2013 16:23:46"}}
{"Application":{"ProcessName":"com.sonyericsson.eventstream","Start":"12-14-2013 16:18:46","End":"12-14-2013 16:23:46"}}
{"SMS":{"Address":"+98919703####","type":"1","date":"12-14-2013 16:24:24","body":"ANONYMIZED","Type":"1", "metadata": {"name": "Pesaaaaraam :-)"}}}
{"Application":{"ProcessName":"com.sonyericsson.r2r.client","Start":"12-14-2013 16:23:46","End":"12-14-2013 16:28:47"}}
{"Application":{"ProcessName":"com.sonyericsson.home","Start":"12-14-2013 16:23:46","End":"12-14-2013 16:28:47"}}
{"Application":{"ProcessName":"com.sonyericsson.customization","Start":"12-14-2013 16:23:46","End":"12-14-2013 16:28:47"}}
{"Application":{"ProcessName":"com.sonyericsson.eventstream","Start":"12-14-2013 16:23:46","End":"12-14-2013 16:28:47"}}
{"Application":{"ProcessName":"com.android.settings","Start":"12-14-2013 16:29:57","End":"12-14-2013 16:29:57"}}
{"Application":{"ProcessName":"com.sonyericsson.r2r.client","Start":"12-14-2013 16:28:47","End":"12-14-2013 16:33:47"}}
{"Application":{"ProcessName":"com.sonyericsson.home","Start":"12-14-2013 16:28:47","End":"12-14-2013 16:33:47"}}
{"Application":{"ProcessName":"com.sonyericsson.customization","Start":"12-14-2013 16:28:47","End":"12-14-2013 16:33:47"}}
{"Application":{"ProcessName":"com.sonyericsson.eventstream","Start":"12-14-2013 16:28:47","End":"12-14-2013 16:33:47"}}
{"Call": {"Number":"+98217721####","Duration":"10","Time":"12-14-2013 17:49:52","Type":"2"}}
{"Call": {"Number":"+98217721####","Duration":"8","Time":"12-14-2013 17:50:16","Type":"2"}}
{"Call": {"Number":"+98217721####","Duration":"0","Time":"12-14-2013 17:50:34","Type":"2"}}
{"Call": {"Number":"+98217721####","Duration":"6","Time":"12-14-2013 17:50:40","Type":"2"}}
{"Application":{"ProcessName":"com.sonyericsson.conversations","Start":"12-14-2013 17:51:43","End":"12-14-2013 17:53:14"}}
{"Application":{"ProcessName":"com.sonyericsson.r2r.client","Start":"12-14-2013 17:51:43","End":"12-14-2013 17:53:24"}}
{"Application":{"ProcessName":"com.sonyericsson.home","Start":"12-14-2013 17:51:43","End":"12-14-2013 17:53:24"}}
{"Application":{"ProcessName":"com.sonyericsson.customization","Start":"12-14-2013 17:51:43","End":"12-14-2013 17:53:24"}}
{"Application":{"ProcessName":"com.sonyericsson.eventstream","Start":"12-14-2013 17:51:43","End":"12-14-2013 17:53:24"}}
{"Call": {"Number":"+98217721####","Duration":"44","Time":"12-14-2013 17:53:16","Type":"2"}}
{"Call": {"Number":"+98217721####","Duration":"44","Time":"12-14-2013 17:53:16","Type":"2"}}
{"Call": {"Number":"+98217721####","Duration":"44","Time":"12-14-2013 17:53:16","Type":"2"}}
{"Application":{"ProcessName":"com.sonyericsson.r2r.client","Start":"12-14-2013 17:54:15","End":"12-14-2013 18:12:01"}}
{"Application":{"ProcessName":"com.sonyericsson.home","Start":"12-14-2013 17:54:15","End":"12-14-2013 18:12:01"}}
{"Application":{"ProcessName":"com.sonyericsson.customization","Start":"12-14-2013 17:54:15","End":"12-14-2013 18:12:01"}}
{"Application":{"ProcessName":"com.sonyericsson.android.socialphonebook","Start":"12-14-2013 17:54:15","End":"12-14-2013 18:12:01"}}
{"Application":{"ProcessName":"com.sonyericsson.eventstream","Start":"12-14-2013 17:54:15","End":"12-14-2013 18:12:01"}}
{"Application":{"ProcessName":"com.sonyericsson.r2r.client","Start":"12-14-2013 20:22:31","End":"12-14-2013 21:01:54"}}
{"Application":{"ProcessName":"com.sonyericsson.home","Start":"12-14-2013 20:22:31","End":"12-14-2013 21:01:54"}}
{"Application":{"ProcessName":"com.sonyericsson.customization","Start":"12-14-2013 20:22:31","End":"12-14-2013 21:01:54"}}
{"Application":{"ProcessName":"com.sonyericsson.eventstream","Start":"12-14-2013 20:22:31","End":"12-14-2013 21:01:54"}}
