{"Application":{"ProcessName":"com.sonyericsson.android.contactsimport","Start":"1-1-2014 20:15:16","End":"1-1-2014 20:16:17"}}
{"Application":{"ProcessName":"com.sonyericsson.dsds.widget","Start":"1-1-2014 20:18:18","End":"1-1-2014 20:18:28"}}
{"Application":{"ProcessName":"com.sonyericsson.android.contactsimport","Start":"1-1-2014 20:16:27","End":"1-1-2014 20:18:28"}}
{"Application":{"ProcessName":"com.sonyericsson.r2r.client","Start":"1-1-2014 20:15:06","End":"1-1-2014 20:32:08"}}
{"Application":{"ProcessName":"com.sonyericsson.home","Start":"1-1-2014 20:15:06","End":"1-1-2014 20:32:08"}}
{"Application":{"ProcessName":"com.android.settings","Start":"1-1-2014 20:15:06","End":"1-1-2014 20:32:08"}}
{"Application":{"ProcessName":"com.sonyericsson.customization","Start":"1-1-2014 20:15:06","End":"1-1-2014 20:32:08"}}
{"Application":{"ProcessName":"com.sonyericsson.r2r.client","Start":"1-1-2014 21:33:11","End":"1-1-2014 21:33:22"}}
{"Application":{"ProcessName":"com.sonyericsson.home","Start":"1-1-2014 21:33:11","End":"1-1-2014 21:33:22"}}
{"Application":{"ProcessName":"com.android.settings","Start":"1-1-2014 21:33:11","End":"1-1-2014 21:33:22"}}
{"Application":{"ProcessName":"com.sonyericsson.customization","Start":"1-1-2014 21:33:11","End":"1-1-2014 21:33:22"}}
{"Application":{"ProcessName":"com.sonyericsson.r2r.client","Start":"1-2-2014 00:41:18","End":"1-2-2014 00:41:28"}}
{"Application":{"ProcessName":"com.sonyericsson.home","Start":"1-2-2014 00:41:18","End":"1-2-2014 00:41:28"}}
{"Application":{"ProcessName":"com.sonyericsson.customization","Start":"1-2-2014 00:41:18","End":"1-2-2014 00:41:28"}}
{"Application":{"ProcessName":"com.android.settings","Start":"1-2-2014 00:41:18","End":"1-2-2014 00:41:28"}}
{"Application":{"ProcessName":"com.google.android.deskclock","Start":"1-2-2014 00:48:22","End":"1-2-2014 00:48:32"}}
{"Application":{"ProcessName":"com.sonyericsson.r2r.client","Start":"1-2-2014 00:46:17","End":"1-2-2014 01:16:28"}}
{"Application":{"ProcessName":"com.sonyericsson.advancedwidget.onoff","Start":"1-2-2014 00:48:32","End":"1-2-2014 01:16:28"}}
{"Application":{"ProcessName":"com.sonyericsson.home","Start":"1-2-2014 00:46:17","End":"1-2-2014 01:16:28"}}
{"Application":{"ProcessName":"com.sonyericsson.customization","Start":"1-2-2014 00:46:17","End":"1-2-2014 01:16:28"}}
{"Application":{"ProcessName":"com.android.settings","Start":"1-2-2014 00:46:17","End":"1-2-2014 01:16:28"}}
{"Application":{"ProcessName":"com.sonyericsson.r2r.client","Start":"1-2-2014 09:03:44","End":"1-2-2014 09:09:06"}}
{"Application":{"ProcessName":"com.sonyericsson.home","Start":"1-2-2014 09:03:44","End":"1-2-2014 09:09:06"}}
{"Application":{"ProcessName":"com.android.settings","Start":"1-2-2014 09:03:44","End":"1-2-2014 09:09:06"}}
{"Application":{"ProcessName":"com.sonyericsson.customization","Start":"1-2-2014 09:03:44","End":"1-2-2014 09:09:06"}}
{"Application":{"ProcessName":"com.sonyericsson.simcontacts","Start":"1-2-2014 09:09:06","End":"1-2-2014 09:09:07"}}
{"Application":{"ProcessName":"com.sonyericsson.r2r.client","Start":"1-2-2014 09:09:07","End":"1-2-2014 09:09:17"}}
{"Application":{"ProcessName":"com.sonyericsson.home","Start":"1-2-2014 09:09:07","End":"1-2-2014 09:09:17"}}
{"Application":{"ProcessName":"com.android.settings","Start":"1-2-2014 09:09:07","End":"1-2-2014 09:09:17"}}
{"Application":{"ProcessName":"com.sonyericsson.customization","Start":"1-2-2014 09:09:07","End":"1-2-2014 09:09:17"}}
{"Application":{"ProcessName":"com.sonyericsson.dsds.widget","Start":"1-2-2014 10:04:10","End":"1-2-2014 10:04:20"}}
{"SMS":{"Address":"0919703####","type":"2","date":"1-2-2014 10:04:34","body":"ANONYMIZED","Type":"2", "metadata": {"name": "Pesaaaaraam :-)"}}}
{"SMS":{"Address":"+98919703####","type":"1","date":"1-2-2014 10:05:31","body":"ANONYMIZED","Type":"1", "metadata": {"name": "Pesaaaaraam :-)"}}}
{"Application":{"ProcessName":"com.viber.voip","Start":"1-2-2014 10:05:30","End":"1-2-2014 10:05:53"}}
{"Application":{"ProcessName":"com.sonyericsson.r2r.client","Start":"1-2-2014 10:04:10","End":"1-2-2014 10:35:35"}}
{"Application":{"ProcessName":"com.sonyericsson.home","Start":"1-2-2014 10:04:10","End":"1-2-2014 10:35:35"}}
{"Application":{"ProcessName":"com.android.settings","Start":"1-2-2014 10:04:10","End":"1-2-2014 10:35:35"}}
{"Application":{"ProcessName":"com.sonyericsson.customization","Start":"1-2-2014 10:04:10","End":"1-2-2014 10:35:35"}}
{"Application":{"ProcessName":"com.sonyericsson.r2r.client","Start":"1-2-2014 10:50:07","End":"1-2-2014 11:03:16"}}
{"Application":{"ProcessName":"com.sonyericsson.home","Start":"1-2-2014 10:50:07","End":"1-2-2014 11:03:16"}}
{"Application":{"ProcessName":"com.android.settings","Start":"1-2-2014 10:50:07","End":"1-2-2014 11:03:16"}}
{"Application":{"ProcessName":"com.sonyericsson.customization","Start":"1-2-2014 10:50:07","End":"1-2-2014 11:03:16"}}
{"Application":{"ProcessName":"com.sonyericsson.r2r.client","Start":"1-2-2014 11:03:16","End":"1-2-2014 11:03:56"}}
{"Application":{"ProcessName":"com.sonyericsson.home","Start":"1-2-2014 11:03:16","End":"1-2-2014 11:03:56"}}
{"Application":{"ProcessName":"com.android.settings","Start":"1-2-2014 11:03:16","End":"1-2-2014 11:03:56"}}
{"Application":{"ProcessName":"com.sonyericsson.customization","Start":"1-2-2014 11:03:16","End":"1-2-2014 11:03:56"}}
{"Call": {"Number":"0096656938####","Duration":"85","Time":"1-2-2014 11:03:46","Type":"2"}}
{"Call": {"Number":"0096656938####","Duration":"85","Time":"1-2-2014 11:03:46","Type":"2"}}
{"Call": {"Number":"0096656938####","Duration":"85","Time":"1-2-2014 11:03:46","Type":"2"}}
{"Call": {"Number":"0096656938####","Duration":"85","Time":"1-2-2014 11:03:46","Type":"2"}}
{"Call": {"Number":"0096656938####","Duration":"0","Time":"1-2-2014 11:05:53","Type":"2"}}
{"Call": {"Number":"0096656938####","Duration":"0","Time":"1-2-2014 11:05:53","Type":"2"}}
{"Call": {"Number":"0096656938####","Duration":"0","Time":"1-2-2014 11:05:53","Type":"2"}}
{"Call": {"Number":"0096656938####","Duration":"0","Time":"1-2-2014 11:05:53","Type":"2"}}
{"Application":{"ProcessName":"com.sonyericsson.r2r.client","Start":"1-2-2014 11:06:48","End":"1-2-2014 11:15:33"}}
{"Application":{"ProcessName":"com.sonyericsson.home","Start":"1-2-2014 11:06:48","End":"1-2-2014 11:15:33"}}
{"Application":{"ProcessName":"com.android.settings","Start":"1-2-2014 11:06:48","End":"1-2-2014 11:15:33"}}
{"Application":{"ProcessName":"com.sonyericsson.customization","Start":"1-2-2014 11:06:48","End":"1-2-2014 11:15:33"}}
{"Application":{"ProcessName":"com.sonyericsson.dsds.widget","Start":"1-2-2014 13:08:34","End":"1-2-2014 13:08:34"}}
{"Call": {"Number":"+98933380####","Duration":"16","Time":"1-2-2014 13:08:32","Type":"1"}}
{"Call": {"Number":"+98933380####","Duration":"16","Time":"1-2-2014 13:08:32","Type":"1"}}
{"Call": {"Number":"+98933380####","Duration":"16","Time":"1-2-2014 13:08:32","Type":"1"}}
{"Call": {"Number":"+98933380####","Duration":"16","Time":"1-2-2014 13:08:32","Type":"1"}}
{"Application":{"ProcessName":"com.sonyericsson.android.socialphonebook","Start":"1-2-2014 13:08:57","End":"1-2-2014 13:09:07"}}
{"Application":{"ProcessName":"com.sonyericsson.r2r.client","Start":"1-2-2014 13:08:34","End":"1-2-2014 13:13:57"}}
{"Application":{"ProcessName":"com.sonyericsson.home","Start":"1-2-2014 13:08:34","End":"1-2-2014 13:13:57"}}
{"Application":{"ProcessName":"com.android.settings","Start":"1-2-2014 13:08:34","End":"1-2-2014 13:13:57"}}
{"Application":{"ProcessName":"com.sonyericsson.customization","Start":"1-2-2014 13:08:34","End":"1-2-2014 13:13:57"}}
{"Call": {"Number":"+98217721####","Duration":"0","Time":"1-2-2014 13:13:55","Type":"1"}}
{"Call": {"Number":"+98217721####","Duration":"0","Time":"1-2-2014 13:13:55","Type":"1"}}
{"Application":{"ProcessName":"com.sonyericsson.dsds.widget","Start":"1-2-2014 13:13:57","End":"1-2-2014 13:14:07"}}
{"SMS":{"Address":"+98933380####","type":"2","date":"1-2-2014 13:15:01","body":"ANONYMIZED","Type":"2", "metadata": {"name": ""}}}
{"SMS":{"Address":"+98933380####","type":"1","date":"1-2-2014 13:17:17","body":"ANONYMIZED","Type":"1", "metadata": {"name": ""}}}
{"SMS":{"Address":"+98933380####","type":"2","date":"1-2-2014 13:17:59","body":"ANONYMIZED","Type":"2", "metadata": {"name": ""}}}
{"Application":{"ProcessName":"com.sonyericsson.r2r.client","Start":"1-2-2014 13:13:57","End":"1-2-2014 13:19:05"}}
{"Application":{"ProcessName":"com.sonyericsson.home","Start":"1-2-2014 13:13:57","End":"1-2-2014 13:19:05"}}
{"Application":{"ProcessName":"com.android.settings","Start":"1-2-2014 13:13:57","End":"1-2-2014 13:19:05"}}
{"Application":{"ProcessName":"com.sonyericsson.customization","Start":"1-2-2014 13:13:57","End":"1-2-2014 13:19:05"}}
{"Application":{"ProcessName":"com.sonyericsson.r2r.client","Start":"1-2-2014 13:19:05","End":"1-2-2014 13:20:14"}}
{"Application":{"ProcessName":"com.sonyericsson.home","Start":"1-2-2014 13:19:05","End":"1-2-2014 13:20:14"}}
{"Application":{"ProcessName":"com.android.settings","Start":"1-2-2014 13:19:05","End":"1-2-2014 13:20:14"}}
{"Application":{"ProcessName":"com.sonyericsson.customization","Start":"1-2-2014 13:19:05","End":"1-2-2014 13:20:14"}}
{"SMS":{"Address":"+98933380####","type":"1","date":"1-2-2014 13:26:00","body":"ANONYMIZED","Type":"1", "metadata": {"name": ""}}}
{"Application":{"ProcessName":"com.sonyericsson.dsds.widget","Start":"1-2-2014 13:26:16","End":"1-2-2014 13:26:16"}}
{"Application":{"ProcessName":"com.sonyericsson.r2r.client","Start":"1-2-2014 13:26:06","End":"1-2-2014 13:45:34"}}
{"Application":{"ProcessName":"com.sonyericsson.home","Start":"1-2-2014 13:26:06","End":"1-2-2014 13:45:34"}}
{"Application":{"ProcessName":"com.android.settings","Start":"1-2-2014 13:26:06","End":"1-2-2014 13:45:34"}}
{"Application":{"ProcessName":"com.sonyericsson.customization","Start":"1-2-2014 13:26:06","End":"1-2-2014 13:45:34"}}
{"SMS":{"Address":"0919703####","type":"2","date":"1-2-2014 13:54:25","body":"ANONYMIZED","Type":"2", "metadata": {"name": "Pesaaaaraam :-)"}}}
{"SMS":{"Address":"+98919703####","type":"1","date":"1-2-2014 13:55:02","body":"ANONYMIZED","Type":"1", "metadata": {"name": "Pesaaaaraam :-)"}}}
{"Application":{"ProcessName":"com.sonyericsson.r2r.client","Start":"1-2-2014 13:53:59","End":"1-2-2014 13:55:09"}}
{"Application":{"ProcessName":"com.sonyericsson.home","Start":"1-2-2014 13:53:59","End":"1-2-2014 13:55:09"}}
{"Application":{"ProcessName":"com.android.settings","Start":"1-2-2014 13:53:59","End":"1-2-2014 13:55:09"}}
{"Application":{"ProcessName":"com.sonyericsson.customization","Start":"1-2-2014 13:53:59","End":"1-2-2014 13:55:09"}}
{"Call": {"Number":"+98912699####","Duration":"0","Time":"1-2-2014 14:14:02","Type":"3"}}
{"Call": {"Number":"+98912699####","Duration":"0","Time":"1-2-2014 14:14:02","Type":"3"}}
{"Call": {"Number":"+98912699####","Duration":"0","Time":"1-2-2014 14:14:02","Type":"3"}}
{"Application":{"ProcessName":"com.sonyericsson.r2r.client","Start":"1-2-2014 14:14:03","End":"1-2-2014 14:25:09"}}
{"Application":{"ProcessName":"com.sonyericsson.home","Start":"1-2-2014 14:14:03","End":"1-2-2014 14:25:09"}}
{"Application":{"ProcessName":"com.android.settings","Start":"1-2-2014 14:14:03","End":"1-2-2014 14:25:09"}}
{"Application":{"ProcessName":"com.sonyericsson.customization","Start":"1-2-2014 14:14:03","End":"1-2-2014 14:25:09"}}
{"Call": {"Number":"+98933979####","Duration":"0","Time":"1-2-2014 14:27:47","Type":"1"}}
{"Call": {"Number":"+98933979####","Duration":"0","Time":"1-2-2014 14:27:47","Type":"1"}}
{"Application":{"ProcessName":"com.sonyericsson.r2r.client","Start":"1-2-2014 14:27:54","End":"1-2-2014 14:28:54"}}
{"Application":{"ProcessName":"com.sonyericsson.home","Start":"1-2-2014 14:27:54","End":"1-2-2014 14:28:54"}}
{"Application":{"ProcessName":"com.android.settings","Start":"1-2-2014 14:27:54","End":"1-2-2014 14:28:54"}}
{"Application":{"ProcessName":"com.sonyericsson.customization","Start":"1-2-2014 14:27:54","End":"1-2-2014 14:28:54"}}
{"Application":{"ProcessName":"com.sonyericsson.r2r.client","Start":"1-2-2014 14:48:00","End":"1-2-2014 14:55:36"}}
{"Application":{"ProcessName":"com.sonyericsson.home","Start":"1-2-2014 14:48:00","End":"1-2-2014 14:55:36"}}
{"Application":{"ProcessName":"com.android.settings","Start":"1-2-2014 14:48:00","End":"1-2-2014 14:55:36"}}
{"Application":{"ProcessName":"com.sonyericsson.customization","Start":"1-2-2014 14:48:00","End":"1-2-2014 14:55:36"}}
{"SMS":{"Address":"0919703####","type":"2","date":"1-2-2014 15:06:31","body":"ANONYMIZED","Type":"2", "metadata": {"name": "Pesaaaaraam :-)"}}}
{"Application":{"ProcessName":"com.sonyericsson.dsds.widget","Start":"1-2-2014 15:08:32","End":"1-2-2014 15:08:32"}}
{"SMS":{"Address":"+98919703####","type":"1","date":"1-2-2014 15:08:33","body":"ANONYMIZED","Type":"1", "metadata": {"name": "Pesaaaaraam :-)"}}}
{"Call": {"Number":"+98933979####","Duration":"0","Time":"1-2-2014 14:27:47","Type":"1"}}
{"Call": {"Number":"+98933979####","Duration":"0","Time":"1-2-2014 14:27:47","Type":"1"}}
{"Call": {"Number":"+98933979####","Duration":"0","Time":"1-2-2014 14:27:47","Type":"1"}}
{"SMS":{"Address":"0919703####","type":"2","date":"1-2-2014 15:08:48","body":"ANONYMIZED","Type":"2", "metadata": {"name": "Pesaaaaraam :-)"}}}
{"Application":{"ProcessName":"com.sonyericsson.r2r.client","Start":"1-2-2014 15:06:20","End":"1-2-2014 15:18:36"}}
{"Application":{"ProcessName":"com.sonyericsson.home","Start":"1-2-2014 15:06:20","End":"1-2-2014 15:18:36"}}
{"Application":{"ProcessName":"com.android.settings","Start":"1-2-2014 15:06:20","End":"1-2-2014 15:18:36"}}
{"Application":{"ProcessName":"com.sonyericsson.customization","Start":"1-2-2014 15:06:20","End":"1-2-2014 15:18:36"}}
{"Call": {"Number":"+98919646####","Duration":"0","Time":"1-2-2014 15:21:16","Type":"3"}}
{"Call": {"Number":"+98919646####","Duration":"0","Time":"1-2-2014 15:21:16","Type":"3"}}
{"Call": {"Number":"+98919646####","Duration":"0","Time":"1-2-2014 15:22:20","Type":"3"}}
{"Call": {"Number":"+98919646####","Duration":"0","Time":"1-2-2014 15:22:20","Type":"3"}}
{"Call": {"Number":"+98919646####","Duration":"0","Time":"1-2-2014 15:25:38","Type":"3"}}
{"Call": {"Number":"+98919646####","Duration":"0","Time":"1-2-2014 15:25:38","Type":"3"}}
{"Application":{"ProcessName":"com.sonyericsson.r2r.client","Start":"1-2-2014 15:21:22","End":"1-2-2014 15:26:30"}}
{"Application":{"ProcessName":"com.sonyericsson.home","Start":"1-2-2014 15:21:22","End":"1-2-2014 15:26:30"}}
{"Application":{"ProcessName":"com.android.settings","Start":"1-2-2014 15:21:22","End":"1-2-2014 15:26:30"}}
{"Application":{"ProcessName":"com.sonyericsson.customization","Start":"1-2-2014 15:21:22","End":"1-2-2014 15:26:30"}}
{"Call": {"Number":"+98919646####","Duration":"0","Time":"1-2-2014 15:27:15","Type":"3"}}
{"Call": {"Number":"+98919646####","Duration":"0","Time":"1-2-2014 15:27:15","Type":"3"}}
{"Call": {"Number":"+98919646####","Duration":"0","Time":"1-2-2014 15:28:12","Type":"3"}}
{"Call": {"Number":"+98919646####","Duration":"0","Time":"1-2-2014 15:28:12","Type":"3"}}
{"Application":{"ProcessName":"com.sonyericsson.r2r.client","Start":"1-2-2014 15:26:30","End":"1-2-2014 15:29:21"}}
{"Application":{"ProcessName":"com.sonyericsson.home","Start":"1-2-2014 15:26:30","End":"1-2-2014 15:29:21"}}
{"Application":{"ProcessName":"com.android.settings","Start":"1-2-2014 15:26:30","End":"1-2-2014 15:29:21"}}
{"Application":{"ProcessName":"com.sonyericsson.customization","Start":"1-2-2014 15:26:30","End":"1-2-2014 15:29:21"}}
{"Call": {"Number":"+98919646####","Duration":"18","Time":"1-2-2014 15:29:10","Type":"1"}}
{"Call": {"Number":"+98919646####","Duration":"18","Time":"1-2-2014 15:29:10","Type":"1"}}
{"Call": {"Number":"+98919646####","Duration":"18","Time":"1-2-2014 15:29:10","Type":"1"}}
{"Application":{"ProcessName":"com.sonyericsson.r2r.client","Start":"1-2-2014 15:29:39","End":"1-2-2014 15:29:49"}}
{"Application":{"ProcessName":"com.sonyericsson.home","Start":"1-2-2014 15:29:39","End":"1-2-2014 15:29:49"}}
{"Application":{"ProcessName":"com.android.settings","Start":"1-2-2014 15:29:39","End":"1-2-2014 15:29:49"}}
{"Application":{"ProcessName":"com.sonyericsson.customization","Start":"1-2-2014 15:29:39","End":"1-2-2014 15:29:49"}}
{"Call": {"Number":"+98919646####","Duration":"0","Time":"1-2-2014 15:29:42","Type":"2"}}
{"Call": {"Number":"+98919646####","Duration":"0","Time":"1-2-2014 15:29:42","Type":"2"}}
{"Application":{"ProcessName":"com.sonyericsson.r2r.client","Start":"1-2-2014 15:29:59","End":"1-2-2014 15:30:17"}}
{"Application":{"ProcessName":"com.sonyericsson.home","Start":"1-2-2014 15:29:59","End":"1-2-2014 15:30:17"}}
{"Application":{"ProcessName":"com.android.settings","Start":"1-2-2014 15:29:59","End":"1-2-2014 15:30:17"}}
{"Application":{"ProcessName":"com.sonyericsson.customization","Start":"1-2-2014 15:29:59","End":"1-2-2014 15:30:17"}}
{"Call": {"Number":"+98919646####","Duration":"53","Time":"1-2-2014 15:29:59","Type":"1"}}
{"Call": {"Number":"+98919646####","Duration":"53","Time":"1-2-2014 15:29:59","Type":"1"}}
{"Application":{"ProcessName":"com.sonyericsson.r2r.client","Start":"1-2-2014 15:30:27","End":"1-2-2014 15:31:06"}}
{"Application":{"ProcessName":"com.sonyericsson.home","Start":"1-2-2014 15:30:27","End":"1-2-2014 15:31:06"}}
{"Application":{"ProcessName":"com.android.settings","Start":"1-2-2014 15:30:27","End":"1-2-2014 15:31:06"}}
{"Application":{"ProcessName":"com.sonyericsson.customization","Start":"1-2-2014 15:30:27","End":"1-2-2014 15:31:06"}}
{"Call": {"Number":"+98217721####","Duration":"34","Time":"1-2-2014 15:31:01","Type":"2"}}
{"Call": {"Number":"+98217721####","Duration":"34","Time":"1-2-2014 15:31:01","Type":"2"}}
{"Application":{"ProcessName":"com.sonyericsson.android.socialphonebook","Start":"1-2-2014 15:31:58","End":"1-2-2014 15:32:08"}}
{"Application":{"ProcessName":"com.sonyericsson.r2r.client","Start":"1-2-2014 15:31:47","End":"1-2-2014 15:36:26"}}
{"Application":{"ProcessName":"com.sonyericsson.home","Start":"1-2-2014 15:31:47","End":"1-2-2014 15:36:26"}}
{"Application":{"ProcessName":"com.android.settings","Start":"1-2-2014 15:31:47","End":"1-2-2014 15:36:26"}}
{"Application":{"ProcessName":"com.sonyericsson.customization","Start":"1-2-2014 15:31:47","End":"1-2-2014 15:36:26"}}
{"Application":{"ProcessName":"com.sonyericsson.r2r.client","Start":"1-2-2014 19:10:43","End":"1-2-2014 19:11:13"}}
{"Application":{"ProcessName":"com.sonyericsson.home","Start":"1-2-2014 19:10:43","End":"1-2-2014 19:11:13"}}
{"Application":{"ProcessName":"com.sonyericsson.android.socialphonebook","Start":"1-2-2014 19:11:03","End":"1-2-2014 19:11:13"}}
{"Application":{"ProcessName":"com.android.settings","Start":"1-2-2014 19:10:43","End":"1-2-2014 19:11:13"}}
{"Application":{"ProcessName":"com.sonyericsson.customization","Start":"1-2-2014 19:10:43","End":"1-2-2014 19:11:13"}}
{"Call": {"Number":"0912623####","Duration":"73","Time":"1-2-2014 19:11:10","Type":"2"}}
{"Call": {"Number":"0912623####","Duration":"73","Time":"1-2-2014 19:11:10","Type":"2"}}
{"Application":{"ProcessName":"com.sonyericsson.simcontacts","Start":"1-2-2014 19:14:03","End":"1-2-2014 19:14:13"}}
{"Application":{"ProcessName":"com.sonyericsson.r2r.client","Start":"1-2-2014 19:12:45","End":"1-2-2014 19:14:53"}}
{"Application":{"ProcessName":"com.sonyericsson.home","Start":"1-2-2014 19:12:45","End":"1-2-2014 19:14:53"}}
{"Application":{"ProcessName":"com.android.settings","Start":"1-2-2014 19:12:45","End":"1-2-2014 19:14:53"}}
{"Application":{"ProcessName":"com.sonyericsson.customization","Start":"1-2-2014 19:12:45","End":"1-2-2014 19:14:53"}}
{"SMS":{"Address":"0912623####","type":"2","date":"1-2-2014 19:14:43","body":"ANONYMIZED","Type":"2", "metadata": {"name": "Leila Joon"}}}
{"Application":{"ProcessName":"com.sonyericsson.dsds.widget","Start":"1-2-2014 19:25:06","End":"1-2-2014 19:25:17"}}
{"Application":{"ProcessName":"com.sonyericsson.r2r.client","Start":"1-2-2014 19:25:06","End":"1-2-2014 19:32:25"}}
{"Application":{"ProcessName":"com.sonyericsson.home","Start":"1-2-2014 19:25:06","End":"1-2-2014 19:32:25"}}
{"Application":{"ProcessName":"com.android.settings","Start":"1-2-2014 19:25:06","End":"1-2-2014 19:32:25"}}
{"Application":{"ProcessName":"com.sonyericsson.customization","Start":"1-2-2014 19:25:06","End":"1-2-2014 19:32:25"}}
{"Call": {"Number":"+98919646####","Duration":"0","Time":"1-2-2014 19:59:40","Type":"3"}}
{"Call": {"Number":"+98919646####","Duration":"0","Time":"1-2-2014 19:59:40","Type":"3"}}
{"Call": {"Number":"+98919646####","Duration":"0","Time":"1-2-2014 19:59:51","Type":"3"}}
{"Call": {"Number":"+98919646####","Duration":"0","Time":"1-2-2014 19:59:51","Type":"3"}}
{"Call": {"Number":"+98919646####","Duration":"0","Time":"1-2-2014 19:59:51","Type":"3"}}
{"Call": {"Number":"+98919646####","Duration":"0","Time":"1-2-2014 20:02:35","Type":"2"}}
{"Call": {"Number":"+98919646####","Duration":"0","Time":"1-2-2014 20:02:35","Type":"2"}}
{"Application":{"ProcessName":"com.sonyericsson.r2r.client","Start":"1-2-2014 19:59:49","End":"1-2-2014 20:02:43"}}
{"Application":{"ProcessName":"com.sonyericsson.home","Start":"1-2-2014 19:59:49","End":"1-2-2014 20:02:43"}}
{"Application":{"ProcessName":"com.android.settings","Start":"1-2-2014 19:59:49","End":"1-2-2014 20:02:43"}}
{"Application":{"ProcessName":"com.sonyericsson.customization","Start":"1-2-2014 19:59:49","End":"1-2-2014 20:02:43"}}
{"Application":{"ProcessName":"com.sonyericsson.r2r.client","Start":"1-2-2014 20:03:00","End":"1-2-2014 20:25:43"}}
{"Application":{"ProcessName":"com.sonyericsson.home","Start":"1-2-2014 20:03:00","End":"1-2-2014 20:25:43"}}
{"Application":{"ProcessName":"com.android.settings","Start":"1-2-2014 20:03:00","End":"1-2-2014 20:25:43"}}
{"Application":{"ProcessName":"com.sonyericsson.customization","Start":"1-2-2014 20:03:00","End":"1-2-2014 20:25:43"}}
{"Call": {"Number":"+98919646####","Duration":"0","Time":"1-2-2014 20:36:28","Type":"2"}}
{"Call": {"Number":"+98919646####","Duration":"0","Time":"1-2-2014 20:36:28","Type":"2"}}
{"Application":{"ProcessName":"com.sonyericsson.android.socialphonebook","Start":"1-2-2014 20:36:46","End":"1-2-2014 20:36:46"}}
{"Application":{"ProcessName":"com.sonyericsson.r2r.client","Start":"1-2-2014 20:36:25","End":"1-2-2014 20:37:16"}}
{"Application":{"ProcessName":"com.sonyericsson.home","Start":"1-2-2014 20:36:25","End":"1-2-2014 20:37:16"}}
{"Application":{"ProcessName":"com.android.settings","Start":"1-2-2014 20:36:25","End":"1-2-2014 20:37:16"}}
{"Application":{"ProcessName":"com.sonyericsson.customization","Start":"1-2-2014 20:36:25","End":"1-2-2014 20:37:16"}}
{"Call": {"Number":"+98919646####","Duration":"0","Time":"1-2-2014 20:37:06","Type":"2"}}
{"Call": {"Number":"+98919646####","Duration":"0","Time":"1-2-2014 20:37:06","Type":"2"}}
{"Application":{"ProcessName":"com.sonyericsson.r2r.client","Start":"1-2-2014 20:38:06","End":"1-2-2014 21:00:59"}}
{"Application":{"ProcessName":"com.sonyericsson.home","Start":"1-2-2014 20:38:06","End":"1-2-2014 21:00:59"}}
{"Application":{"ProcessName":"com.android.settings","Start":"1-2-2014 20:38:06","End":"1-2-2014 21:00:59"}}
{"Application":{"ProcessName":"com.sonyericsson.customization","Start":"1-2-2014 20:38:06","End":"1-2-2014 21:00:59"}}
{"Application":{"ProcessName":"com.sonyericsson.r2r.client","Start":"1-2-2014 21:00:59","End":"1-2-2014 21:15:43"}}
{"Application":{"ProcessName":"com.sonyericsson.home","Start":"1-2-2014 21:00:59","End":"1-2-2014 21:15:43"}}
{"Application":{"ProcessName":"com.android.settings","Start":"1-2-2014 21:00:59","End":"1-2-2014 21:15:43"}}
{"Application":{"ProcessName":"com.sonyericsson.customization","Start":"1-2-2014 21:00:59","End":"1-2-2014 21:15:43"}}
{"Call": {"Number":"+98919703####","Duration":"3","Time":"1-2-2014 21:21:04","Type":"2"}}
{"Call": {"Number":"+98919703####","Duration":"3","Time":"1-2-2014 21:21:04","Type":"2"}}
{"Application":{"ProcessName":"com.sonyericsson.suquashi.soundpicker","Start":"1-2-2014 21:23:54","End":"1-2-2014 21:24:24"}}
{"Application":{"ProcessName":"com.sonyericsson.music","Start":"1-2-2014 21:24:24","End":"1-2-2014 21:25:25"}}
{"Application":{"ProcessName":"com.sonyericsson.suquashi.soundpicker","Start":"1-2-2014 21:25:35","End":"1-2-2014 21:25:45"}}
{"Application":{"ProcessName":"com.sonyericsson.music","Start":"1-2-2014 21:25:45","End":"1-2-2014 21:25:55"}}
{"Application":{"ProcessName":"com.sonyericsson.suquashi.soundpicker","Start":"1-2-2014 21:25:55","End":"1-2-2014 21:26:05"}}
{"Application":{"ProcessName":"com.sonyericsson.r2r.client","Start":"1-2-2014 21:21:03","End":"1-2-2014 21:26:05"}}
{"Application":{"ProcessName":"com.sonyericsson.home","Start":"1-2-2014 21:21:03","End":"1-2-2014 21:26:05"}}
{"Application":{"ProcessName":"com.android.settings","Start":"1-2-2014 21:21:03","End":"1-2-2014 21:26:05"}}
{"Application":{"ProcessName":"com.sonyericsson.customization","Start":"1-2-2014 21:21:03","End":"1-2-2014 21:26:05"}}
{"Application":{"ProcessName":"com.sonyericsson.r2r.client","Start":"1-2-2014 21:26:05","End":"1-2-2014 21:30:38"}}
{"Application":{"ProcessName":"com.sonyericsson.home","Start":"1-2-2014 21:26:05","End":"1-2-2014 21:30:38"}}
{"Application":{"ProcessName":"com.android.settings","Start":"1-2-2014 21:26:05","End":"1-2-2014 21:30:38"}}
{"Application":{"ProcessName":"com.sonyericsson.customization","Start":"1-2-2014 21:26:05","End":"1-2-2014 21:30:38"}}
{"Application":{"ProcessName":"com.sonyericsson.advancedwidget.onoff","Start":"1-2-2014 22:00:17","End":"1-2-2014 22:01:48"}}
{"Application":{"ProcessName":"com.sonyericsson.music","Start":"1-2-2014 22:02:27","End":"1-2-2014 22:02:47"}}
{"Application":{"ProcessName":"com.sonyericsson.music","Start":"1-2-2014 22:03:07","End":"1-2-2014 22:03:27"}}
{"Application":{"ProcessName":"com.sonyericsson.r2r.client","Start":"1-2-2014 21:59:57","End":"1-2-2014 22:04:57"}}
{"Application":{"ProcessName":"com.sonyericsson.home","Start":"1-2-2014 21:59:57","End":"1-2-2014 22:04:57"}}
{"Application":{"ProcessName":"com.android.settings","Start":"1-2-2014 21:59:57","End":"1-2-2014 22:04:57"}}
{"Application":{"ProcessName":"com.sonyericsson.customization","Start":"1-2-2014 21:59:57","End":"1-2-2014 22:04:57"}}
