{"SMS":{"Address":"+98919703####","type":"1","date":"12-28-2013 21:10:17","body":"ANONYMIZED","Type":"1", "metadata": {"name": "Pesaaaaraam :-)"}}}
{"Application":{"ProcessName":"com.sonyericsson.r2r.client","Start":"12-28-2013 21:10:27","End":"12-28-2013 21:16:37"}}
{"Application":{"ProcessName":"com.sonyericsson.home","Start":"12-28-2013 21:10:27","End":"12-28-2013 21:16:37"}}
{"Application":{"ProcessName":"com.android.settings","Start":"12-28-2013 21:10:27","End":"12-28-2013 21:16:37"}}
{"Application":{"ProcessName":"com.sonyericsson.customization","Start":"12-28-2013 21:10:27","End":"12-28-2013 21:16:37"}}
{"Application":{"ProcessName":"com.sonyericsson.r2r.client","Start":"12-28-2013 23:08:19","End":"12-28-2013 23:31:32"}}
{"Application":{"ProcessName":"com.sonyericsson.home","Start":"12-28-2013 23:08:19","End":"12-28-2013 23:31:32"}}
{"Application":{"ProcessName":"com.android.settings","Start":"12-28-2013 23:08:19","End":"12-28-2013 23:31:32"}}
{"Application":{"ProcessName":"com.sonyericsson.customization","Start":"12-28-2013 23:08:19","End":"12-28-2013 23:31:32"}}
{"SMS":{"Address":"+98912623####","type":"1","date":"12-29-2013 01:05:03","body":"ANONYMIZED","Type":"1", "metadata": {"name": "Leila Joon"}}}
{"Application":{"ProcessName":"com.sonyericsson.r2r.client","Start":"12-29-2013 04:39:30","End":"12-29-2013 04:39:50"}}
{"Application":{"ProcessName":"com.sonyericsson.home","Start":"12-29-2013 04:39:30","End":"12-29-2013 04:39:50"}}
{"Application":{"ProcessName":"com.sonyericsson.customization","Start":"12-29-2013 04:39:30","End":"12-29-2013 04:39:50"}}
{"Application":{"ProcessName":"com.android.settings","Start":"12-29-2013 04:39:30","End":"12-29-2013 04:39:50"}}
{"Application":{"ProcessName":"com.sonyericsson.r2r.client","Start":"12-29-2013 06:41:23","End":"12-29-2013 06:41:25"}}
{"Application":{"ProcessName":"com.sonyericsson.home","Start":"12-29-2013 06:41:23","End":"12-29-2013 06:41:25"}}
{"Application":{"ProcessName":"com.sonyericsson.customization","Start":"12-29-2013 06:41:23","End":"12-29-2013 06:41:25"}}
{"Application":{"ProcessName":"com.android.settings","Start":"12-29-2013 06:41:23","End":"12-29-2013 06:41:25"}}
{"Application":{"ProcessName":"com.google.android.deskclock","Start":"12-29-2013 06:45:04","End":"12-29-2013 06:45:06"}}
{"Application":{"ProcessName":"com.sonyericsson.r2r.client","Start":"12-29-2013 06:45:04","End":"12-29-2013 07:16:47"}}
{"Application":{"ProcessName":"com.sonyericsson.home","Start":"12-29-2013 06:45:04","End":"12-29-2013 07:16:47"}}
{"Application":{"ProcessName":"com.sonyericsson.customization","Start":"12-29-2013 06:45:04","End":"12-29-2013 07:16:47"}}
{"Application":{"ProcessName":"com.android.settings","Start":"12-29-2013 06:45:04","End":"12-29-2013 07:16:47"}}
{"Application":{"ProcessName":"com.google.android.apps.plus","Start":"12-29-2013 07:36:45","End":"12-29-2013 07:40:51"}}
{"Application":{"ProcessName":"com.sonyericsson.r2r.client","Start":"12-29-2013 07:34:47","End":"12-29-2013 07:40:51"}}
{"Application":{"ProcessName":"com.sonyericsson.home","Start":"12-29-2013 07:34:47","End":"12-29-2013 07:40:51"}}
{"Application":{"ProcessName":"com.sonyericsson.customization","Start":"12-29-2013 07:34:47","End":"12-29-2013 07:40:51"}}
{"Application":{"ProcessName":"com.android.settings","Start":"12-29-2013 07:34:47","End":"12-29-2013 07:40:51"}}
{"Application":{"ProcessName":"com.google.android.gallery3d","Start":"12-29-2013 07:36:45","End":"12-29-2013 07:40:51"}}
{"Application":{"ProcessName":"com.sonyericsson.r2r.client","Start":"12-29-2013 07:51:55","End":"12-29-2013 07:52:06"}}
{"Application":{"ProcessName":"com.sonyericsson.home","Start":"12-29-2013 07:51:55","End":"12-29-2013 07:52:06"}}
{"Application":{"ProcessName":"com.android.settings","Start":"12-29-2013 07:51:55","End":"12-29-2013 07:52:06"}}
{"Application":{"ProcessName":"com.sonyericsson.customization","Start":"12-29-2013 07:51:55","End":"12-29-2013 07:52:06"}}
{"SMS":{"Address":"+98919646####","type":"2","date":"12-29-2013 08:04:52","body":"ANONYMIZED","Type":"2", "metadata": {"name": "Abji Faeze"}}}
{"Application":{"ProcessName":"com.android.vending","Start":"12-29-2013 08:05:04","End":"12-29-2013 08:05:05"}}
{"Application":{"ProcessName":"com.sonyericsson.r2r.client","Start":"12-29-2013 08:04:04","End":"12-29-2013 08:10:13"}}
{"Application":{"ProcessName":"com.sonyericsson.home","Start":"12-29-2013 08:04:04","End":"12-29-2013 08:10:13"}}
{"Application":{"ProcessName":"com.android.settings","Start":"12-29-2013 08:04:04","End":"12-29-2013 08:10:13"}}
{"Application":{"ProcessName":"com.sonyericsson.customization","Start":"12-29-2013 08:04:04","End":"12-29-2013 08:10:13"}}
{"SMS":{"Address":"+98919703####","type":"1","date":"12-29-2013 08:19:15","body":"ANONYMIZED","Type":"1", "metadata": {"name": "Pesaaaaraam :-)"}}}
{"SMS":{"Address":"0919703####","type":"2","date":"12-29-2013 08:21:47","body":"ANONYMIZED","Type":"2", "metadata": {"name": "Pesaaaaraam :-)"}}}
{"Application":{"ProcessName":"com.sonyericsson.r2r.client","Start":"12-29-2013 08:21:11","End":"12-29-2013 08:30:12"}}
{"Application":{"ProcessName":"com.sonyericsson.home","Start":"12-29-2013 08:21:11","End":"12-29-2013 08:30:12"}}
{"Application":{"ProcessName":"com.android.settings","Start":"12-29-2013 08:21:11","End":"12-29-2013 08:30:12"}}
{"Application":{"ProcessName":"com.sonyericsson.customization","Start":"12-29-2013 08:21:11","End":"12-29-2013 08:30:12"}}
{"Application":{"ProcessName":"com.sonyericsson.lockscreen.notifications","Start":"12-29-2013 09:38:23","End":"12-29-2013 09:38:23"}}
{"Call": {"Number":"+98919703####","Duration":"0","Time":"12-29-2013 09:38:21","Type":"1"}}
{"Call": {"Number":"+98919703####","Duration":"0","Time":"12-29-2013 09:38:21","Type":"1"}}
{"Call": {"Number":"+98919703####","Duration":"0","Time":"12-29-2013 09:38:21","Type":"1"}}
{"Call": {"Number":"+98919703####","Duration":"0","Time":"12-29-2013 09:38:21","Type":"1"}}
{"Application":{"ProcessName":"com.sonyericsson.r2r.client","Start":"12-29-2013 09:36:34","End":"12-29-2013 09:40:02"}}
{"Application":{"ProcessName":"com.sonyericsson.home","Start":"12-29-2013 09:36:34","End":"12-29-2013 09:40:02"}}
{"Application":{"ProcessName":"com.android.settings","Start":"12-29-2013 09:36:34","End":"12-29-2013 09:40:02"}}
{"Application":{"ProcessName":"com.sonyericsson.customization","Start":"12-29-2013 09:36:34","End":"12-29-2013 09:40:02"}}
{"Application":{"ProcessName":"com.sonyericsson.r2r.client","Start":"12-29-2013 09:53:53","End":"12-29-2013 10:07:38"}}
{"Application":{"ProcessName":"com.sonyericsson.home","Start":"12-29-2013 09:53:53","End":"12-29-2013 10:07:38"}}
{"Application":{"ProcessName":"com.android.settings","Start":"12-29-2013 09:53:53","End":"12-29-2013 10:07:38"}}
{"Application":{"ProcessName":"com.sonyericsson.customization","Start":"12-29-2013 09:53:53","End":"12-29-2013 10:07:38"}}
{"SMS":{"Address":"+98919703####","type":"1","date":"12-29-2013 10:08:43","body":"ANONYMIZED","Type":"1", "metadata": {"name": "Pesaaaaraam :-)"}}}
{"Application":{"ProcessName":"com.sonyericsson.r2r.client","Start":"12-29-2013 10:08:56","End":"12-29-2013 10:14:43"}}
{"Application":{"ProcessName":"com.sonyericsson.home","Start":"12-29-2013 10:08:56","End":"12-29-2013 10:14:43"}}
{"Application":{"ProcessName":"com.android.settings","Start":"12-29-2013 10:08:56","End":"12-29-2013 10:14:43"}}
{"Application":{"ProcessName":"com.sonyericsson.customization","Start":"12-29-2013 10:08:56","End":"12-29-2013 10:14:43"}}
{"Application":{"ProcessName":"com.sonyericsson.r2r.client","Start":"12-29-2013 10:14:43","End":"12-29-2013 10:16:28"}}
{"Application":{"ProcessName":"com.sonyericsson.home","Start":"12-29-2013 10:14:43","End":"12-29-2013 10:16:28"}}
{"Application":{"ProcessName":"com.android.settings","Start":"12-29-2013 10:14:43","End":"12-29-2013 10:16:28"}}
{"Application":{"ProcessName":"com.sonyericsson.customization","Start":"12-29-2013 10:14:43","End":"12-29-2013 10:16:28"}}
{"Application":{"ProcessName":"com.android.exchange","Start":"12-29-2013 10:23:08","End":"12-29-2013 10:23:18"}}
{"Application":{"ProcessName":"com.sonyericsson.infiniteview","Start":"12-29-2013 10:23:18","End":"12-29-2013 10:26:28"}}
{"Application":{"ProcessName":"com.sonyericsson.r2r.client","Start":"12-29-2013 10:23:08","End":"12-29-2013 10:29:57"}}
{"Application":{"ProcessName":"com.sonyericsson.home","Start":"12-29-2013 10:23:08","End":"12-29-2013 10:29:57"}}
{"Application":{"ProcessName":"com.android.settings","Start":"12-29-2013 10:23:08","End":"12-29-2013 10:29:57"}}
{"Application":{"ProcessName":"com.sonyericsson.customization","Start":"12-29-2013 10:23:08","End":"12-29-2013 10:29:57"}}
{"Application":{"ProcessName":"com.sonyericsson.infiniteview","Start":"12-29-2013 10:30:27","End":"12-29-2013 10:30:47"}}
{"Application":{"ProcessName":"com.sonyericsson.r2r.client","Start":"12-29-2013 10:29:57","End":"12-29-2013 10:35:02"}}
{"Application":{"ProcessName":"com.sonyericsson.home","Start":"12-29-2013 10:29:57","End":"12-29-2013 10:35:02"}}
{"Application":{"ProcessName":"com.android.settings","Start":"12-29-2013 10:29:57","End":"12-29-2013 10:35:02"}}
{"Application":{"ProcessName":"com.sonyericsson.customization","Start":"12-29-2013 10:29:57","End":"12-29-2013 10:35:02"}}
{"SMS":{"Address":"0919703####","type":"2","date":"12-29-2013 10:35:24","body":"ANONYMIZED","Type":"2", "metadata": {"name": "Pesaaaaraam :-)"}}}
{"Application":{"ProcessName":"com.sonyericsson.r2r.client","Start":"12-29-2013 10:35:02","End":"12-29-2013 10:40:04"}}
{"Application":{"ProcessName":"com.sonyericsson.home","Start":"12-29-2013 10:35:02","End":"12-29-2013 10:40:04"}}
{"Application":{"ProcessName":"com.android.settings","Start":"12-29-2013 10:35:02","End":"12-29-2013 10:40:04"}}
{"Application":{"ProcessName":"com.sonyericsson.customization","Start":"12-29-2013 10:35:02","End":"12-29-2013 10:40:04"}}
{"SMS":{"Address":"+98919703####","type":"1","date":"12-29-2013 10:40:07","body":"ANONYMIZED","Type":"1", "metadata": {"name": "Pesaaaaraam :-)"}}}
{"Application":{"ProcessName":"com.sonyericsson.r2r.client","Start":"12-29-2013 10:40:44","End":"12-29-2013 10:42:14"}}
{"Application":{"ProcessName":"com.sonyericsson.home","Start":"12-29-2013 10:40:44","End":"12-29-2013 10:42:14"}}
{"Application":{"ProcessName":"com.android.settings","Start":"12-29-2013 10:40:44","End":"12-29-2013 10:42:14"}}
{"Application":{"ProcessName":"com.sonyericsson.customization","Start":"12-29-2013 10:40:44","End":"12-29-2013 10:42:14"}}
{"SMS":{"Address":"0936860####","type":"2","date":"12-29-2013 10:44:02","body":"ANONYMIZED","Type":"2", "metadata": {"name": ""}}}
{"Application":{"ProcessName":"com.sonyericsson.r2r.client","Start":"12-29-2013 10:43:14","End":"12-29-2013 10:51:00"}}
{"Application":{"ProcessName":"com.sonyericsson.home","Start":"12-29-2013 10:43:14","End":"12-29-2013 10:51:00"}}
{"Application":{"ProcessName":"com.android.settings","Start":"12-29-2013 10:43:14","End":"12-29-2013 10:51:00"}}
{"Application":{"ProcessName":"com.sonyericsson.customization","Start":"12-29-2013 10:43:14","End":"12-29-2013 10:51:00"}}
{"SMS":{"Address":"0919703####","type":"2","date":"12-29-2013 10:51:08","body":"ANONYMIZED","Type":"2", "metadata": {"name": "Pesaaaaraam :-)"}}}
{"SMS":{"Address":"+98919703####","type":"1","date":"12-29-2013 10:52:18","body":"ANONYMIZED","Type":"1", "metadata": {"name": "Pesaaaaraam :-)"}}}
{"SMS":{"Address":"0919703####","type":"2","date":"12-29-2013 10:52:54","body":"ANONYMIZED","Type":"2", "metadata": {"name": "Pesaaaaraam :-)"}}}
{"SMS":{"Address":"+98936860####","type":"1","date":"12-29-2013 10:53:01","body":"ANONYMIZED","Type":"1", "metadata": {"name": ""}}}
{"SMS":{"Address":"+98919703####","type":"1","date":"12-29-2013 10:54:57","body":"ANONYMIZED","Type":"1", "metadata": {"name": "Pesaaaaraam :-)"}}}
{"Application":{"ProcessName":"com.sonyericsson.r2r.client","Start":"12-29-2013 10:51:00","End":"12-29-2013 10:54:59"}}
{"Application":{"ProcessName":"com.sonyericsson.home","Start":"12-29-2013 10:51:00","End":"12-29-2013 10:54:59"}}
{"Application":{"ProcessName":"com.android.settings","Start":"12-29-2013 10:51:00","End":"12-29-2013 10:54:59"}}
{"Application":{"ProcessName":"com.sonyericsson.customization","Start":"12-29-2013 10:51:00","End":"12-29-2013 10:54:59"}}
{"SMS":{"Address":"0919703####","type":"2","date":"12-29-2013 10:55:48","body":"ANONYMIZED","Type":"2", "metadata": {"name": "Pesaaaaraam :-)"}}}
{"Application":{"ProcessName":"com.sonyericsson.r2r.client","Start":"12-29-2013 10:55:10","End":"12-29-2013 10:57:19"}}
{"Application":{"ProcessName":"com.sonyericsson.home","Start":"12-29-2013 10:55:10","End":"12-29-2013 10:57:19"}}
{"Application":{"ProcessName":"com.android.settings","Start":"12-29-2013 10:55:10","End":"12-29-2013 10:57:19"}}
{"Application":{"ProcessName":"com.sonyericsson.customization","Start":"12-29-2013 10:55:10","End":"12-29-2013 10:57:19"}}
{"SMS":{"Address":"+98919646####","type":"2","date":"12-29-2013 11:25:13","body":"ANONYMIZED","Type":"2", "metadata": {"name": "Abji Faeze"}}}
{"Application":{"ProcessName":"com.sonyericsson.r2r.client","Start":"12-29-2013 11:23:14","End":"12-29-2013 11:26:25"}}
{"Application":{"ProcessName":"com.sonyericsson.home","Start":"12-29-2013 11:23:14","End":"12-29-2013 11:26:25"}}
{"Application":{"ProcessName":"com.android.settings","Start":"12-29-2013 11:23:14","End":"12-29-2013 11:26:25"}}
{"Application":{"ProcessName":"com.sonyericsson.customization","Start":"12-29-2013 11:23:14","End":"12-29-2013 11:26:25"}}
{"SMS":{"Address":"0919703####","type":"2","date":"12-29-2013 11:33:59","body":"ANONYMIZED","Type":"2", "metadata": {"name": "Pesaaaaraam :-)"}}}
{"Application":{"ProcessName":"com.sonyericsson.r2r.client","Start":"12-29-2013 11:33:33","End":"12-29-2013 11:42:28"}}
{"Application":{"ProcessName":"com.sonyericsson.home","Start":"12-29-2013 11:33:33","End":"12-29-2013 11:42:28"}}
{"Application":{"ProcessName":"com.android.settings","Start":"12-29-2013 11:33:33","End":"12-29-2013 11:42:28"}}
{"Application":{"ProcessName":"com.sonyericsson.customization","Start":"12-29-2013 11:33:33","End":"12-29-2013 11:42:28"}}
{"Application":{"ProcessName":"com.sonyericsson.r2r.client","Start":"12-29-2013 11:42:28","End":"12-29-2013 11:56:25"}}
{"Application":{"ProcessName":"com.sonyericsson.home","Start":"12-29-2013 11:42:28","End":"12-29-2013 11:56:25"}}
{"Application":{"ProcessName":"com.android.settings","Start":"12-29-2013 11:42:28","End":"12-29-2013 11:56:25"}}
{"Application":{"ProcessName":"com.sonyericsson.customization","Start":"12-29-2013 11:42:28","End":"12-29-2013 11:56:25"}}
{"Application":{"ProcessName":"com.sonyericsson.r2r.client","Start":"12-29-2013 12:00:46","End":"12-29-2013 12:16:51"}}
{"Application":{"ProcessName":"com.sonyericsson.home","Start":"12-29-2013 12:00:46","End":"12-29-2013 12:16:51"}}
{"Application":{"ProcessName":"com.sonyericsson.customization","Start":"12-29-2013 12:00:46","End":"12-29-2013 12:16:51"}}
{"Application":{"ProcessName":"com.android.settings","Start":"12-29-2013 12:00:46","End":"12-29-2013 12:16:51"}}
{"SMS":{"Address":"+98919646####","type":"2","date":"12-29-2013 12:38:06","body":"ANONYMIZED","Type":"2", "metadata": {"name": "Abji Faeze"}}}
{"SMS":{"Address":"0919703####","type":"2","date":"12-29-2013 12:38:35","body":"ANONYMIZED","Type":"2", "metadata": {"name": "Pesaaaaraam :-)"}}}
{"Application":{"ProcessName":"com.sonyericsson.dsds.widget","Start":"12-29-2013 12:38:32","End":"12-29-2013 12:38:42"}}
{"SMS":{"Address":"+98919703####","type":"1","date":"12-29-2013 12:39:35","body":"ANONYMIZED","Type":"1", "metadata": {"name": "Pesaaaaraam :-)"}}}
{"SMS":{"Address":"+98919646####","type":"1","date":"12-29-2013 12:41:22","body":"ANONYMIZED","Type":"1", "metadata": {"name": "Abji Faeze"}}}
{"Application":{"ProcessName":"com.sonyericsson.r2r.client","Start":"12-29-2013 12:37:51","End":"12-29-2013 12:41:26"}}
{"Application":{"ProcessName":"com.sonyericsson.home","Start":"12-29-2013 12:37:51","End":"12-29-2013 12:41:26"}}
{"Application":{"ProcessName":"com.sonyericsson.customization","Start":"12-29-2013 12:37:51","End":"12-29-2013 12:41:26"}}
{"Application":{"ProcessName":"com.android.settings","Start":"12-29-2013 12:37:51","End":"12-29-2013 12:41:26"}}
{"SMS":{"Address":"0919703####","type":"2","date":"12-29-2013 12:44:03","body":"ANONYMIZED","Type":"2", "metadata": {"name": "Pesaaaaraam :-)"}}}
{"Application":{"ProcessName":"com.sonyericsson.home","Start":"12-29-2013 12:43:28","End":"12-29-2013 12:47:48"}}
{"Application":{"ProcessName":"com.android.settings","Start":"12-29-2013 12:43:28","End":"12-29-2013 12:47:48"}}
{"Application":{"ProcessName":"com.sonyericsson.customization","Start":"12-29-2013 12:43:28","End":"12-29-2013 12:47:48"}}
{"Application":{"ProcessName":"com.sonyericsson.r2r.client","Start":"12-29-2013 12:43:28","End":"12-29-2013 12:47:48"}}
{"SMS":{"Address":"+98919646####","type":"2","date":"12-29-2013 12:48:06","body":"ANONYMIZED","Type":"2", "metadata": {"name": "Abji Faeze"}}}
{"SMS":{"Address":"+98919703####","type":"1","date":"12-29-2013 12:50:02","body":"ANONYMIZED","Type":"1", "metadata": {"name": "Pesaaaaraam :-)"}}}
{"Application":{"ProcessName":"com.sonyericsson.home","Start":"12-29-2013 12:47:59","End":"12-29-2013 13:01:28"}}
{"Application":{"ProcessName":"com.android.settings","Start":"12-29-2013 12:47:59","End":"12-29-2013 13:01:28"}}
{"Application":{"ProcessName":"com.sonyericsson.customization","Start":"12-29-2013 12:47:59","End":"12-29-2013 13:01:28"}}
{"Application":{"ProcessName":"com.sonyericsson.r2r.client","Start":"12-29-2013 12:47:59","End":"12-29-2013 13:01:28"}}
{"Application":{"ProcessName":"com.sonyericsson.dsds.widget","Start":"12-29-2013 13:01:28","End":"12-29-2013 13:01:38"}}
{"SMS":{"Address":"+98919646####","type":"2","date":"12-29-2013 13:02:15","body":"ANONYMIZED","Type":"2", "metadata": {"name": "Abji Faeze"}}}
{"Application":{"ProcessName":"com.sonyericsson.r2r.client","Start":"12-29-2013 13:01:28","End":"12-29-2013 13:06:52"}}
{"Application":{"ProcessName":"com.sonyericsson.home","Start":"12-29-2013 13:01:28","End":"12-29-2013 13:06:52"}}
{"Application":{"ProcessName":"com.android.settings","Start":"12-29-2013 13:01:28","End":"12-29-2013 13:06:52"}}
{"Application":{"ProcessName":"com.sonyericsson.customization","Start":"12-29-2013 13:01:28","End":"12-29-2013 13:06:52"}}
{"Application":{"ProcessName":"com.sonyericsson.suquashi.soundpicker","Start":"12-29-2013 13:08:41","End":"12-29-2013 13:09:01"}}
{"Application":{"ProcessName":"com.sonyericsson.suquashi.soundpicker","Start":"12-29-2013 13:09:11","End":"12-29-2013 13:09:21"}}
{"Application":{"ProcessName":"com.sonyericsson.r2r.client","Start":"12-29-2013 13:07:51","End":"12-29-2013 13:15:04"}}
{"Application":{"ProcessName":"com.sonyericsson.home","Start":"12-29-2013 13:07:51","End":"12-29-2013 13:15:04"}}
{"Application":{"ProcessName":"com.android.settings","Start":"12-29-2013 13:07:51","End":"12-29-2013 13:15:04"}}
{"Application":{"ProcessName":"com.sonyericsson.customization","Start":"12-29-2013 13:07:51","End":"12-29-2013 13:15:04"}}
{"Application":{"ProcessName":"com.sonyericsson.r2r.client","Start":"12-29-2013 13:18:02","End":"12-29-2013 13:18:12"}}
{"Application":{"ProcessName":"com.sonyericsson.home","Start":"12-29-2013 13:18:02","End":"12-29-2013 13:18:12"}}
{"Application":{"ProcessName":"com.sonyericsson.customization","Start":"12-29-2013 13:18:02","End":"12-29-2013 13:18:12"}}
{"Application":{"ProcessName":"com.android.settings","Start":"12-29-2013 13:18:02","End":"12-29-2013 13:18:12"}}
{"SMS":{"Address":"0919703####","type":"2","date":"12-29-2013 13:57:55","body":"ANONYMIZED","Type":"2", "metadata": {"name": "Pesaaaaraam :-)"}}}
{"Application":{"ProcessName":"com.sonyericsson.r2r.client","Start":"12-29-2013 13:57:24","End":"12-29-2013 13:59:53"}}
{"Application":{"ProcessName":"com.sonyericsson.home","Start":"12-29-2013 13:57:24","End":"12-29-2013 13:59:53"}}
{"Application":{"ProcessName":"com.sonyericsson.customization","Start":"12-29-2013 13:57:24","End":"12-29-2013 13:59:53"}}
{"Application":{"ProcessName":"com.android.settings","Start":"12-29-2013 13:57:24","End":"12-29-2013 13:59:53"}}
{"Application":{"ProcessName":"com.sonyericsson.r2r.client","Start":"12-29-2013 14:05:43","End":"12-29-2013 14:26:54"}}
{"Application":{"ProcessName":"com.sonyericsson.home","Start":"12-29-2013 14:05:43","End":"12-29-2013 14:26:54"}}
{"Application":{"ProcessName":"com.sonyericsson.customization","Start":"12-29-2013 14:05:43","End":"12-29-2013 14:26:54"}}
{"Application":{"ProcessName":"com.android.settings","Start":"12-29-2013 14:05:43","End":"12-29-2013 14:26:54"}}
{"SMS":{"Address":"0919703####","type":"2","date":"12-29-2013 14:28:08","body":"ANONYMIZED","Type":"2", "metadata": {"name": "Pesaaaaraam :-)"}}}
{"Application":{"ProcessName":"com.sonyericsson.r2r.client","Start":"12-29-2013 14:27:34","End":"12-29-2013 14:35:05"}}
{"Application":{"ProcessName":"com.sonyericsson.home","Start":"12-29-2013 14:27:34","End":"12-29-2013 14:35:05"}}
{"Application":{"ProcessName":"com.sonyericsson.customization","Start":"12-29-2013 14:27:34","End":"12-29-2013 14:35:05"}}
{"Application":{"ProcessName":"com.android.settings","Start":"12-29-2013 14:27:34","End":"12-29-2013 14:35:05"}}
{"Call": {"Number":"+98919703####","Duration":"0","Time":"12-29-2013 14:35:06","Type":"1"}}
{"Call": {"Number":"+98919703####","Duration":"0","Time":"12-29-2013 14:35:06","Type":"1"}}
{"Call": {"Number":"+98912699####","Duration":"0","Time":"12-29-2013 14:39:04","Type":"3"}}
{"Call": {"Number":"+98912699####","Duration":"0","Time":"12-29-2013 14:39:04","Type":"3"}}
{"Call": {"Number":"+98912699####","Duration":"0","Time":"12-29-2013 14:39:04","Type":"3"}}
{"Call": {"Number":"+98912699####","Duration":"0","Time":"12-29-2013 14:39:04","Type":"3"}}
{"Application":{"ProcessName":"com.sonyericsson.r2r.client","Start":"12-29-2013 14:35:15","End":"12-29-2013 14:39:48"}}
{"Application":{"ProcessName":"com.sonyericsson.home","Start":"12-29-2013 14:35:15","End":"12-29-2013 14:39:48"}}
{"Application":{"ProcessName":"com.android.settings","Start":"12-29-2013 14:35:15","End":"12-29-2013 14:39:48"}}
{"Application":{"ProcessName":"com.sonyericsson.customization","Start":"12-29-2013 14:35:15","End":"12-29-2013 14:39:48"}}
{"SMS":{"Address":"+98919646####","type":"2","date":"12-29-2013 14:47:51","body":"ANONYMIZED","Type":"2", "metadata": {"name": "Abji Faeze"}}}
{"Application":{"ProcessName":"com.sonyericsson.r2r.client","Start":"12-29-2013 14:47:01","End":"12-29-2013 14:48:51"}}
{"Application":{"ProcessName":"com.sonyericsson.home","Start":"12-29-2013 14:47:01","End":"12-29-2013 14:48:51"}}
{"Application":{"ProcessName":"com.android.settings","Start":"12-29-2013 14:47:01","End":"12-29-2013 14:48:51"}}
{"Application":{"ProcessName":"com.sonyericsson.customization","Start":"12-29-2013 14:47:01","End":"12-29-2013 14:48:51"}}
{"Application":{"ProcessName":"com.sonyericsson.r2r.client","Start":"12-29-2013 14:49:54","End":"12-29-2013 14:53:04"}}
{"Application":{"ProcessName":"com.sonyericsson.home","Start":"12-29-2013 14:49:54","End":"12-29-2013 14:53:04"}}
{"Application":{"ProcessName":"com.android.settings","Start":"12-29-2013 14:49:54","End":"12-29-2013 14:53:04"}}
{"Application":{"ProcessName":"com.sonyericsson.customization","Start":"12-29-2013 14:49:54","End":"12-29-2013 14:53:04"}}
{"SMS":{"Address":"+98919646####","type":"1","date":"12-29-2013 14:57:47","body":"ANONYMIZED","Type":"1", "metadata": {"name": "Abji Faeze"}}}
{"SMS":{"Address":"+98919646####","type":"2","date":"12-29-2013 14:58:46","body":"ANONYMIZED","Type":"2", "metadata": {"name": "Abji Faeze"}}}
{"Application":{"ProcessName":"com.sonyericsson.r2r.client","Start":"12-29-2013 14:57:54","End":"12-29-2013 15:01:40"}}
{"Application":{"ProcessName":"com.sonyericsson.home","Start":"12-29-2013 14:57:54","End":"12-29-2013 15:01:40"}}
{"Application":{"ProcessName":"com.android.settings","Start":"12-29-2013 14:57:54","End":"12-29-2013 15:01:40"}}
{"Application":{"ProcessName":"com.sonyericsson.customization","Start":"12-29-2013 14:57:54","End":"12-29-2013 15:01:40"}}
{"Call": {"Number":"+98217706####","Duration":"0","Time":"12-29-2013 15:17:03","Type":"1"}}
{"Call": {"Number":"+98217706####","Duration":"0","Time":"12-29-2013 15:17:03","Type":"1"}}
{"Call": {"Number":"+98217706####","Duration":"0","Time":"12-29-2013 15:17:03","Type":"1"}}
{"SMS":{"Address":"+98919646####","type":"1","date":"12-29-2013 15:20:33","body":"ANONYMIZED","Type":"1", "metadata": {"name": "Abji Faeze"}}}
{"Application":{"ProcessName":"com.sonyericsson.home","Start":"12-29-2013 15:17:08","End":"12-29-2013 15:20:34"}}
{"Application":{"ProcessName":"com.android.settings","Start":"12-29-2013 15:17:08","End":"12-29-2013 15:20:34"}}
{"Application":{"ProcessName":"com.sonyericsson.customization","Start":"12-29-2013 15:17:08","End":"12-29-2013 15:20:34"}}
{"Application":{"ProcessName":"com.sonyericsson.r2r.client","Start":"12-29-2013 15:17:08","End":"12-29-2013 15:20:34"}}
{"SMS":{"Address":"+98919646####","type":"2","date":"12-29-2013 15:20:49","body":"ANONYMIZED","Type":"2", "metadata": {"name": "Abji Faeze"}}}
{"Application":{"ProcessName":"com.sonyericsson.r2r.client","Start":"12-29-2013 15:20:46","End":"12-29-2013 15:21:23"}}
{"Application":{"ProcessName":"com.android.vending","Start":"12-29-2013 15:20:46","End":"12-29-2013 15:21:23"}}
{"Application":{"ProcessName":"com.sonyericsson.home","Start":"12-29-2013 15:20:46","End":"12-29-2013 15:21:23"}}
{"Application":{"ProcessName":"com.android.settings","Start":"12-29-2013 15:20:46","End":"12-29-2013 15:21:23"}}
{"Application":{"ProcessName":"com.sonyericsson.customization","Start":"12-29-2013 15:20:46","End":"12-29-2013 15:21:23"}}
{"SMS":{"Address":"+98919703####","type":"1","date":"12-29-2013 15:40:28","body":"ANONYMIZED","Type":"1", "metadata": {"name": "Pesaaaaraam :-)"}}}
{"Application":{"ProcessName":"com.sonyericsson.r2r.client","Start":"12-29-2013 15:40:43","End":"12-29-2013 15:58:26"}}
{"Application":{"ProcessName":"com.sonyericsson.home","Start":"12-29-2013 15:40:43","End":"12-29-2013 15:58:26"}}
{"Application":{"ProcessName":"com.android.settings","Start":"12-29-2013 15:40:43","End":"12-29-2013 15:58:26"}}
{"Application":{"ProcessName":"com.sonyericsson.customization","Start":"12-29-2013 15:40:43","End":"12-29-2013 15:58:26"}}
{"Call": {"Number":"+98919500####","Duration":"0","Time":"12-29-2013 15:58:27","Type":"3"}}
{"Call": {"Number":"+98919500####","Duration":"0","Time":"12-29-2013 15:58:27","Type":"3"}}
{"Call": {"Number":"+98919500####","Duration":"0","Time":"12-29-2013 15:58:27","Type":"3"}}
{"Call": {"Number":"+98919500####","Duration":"0","Time":"12-29-2013 15:58:27","Type":"3"}}
{"Call": {"Number":"+98919500####","Duration":"0","Time":"12-29-2013 15:58:27","Type":"3"}}
{"Call": {"Number":"+98919500####","Duration":"0","Time":"12-29-2013 15:58:27","Type":"3"}}
{"Application":{"ProcessName":"com.sonyericsson.extras.liveware","Start":"12-29-2013 16:00:16","End":"12-29-2013 16:00:26"}}
{"Application":{"ProcessName":"com.sonyericsson.extras.liveware","Start":"12-29-2013 16:00:36","End":"12-29-2013 16:00:56"}}
{"Call": {"Number":"+98919500####","Duration":"0","Time":"12-29-2013 16:02:24","Type":"1"}}
{"Call": {"Number":"+98919500####","Duration":"0","Time":"12-29-2013 16:02:24","Type":"1"}}
{"Call": {"Number":"+98919500####","Duration":"0","Time":"12-29-2013 16:02:24","Type":"1"}}
{"Call": {"Number":"+98919500####","Duration":"0","Time":"12-29-2013 16:02:24","Type":"1"}}
{"Application":{"ProcessName":"com.sonyericsson.r2r.client","Start":"12-29-2013 15:58:36","End":"12-29-2013 16:07:23"}}
{"Application":{"ProcessName":"com.sonyericsson.home","Start":"12-29-2013 15:58:36","End":"12-29-2013 16:07:23"}}
{"Application":{"ProcessName":"com.android.settings","Start":"12-29-2013 15:58:36","End":"12-29-2013 16:07:23"}}
{"Application":{"ProcessName":"com.sonyericsson.customization","Start":"12-29-2013 15:58:36","End":"12-29-2013 16:07:23"}}
{"Call": {"Number":"+98919500####","Duration":"0","Time":"12-29-2013 16:02:24","Type":"1"}}
{"SMS":{"Address":"+98919500####","type":"2","date":"12-29-2013 16:08:25","body":"ANONYMIZED","Type":"2", "metadata": {"name": ""}}}
{"Application":{"ProcessName":"com.sonyericsson.dsds.widget","Start":"12-29-2013 16:08:44","End":"12-29-2013 16:08:45"}}
{"Call": {"Number":"+98919500####","Duration":"0","Time":"12-29-2013 16:08:51","Type":"1"}}
{"Call": {"Number":"+98919500####","Duration":"0","Time":"12-29-2013 16:08:51","Type":"1"}}
{"Call": {"Number":"+98919500####","Duration":"0","Time":"12-29-2013 16:08:51","Type":"1"}}
{"Application":{"ProcessName":"com.sonyericsson.r2r.client","Start":"12-29-2013 16:07:24","End":"12-29-2013 16:16:35"}}
{"Application":{"ProcessName":"com.sonyericsson.home","Start":"12-29-2013 16:07:24","End":"12-29-2013 16:16:35"}}
{"Application":{"ProcessName":"com.android.settings","Start":"12-29-2013 16:07:24","End":"12-29-2013 16:16:35"}}
{"Application":{"ProcessName":"com.sonyericsson.customization","Start":"12-29-2013 16:07:24","End":"12-29-2013 16:16:35"}}
{"SMS":{"Address":"+98919703####","type":"1","date":"12-29-2013 16:20:57","body":"ANONYMIZED","Type":"1", "metadata": {"name": "Pesaaaaraam :-)"}}}
{"Application":{"ProcessName":"com.sonyericsson.r2r.client","Start":"12-29-2013 16:16:35","End":"12-29-2013 16:20:59"}}
{"Application":{"ProcessName":"com.sonyericsson.home","Start":"12-29-2013 16:16:35","End":"12-29-2013 16:20:59"}}
{"Application":{"ProcessName":"com.android.settings","Start":"12-29-2013 16:16:35","End":"12-29-2013 16:20:59"}}
{"Application":{"ProcessName":"com.sonyericsson.customization","Start":"12-29-2013 16:16:35","End":"12-29-2013 16:20:59"}}
{"Call": {"Number":"+98217706####","Duration":"0","Time":"12-29-2013 16:23:22","Type":"1"}}
{"Call": {"Number":"+98217706####","Duration":"0","Time":"12-29-2013 16:23:22","Type":"1"}}
{"Bluetooth":{"name":"NO_DEVICENAME","address":"30:17:C8:87:89:C6","bond status":"none","time":"Sunday, December 29, 2013 4:24:00 PM Iran Standard Time"}}
{"Bluetooth":{"name":"NO_DEVICENAME","address":"30:17:C8:87:89:C6","bond status":"none","time":"Sunday, December 29, 2013 4:24:00 PM Iran Standard Time"}}
{"Application":{"ProcessName":"com.sonyericsson.r2r.client","Start":"12-29-2013 16:21:10","End":"12-29-2013 16:24:27"}}
{"Application":{"ProcessName":"com.sonyericsson.home","Start":"12-29-2013 16:21:10","End":"12-29-2013 16:24:27"}}
{"Application":{"ProcessName":"com.android.settings","Start":"12-29-2013 16:21:10","End":"12-29-2013 16:24:27"}}
{"Application":{"ProcessName":"com.sonyericsson.customization","Start":"12-29-2013 16:21:10","End":"12-29-2013 16:24:27"}}
{"Bluetooth":{"name":"NO_DEVICENAME","address":"30:17:C8:87:89:C6","bond status":"none","time":"Sunday, December 29, 2013 4:24:00 PM Iran Standard Time"}}
{"Bluetooth":{"name":"NO_DEVICENAME","address":"30:17:C8:87:89:C6","bond status":"none","time":"Sunday, December 29, 2013 4:24:00 PM Iran Standard Time"}}
{"Bluetooth":{"name":"Bp..c6","address":"94:3A:F0:CF:07:BA","bond status":"none","time":"Sunday, December 29, 2013 4:24:00 PM Iran Standard Time"}}
{"Bluetooth":{"name":"Bp..c6","address":"94:3A:F0:CF:07:BA","bond status":"none","time":"Sunday, December 29, 2013 4:24:00 PM Iran Standard Time"}}
{"Bluetooth":{"name":"Vivaz U5","address":"30:17:C8:87:89:C6","bond status":"none","time":"Sunday, December 29, 2013 4:24:00 PM Iran Standard Time"}}
{"Bluetooth":{"name":"Vivaz U5","address":"30:17:C8:87:89:C6","bond status":"none","time":"Sunday, December 29, 2013 4:24:00 PM Iran Standard Time"}}
{"Call": {"Number":"+98919703####","Duration":"0","Time":"12-29-2013 16:30:05","Type":"1"}}
{"Call": {"Number":"+98919703####","Duration":"0","Time":"12-29-2013 16:30:05","Type":"1"}}
{"Application":{"ProcessName":"com.sonyericsson.r2r.client","Start":"12-29-2013 16:30:11","End":"12-29-2013 16:31:11"}}
{"Application":{"ProcessName":"com.sonyericsson.home","Start":"12-29-2013 16:30:11","End":"12-29-2013 16:31:11"}}
{"Application":{"ProcessName":"com.android.settings","Start":"12-29-2013 16:30:11","End":"12-29-2013 16:31:11"}}
{"Application":{"ProcessName":"com.sonyericsson.customization","Start":"12-29-2013 16:30:11","End":"12-29-2013 16:31:11"}}
{"SMS":{"Address":"+98919703####","type":"1","date":"12-29-2013 16:48:19","body":"ANONYMIZED","Type":"1", "metadata": {"name": "Pesaaaaraam :-)"}}}
{"SMS":{"Address":"0919703####","type":"2","date":"12-29-2013 16:49:21","body":"ANONYMIZED","Type":"2", "metadata": {"name": "Pesaaaaraam :-)"}}}
{"SMS":{"Address":"+98919703####","type":"1","date":"12-29-2013 16:50:21","body":"ANONYMIZED","Type":"1", "metadata": {"name": "Pesaaaaraam :-)"}}}
{"SMS":{"Address":"0919703####","type":"2","date":"12-29-2013 16:50:56","body":"ANONYMIZED","Type":"2", "metadata": {"name": "Pesaaaaraam :-)"}}}
{"SMS":{"Address":"+98919703####","type":"1","date":"12-29-2013 16:51:43","body":"ANONYMIZED","Type":"1", "metadata": {"name": "Pesaaaaraam :-)"}}}
{"Application":{"ProcessName":"com.sonyericsson.r2r.client","Start":"12-29-2013 16:48:38","End":"12-29-2013 16:54:25"}}
{"Application":{"ProcessName":"com.sonyericsson.home","Start":"12-29-2013 16:48:38","End":"12-29-2013 16:54:25"}}
{"Application":{"ProcessName":"com.sonyericsson.customization","Start":"12-29-2013 16:48:38","End":"12-29-2013 16:54:25"}}
{"Application":{"ProcessName":"com.android.settings","Start":"12-29-2013 16:48:38","End":"12-29-2013 16:54:25"}}
{"Application":{"ProcessName":"com.sonyericsson.r2r.client","Start":"12-29-2013 17:01:48","End":"12-29-2013 17:06:21"}}
{"Application":{"ProcessName":"com.sonyericsson.home","Start":"12-29-2013 17:01:48","End":"12-29-2013 17:06:21"}}
{"Application":{"ProcessName":"com.sonyericsson.customization","Start":"12-29-2013 17:01:48","End":"12-29-2013 17:06:21"}}
{"Application":{"ProcessName":"com.android.settings","Start":"12-29-2013 17:01:48","End":"12-29-2013 17:06:21"}}
{"Call": {"Number":"+98919500####","Duration":"59","Time":"12-29-2013 17:05:33","Type":"1"}}
{"Call": {"Number":"+98919500####","Duration":"59","Time":"12-29-2013 17:05:33","Type":"1"}}
{"Application":{"ProcessName":"com.sonyericsson.r2r.client","Start":"12-29-2013 17:06:41","End":"12-29-2013 17:07:29"}}
{"Application":{"ProcessName":"com.sonyericsson.home","Start":"12-29-2013 17:06:41","End":"12-29-2013 17:07:29"}}
{"Application":{"ProcessName":"com.android.settings","Start":"12-29-2013 17:06:41","End":"12-29-2013 17:07:29"}}
{"Application":{"ProcessName":"com.sonyericsson.customization","Start":"12-29-2013 17:06:41","End":"12-29-2013 17:07:29"}}
{"Call": {"Number":"+98919500####","Duration":"59","Time":"12-29-2013 17:05:33","Type":"1"}}
{"Application":{"ProcessName":"com.sonyericsson.r2r.client","Start":"12-29-2013 17:07:44","End":"12-29-2013 17:07:54"}}
{"Application":{"ProcessName":"com.sonyericsson.home","Start":"12-29-2013 17:07:44","End":"12-29-2013 17:07:54"}}
{"Application":{"ProcessName":"com.android.settings","Start":"12-29-2013 17:07:44","End":"12-29-2013 17:07:54"}}
{"Application":{"ProcessName":"com.sonyericsson.customization","Start":"12-29-2013 17:07:44","End":"12-29-2013 17:07:54"}}
{"Call": {"Number":"+98919703####","Duration":"0","Time":"12-29-2013 17:07:40","Type":"2"}}
{"Call": {"Number":"+98919703####","Duration":"0","Time":"12-29-2013 17:07:40","Type":"2"}}
{"Application":{"ProcessName":"com.sonyericsson.r2r.client","Start":"12-29-2013 17:08:04","End":"12-29-2013 17:08:34"}}
{"Application":{"ProcessName":"com.sonyericsson.home","Start":"12-29-2013 17:08:04","End":"12-29-2013 17:08:34"}}
{"Application":{"ProcessName":"com.android.settings","Start":"12-29-2013 17:08:04","End":"12-29-2013 17:08:34"}}
{"Application":{"ProcessName":"com.sonyericsson.customization","Start":"12-29-2013 17:08:04","End":"12-29-2013 17:08:34"}}
{"Application":{"ProcessName":"com.sonyericsson.music","Start":"12-29-2013 17:32:30","End":"12-29-2013 17:32:40"}}
{"Application":{"ProcessName":"com.sonyericsson.r2r.client","Start":"12-29-2013 17:32:20","End":"12-29-2013 17:34:31"}}
{"Application":{"ProcessName":"com.sonyericsson.music","Start":"12-29-2013 17:32:50","End":"12-29-2013 17:34:31"}}
{"Application":{"ProcessName":"com.sonyericsson.home","Start":"12-29-2013 17:32:20","End":"12-29-2013 17:34:31"}}
{"Application":{"ProcessName":"com.android.settings","Start":"12-29-2013 17:32:20","End":"12-29-2013 17:34:31"}}
{"Application":{"ProcessName":"com.sonyericsson.customization","Start":"12-29-2013 17:32:20","End":"12-29-2013 17:34:31"}}
{"Application":{"ProcessName":"com.sonyericsson.music","Start":"12-29-2013 17:35:11","End":"12-29-2013 17:38:32"}}
{"Application":{"ProcessName":"com.sonyericsson.r2r.client","Start":"12-29-2013 17:35:11","End":"12-29-2013 17:39:32"}}
{"Application":{"ProcessName":"com.sonyericsson.home","Start":"12-29-2013 17:35:11","End":"12-29-2013 17:39:32"}}
{"Application":{"ProcessName":"com.android.settings","Start":"12-29-2013 17:35:11","End":"12-29-2013 17:39:32"}}
{"Application":{"ProcessName":"com.sonyericsson.customization","Start":"12-29-2013 17:35:11","End":"12-29-2013 17:39:32"}}
{"Application":{"ProcessName":"com.sonyericsson.home","Start":"12-29-2013 17:51:03","End":"12-29-2013 17:52:13"}}
{"Application":{"ProcessName":"com.android.settings","Start":"12-29-2013 17:51:03","End":"12-29-2013 17:52:13"}}
{"Application":{"ProcessName":"com.sonyericsson.customization","Start":"12-29-2013 17:51:03","End":"12-29-2013 17:52:13"}}
{"Application":{"ProcessName":"com.sonyericsson.r2r.client","Start":"12-29-2013 17:51:03","End":"12-29-2013 17:52:13"}}
{"Application":{"ProcessName":"com.sonyericsson.conversations","Start":"12-29-2013 17:54:44","End":"12-29-2013 18:01:41"}}
{"Application":{"ProcessName":"com.sonyericsson.r2r.client","Start":"12-29-2013 17:54:44","End":"12-29-2013 18:01:41"}}
{"Application":{"ProcessName":"com.sonyericsson.home","Start":"12-29-2013 17:54:44","End":"12-29-2013 18:01:41"}}
{"Application":{"ProcessName":"com.android.settings","Start":"12-29-2013 17:54:44","End":"12-29-2013 18:01:41"}}
{"Application":{"ProcessName":"com.sonyericsson.customization","Start":"12-29-2013 17:54:44","End":"12-29-2013 18:01:41"}}
{"Application":{"ProcessName":"com.sonyericsson.r2r.client","Start":"12-29-2013 19:03:05","End":"12-29-2013 19:03:15"}}
{"Application":{"ProcessName":"com.sonyericsson.home","Start":"12-29-2013 19:03:05","End":"12-29-2013 19:03:15"}}
{"Application":{"ProcessName":"com.android.settings","Start":"12-29-2013 19:03:05","End":"12-29-2013 19:03:15"}}
{"Application":{"ProcessName":"com.sonyericsson.customization","Start":"12-29-2013 19:03:05","End":"12-29-2013 19:03:15"}}
{"Call": {"Number":"+98217706####","Duration":"3","Time":"12-29-2013 19:18:36","Type":"2"}}
{"Call": {"Number":"+98217706####","Duration":"3","Time":"12-29-2013 19:18:36","Type":"2"}}
{"Call": {"Number":"+98217706####","Duration":"3","Time":"12-29-2013 19:18:36","Type":"2"}}
{"Call": {"Number":"+98217706####","Duration":"3","Time":"12-29-2013 19:18:36","Type":"2"}}
{"Application":{"ProcessName":"com.sonyericsson.r2r.client","Start":"12-29-2013 19:19:18","End":"12-29-2013 19:19:28"}}
{"Application":{"ProcessName":"com.sonyericsson.home","Start":"12-29-2013 19:19:18","End":"12-29-2013 19:19:28"}}
{"Application":{"ProcessName":"com.android.settings","Start":"12-29-2013 19:19:18","End":"12-29-2013 19:19:28"}}
{"Application":{"ProcessName":"com.sonyericsson.customization","Start":"12-29-2013 19:19:18","End":"12-29-2013 19:19:28"}}
{"Call": {"Number":"+98919090####","Duration":"23","Time":"12-29-2013 19:19:23","Type":"2"}}
{"Call": {"Number":"+98919090####","Duration":"23","Time":"12-29-2013 19:19:23","Type":"2"}}
{"Call": {"Number":"+98919090####","Duration":"23","Time":"12-29-2013 19:19:23","Type":"2"}}
{"Call": {"Number":"+98919090####","Duration":"23","Time":"12-29-2013 19:19:23","Type":"2"}}
{"Application":{"ProcessName":"com.sonyericsson.r2r.client","Start":"12-29-2013 19:20:12","End":"12-29-2013 19:20:33"}}
{"Application":{"ProcessName":"com.sonyericsson.home","Start":"12-29-2013 19:20:12","End":"12-29-2013 19:20:33"}}
{"Application":{"ProcessName":"com.android.settings","Start":"12-29-2013 19:20:12","End":"12-29-2013 19:20:33"}}
{"Application":{"ProcessName":"com.sonyericsson.customization","Start":"12-29-2013 19:20:12","End":"12-29-2013 19:20:33"}}
{"Call": {"Number":"0912687####","Duration":"129","Time":"12-29-2013 19:20:22","Type":"2"}}
{"Call": {"Number":"0912687####","Duration":"129","Time":"12-29-2013 19:20:22","Type":"2"}}
{"Call": {"Number":"0912687####","Duration":"129","Time":"12-29-2013 19:20:22","Type":"2"}}
{"Call": {"Number":"0912687####","Duration":"129","Time":"12-29-2013 19:20:22","Type":"2"}}
{"Application":{"ProcessName":"com.sonyericsson.r2r.client","Start":"12-29-2013 19:22:44","End":"12-29-2013 19:29:09"}}
{"Application":{"ProcessName":"com.sonyericsson.home","Start":"12-29-2013 19:22:44","End":"12-29-2013 19:29:09"}}
{"Application":{"ProcessName":"com.android.settings","Start":"12-29-2013 19:22:44","End":"12-29-2013 19:29:09"}}
{"Application":{"ProcessName":"com.sonyericsson.customization","Start":"12-29-2013 19:22:44","End":"12-29-2013 19:29:09"}}
{"Call": {"Number":"+98912687####","Duration":"25","Time":"12-29-2013 19:36:08","Type":"1"}}
{"Call": {"Number":"+98912687####","Duration":"25","Time":"12-29-2013 19:36:08","Type":"1"}}
{"Application":{"ProcessName":"com.sonyericsson.r2r.client","Start":"12-29-2013 19:36:18","End":"12-29-2013 19:37:43"}}
{"Application":{"ProcessName":"com.sonyericsson.home","Start":"12-29-2013 19:36:18","End":"12-29-2013 19:37:43"}}
{"Application":{"ProcessName":"com.android.settings","Start":"12-29-2013 19:36:18","End":"12-29-2013 19:37:43"}}
{"Application":{"ProcessName":"com.sonyericsson.customization","Start":"12-29-2013 19:36:18","End":"12-29-2013 19:37:43"}}
{"Call": {"Number":"+98912687####","Duration":"0","Time":"12-29-2013 19:43:38","Type":"2"}}
{"Call": {"Number":"+98912687####","Duration":"0","Time":"12-29-2013 19:43:38","Type":"2"}}
{"Application":{"ProcessName":"com.sonyericsson.r2r.client","Start":"12-29-2013 19:43:33","End":"12-29-2013 19:46:13"}}
{"Application":{"ProcessName":"com.sonyericsson.home","Start":"12-29-2013 19:43:33","End":"12-29-2013 19:46:13"}}
{"Application":{"ProcessName":"com.android.settings","Start":"12-29-2013 19:43:33","End":"12-29-2013 19:46:13"}}
{"Application":{"ProcessName":"com.sonyericsson.customization","Start":"12-29-2013 19:43:33","End":"12-29-2013 19:46:13"}}
{"Call": {"Number":"+98912687####","Duration":"4","Time":"12-29-2013 19:46:05","Type":"2"}}
{"Call": {"Number":"+98912687####","Duration":"4","Time":"12-29-2013 19:46:05","Type":"2"}}
{"Application":{"ProcessName":"com.sonyericsson.r2r.client","Start":"12-29-2013 19:46:33","End":"12-29-2013 19:47:00"}}
{"Application":{"ProcessName":"com.sonyericsson.home","Start":"12-29-2013 19:46:33","End":"12-29-2013 19:47:00"}}
{"Application":{"ProcessName":"com.android.settings","Start":"12-29-2013 19:46:33","End":"12-29-2013 19:47:00"}}
{"Application":{"ProcessName":"com.sonyericsson.customization","Start":"12-29-2013 19:46:33","End":"12-29-2013 19:47:00"}}
{"Application":{"ProcessName":"com.sonyericsson.r2r.client","Start":"12-29-2013 19:57:43","End":"12-29-2013 19:58:03"}}
{"Application":{"ProcessName":"com.sonyericsson.home","Start":"12-29-2013 19:57:43","End":"12-29-2013 19:58:03"}}
{"Application":{"ProcessName":"com.android.settings","Start":"12-29-2013 19:57:43","End":"12-29-2013 19:58:03"}}
{"Application":{"ProcessName":"com.sonyericsson.customization","Start":"12-29-2013 19:57:43","End":"12-29-2013 19:58:03"}}
{"Call": {"Number":"0919646####","Duration":"40","Time":"12-29-2013 19:57:55","Type":"2"}}
{"Call": {"Number":"0919646####","Duration":"40","Time":"12-29-2013 19:57:55","Type":"2"}}
{"SMS":{"Address":"+98919532####","type":"1","date":"12-29-2013 20:22:15","body":"ANONYMIZED","Type":"1", "metadata": {"name": "Mahdiy Khale :-"}}}
{"SMS":{"Address":"+98919532####","type":"2","date":"12-29-2013 20:23:09","body":"ANONYMIZED","Type":"2", "metadata": {"name": "Mahdiy Khale :-"}}}
{"Application":{"ProcessName":"com.sonyericsson.dsds.widget","Start":"12-29-2013 20:23:37","End":"12-29-2013 20:23:37"}}
{"Application":{"ProcessName":"com.sonyericsson.android.socialphonebook","Start":"12-29-2013 20:25:03","End":"12-29-2013 20:25:13"}}
{"Application":{"ProcessName":"com.sonyericsson.r2r.client","Start":"12-29-2013 20:22:21","End":"12-29-2013 20:25:23"}}
{"Application":{"ProcessName":"com.sonyericsson.home","Start":"12-29-2013 20:22:21","End":"12-29-2013 20:25:23"}}
{"Application":{"ProcessName":"com.android.settings","Start":"12-29-2013 20:22:21","End":"12-29-2013 20:25:23"}}
{"Application":{"ProcessName":"com.sonyericsson.customization","Start":"12-29-2013 20:22:21","End":"12-29-2013 20:25:23"}}
{"SMS":{"Address":"+98919532####","type":"1","date":"12-29-2013 20:25:41","body":"ANONYMIZED","Type":"1", "metadata": {"name": "Mahdiy Khale :-"}}}
{"Call": {"Number":"+98919532####","Duration":"73","Time":"12-29-2013 20:25:12","Type":"2"}}
{"Call": {"Number":"+98919532####","Duration":"73","Time":"12-29-2013 20:25:12","Type":"2"}}
{"Application":{"ProcessName":"com.sonyericsson.infiniteview","Start":"12-29-2013 20:26:48","End":"12-29-2013 20:26:58"}}
{"Application":{"ProcessName":"com.sonyericsson.conversations","Start":"12-29-2013 20:26:58","End":"12-29-2013 20:27:37"}}
{"Application":{"ProcessName":"com.sonyericsson.r2r.client","Start":"12-29-2013 20:26:38","End":"12-29-2013 20:27:37"}}
{"Application":{"ProcessName":"com.sonyericsson.home","Start":"12-29-2013 20:26:38","End":"12-29-2013 20:27:37"}}
{"Application":{"ProcessName":"com.android.settings","Start":"12-29-2013 20:26:38","End":"12-29-2013 20:27:37"}}
{"Application":{"ProcessName":"com.sonyericsson.customization","Start":"12-29-2013 20:26:38","End":"12-29-2013 20:27:37"}}
{"SMS":{"Address":"+98919532####","type":"1","date":"12-29-2013 20:30:39","body":"ANONYMIZED","Type":"1", "metadata": {"name": "Mahdiy Khale :-"}}}
{"SMS":{"Address":"+98919532####","type":"2","date":"12-29-2013 20:47:43","body":"ANONYMIZED","Type":"2", "metadata": {"name": "Mahdiy Khale :-"}}}
{"Application":{"ProcessName":"com.sonyericsson.r2r.client","Start":"12-29-2013 20:46:31","End":"12-29-2013 20:57:08"}}
{"Application":{"ProcessName":"com.sonyericsson.home","Start":"12-29-2013 20:46:31","End":"12-29-2013 20:57:08"}}
{"Application":{"ProcessName":"com.android.settings","Start":"12-29-2013 20:46:31","End":"12-29-2013 20:57:08"}}
{"Application":{"ProcessName":"com.sonyericsson.customization","Start":"12-29-2013 20:46:31","End":"12-29-2013 20:57:08"}}
{"SMS":{"Address":"0912559####","type":"2","date":"12-29-2013 21:03:23","body":"ANONYMIZED","Type":"2", "metadata": {"name": "Fereshte Zandai"}}}
{"Application":{"ProcessName":"com.sonyericsson.home","Start":"12-29-2013 21:49:24","End":"12-29-2013 21:49:34"}}
{"Application":{"ProcessName":"com.android.settings","Start":"12-29-2013 21:49:24","End":"12-29-2013 21:49:34"}}
{"Application":{"ProcessName":"com.sonyericsson.customization","Start":"12-29-2013 21:49:24","End":"12-29-2013 21:49:34"}}
{"Application":{"ProcessName":"com.sonyericsson.r2r.client","Start":"12-29-2013 21:49:24","End":"12-29-2013 21:49:34"}}
{"Call": {"Number":"+98919040####","Duration":"9","Time":"12-29-2013 21:49:18","Type":"1"}}
{"Call": {"Number":"+98919040####","Duration":"9","Time":"12-29-2013 21:49:18","Type":"1"}}
{"Call": {"Number":"+98919040####","Duration":"9","Time":"12-29-2013 21:49:18","Type":"1"}}
{"Call": {"Number":"+98919040####","Duration":"9","Time":"12-29-2013 21:49:18","Type":"1"}}
{"Call": {"Number":"+98919040####","Duration":"9","Time":"12-29-2013 21:49:18","Type":"1"}}
{"Call": {"Number":"+98919040####","Duration":"9","Time":"12-29-2013 21:49:18","Type":"1"}}
{"Application":{"ProcessName":"com.sonyericsson.home","Start":"12-29-2013 21:49:49","End":"12-29-2013 21:57:00"}}
{"Application":{"ProcessName":"com.android.settings","Start":"12-29-2013 21:49:49","End":"12-29-2013 21:57:00"}}
{"Application":{"ProcessName":"com.sonyericsson.customization","Start":"12-29-2013 21:49:49","End":"12-29-2013 21:57:00"}}
{"Application":{"ProcessName":"com.sonyericsson.r2r.client","Start":"12-29-2013 21:49:49","End":"12-29-2013 21:57:00"}}
{"Application":{"ProcessName":"com.sonyericsson.home","Start":"12-29-2013 22:15:37","End":"12-29-2013 22:17:00"}}
{"Application":{"ProcessName":"com.android.settings","Start":"12-29-2013 22:15:37","End":"12-29-2013 22:17:00"}}
{"Application":{"ProcessName":"com.sonyericsson.customization","Start":"12-29-2013 22:15:37","End":"12-29-2013 22:17:00"}}
{"Application":{"ProcessName":"com.sonyericsson.r2r.client","Start":"12-29-2013 22:15:37","End":"12-29-2013 22:17:00"}}
{"Application":{"ProcessName":"com.sonyericsson.conversations","Start":"12-29-2013 22:46:55","End":"12-29-2013 22:47:04"}}
{"SMS":{"Address":"+98919646####","type":"2","date":"12-29-2013 22:47:05","body":"ANONYMIZED","Type":"2", "metadata": {"name": "Abji Faeze"}}}
{"Application":{"ProcessName":"com.sonyericsson.dsds.widget","Start":"12-29-2013 22:47:44","End":"12-29-2013 22:47:45"}}
{"Application":{"ProcessName":"com.sonyericsson.r2r.client","Start":"12-29-2013 22:46:54","End":"12-29-2013 22:48:14"}}
{"Application":{"ProcessName":"com.sonyericsson.home","Start":"12-29-2013 22:46:54","End":"12-29-2013 22:48:14"}}
{"Application":{"ProcessName":"com.android.settings","Start":"12-29-2013 22:46:54","End":"12-29-2013 22:48:14"}}
{"Application":{"ProcessName":"com.sonyericsson.customization","Start":"12-29-2013 22:46:54","End":"12-29-2013 22:48:14"}}
{"SMS":{"Address":"+98919646####","type":"1","date":"12-29-2013 22:48:23","body":"ANONYMIZED","Type":"1", "metadata": {"name": "Abji Faeze"}}}
{"SMS":{"Address":"+98919646####","type":"2","date":"12-29-2013 22:49:59","body":"ANONYMIZED","Type":"2", "metadata": {"name": "Abji Faeze"}}}
{"Application":{"ProcessName":"com.sonyericsson.r2r.client","Start":"12-29-2013 22:48:32","End":"12-29-2013 22:50:23"}}
{"Application":{"ProcessName":"com.sonyericsson.home","Start":"12-29-2013 22:48:32","End":"12-29-2013 22:50:23"}}
{"Application":{"ProcessName":"com.android.settings","Start":"12-29-2013 22:48:32","End":"12-29-2013 22:50:23"}}
{"Application":{"ProcessName":"com.sonyericsson.customization","Start":"12-29-2013 22:48:32","End":"12-29-2013 22:50:23"}}
{"SMS":{"Address":"+98919646####","type":"1","date":"12-29-2013 22:52:35","body":"ANONYMIZED","Type":"1", "metadata": {"name": "Abji Faeze"}}}
{"SMS":{"Address":"+98919646####","type":"2","date":"12-29-2013 22:52:54","body":"ANONYMIZED","Type":"2", "metadata": {"name": "Abji Faeze"}}}
{"SMS":{"Address":"+98919646####","type":"2","date":"12-29-2013 22:53:01","body":"ANONYMIZED","Type":"2", "metadata": {"name": "Abji Faeze"}}}
{"Application":{"ProcessName":"com.sonyericsson.dsds.widget","Start":"12-29-2013 22:53:16","End":"12-29-2013 22:53:17"}}
{"Application":{"ProcessName":"com.sonyericsson.dsds.widget","Start":"12-29-2013 22:53:28","End":"12-29-2013 22:53:28"}}
{"Application":{"ProcessName":"com.sonyericsson.r2r.client","Start":"12-29-2013 22:52:45","End":"12-29-2013 23:01:55"}}
{"Application":{"ProcessName":"com.sonyericsson.home","Start":"12-29-2013 22:52:45","End":"12-29-2013 23:01:55"}}
{"Application":{"ProcessName":"com.android.settings","Start":"12-29-2013 22:52:45","End":"12-29-2013 23:01:55"}}
{"Application":{"ProcessName":"com.sonyericsson.customization","Start":"12-29-2013 22:52:45","End":"12-29-2013 23:01:55"}}
{"SMS":{"Address":"+98919646####","type":"1","date":"12-29-2013 23:05:05","body":"ANONYMIZED","Type":"1", "metadata": {"name": "Abji Faeze"}}}
{"SMS":{"Address":"+98919646####","type":"2","date":"12-29-2013 23:05:33","body":"ANONYMIZED","Type":"2", "metadata": {"name": "Abji Faeze"}}}
{"SMS":{"Address":"HAMRAH ####","type":"1","date":"12-29-2013 23:05:37","body":"ANONYMIZED","Type":"1", "metadata": {"name": ""}}}
