{"Application":{"ProcessName":"com.sonyericsson.gallery","Start":"12-27-2013 09:36:35","End":"12-27-2013 09:41:42"}}
{"Application":{"ProcessName":"com.sonyericsson.r2r.client","Start":"12-27-2013 09:36:35","End":"12-27-2013 09:41:42"}}
{"Application":{"ProcessName":"com.sonyericsson.home","Start":"12-27-2013 09:36:35","End":"12-27-2013 09:41:42"}}
{"Application":{"ProcessName":"com.sonyericsson.customization","Start":"12-27-2013 09:36:35","End":"12-27-2013 09:41:42"}}
{"Application":{"ProcessName":"com.android.settings","Start":"12-27-2013 09:36:35","End":"12-27-2013 09:41:42"}}
{"Application":{"ProcessName":"com.sonyericsson.gallery","Start":"12-27-2013 09:41:43","End":"12-27-2013 09:42:44"}}
{"Application":{"ProcessName":"com.sonyericsson.r2r.client","Start":"12-27-2013 09:41:43","End":"12-27-2013 09:47:30"}}
{"Application":{"ProcessName":"com.sonyericsson.home","Start":"12-27-2013 09:41:43","End":"12-27-2013 09:47:30"}}
{"Application":{"ProcessName":"com.sonyericsson.customization","Start":"12-27-2013 09:41:43","End":"12-27-2013 09:47:30"}}
{"Application":{"ProcessName":"com.android.settings","Start":"12-27-2013 09:41:43","End":"12-27-2013 09:47:30"}}
{"Application":{"ProcessName":"com.sonyericsson.r2r.client","Start":"12-27-2013 10:03:31","End":"12-27-2013 10:14:15"}}
{"Application":{"ProcessName":"com.sonyericsson.home","Start":"12-27-2013 10:03:31","End":"12-27-2013 10:14:15"}}
{"Application":{"ProcessName":"com.android.settings","Start":"12-27-2013 10:03:31","End":"12-27-2013 10:14:15"}}
{"Application":{"ProcessName":"com.sonyericsson.customization","Start":"12-27-2013 10:03:31","End":"12-27-2013 10:14:15"}}
{"Application":{"ProcessName":"com.sonyericsson.r2r.client","Start":"12-27-2013 10:19:24","End":"12-27-2013 10:19:35"}}
{"Application":{"ProcessName":"com.sonyericsson.home","Start":"12-27-2013 10:19:24","End":"12-27-2013 10:19:35"}}
{"Application":{"ProcessName":"com.android.settings","Start":"12-27-2013 10:19:24","End":"12-27-2013 10:19:35"}}
{"Application":{"ProcessName":"com.sonyericsson.customization","Start":"12-27-2013 10:19:24","End":"12-27-2013 10:19:35"}}
{"Application":{"ProcessName":"com.sonyericsson.android.socialphonebook","Start":"12-27-2013 10:19:24","End":"12-27-2013 10:19:35"}}
{"Call": {"Number":"+98919703####","Duration":"11","Time":"12-27-2013 10:19:29","Type":"2"}}
{"Call": {"Number":"+98919703####","Duration":"11","Time":"12-27-2013 10:19:29","Type":"2"}}
{"Application":{"ProcessName":"com.sonyericsson.dsds.widget","Start":"12-27-2013 10:20:54","End":"12-27-2013 10:21:32"}}
{"Application":{"ProcessName":"com.sonyericsson.r2r.client","Start":"12-27-2013 10:20:35","End":"12-27-2013 10:21:32"}}
{"Application":{"ProcessName":"com.sonyericsson.home","Start":"12-27-2013 10:20:35","End":"12-27-2013 10:21:32"}}
{"Application":{"ProcessName":"com.sonyericsson.customization","Start":"12-27-2013 10:20:54","End":"12-27-2013 10:21:32"}}
{"Application":{"ProcessName":"com.android.settings","Start":"12-27-2013 10:20:35","End":"12-27-2013 10:21:32"}}
{"Application":{"ProcessName":"com.sonyericsson.r2r.client","Start":"12-27-2013 11:04:06","End":"12-27-2013 11:10:33"}}
{"Application":{"ProcessName":"com.google.android.deskclock","Start":"12-27-2013 11:04:06","End":"12-27-2013 11:10:33"}}
{"Application":{"ProcessName":"com.sonyericsson.home","Start":"12-27-2013 11:04:06","End":"12-27-2013 11:10:33"}}
{"Application":{"ProcessName":"com.android.settings","Start":"12-27-2013 11:04:06","End":"12-27-2013 11:10:33"}}
{"Application":{"ProcessName":"com.sonyericsson.customization","Start":"12-27-2013 11:04:06","End":"12-27-2013 11:10:33"}}
{"Application":{"ProcessName":"com.sonyericsson.dsds.widget","Start":"12-27-2013 11:10:35","End":"12-27-2013 11:10:35"}}
{"Application":{"ProcessName":"com.sonyericsson.r2r.client","Start":"12-27-2013 11:10:34","End":"12-27-2013 11:10:44"}}
{"Application":{"ProcessName":"com.sonyericsson.home","Start":"12-27-2013 11:10:34","End":"12-27-2013 11:10:44"}}
{"Application":{"ProcessName":"com.android.settings","Start":"12-27-2013 11:10:34","End":"12-27-2013 11:10:44"}}
{"Application":{"ProcessName":"com.sonyericsson.customization","Start":"12-27-2013 11:10:34","End":"12-27-2013 11:10:44"}}
{"Call": {"Number":"+98919703####","Duration":"27","Time":"12-27-2013 11:10:33","Type":"1"}}
{"Call": {"Number":"+98919703####","Duration":"27","Time":"12-27-2013 11:10:33","Type":"1"}}
{"Application":{"ProcessName":"com.sonyericsson.r2r.client","Start":"12-27-2013 11:11:15","End":"12-27-2013 11:13:59"}}
{"Application":{"ProcessName":"com.sonyericsson.home","Start":"12-27-2013 11:11:15","End":"12-27-2013 11:13:59"}}
{"Application":{"ProcessName":"com.android.settings","Start":"12-27-2013 11:11:15","End":"12-27-2013 11:13:59"}}
{"Application":{"ProcessName":"com.sonyericsson.customization","Start":"12-27-2013 11:11:15","End":"12-27-2013 11:13:59"}}
{"Call": {"Number":"+98919703####","Duration":"9","Time":"12-27-2013 11:13:55","Type":"2"}}
{"Call": {"Number":"+98919703####","Duration":"9","Time":"12-27-2013 11:13:55","Type":"2"}}
{"Application":{"ProcessName":"com.sonyericsson.r2r.client","Start":"12-27-2013 11:16:19","End":"12-27-2013 11:16:20"}}
{"Application":{"ProcessName":"com.android.settings","Start":"12-27-2013 11:16:19","End":"12-27-2013 11:16:20"}}
{"Application":{"ProcessName":"com.sonyericsson.customization","Start":"12-27-2013 11:16:19","End":"12-27-2013 11:16:20"}}
{"Application":{"ProcessName":"com.sonyericsson.home","Start":"12-27-2013 11:16:19","End":"12-27-2013 11:16:53"}}
{"Application":{"ProcessName":"com.sonyericsson.r2r.client","Start":"12-27-2013 11:21:56","End":"12-27-2013 11:22:19"}}
{"Application":{"ProcessName":"com.sonyericsson.home","Start":"12-27-2013 11:21:56","End":"12-27-2013 11:22:19"}}
{"Application":{"ProcessName":"com.sonyericsson.android.camera","Start":"12-27-2013 11:22:07","End":"12-27-2013 11:22:19"}}
{"Application":{"ProcessName":"com.android.settings","Start":"12-27-2013 11:21:56","End":"12-27-2013 11:22:19"}}
{"Application":{"ProcessName":"com.sonyericsson.customization","Start":"12-27-2013 11:21:56","End":"12-27-2013 11:22:19"}}
{"Application":{"ProcessName":"com.sonyericsson.r2r.client","Start":"12-27-2013 11:22:34","End":"12-27-2013 11:23:09"}}
{"Application":{"ProcessName":"com.sonyericsson.home","Start":"12-27-2013 11:22:34","End":"12-27-2013 11:23:09"}}
{"Application":{"ProcessName":"com.android.settings","Start":"12-27-2013 11:22:34","End":"12-27-2013 11:23:09"}}
{"Application":{"ProcessName":"com.sonyericsson.customization","Start":"12-27-2013 11:22:34","End":"12-27-2013 11:23:09"}}
{"Application":{"ProcessName":"com.sonyericsson.android.camera","Start":"12-27-2013 11:22:34","End":"12-27-2013 11:23:09"}}
{"Application":{"ProcessName":"com.sonyericsson.r2r.client","Start":"12-27-2013 11:42:31","End":"12-27-2013 11:42:42"}}
{"Application":{"ProcessName":"com.sonyericsson.home","Start":"12-27-2013 11:42:31","End":"12-27-2013 11:42:42"}}
{"Application":{"ProcessName":"com.android.settings","Start":"12-27-2013 11:42:31","End":"12-27-2013 11:42:42"}}
{"Application":{"ProcessName":"com.sonyericsson.customization","Start":"12-27-2013 11:42:31","End":"12-27-2013 11:42:42"}}
{"Call": {"Number":"+98217721####","Duration":"21","Time":"12-27-2013 11:42:36","Type":"2"}}
{"Call": {"Number":"+98217721####","Duration":"21","Time":"12-27-2013 11:42:36","Type":"2"}}
{"Application":{"ProcessName":"com.sonyericsson.r2r.client","Start":"12-27-2013 11:43:16","End":"12-27-2013 11:43:33"}}
{"Application":{"ProcessName":"com.sonyericsson.home","Start":"12-27-2013 11:43:16","End":"12-27-2013 11:43:33"}}
{"Application":{"ProcessName":"com.android.settings","Start":"12-27-2013 11:43:16","End":"12-27-2013 11:43:33"}}
{"Application":{"ProcessName":"com.sonyericsson.customization","Start":"12-27-2013 11:43:16","End":"12-27-2013 11:43:33"}}
{"Call": {"Number":"+98919090####","Duration":"0","Time":"12-27-2013 11:43:27","Type":"2"}}
{"Application":{"ProcessName":"com.sonyericsson.conversations","Start":"12-27-2013 11:44:05","End":"12-27-2013 11:44:08"}}
{"Call": {"Number":"+98919090####","Duration":"0","Time":"12-27-2013 11:43:27","Type":"2"}}
{"Application":{"ProcessName":"com.sonyericsson.conversations","Start":"12-27-2013 11:44:08","End":"12-27-2013 11:44:16"}}
{"SMS":{"Address":"+98919646####","type":"2","date":"12-27-2013 11:44:19","body":"ANONYMIZED","Type":"2", "metadata": {"name": "Abji Faeze"}}}
{"Application":{"ProcessName":"com.sonyericsson.r2r.client","Start":"12-27-2013 11:44:05","End":"12-27-2013 11:44:36"}}
{"Application":{"ProcessName":"com.sonyericsson.home","Start":"12-27-2013 11:44:05","End":"12-27-2013 11:44:36"}}
{"Application":{"ProcessName":"com.android.settings","Start":"12-27-2013 11:44:05","End":"12-27-2013 11:44:36"}}
{"Application":{"ProcessName":"com.sonyericsson.customization","Start":"12-27-2013 11:44:05","End":"12-27-2013 11:44:36"}}
{"Application":{"ProcessName":"com.sonyericsson.r2r.client","Start":"12-27-2013 13:22:04","End":"12-27-2013 13:27:07"}}
{"Application":{"ProcessName":"com.sonyericsson.home","Start":"12-27-2013 13:22:04","End":"12-27-2013 13:27:07"}}
{"Application":{"ProcessName":"com.android.settings","Start":"12-27-2013 13:22:04","End":"12-27-2013 13:27:07"}}
{"Application":{"ProcessName":"com.sonyericsson.customization","Start":"12-27-2013 13:22:04","End":"12-27-2013 13:27:07"}}
{"Application":{"ProcessName":"com.sonyericsson.r2r.client","Start":"12-27-2013 13:27:07","End":"12-27-2013 13:32:11"}}
{"Application":{"ProcessName":"com.sonyericsson.home","Start":"12-27-2013 13:27:07","End":"12-27-2013 13:32:11"}}
{"Application":{"ProcessName":"com.android.settings","Start":"12-27-2013 13:27:07","End":"12-27-2013 13:32:11"}}
{"Application":{"ProcessName":"com.sonyericsson.customization","Start":"12-27-2013 13:27:08","End":"12-27-2013 13:32:11"}}
{"Application":{"ProcessName":"com.sonyericsson.r2r.client","Start":"12-27-2013 13:32:11","End":"12-27-2013 13:37:15"}}
{"Application":{"ProcessName":"com.sonyericsson.home","Start":"12-27-2013 13:32:11","End":"12-27-2013 13:37:15"}}
{"Application":{"ProcessName":"com.android.settings","Start":"12-27-2013 13:32:11","End":"12-27-2013 13:37:15"}}
{"Application":{"ProcessName":"com.sonyericsson.customization","Start":"12-27-2013 13:32:11","End":"12-27-2013 13:37:15"}}
{"Application":{"ProcessName":"com.google.android.apps.plus","Start":"12-27-2013 13:32:21","End":"12-27-2013 13:37:26"}}
{"Application":{"ProcessName":"com.google.android.gallery3d","Start":"12-27-2013 13:32:21","End":"12-27-2013 13:37:26"}}
{"Application":{"ProcessName":"com.sonyericsson.capabilities","Start":"12-27-2013 13:55:59","End":"12-27-2013 13:55:59"}}
{"Application":{"ProcessName":"com.sonyericsson.r2r.client","Start":"12-27-2013 13:54:28","End":"12-27-2013 13:57:29"}}
{"Application":{"ProcessName":"com.sonyericsson.home","Start":"12-27-2013 13:54:28","End":"12-27-2013 13:57:29"}}
{"Application":{"ProcessName":"com.android.settings","Start":"12-27-2013 13:54:28","End":"12-27-2013 13:57:29"}}
{"Application":{"ProcessName":"com.sonyericsson.customization","Start":"12-27-2013 13:54:28","End":"12-27-2013 13:57:29"}}
{"SMS":{"Address":"+98919646####","type":"2","date":"12-27-2013 11:44:19","body":"ANONYMIZED","Type":"2", "metadata": {"name": "Abji Faeze"}}}
{"SMS":{"Address":"HAMRAH####","type":"1","date":"12-27-2013 13:57:31","body":"ANONYMIZED","Type":"1", "metadata": {"name": ""}}}
{"Application":{"ProcessName":"com.sonyericsson.secureclockservice","Start":"12-27-2013 13:57:50","End":"12-27-2013 13:57:55"}}
{"Application":{"ProcessName":"com.google.android.apps.plus","Start":"12-27-2013 13:57:55","End":"12-27-2013 13:58:00"}}
{"Application":{"ProcessName":"com.sonyericsson.gallery","Start":"12-27-2013 13:58:20","End":"12-27-2013 13:58:26"}}
{"Application":{"ProcessName":"com.google.android.apps.plus","Start":"12-27-2013 13:59:47","End":"12-27-2013 14:00:18"}}
{"Application":{"ProcessName":"com.google.android.apps.plus","Start":"12-27-2013 14:00:22","End":"12-27-2013 14:07:30"}}
{"Application":{"ProcessName":"com.sonyericsson.r2r.client","Start":"12-27-2013 13:57:50","End":"12-27-2013 14:07:30"}}
{"Application":{"ProcessName":"com.sonyericsson.home","Start":"12-27-2013 13:57:50","End":"12-27-2013 14:07:30"}}
{"Application":{"ProcessName":"com.android.settings","Start":"12-27-2013 13:57:50","End":"12-27-2013 14:07:30"}}
{"Application":{"ProcessName":"com.sonyericsson.customization","Start":"12-27-2013 13:57:50","End":"12-27-2013 14:07:30"}}
{"Application":{"ProcessName":"com.google.android.gallery3d","Start":"12-27-2013 13:59:47","End":"12-27-2013 14:07:30"}}
{"Application":{"ProcessName":"com.sonyericsson.dsds.widget","Start":"12-27-2013 14:20:45","End":"12-27-2013 14:20:52"}}
{"Application":{"ProcessName":"com.google.android.apps.plus","Start":"12-27-2013 14:20:32","End":"12-27-2013 14:24:11"}}
{"Application":{"ProcessName":"com.google.android.gallery3d","Start":"12-27-2013 14:20:32","End":"12-27-2013 14:24:11"}}
{"Application":{"ProcessName":"com.sonyericsson.r2r.client","Start":"12-27-2013 14:20:32","End":"12-27-2013 14:25:32"}}
{"Application":{"ProcessName":"com.sonyericsson.home","Start":"12-27-2013 14:20:32","End":"12-27-2013 14:25:32"}}
{"Application":{"ProcessName":"com.android.settings","Start":"12-27-2013 14:20:32","End":"12-27-2013 14:25:32"}}
{"Application":{"ProcessName":"com.sonyericsson.customization","Start":"12-27-2013 14:20:32","End":"12-27-2013 14:25:32"}}
{"Application":{"ProcessName":"com.sonyericsson.home","Start":"12-27-2013 14:38:41","End":"12-27-2013 14:38:51"}}
{"Application":{"ProcessName":"com.android.settings","Start":"12-27-2013 14:38:41","End":"12-27-2013 14:38:51"}}
{"Application":{"ProcessName":"com.sonyericsson.customization","Start":"12-27-2013 14:38:41","End":"12-27-2013 14:38:51"}}
{"Application":{"ProcessName":"com.sonyericsson.r2r.client","Start":"12-27-2013 14:38:41","End":"12-27-2013 14:38:51"}}
{"Application":{"ProcessName":"com.viber.voip","Start":"12-27-2013 14:41:53","End":"12-27-2013 14:42:03"}}
{"Application":{"ProcessName":"com.sonyericsson.r2r.client","Start":"12-27-2013 14:41:53","End":"12-27-2013 14:45:56"}}
{"Application":{"ProcessName":"com.sonyericsson.home","Start":"12-27-2013 14:41:53","End":"12-27-2013 14:45:56"}}
{"Application":{"ProcessName":"com.android.settings","Start":"12-27-2013 14:41:53","End":"12-27-2013 14:45:56"}}
{"Application":{"ProcessName":"com.sonyericsson.customization","Start":"12-27-2013 14:41:53","End":"12-27-2013 14:45:56"}}
{"Application":{"ProcessName":"com.estrongs.android.pop","Start":"12-27-2013 14:46:26","End":"12-27-2013 14:47:17"}}
{"Application":{"ProcessName":"com.estrongs.android.pop","Start":"12-27-2013 14:47:18","End":"12-27-2013 14:47:19"}}
{"Application":{"ProcessName":"com.sonyericsson.extras.liveware","Start":"12-27-2013 14:47:39","End":"12-27-2013 14:47:40"}}
{"Application":{"ProcessName":"com.estrongs.android.pop","Start":"12-27-2013 14:47:28","End":"12-27-2013 14:47:49"}}
{"Application":{"ProcessName":"com.estrongs.android.pop","Start":"12-27-2013 14:47:58","End":"12-27-2013 14:48:08"}}
{"Bluetooth":{"name":"Dream","address":"E4:B0:21:ED:4F:B9","bond status":"bonded","time":"Friday, December 27, 2013 2:49:00 PM Iran Standard Time"}}
{"Bluetooth":{"name":"Dream","address":"E4:B0:21:ED:4F:B9","bond status":"bonded","time":"Friday, December 27, 2013 2:49:00 PM Iran Standard Time"}}
{"Bluetooth":{"name":"Dream","address":"E4:B0:21:ED:4F:B9","bond status":"bonded","time":"Friday, December 27, 2013 2:49:00 PM Iran Standard Time"}}
{"Bluetooth":{"name":"GLX2690","address":"7E:7D:83:8A:66:12","bond status":"none","time":"Friday, December 27, 2013 2:49:00 PM Iran Standard Time"}}
{"Bluetooth":{"name":"DTVBluetooth","address":"48:44:F7:6A:22:26","bond status":"none","time":"Friday, December 27, 2013 2:49:00 PM Iran Standard Time"}}
{"Application":{"ProcessName":"com.estrongs.android.pop","Start":"12-27-2013 14:48:10","End":"12-27-2013 14:48:51"}}
{"Application":{"ProcessName":"com.estrongs.android.pop","Start":"12-27-2013 14:49:00","End":"12-27-2013 14:49:10"}}
{"Bluetooth":{"name":"Dream","address":"E4:B0:21:ED:4F:B9","bond status":"bonded","time":"Friday, December 27, 2013 2:49:00 PM Iran Standard Time"}}
{"Bluetooth":{"name":"Dream","address":"E4:B0:21:ED:4F:B9","bond status":"bonded","time":"Friday, December 27, 2013 2:49:00 PM Iran Standard Time"}}
{"Bluetooth":{"name":"Dream","address":"E4:B0:21:ED:4F:B9","bond status":"bonded","time":"Friday, December 27, 2013 2:49:00 PM Iran Standard Time"}}
{"Bluetooth":{"name":"Dream","address":"E4:B0:21:ED:4F:B9","bond status":"bonded","time":"Friday, December 27, 2013 2:49:00 PM Iran Standard Time"}}
{"Bluetooth":{"name":"Dream","address":"E4:B0:21:ED:4F:B9","bond status":"bonded","time":"Friday, December 27, 2013 2:49:00 PM Iran Standard Time"}}
{"Bluetooth":{"name":"Dream","address":"E4:B0:21:ED:4F:B9","bond status":"bonded","time":"Friday, December 27, 2013 2:49:00 PM Iran Standard Time"}}
{"Bluetooth":{"name":"Dream","address":"E4:B0:21:ED:4F:B9","bond status":"bonded","time":"Friday, December 27, 2013 2:49:00 PM Iran Standard Time"}}
{"Bluetooth":{"name":"Dream","address":"E4:B0:21:ED:4F:B9","bond status":"bonded","time":"Friday, December 27, 2013 2:49:00 PM Iran Standard Time"}}
{"Bluetooth":{"name":"Dream","address":"E4:B0:21:ED:4F:B9","bond status":"bonded","time":"Friday, December 27, 2013 2:49:00 PM Iran Standard Time"}}
{"Bluetooth":{"name":"Dream","address":"E4:B0:21:ED:4F:B9","bond status":"bonded","time":"Friday, December 27, 2013 2:49:00 PM Iran Standard Time"}}
{"Application":{"ProcessName":"com.estrongs.android.pop","Start":"12-27-2013 14:49:12","End":"12-27-2013 14:49:50"}}
{"Bluetooth":{"name":"Dream","address":"E4:B0:21:ED:4F:B9","bond status":"bonded","time":"Friday, December 27, 2013 2:49:00 PM Iran Standard Time"}}
{"Bluetooth":{"name":"Dream","address":"E4:B0:21:ED:4F:B9","bond status":"bonded","time":"Friday, December 27, 2013 2:49:00 PM Iran Standard Time"}}
{"Bluetooth":{"name":"Dream","address":"E4:B0:21:ED:4F:B9","bond status":"bonded","time":"Friday, December 27, 2013 2:49:00 PM Iran Standard Time"}}
{"Bluetooth":{"name":"DTVBluetooth","address":"48:44:F7:6A:22:26","bond status":"none","time":"Friday, December 27, 2013 2:49:00 PM Iran Standard Time"}}
{"Bluetooth":{"name":"DTVBluetooth","address":"48:44:F7:6A:22:26","bond status":"none","time":"Friday, December 27, 2013 2:49:00 PM Iran Standard Time"}}
{"Bluetooth":{"name":"DTVBluetooth","address":"48:44:F7:6A:22:26","bond status":"none","time":"Friday, December 27, 2013 2:49:00 PM Iran Standard Time"}}
{"Bluetooth":{"name":"Dream","address":"E4:B0:21:ED:4F:B9","bond status":"bonded","time":"Friday, December 27, 2013 2:49:00 PM Iran Standard Time"}}
{"Bluetooth":{"name":"Dream","address":"E4:B0:21:ED:4F:B9","bond status":"bonded","time":"Friday, December 27, 2013 2:49:00 PM Iran Standard Time"}}
{"Bluetooth":{"name":"Dream","address":"E4:B0:21:ED:4F:B9","bond status":"bonded","time":"Friday, December 27, 2013 2:49:00 PM Iran Standard Time"}}
{"Bluetooth":{"name":"DTVBluetooth","address":"48:44:F7:6A:22:26","bond status":"none","time":"Friday, December 27, 2013 2:49:00 PM Iran Standard Time"}}
{"Bluetooth":{"name":"DTVBluetooth","address":"48:44:F7:6A:22:26","bond status":"none","time":"Friday, December 27, 2013 2:49:00 PM Iran Standard Time"}}
{"Bluetooth":{"name":"DTVBluetooth","address":"48:44:F7:6A:22:26","bond status":"none","time":"Friday, December 27, 2013 2:49:00 PM Iran Standard Time"}}
{"Bluetooth":{"name":"GLX2690","address":"7E:7D:83:8A:66:12","bond status":"none","time":"Friday, December 27, 2013 2:49:00 PM Iran Standard Time"}}
{"Bluetooth":{"name":"GLX2690","address":"7E:7D:83:8A:66:12","bond status":"none","time":"Friday, December 27, 2013 2:49:00 PM Iran Standard Time"}}
{"Bluetooth":{"name":"GLX2690","address":"7E:7D:83:8A:66:12","bond status":"none","time":"Friday, December 27, 2013 2:49:00 PM Iran Standard Time"}}
{"Bluetooth":{"name":"Dream","address":"E4:B0:21:ED:4F:B9","bond status":"bonded","time":"Friday, December 27, 2013 2:49:00 PM Iran Standard Time"}}
{"Bluetooth":{"name":"Dream","address":"E4:B0:21:ED:4F:B9","bond status":"bonded","time":"Friday, December 27, 2013 2:49:00 PM Iran Standard Time"}}
{"Bluetooth":{"name":"Dream","address":"E4:B0:21:ED:4F:B9","bond status":"bonded","time":"Friday, December 27, 2013 2:49:00 PM Iran Standard Time"}}
{"Bluetooth":{"name":"DTVBluetooth","address":"48:44:F7:6A:22:26","bond status":"none","time":"Friday, December 27, 2013 2:49:00 PM Iran Standard Time"}}
{"Bluetooth":{"name":"DTVBluetooth","address":"48:44:F7:6A:22:26","bond status":"none","time":"Friday, December 27, 2013 2:49:00 PM Iran Standard Time"}}
{"Bluetooth":{"name":"DTVBluetooth","address":"48:44:F7:6A:22:26","bond status":"none","time":"Friday, December 27, 2013 2:49:00 PM Iran Standard Time"}}
{"Application":{"ProcessName":"com.sonyericsson.r2r.client","Start":"12-27-2013 14:46:26","End":"12-27-2013 14:51:31"}}
{"Application":{"ProcessName":"com.sonyericsson.home","Start":"12-27-2013 14:46:26","End":"12-27-2013 14:51:31"}}
{"Application":{"ProcessName":"com.android.settings","Start":"12-27-2013 14:46:26","End":"12-27-2013 14:51:31"}}
{"Application":{"ProcessName":"com.sonyericsson.customization","Start":"12-27-2013 14:46:26","End":"12-27-2013 14:51:31"}}
{"Application":{"ProcessName":"com.sonyericsson.r2r.client","Start":"12-27-2013 14:51:32","End":"12-27-2013 14:52:31"}}
{"Application":{"ProcessName":"com.sonyericsson.home","Start":"12-27-2013 14:51:32","End":"12-27-2013 14:52:31"}}
{"Application":{"ProcessName":"com.android.settings","Start":"12-27-2013 14:51:32","End":"12-27-2013 14:52:31"}}
{"Application":{"ProcessName":"com.sonyericsson.customization","Start":"12-27-2013 14:51:32","End":"12-27-2013 14:52:31"}}
{"SMS":{"Address":"+982010####","type":"1","date":"12-27-2013 14:30:30","body":"ANONYMIZED","Type":"1", "metadata": {"name": ""}}}
{"Application":{"ProcessName":"com.google.android.apps.plus","Start":"12-27-2013 15:23:47","End":"12-27-2013 15:23:48"}}
{"Application":{"ProcessName":"com.android.vending","Start":"12-27-2013 15:23:47","End":"12-27-2013 15:23:48"}}
{"Application":{"ProcessName":"com.android.voicedialer","Start":"12-27-2013 15:23:48","End":"12-27-2013 15:23:49"}}
{"Application":{"ProcessName":"com.sonyericsson.r2r.client","Start":"12-27-2013 15:23:16","End":"12-27-2013 15:24:27"}}
{"Application":{"ProcessName":"com.sonyericsson.home","Start":"12-27-2013 15:23:16","End":"12-27-2013 15:24:27"}}
{"Application":{"ProcessName":"com.android.settings","Start":"12-27-2013 15:23:16","End":"12-27-2013 15:24:27"}}
{"Application":{"ProcessName":"com.sonyericsson.customization","Start":"12-27-2013 15:23:16","End":"12-27-2013 15:24:27"}}
{"Application":{"ProcessName":"com.sonyericsson.updatecenter","Start":"12-27-2013 16:10:59","End":"12-27-2013 16:11:00"}}
{"Application":{"ProcessName":"com.google.android.apps.plus","Start":"12-27-2013 16:11:59","End":"12-27-2013 16:12:09"}}
{"Application":{"ProcessName":"com.google.android.gallery3d","Start":"12-27-2013 16:11:59","End":"12-27-2013 16:12:09"}}
{"Application":{"ProcessName":"com.sonyericsson.r2r.client","Start":"12-27-2013 16:10:58","End":"12-27-2013 16:16:02"}}
{"Application":{"ProcessName":"com.sonyericsson.home","Start":"12-27-2013 16:10:59","End":"12-27-2013 16:16:02"}}
{"Application":{"ProcessName":"com.android.settings","Start":"12-27-2013 16:10:58","End":"12-27-2013 16:16:02"}}
{"Application":{"ProcessName":"com.sonyericsson.customization","Start":"12-27-2013 16:10:58","End":"12-27-2013 16:16:02"}}
{"Application":{"ProcessName":"com.sonyericsson.r2r.client","Start":"12-27-2013 16:16:02","End":"12-27-2013 16:21:06"}}
{"Application":{"ProcessName":"com.sonyericsson.home","Start":"12-27-2013 16:16:02","End":"12-27-2013 16:21:06"}}
{"Application":{"ProcessName":"com.android.settings","Start":"12-27-2013 16:16:02","End":"12-27-2013 16:21:06"}}
{"Application":{"ProcessName":"com.sonyericsson.customization","Start":"12-27-2013 16:16:02","End":"12-27-2013 16:21:06"}}
{"Application":{"ProcessName":"com.google.android.apps.plus","Start":"12-27-2013 16:21:37","End":"12-27-2013 16:25:43"}}
{"Application":{"ProcessName":"com.google.android.gallery3d","Start":"12-27-2013 16:21:37","End":"12-27-2013 16:25:43"}}
{"Bluetooth":{"name":"Dream","address":"E4:B0:21:ED:4F:B9","bond status":"bonded","time":"Friday, December 27, 2013 4:26:00 PM Iran Standard Time"}}
{"Bluetooth":{"name":"Dream","address":"E4:B0:21:ED:4F:B9","bond status":"bonded","time":"Friday, December 27, 2013 4:26:00 PM Iran Standard Time"}}
{"Bluetooth":{"name":"Dream","address":"E4:B0:21:ED:4F:B9","bond status":"bonded","time":"Friday, December 27, 2013 4:26:00 PM Iran Standard Time"}}
{"Bluetooth":{"name":"Dream","address":"E4:B0:21:ED:4F:B9","bond status":"bonded","time":"Friday, December 27, 2013 4:26:00 PM Iran Standard Time"}}
{"Bluetooth":{"name":"Dream","address":"E4:B0:21:ED:4F:B9","bond status":"bonded","time":"Friday, December 27, 2013 4:26:00 PM Iran Standard Time"}}
{"Bluetooth":{"name":"Dream","address":"E4:B0:21:ED:4F:B9","bond status":"bonded","time":"Friday, December 27, 2013 4:26:00 PM Iran Standard Time"}}
{"Bluetooth":{"name":"Dream","address":"E4:B0:21:ED:4F:B9","bond status":"bonded","time":"Friday, December 27, 2013 4:26:00 PM Iran Standard Time"}}
{"Bluetooth":{"name":"Dream","address":"E4:B0:21:ED:4F:B9","bond status":"bonded","time":"Friday, December 27, 2013 4:26:00 PM Iran Standard Time"}}
{"Bluetooth":{"name":"Dream","address":"E4:B0:21:ED:4F:B9","bond status":"bonded","time":"Friday, December 27, 2013 4:26:00 PM Iran Standard Time"}}
{"Bluetooth":{"name":"Dream","address":"E4:B0:21:ED:4F:B9","bond status":"bonded","time":"Friday, December 27, 2013 4:26:00 PM Iran Standard Time"}}
{"Bluetooth":{"name":"Dream","address":"E4:B0:21:ED:4F:B9","bond status":"bonded","time":"Friday, December 27, 2013 4:26:00 PM Iran Standard Time"}}
{"Bluetooth":{"name":"Dream","address":"E4:B0:21:ED:4F:B9","bond status":"bonded","time":"Friday, December 27, 2013 4:26:00 PM Iran Standard Time"}}
{"Bluetooth":{"name":"GLX2690","address":"7E:7D:83:8A:66:12","bond status":"none","time":"Friday, December 27, 2013 4:26:00 PM Iran Standard Time"}}
{"Bluetooth":{"name":"GLX2690","address":"7E:7D:83:8A:66:12","bond status":"none","time":"Friday, December 27, 2013 4:26:00 PM Iran Standard Time"}}
{"Bluetooth":{"name":"GLX2690","address":"7E:7D:83:8A:66:12","bond status":"none","time":"Friday, December 27, 2013 4:26:00 PM Iran Standard Time"}}
{"Bluetooth":{"name":"GLX2690","address":"7E:7D:83:8A:66:12","bond status":"none","time":"Friday, December 27, 2013 4:26:00 PM Iran Standard Time"}}
{"Bluetooth":{"name":"GLX2690","address":"7E:7D:83:8A:66:12","bond status":"none","time":"Friday, December 27, 2013 4:26:00 PM Iran Standard Time"}}
{"Bluetooth":{"name":"GLX2690","address":"7E:7D:83:8A:66:12","bond status":"none","time":"Friday, December 27, 2013 4:26:00 PM Iran Standard Time"}}
{"Bluetooth":{"name":"Dream","address":"E4:B0:21:ED:4F:B9","bond status":"bonded","time":"Friday, December 27, 2013 4:26:00 PM Iran Standard Time"}}
{"Bluetooth":{"name":"Dream","address":"E4:B0:21:ED:4F:B9","bond status":"bonded","time":"Friday, December 27, 2013 4:26:00 PM Iran Standard Time"}}
{"Bluetooth":{"name":"Dream","address":"E4:B0:21:ED:4F:B9","bond status":"bonded","time":"Friday, December 27, 2013 4:26:00 PM Iran Standard Time"}}
{"Bluetooth":{"name":"Dream","address":"E4:B0:21:ED:4F:B9","bond status":"bonded","time":"Friday, December 27, 2013 4:26:00 PM Iran Standard Time"}}
{"Bluetooth":{"name":"Dream","address":"E4:B0:21:ED:4F:B9","bond status":"bonded","time":"Friday, December 27, 2013 4:26:00 PM Iran Standard Time"}}
{"Bluetooth":{"name":"Dream","address":"E4:B0:21:ED:4F:B9","bond status":"bonded","time":"Friday, December 27, 2013 4:26:00 PM Iran Standard Time"}}
{"Bluetooth":{"name":"GLX2690","address":"7E:7D:83:8A:66:12","bond status":"none","time":"Friday, December 27, 2013 4:26:00 PM Iran Standard Time"}}
{"Bluetooth":{"name":"GLX2690","address":"7E:7D:83:8A:66:12","bond status":"none","time":"Friday, December 27, 2013 4:26:00 PM Iran Standard Time"}}
{"Bluetooth":{"name":"GLX2690","address":"7E:7D:83:8A:66:12","bond status":"none","time":"Friday, December 27, 2013 4:26:00 PM Iran Standard Time"}}
{"Bluetooth":{"name":"GLX2690","address":"7E:7D:83:8A:66:12","bond status":"none","time":"Friday, December 27, 2013 4:26:00 PM Iran Standard Time"}}
{"Bluetooth":{"name":"GLX2690","address":"7E:7D:83:8A:66:12","bond status":"none","time":"Friday, December 27, 2013 4:26:00 PM Iran Standard Time"}}
{"Bluetooth":{"name":"GLX2690","address":"7E:7D:83:8A:66:12","bond status":"none","time":"Friday, December 27, 2013 4:26:00 PM Iran Standard Time"}}
{"Application":{"ProcessName":"com.sonyericsson.r2r.client","Start":"12-27-2013 16:21:07","End":"12-27-2013 16:26:11"}}
{"Application":{"ProcessName":"com.sonyericsson.home","Start":"12-27-2013 16:21:07","End":"12-27-2013 16:26:11"}}
{"Application":{"ProcessName":"com.android.settings","Start":"12-27-2013 16:21:07","End":"12-27-2013 16:26:11"}}
{"Application":{"ProcessName":"com.sonyericsson.customization","Start":"12-27-2013 16:21:07","End":"12-27-2013 16:26:11"}}
{"Bluetooth":{"name":"Dream","address":"E4:B0:21:ED:4F:B9","bond status":"bonded","time":"Friday, December 27, 2013 4:26:00 PM Iran Standard Time"}}
{"Bluetooth":{"name":"Dream","address":"E4:B0:21:ED:4F:B9","bond status":"bonded","time":"Friday, December 27, 2013 4:26:00 PM Iran Standard Time"}}
{"Bluetooth":{"name":"Dream","address":"E4:B0:21:ED:4F:B9","bond status":"bonded","time":"Friday, December 27, 2013 4:26:00 PM Iran Standard Time"}}
{"Bluetooth":{"name":"Dream","address":"E4:B0:21:ED:4F:B9","bond status":"bonded","time":"Friday, December 27, 2013 4:26:00 PM Iran Standard Time"}}
{"Bluetooth":{"name":"Dream","address":"E4:B0:21:ED:4F:B9","bond status":"bonded","time":"Friday, December 27, 2013 4:26:00 PM Iran Standard Time"}}
{"Bluetooth":{"name":"Dream","address":"E4:B0:21:ED:4F:B9","bond status":"bonded","time":"Friday, December 27, 2013 4:26:00 PM Iran Standard Time"}}
{"Application":{"ProcessName":"com.viber.voip","Start":"12-27-2013 16:30:31","End":"12-27-2013 16:30:41"}}
{"Application":{"ProcessName":"com.google.android.gallery3d","Start":"12-27-2013 16:29:49","End":"12-27-2013 16:31:41"}}
{"Application":{"ProcessName":"com.sonyericsson.sync.service","Start":"12-27-2013 16:32:04","End":"12-27-2013 16:32:12"}}
{"Application":{"ProcessName":"com.sonyericsson.sync.service","Start":"12-27-2013 16:32:27","End":"12-27-2013 16:32:34"}}
{"Application":{"ProcessName":"com.feelingtouch.NinjaRun","Start":"12-27-2013 16:32:23","End":"12-27-2013 16:32:34"}}
{"Application":{"ProcessName":"com.android.providers.calendar","Start":"12-27-2013 16:33:31","End":"12-27-2013 16:33:38"}}
{"Application":{"ProcessName":"com.android.calendar","Start":"12-27-2013 16:33:38","End":"12-27-2013 16:33:42"}}
{"Application":{"ProcessName":"com.sonyericsson.r2r.client","Start":"12-27-2013 16:29:49","End":"12-27-2013 16:34:51"}}
{"Application":{"ProcessName":"com.sonyericsson.home","Start":"12-27-2013 16:29:49","End":"12-27-2013 16:34:51"}}
{"Application":{"ProcessName":"com.sonyericsson.customization","Start":"12-27-2013 16:29:49","End":"12-27-2013 16:34:51"}}
{"Application":{"ProcessName":"com.android.settings","Start":"12-27-2013 16:29:49","End":"12-27-2013 16:34:51"}}
{"Application":{"ProcessName":"com.estrongs.android.pop","Start":"12-27-2013 16:35:44","End":"12-27-2013 16:36:17"}}
{"Application":{"ProcessName":"com.google.android.gallery3d","Start":"12-27-2013 16:36:25","End":"12-27-2013 16:37:18"}}
{"Application":{"ProcessName":"com.google.android.gallery3d","Start":"12-27-2013 16:37:20","End":"12-27-2013 16:37:50"}}
{"Application":{"ProcessName":"com.google.android.apps.plus","Start":"12-27-2013 16:38:12","End":"12-27-2013 16:38:21"}}
{"Application":{"ProcessName":"com.google.android.gallery3d","Start":"12-27-2013 16:37:51","End":"12-27-2013 16:38:21"}}
{"Bluetooth":{"name":"Dream","address":"E4:B0:21:ED:4F:B9","bond status":"bonded","time":"Friday, December 27, 2013 4:39:00 PM Iran Standard Time"}}
{"Bluetooth":{"name":"Dream","address":"E4:B0:21:ED:4F:B9","bond status":"bonded","time":"Friday, December 27, 2013 4:39:00 PM Iran Standard Time"}}
{"Bluetooth":{"name":"GLX2690","address":"7E:7D:83:8A:66:12","bond status":"none","time":"Friday, December 27, 2013 4:39:00 PM Iran Standard Time"}}
{"Bluetooth":{"name":"Dream","address":"E4:B0:21:ED:4F:B9","bond status":"bonded","time":"Friday, December 27, 2013 4:39:00 PM Iran Standard Time"}}
{"Bluetooth":{"name":"Dream","address":"E4:B0:21:ED:4F:B9","bond status":"bonded","time":"Friday, December 27, 2013 4:39:00 PM Iran Standard Time"}}
{"Application":{"ProcessName":"com.sonyericsson.r2r.client","Start":"12-27-2013 16:34:51","End":"12-27-2013 16:39:54"}}
{"Application":{"ProcessName":"com.sonyericsson.home","Start":"12-27-2013 16:34:51","End":"12-27-2013 16:39:54"}}
{"Application":{"ProcessName":"com.sonyericsson.customization","Start":"12-27-2013 16:34:51","End":"12-27-2013 16:39:54"}}
{"Application":{"ProcessName":"com.android.settings","Start":"12-27-2013 16:34:51","End":"12-27-2013 16:39:54"}}
{"Bluetooth":{"name":"Dream","address":"E4:B0:21:ED:4F:B9","bond status":"bonded","time":"Friday, December 27, 2013 4:39:00 PM Iran Standard Time"}}
{"Application":{"ProcessName":"com.google.android.apps.plus","Start":"12-27-2013 16:40:35","End":"12-27-2013 16:40:48"}}
{"Application":{"ProcessName":"com.google.android.gallery3d","Start":"12-27-2013 16:40:35","End":"12-27-2013 16:40:48"}}
{"Bluetooth":{"name":"GLX2690","address":"7E:7D:83:8A:66:12","bond status":"none","time":"Friday, December 27, 2013 4:41:00 PM Iran Standard Time"}}
{"Bluetooth":{"name":"GLX2690","address":"7E:7D:83:8A:66:12","bond status":"none","time":"Friday, December 27, 2013 4:41:00 PM Iran Standard Time"}}
{"Bluetooth":{"name":"Dream","address":"E4:B0:21:ED:4F:B9","bond status":"bonded","time":"Friday, December 27, 2013 4:41:00 PM Iran Standard Time"}}
{"Bluetooth":{"name":"Dream","address":"E4:B0:21:ED:4F:B9","bond status":"bonded","time":"Friday, December 27, 2013 4:41:00 PM Iran Standard Time"}}
{"Bluetooth":{"name":"Dream","address":"E4:B0:21:ED:4F:B9","bond status":"bonded","time":"Friday, December 27, 2013 4:41:00 PM Iran Standard Time"}}
{"Bluetooth":{"name":"Dream","address":"E4:B0:21:ED:4F:B9","bond status":"bonded","time":"Friday, December 27, 2013 4:41:00 PM Iran Standard Time"}}
{"Bluetooth":{"name":"Dream","address":"E4:B0:21:ED:4F:B9","bond status":"bonded","time":"Friday, December 27, 2013 4:41:00 PM Iran Standard Time"}}
{"Bluetooth":{"name":"Dream","address":"E4:B0:21:ED:4F:B9","bond status":"bonded","time":"Friday, December 27, 2013 4:41:00 PM Iran Standard Time"}}
{"Bluetooth":{"name":"Dream","address":"E4:B0:21:ED:4F:B9","bond status":"bonded","time":"Friday, December 27, 2013 4:41:00 PM Iran Standard Time"}}
{"Bluetooth":{"name":"Dream","address":"E4:B0:21:ED:4F:B9","bond status":"bonded","time":"Friday, December 27, 2013 4:41:00 PM Iran Standard Time"}}
{"Bluetooth":{"name":"Dream","address":"E4:B0:21:ED:4F:B9","bond status":"bonded","time":"Friday, December 27, 2013 4:41:00 PM Iran Standard Time"}}
{"Application":{"ProcessName":"com.google.android.gallery3d","Start":"12-27-2013 16:40:56","End":"12-27-2013 16:42:11"}}
{"Bluetooth":{"name":"Dream","address":"E4:B0:21:ED:4F:B9","bond status":"bonded","time":"Friday, December 27, 2013 4:41:00 PM Iran Standard Time"}}
{"Bluetooth":{"name":"Dream","address":"E4:B0:21:ED:4F:B9","bond status":"bonded","time":"Friday, December 27, 2013 4:41:00 PM Iran Standard Time"}}
{"Bluetooth":{"name":"Dream","address":"E4:B0:21:ED:4F:B9","bond status":"bonded","time":"Friday, December 27, 2013 4:41:00 PM Iran Standard Time"}}
{"Application":{"ProcessName":"com.google.android.gallery3d","Start":"12-27-2013 16:42:19","End":"12-27-2013 16:42:40"}}
{"Application":{"ProcessName":"com.google.android.gallery3d","Start":"12-27-2013 16:42:42","End":"12-27-2013 16:43:23"}}
{"Bluetooth":{"name":"Dream","address":"E4:B0:21:ED:4F:B9","bond status":"bonded","time":"Friday, December 27, 2013 4:41:00 PM Iran Standard Time"}}
{"Bluetooth":{"name":"Dream","address":"E4:B0:21:ED:4F:B9","bond status":"bonded","time":"Friday, December 27, 2013 4:41:00 PM Iran Standard Time"}}
{"Bluetooth":{"name":"Dream","address":"E4:B0:21:ED:4F:B9","bond status":"bonded","time":"Friday, December 27, 2013 4:41:00 PM Iran Standard Time"}}
{"Bluetooth":{"name":"Dream","address":"E4:B0:21:ED:4F:B9","bond status":"bonded","time":"Friday, December 27, 2013 4:41:00 PM Iran Standard Time"}}
{"Bluetooth":{"name":"Dream","address":"E4:B0:21:ED:4F:B9","bond status":"bonded","time":"Friday, December 27, 2013 4:41:00 PM Iran Standard Time"}}
{"Bluetooth":{"name":"Dream","address":"E4:B0:21:ED:4F:B9","bond status":"bonded","time":"Friday, December 27, 2013 4:41:00 PM Iran Standard Time"}}
{"Application":{"ProcessName":"com.google.android.apps.plus","Start":"12-27-2013 16:44:03","End":"12-27-2013 16:44:54"}}
{"Application":{"ProcessName":"com.sonyericsson.r2r.client","Start":"12-27-2013 16:39:54","End":"12-27-2013 16:44:54"}}
{"Application":{"ProcessName":"com.sonyericsson.home","Start":"12-27-2013 16:39:54","End":"12-27-2013 16:44:54"}}
{"Application":{"ProcessName":"com.sonyericsson.customization","Start":"12-27-2013 16:39:54","End":"12-27-2013 16:44:54"}}
{"Application":{"ProcessName":"com.android.settings","Start":"12-27-2013 16:39:54","End":"12-27-2013 16:44:54"}}
{"Application":{"ProcessName":"com.google.android.gallery3d","Start":"12-27-2013 16:43:32","End":"12-27-2013 16:44:54"}}
{"Application":{"ProcessName":"com.sonyericsson.extras.liveware","Start":"12-27-2013 16:45:17","End":"12-27-2013 16:45:18"}}
{"Bluetooth":{"name":"Dream","address":"E4:B0:21:ED:4F:B9","bond status":"bonded","time":"Friday, December 27, 2013 4:41:00 PM Iran Standard Time"}}
{"Bluetooth":{"name":"Dream","address":"E4:B0:21:ED:4F:B9","bond status":"bonded","time":"Friday, December 27, 2013 4:41:00 PM Iran Standard Time"}}
{"Bluetooth":{"name":"Dream","address":"E4:B0:21:ED:4F:B9","bond status":"bonded","time":"Friday, December 27, 2013 4:41:00 PM Iran Standard Time"}}
{"Application":{"ProcessName":"com.google.android.apps.plus","Start":"12-27-2013 16:45:48","End":"12-27-2013 16:46:50"}}
{"Application":{"ProcessName":"com.google.android.gallery3d","Start":"12-27-2013 16:44:57","End":"12-27-2013 16:46:50"}}
{"Application":{"ProcessName":"com.sonyericsson.r2r.client","Start":"12-27-2013 16:44:55","End":"12-27-2013 16:48:23"}}
{"Application":{"ProcessName":"com.sonyericsson.home","Start":"12-27-2013 16:44:55","End":"12-27-2013 16:48:23"}}
{"Application":{"ProcessName":"com.sonyericsson.customization","Start":"12-27-2013 16:44:55","End":"12-27-2013 16:48:23"}}
{"Application":{"ProcessName":"com.android.settings","Start":"12-27-2013 16:44:55","End":"12-27-2013 16:48:23"}}
{"Application":{"ProcessName":"com.google.android.gallery3d","Start":"12-27-2013 16:46:52","End":"12-27-2013 16:48:23"}}
{"Bluetooth":{"name":"DTVBluetooth","address":"48:44:F7:6A:22:26","bond status":"none","time":"Friday, December 27, 2013 4:51:00 PM Iran Standard Time"}}
{"Bluetooth":{"name":"DTVBluetooth","address":"48:44:F7:6A:22:26","bond status":"none","time":"Friday, December 27, 2013 4:51:00 PM Iran Standard Time"}}
{"Bluetooth":{"name":"DTVBluetooth","address":"48:44:F7:6A:22:26","bond status":"none","time":"Friday, December 27, 2013 4:51:00 PM Iran Standard Time"}}
{"Bluetooth":{"name":"Dream","address":"E4:B0:21:ED:4F:B9","bond status":"bonded","time":"Friday, December 27, 2013 4:51:00 PM Iran Standard Time"}}
{"Bluetooth":{"name":"Dream","address":"E4:B0:21:ED:4F:B9","bond status":"bonded","time":"Friday, December 27, 2013 4:51:00 PM Iran Standard Time"}}
{"Bluetooth":{"name":"Dream","address":"E4:B0:21:ED:4F:B9","bond status":"bonded","time":"Friday, December 27, 2013 4:51:00 PM Iran Standard Time"}}
{"Bluetooth":{"name":"Dream","address":"E4:B0:21:ED:4F:B9","bond status":"bonded","time":"Friday, December 27, 2013 4:51:00 PM Iran Standard Time"}}
{"Bluetooth":{"name":"DTVBluetooth","address":"48:44:F7:6A:22:26","bond status":"none","time":"Friday, December 27, 2013 4:51:00 PM Iran Standard Time"}}
{"Bluetooth":{"name":"DTVBluetooth","address":"48:44:F7:6A:22:26","bond status":"none","time":"Friday, December 27, 2013 4:51:00 PM Iran Standard Time"}}
{"Bluetooth":{"name":"DTVBluetooth","address":"48:44:F7:6A:22:26","bond status":"none","time":"Friday, December 27, 2013 4:51:00 PM Iran Standard Time"}}
{"Bluetooth":{"name":"DTVBluetooth","address":"48:44:F7:6A:22:26","bond status":"none","time":"Friday, December 27, 2013 4:51:00 PM Iran Standard Time"}}
{"Bluetooth":{"name":"Dream","address":"E4:B0:21:ED:4F:B9","bond status":"bonded","time":"Friday, December 27, 2013 4:51:00 PM Iran Standard Time"}}
{"Bluetooth":{"name":"Dream","address":"E4:B0:21:ED:4F:B9","bond status":"bonded","time":"Friday, December 27, 2013 4:51:00 PM Iran Standard Time"}}
{"Bluetooth":{"name":"Dream","address":"E4:B0:21:ED:4F:B9","bond status":"bonded","time":"Friday, December 27, 2013 4:51:00 PM Iran Standard Time"}}
{"Bluetooth":{"name":"Dream","address":"E4:B0:21:ED:4F:B9","bond status":"bonded","time":"Friday, December 27, 2013 4:51:00 PM Iran Standard Time"}}
{"Bluetooth":{"name":"Dream","address":"E4:B0:21:ED:4F:B9","bond status":"bonded","time":"Friday, December 27, 2013 4:51:00 PM Iran Standard Time"}}
{"Bluetooth":{"name":"Dream","address":"E4:B0:21:ED:4F:B9","bond status":"bonded","time":"Friday, December 27, 2013 4:51:00 PM Iran Standard Time"}}
{"Bluetooth":{"name":"Dream","address":"E4:B0:21:ED:4F:B9","bond status":"bonded","time":"Friday, December 27, 2013 4:51:00 PM Iran Standard Time"}}
{"Bluetooth":{"name":"Dream","address":"E4:B0:21:ED:4F:B9","bond status":"bonded","time":"Friday, December 27, 2013 4:51:00 PM Iran Standard Time"}}
{"Bluetooth":{"name":"Dream","address":"E4:B0:21:ED:4F:B9","bond status":"bonded","time":"Friday, December 27, 2013 4:51:00 PM Iran Standard Time"}}
{"Bluetooth":{"name":"Dream","address":"E4:B0:21:ED:4F:B9","bond status":"bonded","time":"Friday, December 27, 2013 4:51:00 PM Iran Standard Time"}}
{"Bluetooth":{"name":"Dream","address":"E4:B0:21:ED:4F:B9","bond status":"bonded","time":"Friday, December 27, 2013 4:51:00 PM Iran Standard Time"}}
{"Bluetooth":{"name":"Dream","address":"E4:B0:21:ED:4F:B9","bond status":"bonded","time":"Friday, December 27, 2013 4:51:00 PM Iran Standard Time"}}
{"Bluetooth":{"name":"Dream","address":"E4:B0:21:ED:4F:B9","bond status":"bonded","time":"Friday, December 27, 2013 4:51:00 PM Iran Standard Time"}}
{"Bluetooth":{"name":"Dream","address":"E4:B0:21:ED:4F:B9","bond status":"bonded","time":"Friday, December 27, 2013 4:51:00 PM Iran Standard Time"}}
{"Bluetooth":{"name":"Dream","address":"E4:B0:21:ED:4F:B9","bond status":"bonded","time":"Friday, December 27, 2013 4:51:00 PM Iran Standard Time"}}
{"Bluetooth":{"name":"Dream","address":"E4:B0:21:ED:4F:B9","bond status":"bonded","time":"Friday, December 27, 2013 4:51:00 PM Iran Standard Time"}}
{"Bluetooth":{"name":"Dream","address":"E4:B0:21:ED:4F:B9","bond status":"bonded","time":"Friday, December 27, 2013 4:51:00 PM Iran Standard Time"}}
{"Bluetooth":{"name":"Dream","address":"E4:B0:21:ED:4F:B9","bond status":"bonded","time":"Friday, December 27, 2013 4:51:00 PM Iran Standard Time"}}
{"Bluetooth":{"name":"Dream","address":"E4:B0:21:ED:4F:B9","bond status":"bonded","time":"Friday, December 27, 2013 4:51:00 PM Iran Standard Time"}}
{"Bluetooth":{"name":"Dream","address":"E4:B0:21:ED:4F:B9","bond status":"bonded","time":"Friday, December 27, 2013 4:51:00 PM Iran Standard Time"}}
{"Bluetooth":{"name":"Dream","address":"E4:B0:21:ED:4F:B9","bond status":"bonded","time":"Friday, December 27, 2013 4:51:00 PM Iran Standard Time"}}
{"Bluetooth":{"name":"Dream","address":"E4:B0:21:ED:4F:B9","bond status":"bonded","time":"Friday, December 27, 2013 4:51:00 PM Iran Standard Time"}}
{"Bluetooth":{"name":"Dream","address":"E4:B0:21:ED:4F:B9","bond status":"bonded","time":"Friday, December 27, 2013 4:51:00 PM Iran Standard Time"}}
{"Bluetooth":{"name":"Dream","address":"E4:B0:21:ED:4F:B9","bond status":"bonded","time":"Friday, December 27, 2013 4:51:00 PM Iran Standard Time"}}
{"Bluetooth":{"name":"Dream","address":"E4:B0:21:ED:4F:B9","bond status":"bonded","time":"Friday, December 27, 2013 4:51:00 PM Iran Standard Time"}}
{"Bluetooth":{"name":"Dream","address":"E4:B0:21:ED:4F:B9","bond status":"bonded","time":"Friday, December 27, 2013 4:51:00 PM Iran Standard Time"}}
{"Bluetooth":{"name":"Dream","address":"E4:B0:21:ED:4F:B9","bond status":"bonded","time":"Friday, December 27, 2013 4:51:00 PM Iran Standard Time"}}
{"Bluetooth":{"name":"Dream","address":"E4:B0:21:ED:4F:B9","bond status":"bonded","time":"Friday, December 27, 2013 4:51:00 PM Iran Standard Time"}}
{"Bluetooth":{"name":"Dream","address":"E4:B0:21:ED:4F:B9","bond status":"bonded","time":"Friday, December 27, 2013 4:51:00 PM Iran Standard Time"}}
{"Bluetooth":{"name":"Dream","address":"E4:B0:21:ED:4F:B9","bond status":"bonded","time":"Friday, December 27, 2013 4:51:00 PM Iran Standard Time"}}
{"Bluetooth":{"name":"Dream","address":"E4:B0:21:ED:4F:B9","bond status":"bonded","time":"Friday, December 27, 2013 4:51:00 PM Iran Standard Time"}}
{"Bluetooth":{"name":"Dream","address":"E4:B0:21:ED:4F:B9","bond status":"bonded","time":"Friday, December 27, 2013 4:51:00 PM Iran Standard Time"}}
{"Bluetooth":{"name":"Dream","address":"E4:B0:21:ED:4F:B9","bond status":"bonded","time":"Friday, December 27, 2013 4:51:00 PM Iran Standard Time"}}
{"Bluetooth":{"name":"Dream","address":"E4:B0:21:ED:4F:B9","bond status":"bonded","time":"Friday, December 27, 2013 4:51:00 PM Iran Standard Time"}}
{"Bluetooth":{"name":"Dream","address":"E4:B0:21:ED:4F:B9","bond status":"bonded","time":"Friday, December 27, 2013 4:51:00 PM Iran Standard Time"}}
{"Bluetooth":{"name":"Dream","address":"E4:B0:21:ED:4F:B9","bond status":"bonded","time":"Friday, December 27, 2013 4:51:00 PM Iran Standard Time"}}
{"Bluetooth":{"name":"Dream","address":"E4:B0:21:ED:4F:B9","bond status":"bonded","time":"Friday, December 27, 2013 4:51:00 PM Iran Standard Time"}}
{"Bluetooth":{"name":"Dream","address":"E4:B0:21:ED:4F:B9","bond status":"bonded","time":"Friday, December 27, 2013 4:51:00 PM Iran Standard Time"}}
{"Application":{"ProcessName":"com.google.android.apps.plus","Start":"12-27-2013 17:04:07","End":"12-27-2013 17:04:28"}}
{"Application":{"ProcessName":"com.google.android.gallery3d","Start":"12-27-2013 17:03:13","End":"12-27-2013 17:04:28"}}
{"Bluetooth":{"name":"Dream","address":"E4:B0:21:ED:4F:B9","bond status":"bonded","time":"Friday, December 27, 2013 4:51:00 PM Iran Standard Time"}}
{"Bluetooth":{"name":"Dream","address":"E4:B0:21:ED:4F:B9","bond status":"bonded","time":"Friday, December 27, 2013 4:51:00 PM Iran Standard Time"}}
{"Bluetooth":{"name":"Dream","address":"E4:B0:21:ED:4F:B9","bond status":"bonded","time":"Friday, December 27, 2013 4:51:00 PM Iran Standard Time"}}
{"Bluetooth":{"name":"Dream","address":"E4:B0:21:ED:4F:B9","bond status":"bonded","time":"Friday, December 27, 2013 4:51:00 PM Iran Standard Time"}}
{"Bluetooth":{"name":"Dream","address":"E4:B0:21:ED:4F:B9","bond status":"bonded","time":"Friday, December 27, 2013 4:51:00 PM Iran Standard Time"}}
{"Bluetooth":{"name":"Dream","address":"E4:B0:21:ED:4F:B9","bond status":"bonded","time":"Friday, December 27, 2013 4:51:00 PM Iran Standard Time"}}
{"Bluetooth":{"name":"DTVBluetooth","address":"48:44:F7:6A:22:26","bond status":"none","time":"Friday, December 27, 2013 4:51:00 PM Iran Standard Time"}}
{"Bluetooth":{"name":"DTVBluetooth","address":"48:44:F7:6A:22:26","bond status":"none","time":"Friday, December 27, 2013 4:51:00 PM Iran Standard Time"}}
{"Bluetooth":{"name":"DTVBluetooth","address":"48:44:F7:6A:22:26","bond status":"none","time":"Friday, December 27, 2013 4:51:00 PM Iran Standard Time"}}
{"Bluetooth":{"name":"DTVBluetooth","address":"48:44:F7:6A:22:26","bond status":"none","time":"Friday, December 27, 2013 4:51:00 PM Iran Standard Time"}}
{"Bluetooth":{"name":"DTVBluetooth","address":"48:44:F7:6A:22:26","bond status":"none","time":"Friday, December 27, 2013 4:51:00 PM Iran Standard Time"}}
{"Bluetooth":{"name":"DTVBluetooth","address":"48:44:F7:6A:22:26","bond status":"none","time":"Friday, December 27, 2013 4:51:00 PM Iran Standard Time"}}
{"Application":{"ProcessName":"com.sonyericsson.r2r.client","Start":"12-27-2013 17:03:13","End":"12-27-2013 17:10:39"}}
{"Application":{"ProcessName":"com.sonyericsson.home","Start":"12-27-2013 17:03:13","End":"12-27-2013 17:10:39"}}
{"Application":{"ProcessName":"com.sonyericsson.customization","Start":"12-27-2013 17:03:13","End":"12-27-2013 17:10:39"}}
{"Application":{"ProcessName":"com.android.settings","Start":"12-27-2013 17:03:13","End":"12-27-2013 17:10:39"}}
{"SMS":{"Address":"+9899123","type":"1","date":"12-27-2013 17:10:55","body":"ANONYMIZED","Type":"1", "metadata": {"name": ""}}}
{"Application":{"ProcessName":"com.android.vending","Start":"12-27-2013 17:11:17","End":"12-27-2013 17:11:19"}}
{"Application":{"ProcessName":"com.google.android.apps.plus","Start":"12-27-2013 17:11:19","End":"12-27-2013 17:11:27"}}
{"Application":{"ProcessName":"com.sonyericsson.dsds.widget","Start":"12-27-2013 17:11:28","End":"12-27-2013 17:11:31"}}
{"Application":{"ProcessName":"com.sonyericsson.r2r.client","Start":"12-27-2013 17:11:17","End":"12-27-2013 17:12:56"}}
{"Application":{"ProcessName":"com.sonyericsson.home","Start":"12-27-2013 17:11:17","End":"12-27-2013 17:12:56"}}
{"Application":{"ProcessName":"com.android.settings","Start":"12-27-2013 17:11:17","End":"12-27-2013 17:12:56"}}
{"Application":{"ProcessName":"com.sonyericsson.customization","Start":"12-27-2013 17:11:17","End":"12-27-2013 17:12:56"}}
{"Application":{"ProcessName":"com.sonyericsson.advancedwidget.onoff","Start":"12-27-2013 17:38:39","End":"12-27-2013 17:38:42"}}
{"Application":{"ProcessName":"com.sonyericsson.r2r.client","Start":"12-27-2013 17:38:29","End":"12-27-2013 17:38:50"}}
{"Application":{"ProcessName":"com.sonyericsson.home","Start":"12-27-2013 17:38:29","End":"12-27-2013 17:38:50"}}
{"Application":{"ProcessName":"com.sonyericsson.android.socialphonebook","Start":"12-27-2013 17:38:44","End":"12-27-2013 17:38:50"}}
{"Application":{"ProcessName":"com.android.settings","Start":"12-27-2013 17:38:29","End":"12-27-2013 17:38:50"}}
{"Application":{"ProcessName":"com.sonyericsson.customization","Start":"12-27-2013 17:38:29","End":"12-27-2013 17:38:50"}}
{"Application":{"ProcessName":"com.sonyericsson.r2r.client","Start":"12-27-2013 17:39:10","End":"12-27-2013 17:39:32"}}
{"Application":{"ProcessName":"com.sonyericsson.home","Start":"12-27-2013 17:39:10","End":"12-27-2013 17:39:32"}}
{"Application":{"ProcessName":"com.android.settings","Start":"12-27-2013 17:39:10","End":"12-27-2013 17:39:32"}}
{"Application":{"ProcessName":"com.sonyericsson.customization","Start":"12-27-2013 17:39:10","End":"12-27-2013 17:39:32"}}
{"Call": {"Number":"+98217721####","Duration":"9","Time":"12-27-2013 17:38:49","Type":"2"}}
{"Call": {"Number":"+98217721####","Duration":"9","Time":"12-27-2013 17:38:49","Type":"2"}}
{"Call": {"Number":"+98217721####","Duration":"26","Time":"12-27-2013 17:39:30","Type":"2"}}
{"Application":{"ProcessName":"com.sonyericsson.android.socialphonebook","Start":"12-27-2013 17:40:10","End":"12-27-2013 17:40:13"}}
{"Call": {"Number":"+98217721####","Duration":"26","Time":"12-27-2013 17:39:30","Type":"2"}}
{"Application":{"ProcessName":"com.sonyericsson.r2r.client","Start":"12-27-2013 17:39:59","End":"12-27-2013 17:40:21"}}
{"Application":{"ProcessName":"com.sonyericsson.home","Start":"12-27-2013 17:39:59","End":"12-27-2013 17:40:21"}}
{"Application":{"ProcessName":"com.android.settings","Start":"12-27-2013 17:39:59","End":"12-27-2013 17:40:21"}}
{"Application":{"ProcessName":"com.sonyericsson.customization","Start":"12-27-2013 17:39:59","End":"12-27-2013 17:40:21"}}
{"Call": {"Number":"0217722####","Duration":"107","Time":"12-27-2013 17:40:14","Type":"2"}}
{"Call": {"Number":"0217722####","Duration":"107","Time":"12-27-2013 17:40:14","Type":"2"}}
{"Application":{"ProcessName":"com.sonyericsson.android.socialphonebook","Start":"12-27-2013 17:42:22","End":"12-27-2013 17:42:45"}}
{"Application":{"ProcessName":"com.sonyericsson.r2r.client","Start":"12-27-2013 17:42:18","End":"12-27-2013 17:42:48"}}
{"Application":{"ProcessName":"com.android.settings","Start":"12-27-2013 17:42:18","End":"12-27-2013 17:42:48"}}
{"Application":{"ProcessName":"com.sonyericsson.home","Start":"12-27-2013 17:42:18","End":"12-27-2013 17:42:59"}}
{"Application":{"ProcessName":"com.sonyericsson.customization","Start":"12-27-2013 17:42:18","End":"12-27-2013 17:42:59"}}
{"SMS":{"Address":"+98919646####","type":"2","date":"12-27-2013 17:45:27","body":"ANONYMIZED","Type":"2", "metadata": {"name": "Abji Faeze"}}}
{"Application":{"ProcessName":"com.rovio.angrybirdsrio","Start":"12-27-2013 17:54:41","End":"12-27-2013 17:59:43"}}
{"Application":{"ProcessName":"com.sonyericsson.r2r.client","Start":"12-27-2013 17:54:41","End":"12-27-2013 17:59:43"}}
{"Application":{"ProcessName":"com.sonyericsson.home","Start":"12-27-2013 17:54:41","End":"12-27-2013 17:59:43"}}
{"Application":{"ProcessName":"com.android.settings","Start":"12-27-2013 17:54:41","End":"12-27-2013 17:59:43"}}
{"Application":{"ProcessName":"com.sonyericsson.customization","Start":"12-27-2013 17:54:41","End":"12-27-2013 17:59:43"}}
{"Application":{"ProcessName":"com.rovio.angrybirdsrio","Start":"12-27-2013 17:59:44","End":"12-27-2013 18:04:45"}}
{"Application":{"ProcessName":"com.sonyericsson.r2r.client","Start":"12-27-2013 17:59:44","End":"12-27-2013 18:04:45"}}
{"Application":{"ProcessName":"com.sonyericsson.home","Start":"12-27-2013 17:59:44","End":"12-27-2013 18:04:45"}}
{"Application":{"ProcessName":"com.android.settings","Start":"12-27-2013 17:59:44","End":"12-27-2013 18:04:45"}}
{"Application":{"ProcessName":"com.sonyericsson.customization","Start":"12-27-2013 17:59:44","End":"12-27-2013 18:04:45"}}
{"Application":{"ProcessName":"com.rovio.angrybirdsrio","Start":"12-27-2013 18:04:45","End":"12-27-2013 18:07:53"}}
{"Application":{"ProcessName":"com.feelingtouch.NinjaRun","Start":"12-27-2013 18:08:04","End":"12-27-2013 18:08:24"}}
{"Application":{"ProcessName":"com.google.android.talk","Start":"12-27-2013 18:09:05","End":"12-27-2013 18:09:06"}}
{"Application":{"ProcessName":"com.sonyericsson.r2r.client","Start":"12-27-2013 18:04:45","End":"12-27-2013 18:09:47"}}
{"Application":{"ProcessName":"com.sonyericsson.home","Start":"12-27-2013 18:04:45","End":"12-27-2013 18:09:47"}}
{"Application":{"ProcessName":"com.android.settings","Start":"12-27-2013 18:04:46","End":"12-27-2013 18:09:47"}}
{"Application":{"ProcessName":"com.sonyericsson.customization","Start":"12-27-2013 18:04:46","End":"12-27-2013 18:09:47"}}
{"SMS":{"Address":"+98919646####","type":"1","date":"12-27-2013 18:11:13","body":"ANONYMIZED","Type":"1", "metadata": {"name": "Abji Faeze"}}}
{"Application":{"ProcessName":"com.google.android.gallery3d","Start":"12-27-2013 18:11:44","End":"12-27-2013 18:11:45"}}
{"Application":{"ProcessName":"com.google.android.apps.plus","Start":"12-27-2013 18:11:45","End":"12-27-2013 18:11:55"}}
{"Application":{"ProcessName":"com.gameloft.asphalt3","Start":"12-27-2013 18:08:34","End":"12-27-2013 18:12:06"}}
{"SMS":{"Address":"+98936563####","type":"1","date":"12-27-2013 18:20:24","body":"ANONYMIZED","Type":"1"}}
{"Application":{"ProcessName":"com.rovio.angrybirdsspace.premium","Start":"12-27-2013 18:23:48","End":"12-27-2013 18:24:30"}}
{"Application":{"ProcessName":"com.sonyericsson.r2r.client","Start":"12-27-2013 18:23:48","End":"12-27-2013 18:28:58"}}
{"Application":{"ProcessName":"com.sonyericsson.home","Start":"12-27-2013 18:23:48","End":"12-27-2013 18:28:58"}}
{"Application":{"ProcessName":"com.android.settings","Start":"12-27-2013 18:23:48","End":"12-27-2013 18:28:58"}}
{"Application":{"ProcessName":"com.sonyericsson.customization","Start":"12-27-2013 18:23:48","End":"12-27-2013 18:28:58"}}
{"SMS":{"Address":"+98935174####","type":"1","date":"12-27-2013 19:03:48","body":"ANONYMIZED","Type":"1", "metadata": {"name": "Majid Dadash :-"}}}
{"Application":{"ProcessName":"com.sonyericsson.dsds.widget","Start":"12-27-2013 19:04:02","End":"12-27-2013 19:04:03"}}
{"Application":{"ProcessName":"com.sonyericsson.dsds.widget","Start":"12-27-2013 19:04:13","End":"12-27-2013 19:04:16"}}
{"SMS":{"Address":"0935174####","type":"2","date":"12-27-2013 19:04:35","body":"ANONYMIZED","Type":"2", "metadata": {"name": "Majid Dadash :-"}}}
{"Application":{"ProcessName":"com.sonyericsson.r2r.client","Start":"12-27-2013 19:04:02","End":"12-27-2013 19:09:26"}}
{"Application":{"ProcessName":"com.sonyericsson.home","Start":"12-27-2013 19:04:02","End":"12-27-2013 19:09:26"}}
{"Application":{"ProcessName":"com.android.settings","Start":"12-27-2013 19:04:02","End":"12-27-2013 19:09:26"}}
{"Application":{"ProcessName":"com.sonyericsson.customization","Start":"12-27-2013 19:04:02","End":"12-27-2013 19:09:26"}}
{"Application":{"ProcessName":"com.sonyericsson.r2r.client","Start":"12-27-2013 19:10:24","End":"12-27-2013 19:17:42"}}
{"Application":{"ProcessName":"com.sonyericsson.home","Start":"12-27-2013 19:10:24","End":"12-27-2013 19:17:42"}}
{"Application":{"ProcessName":"com.android.settings","Start":"12-27-2013 19:10:24","End":"12-27-2013 19:17:42"}}
{"Application":{"ProcessName":"com.sonyericsson.customization","Start":"12-27-2013 19:10:24","End":"12-27-2013 19:17:42"}}
{"SMS":{"Address":"+98935174####","type":"1","date":"12-27-2013 19:17:42","body":"ANONYMIZED","Type":"1", "metadata": {"name": "Majid Dadash :-"}}}
{"Application":{"ProcessName":"com.sonyericsson.r2r.client","Start":"12-27-2013 19:17:57","End":"12-27-2013 19:18:57"}}
{"Application":{"ProcessName":"com.sonyericsson.home","Start":"12-27-2013 19:18:03","End":"12-27-2013 19:18:57"}}
{"Application":{"ProcessName":"com.android.settings","Start":"12-27-2013 19:17:57","End":"12-27-2013 19:18:57"}}
{"Application":{"ProcessName":"com.sonyericsson.customization","Start":"12-27-2013 19:17:57","End":"12-27-2013 19:18:57"}}
{"Application":{"ProcessName":"com.sonyericsson.r2r.client","Start":"12-27-2013 19:20:04","End":"12-27-2013 19:25:05"}}
{"Application":{"ProcessName":"com.sonyericsson.home","Start":"12-27-2013 19:20:04","End":"12-27-2013 19:25:05"}}
{"Application":{"ProcessName":"com.android.settings","Start":"12-27-2013 19:20:04","End":"12-27-2013 19:25:05"}}
{"Application":{"ProcessName":"com.sonyericsson.customization","Start":"12-27-2013 19:20:04","End":"12-27-2013 19:25:05"}}
{"SMS":{"Address":"+98935174####","type":"1","date":"12-27-2013 19:25:04","body":"ANONYMIZED","Type":"1", "metadata": {"name": "Majid Dadash :-"}}}
{"SMS":{"Address":"0935174####","type":"2","date":"12-27-2013 19:26:37","body":"ANONYMIZED","Type":"2", "metadata": {"name": "Majid Dadash :-"}}}
{"Application":{"ProcessName":"com.sonyericsson.r2r.client","Start":"12-27-2013 19:25:05","End":"12-27-2013 19:30:06"}}
{"Application":{"ProcessName":"com.sonyericsson.home","Start":"12-27-2013 19:25:05","End":"12-27-2013 19:30:06"}}
{"Application":{"ProcessName":"com.android.settings","Start":"12-27-2013 19:25:05","End":"12-27-2013 19:30:06"}}
{"Application":{"ProcessName":"com.sonyericsson.customization","Start":"12-27-2013 19:25:05","End":"12-27-2013 19:30:06"}}
{"Application":{"ProcessName":"com.sonyericsson.dsds.widget","Start":"12-27-2013 19:30:17","End":"12-27-2013 19:30:19"}}
{"Application":{"ProcessName":"com.sonyericsson.r2r.client","Start":"12-27-2013 19:30:06","End":"12-27-2013 19:30:59"}}
{"Application":{"ProcessName":"com.sonyericsson.home","Start":"12-27-2013 19:30:06","End":"12-27-2013 19:30:59"}}
{"Application":{"ProcessName":"com.android.settings","Start":"12-27-2013 19:30:06","End":"12-27-2013 19:30:59"}}
{"Application":{"ProcessName":"com.sonyericsson.customization","Start":"12-27-2013 19:30:07","End":"12-27-2013 19:30:59"}}
{"Application":{"ProcessName":"com.sonyericsson.dsds.widget","Start":"12-27-2013 19:32:53","End":"12-27-2013 19:32:55"}}
{"Application":{"ProcessName":"com.sonyericsson.r2r.client","Start":"12-27-2013 19:31:00","End":"12-27-2013 19:32:58"}}
{"Application":{"ProcessName":"com.sonyericsson.home","Start":"12-27-2013 19:32:53","End":"12-27-2013 19:32:58"}}
{"Application":{"ProcessName":"com.android.settings","Start":"12-27-2013 19:31:00","End":"12-27-2013 19:32:58"}}
{"Application":{"ProcessName":"com.sonyericsson.customization","Start":"12-27-2013 19:31:00","End":"12-27-2013 19:32:58"}}
{"SMS":{"Address":"0935174####","type":"2","date":"12-27-2013 19:35:59","body":"ANONYMIZED","Type":"2", "metadata": {"name": "Majid Dadash :-"}}}
{"Application":{"ProcessName":"com.sonyericsson.r2r.client","Start":"12-27-2013 19:34:51","End":"12-27-2013 19:38:31"}}
{"Application":{"ProcessName":"com.sonyericsson.music","Start":"12-27-2013 19:37:15","End":"12-27-2013 19:38:31"}}
{"Application":{"ProcessName":"com.sonyericsson.home","Start":"12-27-2013 19:34:51","End":"12-27-2013 19:38:31"}}
{"Application":{"ProcessName":"com.android.settings","Start":"12-27-2013 19:34:51","End":"12-27-2013 19:38:31"}}
{"Application":{"ProcessName":"com.sonyericsson.customization","Start":"12-27-2013 19:34:51","End":"12-27-2013 19:38:31"}}
{"Application":{"ProcessName":"com.sonyericsson.r2r.client","Start":"12-27-2013 19:40:31","End":"12-27-2013 19:41:52"}}
{"Application":{"ProcessName":"com.sonyericsson.music","Start":"12-27-2013 19:40:31","End":"12-27-2013 19:41:52"}}
{"Application":{"ProcessName":"com.sonyericsson.home","Start":"12-27-2013 19:40:31","End":"12-27-2013 19:41:52"}}
{"Application":{"ProcessName":"com.android.settings","Start":"12-27-2013 19:40:31","End":"12-27-2013 19:41:52"}}
{"Application":{"ProcessName":"com.sonyericsson.customization","Start":"12-27-2013 19:40:31","End":"12-27-2013 19:41:52"}}
{"Application":{"ProcessName":"com.sonyericsson.r2r.client","Start":"12-27-2013 19:42:43","End":"12-27-2013 19:43:58"}}
{"Application":{"ProcessName":"com.sonyericsson.music","Start":"12-27-2013 19:42:43","End":"12-27-2013 19:43:58"}}
{"Application":{"ProcessName":"com.sonyericsson.home","Start":"12-27-2013 19:42:43","End":"12-27-2013 19:43:58"}}
{"Application":{"ProcessName":"com.android.settings","Start":"12-27-2013 19:42:43","End":"12-27-2013 19:43:58"}}
{"Application":{"ProcessName":"com.sonyericsson.customization","Start":"12-27-2013 19:42:43","End":"12-27-2013 19:43:58"}}
{"Application":{"ProcessName":"com.sonyericsson.music","Start":"12-27-2013 19:44:04","End":"12-27-2013 19:44:04"}}
{"Application":{"ProcessName":"com.sonyericsson.gallery","Start":"12-27-2013 19:44:08","End":"12-27-2013 19:44:37"}}
{"Application":{"ProcessName":"com.sonyericsson.android.camera","Start":"12-27-2013 19:44:37","End":"12-27-2013 19:44:48"}}
{"Application":{"ProcessName":"com.sonyericsson.music","Start":"12-27-2013 19:44:48","End":"12-27-2013 19:44:58"}}
{"Application":{"ProcessName":"com.sonyericsson.r2r.client","Start":"12-27-2013 19:44:04","End":"12-27-2013 19:49:06"}}
{"Application":{"ProcessName":"com.sonyericsson.home","Start":"12-27-2013 19:44:04","End":"12-27-2013 19:49:06"}}
{"Application":{"ProcessName":"com.android.settings","Start":"12-27-2013 19:44:04","End":"12-27-2013 19:49:06"}}
{"Application":{"ProcessName":"com.sonyericsson.customization","Start":"12-27-2013 19:44:04","End":"12-27-2013 19:49:06"}}
