{"Application":{"ProcessName":"com.IranModernBusinesses.Netbarg","Start":"۱۲-۱-۲۰۱۳ ۲۰:۴۲:۰۸","End":"۱۲-۱-۲۰۱۳ ۲۰:۴۳:۲۸"}}
{"Application":{"ProcessName":"com.lge.launcher2","Start":"۱۲-۱-۲۰۱۳ ۲۰:۴۳:۲۸","End":"۱۲-۱-۲۰۱۳ ۲۰:۴۳:۳۸"}}
{"Application":{"ProcessName":"com.google.android.youtube","Start":"۱۲-۱-۲۰۱۳ ۲۰:۴۳:۳۸","End":"۱۲-۱-۲۰۱۳ ۲۰:۴۳:۳۸"}}
{"Application":{"ProcessName":"com.farsitel.bazaar","Start":"۱۲-۱-۲۰۱۳ ۲۰:۴۳:۳۸","End":"۱۲-۱-۲۰۱۳ ۲۰:۴۳:۴۸"}}
{"Application":{"ProcessName":"com.lge.keepscreenon","Start":"۱۲-۱-۲۰۱۳ ۲۰:۴۱:۳۷","End":"۱۲-۱-۲۰۱۳ ۲۰:۴۳:۴۸"}}
{"Application":{"ProcessName":"com.lge.systemserver","Start":"۱۲-۱-۲۰۱۳ ۲۰:۴۱:۳۷","End":"۱۲-۱-۲۰۱۳ ۲۰:۴۳:۴۸"}}
{"Application":{"ProcessName":"com.lge.keepscreenon","Start":"۱۲-۱-۲۰۱۳ ۲۱:۲۹:۴۹","End":"۱۲-۱-۲۰۱۳ ۲۱:۳۹:۰۰"}}
{"Application":{"ProcessName":"com.lge.systemserver","Start":"۱۲-۱-۲۰۱۳ ۲۱:۲۹:۴۹","End":"۱۲-۱-۲۰۱۳ ۲۱:۳۹:۰۰"}}
{"Application":{"ProcessName":"com.lge.launcher2","Start":"۱۲-۱-۲۰۱۳ ۲۱:۲۹:۴۹","End":"۱۲-۱-۲۰۱۳ ۲۱:۳۹:۰۰"}}
{"Application":{"ProcessName":"com.google.android.apps.uploader","Start":"۱۲-۱-۲۰۱۳ ۲۳:۰۹:۵۳","End":"۱۲-۱-۲۰۱۳ ۲۳:۱۰:۰۳"}}
{"Application":{"ProcessName":"com.lge.sizechangable.weather","Start":"۱۲-۱-۲۰۱۳ ۲۳:۰۹:۵۳","End":"۱۲-۱-۲۰۱۳ ۲۳:۱۰:۰۳"}}
{"Application":{"ProcessName":"com.lge.launcher2","Start":"۱۲-۱-۲۰۱۳ ۲۳:۰۹:۵۲","End":"۱۲-۱-۲۰۱۳ ۲۳:۱۰:۰۳"}}
{"Application":{"ProcessName":"com.lge.clock","Start":"۱۲-۱-۲۰۱۳ ۲۳:۱۰:۰۳","End":"۱۲-۱-۲۰۱۳ ۲۳:۱۰:۴۴"}}
{"Application":{"ProcessName":"com.lge.keepscreenon","Start":"۱۲-۱-۲۰۱۳ ۲۳:۰۹:۵۲","End":"۱۲-۱-۲۰۱۳ ۲۳:۱۰:۵۶"}}
{"Application":{"ProcessName":"com.lge.launcher2","Start":"۱۲-۱-۲۰۱۳ ۲۳:۱۰:۴۴","End":"۱۲-۱-۲۰۱۳ ۲۳:۱۰:۵۶"}}
{"Application":{"ProcessName":"com.lge.systemserver","Start":"۱۲-۱-۲۰۱۳ ۲۳:۰۹:۵۲","End":"۱۲-۱-۲۰۱۳ ۲۳:۱۰:۵۶"}}
{"Application":{"ProcessName":"com.lge.keepscreenon","Start":"۱۲-۱-۲۰۱۳ ۲۳:۲۸:۵۱","End":"۱۲-۱-۲۰۱۳ ۲۳:۳۰:۰۱"}}
{"Application":{"ProcessName":"com.lge.clock","Start":"۱۲-۱-۲۰۱۳ ۲۳:۲۸:۵۱","End":"۱۲-۱-۲۰۱۳ ۲۳:۳۰:۰۱"}}
{"Application":{"ProcessName":"com.lge.systemserver","Start":"۱۲-۱-۲۰۱۳ ۲۳:۲۸:۵۱","End":"۱۲-۱-۲۰۱۳ ۲۳:۳۰:۰۱"}}
{"Application":{"ProcessName":"com.lge.launcher2","Start":"۱۲-۲-۲۰۱۳ ۰۰:۰۵:۰۵","End":"۱۲-۲-۲۰۱۳ ۰۰:۰۵:۱۵"}}
{"Application":{"ProcessName":"com.lge.keepscreenon","Start":"۱۲-۲-۲۰۱۳ ۰۰:۰۵:۰۵","End":"۱۲-۲-۲۰۱۳ ۰۰:۱۰:۰۶"}}
{"Application":{"ProcessName":"com.lge.systemserver","Start":"۱۲-۲-۲۰۱۳ ۰۰:۰۵:۰۵","End":"۱۲-۲-۲۰۱۳ ۰۰:۱۰:۰۶"}}
{"Application":{"ProcessName":"com.socialnmobile.flashlight","Start":"۱۲-۲-۲۰۱۳ ۰۰:۰۵:۱۵","End":"۱۲-۲-۲۰۱۳ ۰۰:۱۰:۱۶"}}
{"Application":{"ProcessName":"com.lge.keepscreenon","Start":"۱۲-۲-۲۰۱۳ ۰۰:۱۰:۰۶","End":"۱۲-۲-۲۰۱۳ ۰۰:۱۵:۰۷"}}
{"Application":{"ProcessName":"com.lge.systemserver","Start":"۱۲-۲-۲۰۱۳ ۰۰:۱۰:۰۶","End":"۱۲-۲-۲۰۱۳ ۰۰:۱۵:۰۷"}}
{"Application":{"ProcessName":"com.socialnmobile.flashlight","Start":"۱۲-۲-۲۰۱۳ ۰۰:۱۰:۱۶","End":"۱۲-۲-۲۰۱۳ ۰۰:۱۵:۱۷"}}
{"Application":{"ProcessName":"com.lge.keepscreenon","Start":"۱۲-۲-۲۰۱۳ ۰۰:۱۵:۰۷","End":"۱۲-۲-۲۰۱۳ ۰۰:۲۰:۰۷"}}
{"Application":{"ProcessName":"com.lge.systemserver","Start":"۱۲-۲-۲۰۱۳ ۰۰:۱۵:۰۷","End":"۱۲-۲-۲۰۱۳ ۰۰:۲۰:۰۷"}}
{"Application":{"ProcessName":"com.socialnmobile.flashlight","Start":"۱۲-۲-۲۰۱۳ ۰۰:۱۵:۱۷","End":"۱۲-۲-۲۰۱۳ ۰۰:۲۰:۱۷"}}
{"Application":{"ProcessName":"com.lge.keepscreenon","Start":"۱۲-۲-۲۰۱۳ ۰۰:۲۰:۰۷","End":"۱۲-۲-۲۰۱۳ ۰۰:۲۵:۰۸"}}
{"Application":{"ProcessName":"com.lge.systemserver","Start":"۱۲-۲-۲۰۱۳ ۰۰:۲۰:۰۷","End":"۱۲-۲-۲۰۱۳ ۰۰:۲۵:۰۸"}}
{"Application":{"ProcessName":"com.socialnmobile.flashlight","Start":"۱۲-۲-۲۰۱۳ ۰۰:۲۰:۱۷","End":"۱۲-۲-۲۰۱۳ ۰۰:۲۵:۱۸"}}
{"Application":{"ProcessName":"com.lge.keepscreenon","Start":"۱۲-۲-۲۰۱۳ ۰۰:۲۵:۰۸","End":"۱۲-۲-۲۰۱۳ ۰۰:۳۰:۰۹"}}
{"Application":{"ProcessName":"com.lge.systemserver","Start":"۱۲-۲-۲۰۱۳ ۰۰:۲۵:۰۸","End":"۱۲-۲-۲۰۱۳ ۰۰:۳۰:۰۹"}}
{"Application":{"ProcessName":"com.socialnmobile.flashlight","Start":"۱۲-۲-۲۰۱۳ ۰۰:۲۵:۱۸","End":"۱۲-۲-۲۰۱۳ ۰۰:۳۰:۱۹"}}
{"Application":{"ProcessName":"com.lge.keepscreenon","Start":"۱۲-۲-۲۰۱۳ ۰۰:۳۰:۰۹","End":"۱۲-۲-۲۰۱۳ ۰۰:۳۵:۰۹"}}
{"Application":{"ProcessName":"com.lge.systemserver","Start":"۱۲-۲-۲۰۱۳ ۰۰:۳۰:۰۹","End":"۱۲-۲-۲۰۱۳ ۰۰:۳۵:۰۹"}}
{"Application":{"ProcessName":"com.socialnmobile.flashlight","Start":"۱۲-۲-۲۰۱۳ ۰۰:۳۰:۱۹","End":"۱۲-۲-۲۰۱۳ ۰۰:۳۵:۱۹"}}
{"Application":{"ProcessName":"com.lge.mlt","Start":"۱۲-۲-۲۰۱۳ ۰۰:۳۸:۰۰","End":"۱۲-۲-۲۰۱۳ ۰۰:۳۸:۱۰"}}
{"Application":{"ProcessName":"com.lge.keepscreenon","Start":"۱۲-۲-۲۰۱۳ ۰۰:۳۵:۰۹","End":"۱۲-۲-۲۰۱۳ ۰۰:۴۰:۱۰"}}
{"Application":{"ProcessName":"com.lge.systemserver","Start":"۱۲-۲-۲۰۱۳ ۰۰:۳۵:۰۹","End":"۱۲-۲-۲۰۱۳ ۰۰:۴۰:۱۰"}}
{"Application":{"ProcessName":"com.socialnmobile.flashlight","Start":"۱۲-۲-۲۰۱۳ ۰۰:۳۵:۱۹","End":"۱۲-۲-۲۰۱۳ ۰۰:۴۰:۲۰"}}
{"Application":{"ProcessName":"com.socialnmobile.flashlight","Start":"۱۲-۲-۲۰۱۳ ۰۰:۴۰:۲۰","End":"۱۲-۲-۲۰۱۳ ۰۰:۴۴:۱۰"}}
{"WiFi":{"SSID":"svf","BSSID":"00:1b:9e:00:08:7e","capabilities":"[WPA-PSK-TKIP][ESS]","level":"0","frequency":"2462","time":"دوشنبه ۲ دسامبر ۲۰۱۳ ۰:۴۵:۰۸ (وقت عادی ایران)"}}
{"WiFi":{"SSID":"SH","BSSID":"64:70:02:c3:4b:d9","capabilities":"[WPA2-PSK-TKIP+CCMP][ESS]","level":"-65","frequency":"2457","time":"دوشنبه ۲ دسامبر ۲۰۱۳ ۰:۴۵:۰۸ (وقت عادی ایران)"}}
{"WiFi":{"SSID":"Ariobarzan","BSSID":"64:70:02:c8:6f:9e","capabilities":"[WPA-PSK-TKIP+CCMP][ESS]","level":"-85","frequency":"2462","time":"دوشنبه ۲ دسامبر ۲۰۱۳ ۰:۴۵:۰۸ (وقت عادی ایران)"}}
{"WiFi":{"SSID":"d.d.t","BSSID":"90:94:e4:7d:79:be","capabilities":"[WEP][ESS]","level":"-91","frequency":"2437","time":"دوشنبه ۲ دسامبر ۲۰۱۳ ۰:۴۵:۰۸ (وقت عادی ایران)"}}
{"Application":{"ProcessName":"com.android.mms","Start":"۱۲-۲-۲۰۱۳ ۰۷:۴۸:۰۶","End":"۱۲-۲-۲۰۱۳ ۰۷:۴۸:۱۶"}}
{"Application":{"ProcessName":"com.lge.systemserver","Start":"۱۲-۲-۲۰۱۳ ۰۷:۴۸:۰۶","End":"۱۲-۲-۲۰۱۳ ۰۷:۴۸:۳۹"}}
{"Application":{"ProcessName":"com.lge.keepscreenon","Start":"۱۲-۲-۲۰۱۳ ۰۷:۴۸:۰۶","End":"۱۲-۲-۲۰۱۳ ۰۷:۴۸:۳۹"}}
{"Call": {"Number":"+98930770####","Duration":"106","Time":"۱۲-۲-۲۰۱۳ ۰۷:۴۸:۱۲","Type":"2"}}
{"Call": {"Number":"+98930770####","Duration":"106","Time":"۱۲-۲-۲۰۱۳ ۰۷:۴۸:۱۲","Type":"2"}}
{"Call": {"Number":"+98930770####","Duration":"106","Time":"۱۲-۲-۲۰۱۳ ۰۷:۴۸:۱۲","Type":"2"}}
{"Call": {"Number":"+98930770####","Duration":"106","Time":"۱۲-۲-۲۰۱۳ ۰۷:۴۸:۱۲","Type":"2"}}
{"Application":{"ProcessName":"com.android.mms","Start":"۱۲-۲-۲۰۱۳ ۰۷:۵۰:۱۲","End":"۱۲-۲-۲۰۱۳ ۰۷:۵۰:۱۳"}}
{"Application":{"ProcessName":"com.lge.systemserver","Start":"۱۲-۲-۲۰۱۳ ۰۷:۵۰:۱۲","End":"۱۲-۲-۲۰۱۳ ۰۷:۵۰:۵۸"}}
{"Application":{"ProcessName":"com.lge.keepscreenon","Start":"۱۲-۲-۲۰۱۳ ۰۷:۵۰:۱۲","End":"۱۲-۲-۲۰۱۳ ۰۷:۵۰:۵۸"}}
{"Application":{"ProcessName":"com.lge.launcher2","Start":"۱۲-۲-۲۰۱۳ ۰۷:۵۰:۱۲","End":"۱۲-۲-۲۰۱۳ ۰۷:۵۰:۵۸"}}
{"Call": {"Number":"+98930770####","Duration":"106","Time":"۱۲-۲-۲۰۱۳ ۰۷:۴۸:۱۲","Type":"2"}}
{"Call": {"Number":"+98930770####","Duration":"106","Time":"۱۲-۲-۲۰۱۳ ۰۷:۴۸:۱۲","Type":"2"}}
{"Application":{"ProcessName":"com.lge.launcher2","Start":"۱۲-۲-۲۰۱۳ ۰۷:۵۴:۵۱","End":"۱۲-۲-۲۰۱۳ ۰۷:۵۴:۵۹"}}
{"Application":{"ProcessName":"com.lge.sizechangable.weather","Start":"۱۲-۲-۲۰۱۳ ۰۷:۵۴:۵۱","End":"۱۲-۲-۲۰۱۳ ۰۷:۵۴:۵۹"}}
{"Application":{"ProcessName":"com.lge.systemserver","Start":"۱۲-۲-۲۰۱۳ ۰۷:۵۴:۵۱","End":"۱۲-۲-۲۰۱۳ ۰۷:۵۵:۰۹"}}
{"Application":{"ProcessName":"com.lge.keepscreenon","Start":"۱۲-۲-۲۰۱۳ ۰۷:۵۴:۵۱","End":"۱۲-۲-۲۰۱۳ ۰۷:۵۵:۰۹"}}
{"Call": {"Number":"+98930770####","Duration":"90","Time":"۱۲-۲-۲۰۱۳ ۰۷:۵۴:۵۶","Type":"2"}}
{"Call": {"Number":"+98930770####","Duration":"90","Time":"۱۲-۲-۲۰۱۳ ۰۷:۵۴:۵۶","Type":"2"}}
{"Call": {"Number":"+98930770####","Duration":"90","Time":"۱۲-۲-۲۰۱۳ ۰۷:۵۴:۵۶","Type":"2"}}
{"Call": {"Number":"+98930770####","Duration":"90","Time":"۱۲-۲-۲۰۱۳ ۰۷:۵۴:۵۶","Type":"2"}}
{"Call": {"Number":"+98930770####","Duration":"90","Time":"۱۲-۲-۲۰۱۳ ۰۷:۵۴:۵۶","Type":"2"}}
{"Call": {"Number":"+98930770####","Duration":"90","Time":"۱۲-۲-۲۰۱۳ ۰۷:۵۴:۵۶","Type":"2"}}
{"Application":{"ProcessName":"com.android.contacts","Start":"۱۲-۲-۲۰۱۳ ۰۸:۰۱:۵۴","End":"۱۲-۲-۲۰۱۳ ۰۸:۰۱:۵۶"}}
{"Application":{"ProcessName":"com.lge.launcher2","Start":"۱۲-۲-۲۰۱۳ ۰۸:۰۱:۵۶","End":"۱۲-۲-۲۰۱۳ ۰۸:۰۲:۰۶"}}
{"Application":{"ProcessName":"com.lge.systemserver","Start":"۱۲-۲-۲۰۱۳ ۰۸:۰۱:۵۴","End":"۱۲-۲-۲۰۱۳ ۰۸:۰۲:۰۶"}}
{"Application":{"ProcessName":"com.lge.keepscreenon","Start":"۱۲-۲-۲۰۱۳ ۰۸:۰۱:۵۴","End":"۱۲-۲-۲۰۱۳ ۰۸:۰۲:۰۶"}}
{"Call": {"Number":"+98930770####","Duration":"162","Time":"۱۲-۲-۲۰۱۳ ۰۸:۰۱:۵۵","Type":"2"}}
{"Call": {"Number":"+98930770####","Duration":"162","Time":"۱۲-۲-۲۰۱۳ ۰۸:۰۱:۵۵","Type":"2"}}
{"Call": {"Number":"+98930770####","Duration":"162","Time":"۱۲-۲-۲۰۱۳ ۰۸:۰۱:۵۵","Type":"2"}}
{"Call": {"Number":"+98930770####","Duration":"162","Time":"۱۲-۲-۲۰۱۳ ۰۸:۰۱:۵۵","Type":"2"}}
{"Application":{"ProcessName":"com.lge.systemserver","Start":"۱۲-۲-۲۰۱۳ ۰۸:۰۴:۵۲","End":"۱۲-۲-۲۰۱۳ ۰۸:۰۵:۰۴"}}
{"Application":{"ProcessName":"com.lge.keepscreenon","Start":"۱۲-۲-۲۰۱۳ ۰۸:۰۴:۵۲","End":"۱۲-۲-۲۰۱۳ ۰۸:۰۵:۰۴"}}
{"Application":{"ProcessName":"com.lge.launcher2","Start":"۱۲-۲-۲۰۱۳ ۰۸:۰۴:۵۲","End":"۱۲-۲-۲۰۱۳ ۰۸:۰۵:۰۴"}}
{"Call": {"Number":"+98930770####","Duration":"162","Time":"۱۲-۲-۲۰۱۳ ۰۸:۰۱:۵۵","Type":"2"}}
{"Call": {"Number":"+98930770####","Duration":"162","Time":"۱۲-۲-۲۰۱۳ ۰۸:۰۱:۵۵","Type":"2"}}
{"Call": {"Number":"+98930770####","Duration":"0","Time":"۱۲-۲-۲۰۱۳ ۰۸:۰۹:۴۱","Type":"2"}}
{"Call": {"Number":"+98930770####","Duration":"0","Time":"۱۲-۲-۲۰۱۳ ۰۸:۰۹:۴۱","Type":"2"}}
{"Call": {"Number":"+98930770####","Duration":"0","Time":"۱۲-۲-۲۰۱۳ ۰۸:۰۹:۴۱","Type":"2"}}
{"Application":{"ProcessName":"com.android.contacts","Start":"۱۲-۲-۲۰۱۳ ۰۸:۱۰:۳۶","End":"۱۲-۲-۲۰۱۳ ۰۸:۱۰:۵۴"}}
{"Application":{"ProcessName":"com.lge.systemserver","Start":"۱۲-۲-۲۰۱۳ ۰۸:۱۰:۲۶","End":"۱۲-۲-۲۰۱۳ ۰۸:۱۰:۵۴"}}
{"Application":{"ProcessName":"com.lge.keepscreenon","Start":"۱۲-۲-۲۰۱۳ ۰۸:۱۰:۲۶","End":"۱۲-۲-۲۰۱۳ ۰۸:۱۰:۵۴"}}
{"SMS":{"Address":"0919554####","type":"2","date":"۱۲-۱-۲۰۱۳ ۱۹:۴۶:۳۷","body":"ANONYMIZED","Type":"2", "metadata": {"name": "آرزو جان"}}}
{"SMS":{"Address":"+982000####","type":"1","date":"۱۲-۲-۲۰۱۳ ۰۸:۱۳:۱۴","body":"ANONYMIZED","Type":"1", "metadata": {"name": ""}}}
{"Application":{"ProcessName":"com.lge.systemserver","Start":"۱۲-۲-۲۰۱۳ ۰۸:۱۳:۱۶","End":"۱۲-۲-۲۰۱۳ ۰۸:۱۳:۳۸"}}
{"Application":{"ProcessName":"com.lge.keepscreenon","Start":"۱۲-۲-۲۰۱۳ ۰۸:۱۳:۱۶","End":"۱۲-۲-۲۰۱۳ ۰۸:۱۳:۳۸"}}
{"Application":{"ProcessName":"com.lge.launcher2","Start":"۱۲-۲-۲۰۱۳ ۰۸:۱۳:۱۶","End":"۱۲-۲-۲۰۱۳ ۰۸:۱۳:۳۸"}}
{"Application":{"ProcessName":"com.android.mms","Start":"۱۲-۲-۲۰۱۳ ۰۸:۱۴:۰۲","End":"۱۲-۲-۲۰۱۳ ۰۸:۱۴:۲۸"}}
{"Application":{"ProcessName":"com.lge.systemserver","Start":"۱۲-۲-۲۰۱۳ ۰۸:۱۴:۰۲","End":"۱۲-۲-۲۰۱۳ ۰۸:۱۴:۲۸"}}
{"Application":{"ProcessName":"com.lge.keepscreenon","Start":"۱۲-۲-۲۰۱۳ ۰۸:۱۴:۰۲","End":"۱۲-۲-۲۰۱۳ ۰۸:۱۴:۲۸"}}
{"SMS":{"Address":"+9810####","type":"1","date":"۱۲-۲-۲۰۱۳ ۰۸:۱۴:۳۸","body":"ANONYMIZED","Type":"1", "metadata": {"name": ""}}}
{"Application":{"ProcessName":"com.lge.systemserver","Start":"۱۲-۲-۲۰۱۳ ۰۸:۱۴:۴۰","End":"۱۲-۲-۲۰۱۳ ۰۸:۱۵:۰۰"}}
{"Application":{"ProcessName":"com.lge.keepscreenon","Start":"۱۲-۲-۲۰۱۳ ۰۸:۱۴:۴۰","End":"۱۲-۲-۲۰۱۳ ۰۸:۱۵:۰۰"}}
{"Application":{"ProcessName":"com.lge.launcher2","Start":"۱۲-۲-۲۰۱۳ ۰۸:۱۴:۴۰","End":"۱۲-۲-۲۰۱۳ ۰۸:۱۵:۰۰"}}
{"Application":{"ProcessName":"com.lge.launcher2","Start":"۱۲-۲-۲۰۱۳ ۰۸:۱۶:۲۱","End":"۱۲-۲-۲۰۱۳ ۰۸:۱۶:۲۸"}}
{"Application":{"ProcessName":"com.android.mms","Start":"۱۲-۲-۲۰۱۳ ۰۸:۱۶:۲۸","End":"۱۲-۲-۲۰۱۳ ۰۸:۱۶:۴۱"}}
{"Application":{"ProcessName":"com.lge.launcher2","Start":"۱۲-۲-۲۰۱۳ ۰۸:۱۶:۳۸","End":"۱۲-۲-۲۰۱۳ ۰۸:۱۶:۴۱"}}
{"Application":{"ProcessName":"com.lge.systemserver","Start":"۱۲-۲-۲۰۱۳ ۰۸:۱۶:۲۱","End":"۱۲-۲-۲۰۱۳ ۰۸:۱۷:۰۷"}}
{"Application":{"ProcessName":"com.lge.keepscreenon","Start":"۱۲-۲-۲۰۱۳ ۰۸:۱۶:۲۱","End":"۱۲-۲-۲۰۱۳ ۰۸:۱۷:۰۷"}}
{"Call": {"Number":"+98930770####","Duration":"54","Time":"۱۲-۲-۲۰۱۳ ۰۸:۱۶:۳۸","Type":"1"}}
{"Call": {"Number":"+98930770####","Duration":"54","Time":"۱۲-۲-۲۰۱۳ ۰۸:۱۶:۳۸","Type":"1"}}
{"Application":{"ProcessName":"com.lge.systemserver","Start":"۱۲-۲-۲۰۱۳ ۰۸:۱۷:۴۶","End":"۱۲-۲-۲۰۱۳ ۰۸:۱۸:۰۱"}}
{"Application":{"ProcessName":"com.lge.keepscreenon","Start":"۱۲-۲-۲۰۱۳ ۰۸:۱۷:۴۶","End":"۱۲-۲-۲۰۱۳ ۰۸:۱۸:۰۱"}}
{"Call": {"Number":"+98930770####","Duration":"54","Time":"۱۲-۲-۲۰۱۳ ۰۸:۱۶:۳۸","Type":"1"}}
{"Application":{"ProcessName":"com.android.contacts","Start":"۱۲-۲-۲۰۱۳ ۰۸:۱۹:۲۲","End":"۱۲-۲-۲۰۱۳ ۰۸:۱۹:۲۶"}}
{"Call": {"Number":"+98930770####","Duration":"0","Time":"۱۲-۲-۲۰۱۳ ۰۸:۱۹:۲۵","Type":"2"}}
{"Call": {"Number":"+98930770####","Duration":"0","Time":"۱۲-۲-۲۰۱۳ ۰۸:۱۹:۲۵","Type":"2"}}
{"Call": {"Number":"+98930770####","Duration":"0","Time":"۱۲-۲-۲۰۱۳ ۰۸:۱۹:۲۵","Type":"2"}}
{"Application":{"ProcessName":"com.lge.systemserver","Start":"۱۲-۲-۲۰۱۳ ۰۸:۱۹:۲۲","End":"۱۲-۲-۲۰۱۳ ۰۸:۱۹:۴۶"}}
{"Application":{"ProcessName":"com.lge.keepscreenon","Start":"۱۲-۲-۲۰۱۳ ۰۸:۱۹:۲۲","End":"۱۲-۲-۲۰۱۳ ۰۸:۱۹:۴۶"}}
{"Call": {"Number":"+98930770####","Duration":"0","Time":"۱۲-۲-۲۰۱۳ ۰۸:۱۹:۴۰","Type":"2"}}
{"Call": {"Number":"+98930770####","Duration":"0","Time":"۱۲-۲-۲۰۱۳ ۰۸:۱۹:۴۰","Type":"2"}}
{"Call": {"Number":"+98930770####","Duration":"0","Time":"۱۲-۲-۲۰۱۳ ۰۸:۱۹:۴۰","Type":"2"}}
{"Application":{"ProcessName":"com.android.contacts","Start":"۱۲-۲-۲۰۱۳ ۰۸:۱۹:۵۲","End":"۱۲-۲-۲۰۱۳ ۰۸:۱۹:۵۶"}}
{"Application":{"ProcessName":"com.lge.launcher2","Start":"۱۲-۲-۲۰۱۳ ۰۸:۱۹:۵۶","End":"۱۲-۲-۲۰۱۳ ۰۸:۲۰:۲۲"}}
{"Application":{"ProcessName":"com.lge.systemserver","Start":"۱۲-۲-۲۰۱۳ ۰۸:۱۹:۵۲","End":"۱۲-۲-۲۰۱۳ ۰۸:۲۰:۲۲"}}
{"Application":{"ProcessName":"com.lge.keepscreenon","Start":"۱۲-۲-۲۰۱۳ ۰۸:۱۹:۵۲","End":"۱۲-۲-۲۰۱۳ ۰۸:۲۰:۲۲"}}
{"Call": {"Number":"+98930770####","Duration":"0","Time":"۱۲-۲-۲۰۱۳ ۰۸:۲۰:۴۷","Type":"2"}}
{"Call": {"Number":"+98930770####","Duration":"0","Time":"۱۲-۲-۲۰۱۳ ۰۸:۲۰:۴۷","Type":"2"}}
{"Call": {"Number":"+98930770####","Duration":"0","Time":"۱۲-۲-۲۰۱۳ ۰۸:۲۰:۴۷","Type":"2"}}
{"Application":{"ProcessName":"com.android.mms","Start":"۱۲-۲-۲۰۱۳ ۰۸:۲۱:۰۰","End":"۱۲-۲-۲۰۱۳ ۰۸:۲۱:۰۷"}}
{"Call": {"Number":"+98930770####","Duration":"0","Time":"۱۲-۲-۲۰۱۳ ۰۸:۲۱:۰۰","Type":"2"}}
{"Call": {"Number":"+98930770####","Duration":"0","Time":"۱۲-۲-۲۰۱۳ ۰۸:۲۱:۰۰","Type":"2"}}
{"Call": {"Number":"+98930770####","Duration":"0","Time":"۱۲-۲-۲۰۱۳ ۰۸:۲۱:۰۰","Type":"2"}}
{"Application":{"ProcessName":"com.android.contacts","Start":"۱۲-۲-۲۰۱۳ ۰۸:۲۱:۱۷","End":"۱۲-۲-۲۰۱۳ ۰۸:۲۲:۰۴"}}
{"Call": {"Number":"+98930770####","Duration":"0","Time":"۱۲-۲-۲۰۱۳ ۰۸:۲۲:۰۳","Type":"2"}}
{"Call": {"Number":"+98930770####","Duration":"0","Time":"۱۲-۲-۲۰۱۳ ۰۸:۲۲:۰۳","Type":"2"}}
{"Call": {"Number":"+98930770####","Duration":"0","Time":"۱۲-۲-۲۰۱۳ ۰۸:۲۲:۰۳","Type":"2"}}
{"Call": {"Number":"+98930770####","Duration":"0","Time":"۱۲-۲-۲۰۱۳ ۰۸:۲۲:۰۳","Type":"2"}}
{"Application":{"ProcessName":"com.android.contacts","Start":"۱۲-۲-۲۰۱۳ ۰۸:۲۲:۲۱","End":"۱۲-۲-۲۰۱۳ ۰۸:۲۲:۳۱"}}
{"Application":{"ProcessName":"com.android.mms","Start":"۱۲-۲-۲۰۱۳ ۰۸:۲۲:۳۱","End":"۱۲-۲-۲۰۱۳ ۰۸:۲۳:۰۷"}}
{"Application":{"ProcessName":"com.lge.systemserver","Start":"۱۲-۲-۲۰۱۳ ۰۸:۲۰:۴۷","End":"۱۲-۲-۲۰۱۳ ۰۸:۲۳:۰۷"}}
{"Application":{"ProcessName":"com.lge.keepscreenon","Start":"۱۲-۲-۲۰۱۳ ۰۸:۲۰:۴۷","End":"۱۲-۲-۲۰۱۳ ۰۸:۲۳:۰۷"}}
{"Call": {"Number":"+98930770####","Duration":"204","Time":"۱۲-۲-۲۰۱۳ ۰۸:۲۲:۴۶","Type":"1"}}
{"Call": {"Number":"+98930770####","Duration":"204","Time":"۱۲-۲-۲۰۱۳ ۰۸:۲۲:۴۶","Type":"1"}}
{"Application":{"ProcessName":"com.android.mms","Start":"۱۲-۲-۲۰۱۳ ۰۸:۲۶:۱۶","End":"۱۲-۲-۲۰۱۳ ۰۸:۲۷:۰۸"}}
{"Application":{"ProcessName":"com.lge.systemserver","Start":"۱۲-۲-۲۰۱۳ ۰۸:۲۶:۱۶","End":"۱۲-۲-۲۰۱۳ ۰۸:۲۷:۰۸"}}
{"Application":{"ProcessName":"com.lge.keepscreenon","Start":"۱۲-۲-۲۰۱۳ ۰۸:۲۶:۱۶","End":"۱۲-۲-۲۰۱۳ ۰۸:۲۷:۰۸"}}
{"Call": {"Number":"+98930770####","Duration":"69","Time":"۱۲-۲-۲۰۱۳ ۰۸:۳۲:۴۹","Type":"1"}}
{"Call": {"Number":"+98930770####","Duration":"69","Time":"۱۲-۲-۲۰۱۳ ۰۸:۳۲:۴۹","Type":"1"}}
{"Application":{"ProcessName":"com.android.mms","Start":"۱۲-۲-۲۰۱۳ ۰۸:۳۴:۰۶","End":"۱۲-۲-۲۰۱۳ ۰۸:۳۸:۳۲"}}
{"Application":{"ProcessName":"com.lge.systemserver","Start":"۱۲-۲-۲۰۱۳ ۰۸:۳۲:۵۰","End":"۱۲-۲-۲۰۱۳ ۰۸:۳۸:۳۲"}}
{"Application":{"ProcessName":"com.lge.keepscreenon","Start":"۱۲-۲-۲۰۱۳ ۰۸:۳۲:۵۰","End":"۱۲-۲-۲۰۱۳ ۰۸:۳۸:۳۲"}}
{"Call": {"Number":"+98218897####","Duration":"84","Time":"۱۲-۲-۲۰۱۳ ۰۸:۳۷:۰۴","Type":"1"}}
{"Call": {"Number":"+98218897####","Duration":"84","Time":"۱۲-۲-۲۰۱۳ ۰۸:۳۷:۰۴","Type":"1"}}
{"Application":{"ProcessName":"com.android.mms","Start":"۱۲-۲-۲۰۱۳ ۰۸:۳۸:۴۲","End":"۱۲-۲-۲۰۱۳ ۰۸:۴۱:۱۰"}}
{"Application":{"ProcessName":"com.lge.systemserver","Start":"۱۲-۲-۲۰۱۳ ۰۸:۳۸:۳۲","End":"۱۲-۲-۲۰۱۳ ۰۸:۴۱:۱۰"}}
{"Application":{"ProcessName":"com.lge.keepscreenon","Start":"۱۲-۲-۲۰۱۳ ۰۸:۳۸:۳۲","End":"۱۲-۲-۲۰۱۳ ۰۸:۴۱:۱۰"}}
{"SMS":{"Address":"+98930770####","type":"1","date":"۱۲-۲-۲۰۱۳ ۰۸:۴۴:۵۳","body":"ANONYMIZED","Type":"1", "metadata": {"name": "خانومی"}}}
{"Application":{"ProcessName":"com.android.mms","Start":"۱۲-۲-۲۰۱۳ ۰۸:۴۵:۰۰","End":"۱۲-۲-۲۰۱۳ ۰۸:۴۷:۴۹"}}
{"Application":{"ProcessName":"com.lge.systemserver","Start":"۱۲-۲-۲۰۱۳ ۰۸:۴۵:۰۰","End":"۱۲-۲-۲۰۱۳ ۰۸:۴۷:۴۹"}}
{"Application":{"ProcessName":"com.lge.keepscreenon","Start":"۱۲-۲-۲۰۱۳ ۰۸:۴۵:۰۰","End":"۱۲-۲-۲۰۱۳ ۰۸:۴۷:۴۹"}}
{"SMS":{"Address":"+98930770####","type":"1","date":"۱۲-۲-۲۰۱۳ ۰۹:۰۳:۵۴","body":"ANONYMIZED","Type":"1", "metadata": {"name": "خانومی"}}}
{"SMS":{"Address":"+98930770####","type":"2","date":"۱۲-۲-۲۰۱۳ ۰۹:۰۴:۲۱","body":"ANONYMIZED","Type":"2", "metadata": {"name": "خانومی"}}}
{"SMS":{"Address":"+98930770####","type":"1","date":"۱۲-۲-۲۰۱۳ ۰۹:۰۵:۰۵","body":"ANONYMIZED","Type":"1", "metadata": {"name": "خانومی"}}}
{"Application":{"ProcessName":"com.android.mms","Start":"۱۲-۲-۲۰۱۳ ۰۹:۰۳:۵۷","End":"۱۲-۲-۲۰۱۳ ۰۹:۰۶:۰۰"}}
{"Application":{"ProcessName":"com.lge.systemserver","Start":"۱۲-۲-۲۰۱۳ ۰۹:۰۳:۵۷","End":"۱۲-۲-۲۰۱۳ ۰۹:۰۶:۰۰"}}
{"Application":{"ProcessName":"com.lge.keepscreenon","Start":"۱۲-۲-۲۰۱۳ ۰۹:۰۳:۵۷","End":"۱۲-۲-۲۰۱۳ ۰۹:۰۶:۰۰"}}
{"SMS":{"Address":"+98930770####","type":"2","date":"۱۲-۲-۲۰۱۳ ۰۹:۱۳:۴۱","body":"ANONYMIZED","Type":"2", "metadata": {"name": "خانومی"}}}
{"SMS":{"Address":"+98930770####","type":"1","date":"۱۲-۲-۲۰۱۳ ۰۹:۱۵:۲۵","body":"ANONYMIZED","Type":"1", "metadata": {"name": "خانومی"}}}
{"Application":{"ProcessName":"com.lge.mlt","Start":"۱۲-۲-۲۰۱۳ ۰۹:۱۵:۲۴","End":"۱۲-۲-۲۰۱۳ ۰۹:۱۵:۳۴"}}
{"Call": {"Number":"+98218897####","Duration":"84","Time":"۱۲-۲-۲۰۱۳ ۰۸:۳۷:۰۴","Type":"1"}}
{"Call": {"Number":"+98218897####","Duration":"84","Time":"۱۲-۲-۲۰۱۳ ۰۸:۳۷:۰۴","Type":"1"}}
{"Call": {"Number":"+98218897####","Duration":"84","Time":"۱۲-۲-۲۰۱۳ ۰۸:۳۷:۰۴","Type":"1"}}
{"Application":{"ProcessName":"com.android.mms","Start":"۱۲-۲-۲۰۱۳ ۰۹:۱۲:۵۳","End":"۱۲-۲-۲۰۱۳ ۰۹:۱۶:۱۳"}}
{"Application":{"ProcessName":"com.lge.systemserver","Start":"۱۲-۲-۲۰۱۳ ۰۹:۱۲:۵۳","End":"۱۲-۲-۲۰۱۳ ۰۹:۱۶:۱۳"}}
{"Application":{"ProcessName":"com.lge.keepscreenon","Start":"۱۲-۲-۲۰۱۳ ۰۹:۱۲:۵۳","End":"۱۲-۲-۲۰۱۳ ۰۹:۱۶:۱۳"}}
{"SMS":{"Address":"+98930770####","type":"1","date":"۱۲-۲-۲۰۱۳ ۰۹:۱۹:۲۳","body":"ANONYMIZED","Type":"1", "metadata": {"name": "خانومی"}}}
{"Application":{"ProcessName":"com.lge.launcher2","Start":"۱۲-۲-۲۰۱۳ ۰۹:۱۹:۲۷","End":"۱۲-۲-۲۰۱۳ ۰۹:۱۹:۳۷"}}
{"SMS":{"Address":"+98930770####","type":"2","date":"۱۲-۲-۲۰۱۳ ۰۹:۲۰:۵۳","body":"ANONYMIZED","Type":"2", "metadata": {"name": "خانومی"}}}
{"Application":{"ProcessName":"com.android.mms","Start":"۱۲-۲-۲۰۱۳ ۰۹:۱۹:۳۷","End":"۱۲-۲-۲۰۱۳ ۰۹:۲۱:۰۹"}}
{"Application":{"ProcessName":"com.lge.launcher2","Start":"۱۲-۲-۲۰۱۳ ۰۹:۲۱:۰۹","End":"۱۲-۲-۲۰۱۳ ۰۹:۲۱:۱۸"}}
{"SMS":{"Address":"+98930770####","type":"1","date":"۱۲-۲-۲۰۱۳ ۰۹:۲۳:۰۸","body":"ANONYMIZED","Type":"1", "metadata": {"name": "خانومی"}}}
{"Application":{"ProcessName":"com.android.contacts","Start":"۱۲-۲-۲۰۱۳ ۰۹:۲۱:۱۸","End":"۱۲-۲-۲۰۱۳ ۰۹:۲۴:۱۴"}}
{"Application":{"ProcessName":"com.lge.systemserver","Start":"۱۲-۲-۲۰۱۳ ۰۹:۱۹:۲۷","End":"۱۲-۲-۲۰۱۳ ۰۹:۲۴:۱۴"}}
{"Application":{"ProcessName":"com.lge.keepscreenon","Start":"۱۲-۲-۲۰۱۳ ۰۹:۱۹:۲۷","End":"۱۲-۲-۲۰۱۳ ۰۹:۲۴:۱۴"}}
{"Application":{"ProcessName":"com.android.contacts","Start":"۱۲-۲-۲۰۱۳ ۰۹:۳۴:۴۰","End":"۱۲-۲-۲۰۱۳ ۰۹:۳۵:۰۰"}}
{"Application":{"ProcessName":"com.android.mms","Start":"۱۲-۲-۲۰۱۳ ۰۹:۳۵:۰۰","End":"۱۲-۲-۲۰۱۳ ۰۹:۳۵:۱۱"}}
{"SMS":{"Address":"+98930770####","type":"2","date":"۱۲-۲-۲۰۱۳ ۰۹:۳۵:۰۹","body":"ANONYMIZED","Type":"2", "metadata": {"name": "خانومی"}}}
{"Application":{"ProcessName":"com.android.contacts","Start":"۱۲-۲-۲۰۱۳ ۰۹:۳۵:۱۱","End":"۱۲-۲-۲۰۱۳ ۰۹:۳۵:۲۷"}}
{"Application":{"ProcessName":"com.lge.launcher2","Start":"۱۲-۲-۲۰۱۳ ۰۹:۳۵:۲۷","End":"۱۲-۲-۲۰۱۳ ۰۹:۳۵:۲۸"}}
{"Application":{"ProcessName":"com.android.contacts","Start":"۱۲-۲-۲۰۱۳ ۰۹:۳۵:۲۸","End":"۱۲-۲-۲۰۱۳ ۰۹:۳۵:۴۷"}}
{"Application":{"ProcessName":"com.lge.launcher2","Start":"۱۲-۲-۲۰۱۳ ۰۹:۳۵:۴۷","End":"۱۲-۲-۲۰۱۳ ۰۹:۳۵:۴۸"}}
{"Application":{"ProcessName":"com.lge.systemserver","Start":"۱۲-۲-۲۰۱۳ ۰۹:۳۴:۴۰","End":"۱۲-۲-۲۰۱۳ ۰۹:۳۵:۴۸"}}
{"Application":{"ProcessName":"com.lge.keepscreenon","Start":"۱۲-۲-۲۰۱۳ ۰۹:۳۴:۴۰","End":"۱۲-۲-۲۰۱۳ ۰۹:۳۵:۴۸"}}
{"Application":{"ProcessName":"com.lge.launcher2","Start":"۱۲-۲-۲۰۱۳ ۰۹:۴۴:۲۲","End":"۱۲-۲-۲۰۱۳ ۰۹:۴۴:۳۲"}}
{"Application":{"ProcessName":"com.isc.mbank.ui.bsi","Start":"۱۲-۲-۲۰۱۳ ۰۹:۴۴:۳۲","End":"۱۲-۲-۲۰۱۳ ۰۹:۴۴:۵۳"}}
{"Application":{"ProcessName":"com.android.settings","Start":"۱۲-۲-۲۰۱۳ ۰۹:۴۴:۵۳","End":"۱۲-۲-۲۰۱۳ ۰۹:۴۵:۰۲"}}
{"WiFi":{"SSID":"Amirzco","BSSID":"c0:c1:c0:17:4e:c2","capabilities":"[WPA2-PSK-CCMP][WPS][ESS]","level":"-70","frequency":"2462","time":"دوشنبه ۲ دسامبر ۲۰۱۳ ۹:۴۵:۱۰ (وقت عادی ایران)"}}
{"WiFi":{"SSID":"GOD110","BSSID":"00:14:bf:16:40:11","capabilities":"[WPA-PSK-TKIP][ESS]","level":"-72","frequency":"2437","time":"دوشنبه ۲ دسامبر ۲۰۱۳ ۹:۴۵:۱۰ (وقت عادی ایران)"}}
{"WiFi":{"SSID":"MiddleEast-AP","BSSID":"c0:c1:c0:c1:b9:2f","capabilities":"[WPA2-PSK-TKIP][ESS]","level":"-79","frequency":"2437","time":"دوشنبه ۲ دسامبر ۲۰۱۳ ۹:۴۵:۱۰ (وقت عادی ایران)"}}
{"WiFi":{"SSID":"FTS","BSSID":"00:0d:f0:a7:28:d8","capabilities":"[WPA2-PSK-TKIP][ESS]","level":"-87","frequency":"2417","time":"دوشنبه ۲ دسامبر ۲۰۱۳ ۹:۴۵:۱۰ (وقت عادی ایران)"}}
{"WiFi":{"SSID":"FAJI","BSSID":"00:1f:a4:b8:80:16","capabilities":"[WEP][ESS]","level":"-81","frequency":"2462","time":"دوشنبه ۲ دسامبر ۲۰۱۳ ۹:۴۵:۱۰ (وقت عادی ایران)"}}
{"WiFi":{"SSID":"GFSEH","BSSID":"f4:3e:61:05:59:c5","capabilities":"[WEP][ESS]","level":"-88","frequency":"2462","time":"دوشنبه ۲ دسامبر ۲۰۱۳ ۹:۴۵:۱۰ (وقت عادی ایران)"}}
{"WiFi":{"SSID":"SLS-GROUP","BSSID":"c0:c1:c0:ae:a6:9a","capabilities":"[WPA2-PSK-CCMP][WPS][ESS]","level":"0","frequency":"2412","time":"دوشنبه ۲ دسامبر ۲۰۱۳ ۹:۴۵:۱۰ (وقت عادی ایران)"}}
{"WiFi":{"SSID":"DLink","BSSID":"84:c9:b2:c6:5e:60","capabilities":"[WPA-PSK-TKIP+CCMP][WPA2-PSK-TKIP+CCMP][ESS]","level":"-85","frequency":"2462","time":"دوشنبه ۲ دسامبر ۲۰۱۳ ۹:۴۵:۱۰ (وقت عادی ایران)"}}
{"WiFi":{"SSID":"Amirzco","BSSID":"c0:c1:c0:17:4e:c2","capabilities":"[WPA2-PSK-CCMP][WPS][ESS]","level":"-70","frequency":"2462","time":"دوشنبه ۲ دسامبر ۲۰۱۳ ۹:۴۵:۱۰ (وقت عادی ایران)"}}
{"WiFi":{"SSID":"GOD110","BSSID":"00:14:bf:16:40:11","capabilities":"[WPA-PSK-TKIP][ESS]","level":"-72","frequency":"2437","time":"دوشنبه ۲ دسامبر ۲۰۱۳ ۹:۴۵:۱۰ (وقت عادی ایران)"}}
{"WiFi":{"SSID":"MiddleEast-AP","BSSID":"c0:c1:c0:c1:b9:2f","capabilities":"[WPA2-PSK-TKIP][ESS]","level":"-79","frequency":"2437","time":"دوشنبه ۲ دسامبر ۲۰۱۳ ۹:۴۵:۱۰ (وقت عادی ایران)"}}
{"WiFi":{"SSID":"FTS","BSSID":"00:0d:f0:a7:28:d8","capabilities":"[WPA2-PSK-TKIP][ESS]","level":"-87","frequency":"2417","time":"دوشنبه ۲ دسامبر ۲۰۱۳ ۹:۴۵:۱۰ (وقت عادی ایران)"}}
{"WiFi":{"SSID":"FAJI","BSSID":"00:1f:a4:b8:80:16","capabilities":"[WEP][ESS]","level":"-81","frequency":"2462","time":"دوشنبه ۲ دسامبر ۲۰۱۳ ۹:۴۵:۱۰ (وقت عادی ایران)"}}
{"WiFi":{"SSID":"GFSEH","BSSID":"f4:3e:61:05:59:c5","capabilities":"[WEP][ESS]","level":"-88","frequency":"2462","time":"دوشنبه ۲ دسامبر ۲۰۱۳ ۹:۴۵:۱۰ (وقت عادی ایران)"}}
{"WiFi":{"SSID":"SLS-GROUP","BSSID":"c0:c1:c0:ae:a6:9a","capabilities":"[WPA2-PSK-CCMP][WPS][ESS]","level":"0","frequency":"2412","time":"دوشنبه ۲ دسامبر ۲۰۱۳ ۹:۴۵:۱۰ (وقت عادی ایران)"}}
{"WiFi":{"SSID":"DLink","BSSID":"84:c9:b2:c6:5e:60","capabilities":"[WPA-PSK-TKIP+CCMP][WPA2-PSK-TKIP+CCMP][ESS]","level":"-85","frequency":"2462","time":"دوشنبه ۲ دسامبر ۲۰۱۳ ۹:۴۵:۱۰ (وقت عادی ایران)"}}
{"WiFi":{"SSID":"Amirzco","BSSID":"c0:c1:c0:17:4e:c2","capabilities":"[WPA2-PSK-CCMP][WPS][ESS]","level":"-70","frequency":"2462","time":"دوشنبه ۲ دسامبر ۲۰۱۳ ۹:۴۵:۱۰ (وقت عادی ایران)"}}
{"WiFi":{"SSID":"GOD110","BSSID":"00:14:bf:16:40:11","capabilities":"[WPA-PSK-TKIP][ESS]","level":"-72","frequency":"2437","time":"دوشنبه ۲ دسامبر ۲۰۱۳ ۹:۴۵:۱۰ (وقت عادی ایران)"}}
{"WiFi":{"SSID":"MiddleEast-AP","BSSID":"c0:c1:c0:c1:b9:2f","capabilities":"[WPA2-PSK-TKIP][ESS]","level":"-79","frequency":"2437","time":"دوشنبه ۲ دسامبر ۲۰۱۳ ۹:۴۵:۱۰ (وقت عادی ایران)"}}
{"WiFi":{"SSID":"FTS","BSSID":"00:0d:f0:a7:28:d8","capabilities":"[WPA2-PSK-TKIP][ESS]","level":"-87","frequency":"2417","time":"دوشنبه ۲ دسامبر ۲۰۱۳ ۹:۴۵:۱۰ (وقت عادی ایران)"}}
{"WiFi":{"SSID":"FAJI","BSSID":"00:1f:a4:b8:80:16","capabilities":"[WEP][ESS]","level":"-81","frequency":"2462","time":"دوشنبه ۲ دسامبر ۲۰۱۳ ۹:۴۵:۱۰ (وقت عادی ایران)"}}
{"WiFi":{"SSID":"GFSEH","BSSID":"f4:3e:61:05:59:c5","capabilities":"[WEP][ESS]","level":"-88","frequency":"2462","time":"دوشنبه ۲ دسامبر ۲۰۱۳ ۹:۴۵:۱۰ (وقت عادی ایران)"}}
{"WiFi":{"SSID":"SLS-GROUP","BSSID":"c0:c1:c0:ae:a6:9a","capabilities":"[WPA2-PSK-CCMP][WPS][ESS]","level":"0","frequency":"2412","time":"دوشنبه ۲ دسامبر ۲۰۱۳ ۹:۴۵:۱۰ (وقت عادی ایران)"}}
{"WiFi":{"SSID":"DLink","BSSID":"84:c9:b2:c6:5e:60","capabilities":"[WPA-PSK-TKIP+CCMP][WPA2-PSK-TKIP+CCMP][ESS]","level":"-85","frequency":"2462","time":"دوشنبه ۲ دسامبر ۲۰۱۳ ۹:۴۵:۱۰ (وقت عادی ایران)"}}
{"Application":{"ProcessName":"com.google.android.apps.plus","Start":"۱۲-۲-۲۰۱۳ ۰۹:۴۵:۰۲","End":"۱۲-۲-۲۰۱۳ ۰۹:۴۵:۱۲"}}
{"Location":{"Latitude":"35.732615","Longtitude":"51.389193","Altitude":"0.0","time":"۱۲-۲-۲۰۱۳ ۰۹:۴۵:۲۷","Accuracy":"38.075","Provider":"fused","Speed":"0.0"}}
{"Application":{"ProcessName":"com.isc.mbank.ui.bsi","Start":"۱۲-۲-۲۰۱۳ ۰۹:۴۵:۰۲","End":"۱۲-۲-۲۰۱۳ ۰۹:۴۶:۰۳"}}
{"WiFi":{"SSID":"Amirzco","BSSID":"c0:c1:c0:17:4e:c2","capabilities":"[WPA2-PSK-CCMP][WPS][ESS]","level":"-70","frequency":"2462","time":"دوشنبه ۲ دسامبر ۲۰۱۳ ۹:۴۶:۱۰ (وقت عادی ایران)"}}
{"WiFi":{"SSID":"GOD110","BSSID":"00:14:bf:16:40:11","capabilities":"[WPA-PSK-TKIP][ESS]","level":"-72","frequency":"2437","time":"دوشنبه ۲ دسامبر ۲۰۱۳ ۹:۴۶:۱۰ (وقت عادی ایران)"}}
{"WiFi":{"SSID":"MiddleEast-AP","BSSID":"c0:c1:c0:c1:b9:2f","capabilities":"[WPA2-PSK-TKIP][ESS]","level":"-79","frequency":"2437","time":"دوشنبه ۲ دسامبر ۲۰۱۳ ۹:۴۶:۱۰ (وقت عادی ایران)"}}
{"WiFi":{"SSID":"FTS","BSSID":"00:0d:f0:a7:28:d8","capabilities":"[WPA2-PSK-TKIP][ESS]","level":"-87","frequency":"2417","time":"دوشنبه ۲ دسامبر ۲۰۱۳ ۹:۴۶:۱۰ (وقت عادی ایران)"}}
{"WiFi":{"SSID":"FAJI","BSSID":"00:1f:a4:b8:80:16","capabilities":"[WEP][ESS]","level":"-81","frequency":"2462","time":"دوشنبه ۲ دسامبر ۲۰۱۳ ۹:۴۶:۱۰ (وقت عادی ایران)"}}
{"WiFi":{"SSID":"GFSEH","BSSID":"f4:3e:61:05:59:c5","capabilities":"[WEP][ESS]","level":"-88","frequency":"2462","time":"دوشنبه ۲ دسامبر ۲۰۱۳ ۹:۴۶:۱۰ (وقت عادی ایران)"}}
{"WiFi":{"SSID":"SLS-GROUP","BSSID":"c0:c1:c0:ae:a6:9a","capabilities":"[WPA2-PSK-CCMP][WPS][ESS]","level":"0","frequency":"2412","time":"دوشنبه ۲ دسامبر ۲۰۱۳ ۹:۴۶:۱۰ (وقت عادی ایران)"}}
{"WiFi":{"SSID":"DLink","BSSID":"84:c9:b2:c6:5e:60","capabilities":"[WPA-PSK-TKIP+CCMP][WPA2-PSK-TKIP+CCMP][ESS]","level":"-85","frequency":"2462","time":"دوشنبه ۲ دسامبر ۲۰۱۳ ۹:۴۶:۱۰ (وقت عادی ایران)"}}
{"WiFi":{"SSID":"Amirzco","BSSID":"c0:c1:c0:17:4e:c2","capabilities":"[WPA2-PSK-CCMP][WPS][ESS]","level":"-70","frequency":"2462","time":"دوشنبه ۲ دسامبر ۲۰۱۳ ۹:۴۶:۱۰ (وقت عادی ایران)"}}
{"WiFi":{"SSID":"GOD110","BSSID":"00:14:bf:16:40:11","capabilities":"[WPA-PSK-TKIP][ESS]","level":"-72","frequency":"2437","time":"دوشنبه ۲ دسامبر ۲۰۱۳ ۹:۴۶:۱۰ (وقت عادی ایران)"}}
{"WiFi":{"SSID":"MiddleEast-AP","BSSID":"c0:c1:c0:c1:b9:2f","capabilities":"[WPA2-PSK-TKIP][ESS]","level":"-79","frequency":"2437","time":"دوشنبه ۲ دسامبر ۲۰۱۳ ۹:۴۶:۱۰ (وقت عادی ایران)"}}
{"WiFi":{"SSID":"FTS","BSSID":"00:0d:f0:a7:28:d8","capabilities":"[WPA2-PSK-TKIP][ESS]","level":"-87","frequency":"2417","time":"دوشنبه ۲ دسامبر ۲۰۱۳ ۹:۴۶:۱۰ (وقت عادی ایران)"}}
{"WiFi":{"SSID":"FAJI","BSSID":"00:1f:a4:b8:80:16","capabilities":"[WEP][ESS]","level":"-81","frequency":"2462","time":"دوشنبه ۲ دسامبر ۲۰۱۳ ۹:۴۶:۱۰ (وقت عادی ایران)"}}
{"WiFi":{"SSID":"GFSEH","BSSID":"f4:3e:61:05:59:c5","capabilities":"[WEP][ESS]","level":"-88","frequency":"2462","time":"دوشنبه ۲ دسامبر ۲۰۱۳ ۹:۴۶:۱۰ (وقت عادی ایران)"}}
{"WiFi":{"SSID":"SLS-GROUP","BSSID":"c0:c1:c0:ae:a6:9a","capabilities":"[WPA2-PSK-CCMP][WPS][ESS]","level":"0","frequency":"2412","time":"دوشنبه ۲ دسامبر ۲۰۱۳ ۹:۴۶:۱۰ (وقت عادی ایران)"}}
{"WiFi":{"SSID":"DLink","BSSID":"84:c9:b2:c6:5e:60","capabilities":"[WPA-PSK-TKIP+CCMP][WPA2-PSK-TKIP+CCMP][ESS]","level":"-85","frequency":"2462","time":"دوشنبه ۲ دسامبر ۲۰۱۳ ۹:۴۶:۱۰ (وقت عادی ایران)"}}
{"WiFi":{"SSID":"Amirzco","BSSID":"c0:c1:c0:17:4e:c2","capabilities":"[WPA2-PSK-CCMP][WPS][ESS]","level":"-70","frequency":"2462","time":"دوشنبه ۲ دسامبر ۲۰۱۳ ۹:۴۶:۱۰ (وقت عادی ایران)"}}
{"WiFi":{"SSID":"GOD110","BSSID":"00:14:bf:16:40:11","capabilities":"[WPA-PSK-TKIP][ESS]","level":"-72","frequency":"2437","time":"دوشنبه ۲ دسامبر ۲۰۱۳ ۹:۴۶:۱۰ (وقت عادی ایران)"}}
{"WiFi":{"SSID":"MiddleEast-AP","BSSID":"c0:c1:c0:c1:b9:2f","capabilities":"[WPA2-PSK-TKIP][ESS]","level":"-79","frequency":"2437","time":"دوشنبه ۲ دسامبر ۲۰۱۳ ۹:۴۶:۱۰ (وقت عادی ایران)"}}
{"WiFi":{"SSID":"FTS","BSSID":"00:0d:f0:a7:28:d8","capabilities":"[WPA2-PSK-TKIP][ESS]","level":"-87","frequency":"2417","time":"دوشنبه ۲ دسامبر ۲۰۱۳ ۹:۴۶:۱۰ (وقت عادی ایران)"}}
{"WiFi":{"SSID":"FAJI","BSSID":"00:1f:a4:b8:80:16","capabilities":"[WEP][ESS]","level":"-81","frequency":"2462","time":"دوشنبه ۲ دسامبر ۲۰۱۳ ۹:۴۶:۱۰ (وقت عادی ایران)"}}
{"WiFi":{"SSID":"GFSEH","BSSID":"f4:3e:61:05:59:c5","capabilities":"[WEP][ESS]","level":"-88","frequency":"2462","time":"دوشنبه ۲ دسامبر ۲۰۱۳ ۹:۴۶:۱۰ (وقت عادی ایران)"}}
{"WiFi":{"SSID":"SLS-GROUP","BSSID":"c0:c1:c0:ae:a6:9a","capabilities":"[WPA2-PSK-CCMP][WPS][ESS]","level":"0","frequency":"2412","time":"دوشنبه ۲ دسامبر ۲۰۱۳ ۹:۴۶:۱۰ (وقت عادی ایران)"}}
{"WiFi":{"SSID":"DLink","BSSID":"84:c9:b2:c6:5e:60","capabilities":"[WPA-PSK-TKIP+CCMP][WPA2-PSK-TKIP+CCMP][ESS]","level":"-85","frequency":"2462","time":"دوشنبه ۲ دسامبر ۲۰۱۳ ۹:۴۶:۱۰ (وقت عادی ایران)"}}
{"Application":{"ProcessName":"com.lge.launcher2","Start":"۱۲-۲-۲۰۱۳ ۰۹:۴۶:۰۳","End":"۱۲-۲-۲۰۱۳ ۰۹:۴۶:۳۳"}}
{"Application":{"ProcessName":"com.rahpou.irib","Start":"۱۲-۲-۲۰۱۳ ۰۹:۴۶:۳۳","End":"۱۲-۲-۲۰۱۳ ۰۹:۴۶:۵۳"}}
{"WiFi":{"SSID":"Amirzco","BSSID":"c0:c1:c0:17:4e:c2","capabilities":"[WPA2-PSK-CCMP][WPS][ESS]","level":"-76","frequency":"2462","time":"دوشنبه ۲ دسامبر ۲۰۱۳ ۹:۴۷:۱۰ (وقت عادی ایران)"}}
{"WiFi":{"SSID":"GOD110","BSSID":"00:14:bf:16:40:11","capabilities":"[WPA-PSK-TKIP][ESS]","level":"-75","frequency":"2437","time":"دوشنبه ۲ دسامبر ۲۰۱۳ ۹:۴۷:۱۰ (وقت عادی ایران)"}}
{"WiFi":{"SSID":"MiddleEast-AP","BSSID":"c0:c1:c0:c1:b9:2f","capabilities":"[WPA2-PSK-TKIP][ESS]","level":"-84","frequency":"2437","time":"دوشنبه ۲ دسامبر ۲۰۱۳ ۹:۴۷:۱۰ (وقت عادی ایران)"}}
{"WiFi":{"SSID":"FTS","BSSID":"00:0d:f0:a7:28:d8","capabilities":"[WPA2-PSK-TKIP][ESS]","level":"-87","frequency":"2417","time":"دوشنبه ۲ دسامبر ۲۰۱۳ ۹:۴۷:۱۰ (وقت عادی ایران)"}}
{"WiFi":{"SSID":"FAJI","BSSID":"00:1f:a4:b8:80:16","capabilities":"[WEP][ESS]","level":"-81","frequency":"2462","time":"دوشنبه ۲ دسامبر ۲۰۱۳ ۹:۴۷:۱۰ (وقت عادی ایران)"}}
{"WiFi":{"SSID":"GFSEH","BSSID":"f4:3e:61:05:59:c5","capabilities":"[WEP][ESS]","level":"-88","frequency":"2462","time":"دوشنبه ۲ دسامبر ۲۰۱۳ ۹:۴۷:۱۰ (وقت عادی ایران)"}}
{"WiFi":{"SSID":"SLS-GROUP","BSSID":"c0:c1:c0:ae:a6:9a","capabilities":"[WPA2-PSK-CCMP][WPS][ESS]","level":"-85","frequency":"2412","time":"دوشنبه ۲ دسامبر ۲۰۱۳ ۹:۴۷:۱۰ (وقت عادی ایران)"}}
{"WiFi":{"SSID":"DLink","BSSID":"84:c9:b2:c6:5e:60","capabilities":"[WPA-PSK-TKIP+CCMP][WPA2-PSK-TKIP+CCMP][ESS]","level":"-85","frequency":"2462","time":"دوشنبه ۲ دسامبر ۲۰۱۳ ۹:۴۷:۱۰ (وقت عادی ایران)"}}
{"WiFi":{"SSID":"Amirzco","BSSID":"c0:c1:c0:17:4e:c2","capabilities":"[WPA2-PSK-CCMP][WPS][ESS]","level":"-76","frequency":"2462","time":"دوشنبه ۲ دسامبر ۲۰۱۳ ۹:۴۷:۱۰ (وقت عادی ایران)"}}
{"WiFi":{"SSID":"GOD110","BSSID":"00:14:bf:16:40:11","capabilities":"[WPA-PSK-TKIP][ESS]","level":"-75","frequency":"2437","time":"دوشنبه ۲ دسامبر ۲۰۱۳ ۹:۴۷:۱۰ (وقت عادی ایران)"}}
{"WiFi":{"SSID":"MiddleEast-AP","BSSID":"c0:c1:c0:c1:b9:2f","capabilities":"[WPA2-PSK-TKIP][ESS]","level":"-84","frequency":"2437","time":"دوشنبه ۲ دسامبر ۲۰۱۳ ۹:۴۷:۱۰ (وقت عادی ایران)"}}
{"WiFi":{"SSID":"FTS","BSSID":"00:0d:f0:a7:28:d8","capabilities":"[WPA2-PSK-TKIP][ESS]","level":"-87","frequency":"2417","time":"دوشنبه ۲ دسامبر ۲۰۱۳ ۹:۴۷:۱۰ (وقت عادی ایران)"}}
{"WiFi":{"SSID":"FAJI","BSSID":"00:1f:a4:b8:80:16","capabilities":"[WEP][ESS]","level":"-81","frequency":"2462","time":"دوشنبه ۲ دسامبر ۲۰۱۳ ۹:۴۷:۱۰ (وقت عادی ایران)"}}
{"WiFi":{"SSID":"GFSEH","BSSID":"f4:3e:61:05:59:c5","capabilities":"[WEP][ESS]","level":"-88","frequency":"2462","time":"دوشنبه ۲ دسامبر ۲۰۱۳ ۹:۴۷:۱۰ (وقت عادی ایران)"}}
{"WiFi":{"SSID":"SLS-GROUP","BSSID":"c0:c1:c0:ae:a6:9a","capabilities":"[WPA2-PSK-CCMP][WPS][ESS]","level":"-85","frequency":"2412","time":"دوشنبه ۲ دسامبر ۲۰۱۳ ۹:۴۷:۱۰ (وقت عادی ایران)"}}
{"WiFi":{"SSID":"DLink","BSSID":"84:c9:b2:c6:5e:60","capabilities":"[WPA-PSK-TKIP+CCMP][WPA2-PSK-TKIP+CCMP][ESS]","level":"-85","frequency":"2462","time":"دوشنبه ۲ دسامبر ۲۰۱۳ ۹:۴۷:۱۰ (وقت عادی ایران)"}}
{"WiFi":{"SSID":"Amirzco","BSSID":"c0:c1:c0:17:4e:c2","capabilities":"[WPA2-PSK-CCMP][WPS][ESS]","level":"-76","frequency":"2462","time":"دوشنبه ۲ دسامبر ۲۰۱۳ ۹:۴۷:۱۰ (وقت عادی ایران)"}}
{"WiFi":{"SSID":"GOD110","BSSID":"00:14:bf:16:40:11","capabilities":"[WPA-PSK-TKIP][ESS]","level":"-75","frequency":"2437","time":"دوشنبه ۲ دسامبر ۲۰۱۳ ۹:۴۷:۱۰ (وقت عادی ایران)"}}
{"WiFi":{"SSID":"MiddleEast-AP","BSSID":"c0:c1:c0:c1:b9:2f","capabilities":"[WPA2-PSK-TKIP][ESS]","level":"-84","frequency":"2437","time":"دوشنبه ۲ دسامبر ۲۰۱۳ ۹:۴۷:۱۰ (وقت عادی ایران)"}}
{"WiFi":{"SSID":"FTS","BSSID":"00:0d:f0:a7:28:d8","capabilities":"[WPA2-PSK-TKIP][ESS]","level":"-87","frequency":"2417","time":"دوشنبه ۲ دسامبر ۲۰۱۳ ۹:۴۷:۱۰ (وقت عادی ایران)"}}
{"WiFi":{"SSID":"FAJI","BSSID":"00:1f:a4:b8:80:16","capabilities":"[WEP][ESS]","level":"-81","frequency":"2462","time":"دوشنبه ۲ دسامبر ۲۰۱۳ ۹:۴۷:۱۰ (وقت عادی ایران)"}}
{"WiFi":{"SSID":"GFSEH","BSSID":"f4:3e:61:05:59:c5","capabilities":"[WEP][ESS]","level":"-88","frequency":"2462","time":"دوشنبه ۲ دسامبر ۲۰۱۳ ۹:۴۷:۱۰ (وقت عادی ایران)"}}
{"WiFi":{"SSID":"SLS-GROUP","BSSID":"c0:c1:c0:ae:a6:9a","capabilities":"[WPA2-PSK-CCMP][WPS][ESS]","level":"-85","frequency":"2412","time":"دوشنبه ۲ دسامبر ۲۰۱۳ ۹:۴۷:۱۰ (وقت عادی ایران)"}}
{"WiFi":{"SSID":"DLink","BSSID":"84:c9:b2:c6:5e:60","capabilities":"[WPA-PSK-TKIP+CCMP][WPA2-PSK-TKIP+CCMP][ESS]","level":"-85","frequency":"2462","time":"دوشنبه ۲ دسامبر ۲۰۱۳ ۹:۴۷:۱۰ (وقت عادی ایران)"}}
{"Location":{"Latitude":"35.7325084","Longtitude":"51.3891158","Altitude":"0.0","time":"۱۲-۲-۲۰۱۳ ۰۹:۴۷:۱۹","Accuracy":"39.856","Provider":"fused","Speed":"0.0"}}
{"Application":{"ProcessName":"com.mxtech.videoplayer.ad","Start":"۱۲-۲-۲۰۱۳ ۰۹:۴۶:۵۳","End":"۱۲-۲-۲۰۱۳ ۰۹:۴۷:۳۳"}}
{"Application":{"ProcessName":"com.rahpou.irib","Start":"۱۲-۲-۲۰۱۳ ۰۹:۴۷:۳۳","End":"۱۲-۲-۲۰۱۳ ۰۹:۴۷:۴۳"}}
{"WiFi":{"SSID":"Amirzco","BSSID":"c0:c1:c0:17:4e:c2","capabilities":"[WPA2-PSK-CCMP][WPS][ESS]","level":"-74","frequency":"2462","time":"دوشنبه ۲ دسامبر ۲۰۱۳ ۹:۴۸:۱۰ (وقت عادی ایران)"}}
{"WiFi":{"SSID":"GOD110","BSSID":"00:14:bf:16:40:11","capabilities":"[WPA-PSK-TKIP][ESS]","level":"-76","frequency":"2437","time":"دوشنبه ۲ دسامبر ۲۰۱۳ ۹:۴۸:۱۰ (وقت عادی ایران)"}}
{"WiFi":{"SSID":"MiddleEast-AP","BSSID":"c0:c1:c0:c1:b9:2f","capabilities":"[WPA2-PSK-TKIP][ESS]","level":"-82","frequency":"2437","time":"دوشنبه ۲ دسامبر ۲۰۱۳ ۹:۴۸:۱۰ (وقت عادی ایران)"}}
{"WiFi":{"SSID":"FTS","BSSID":"00:0d:f0:a7:28:d8","capabilities":"[WPA2-PSK-TKIP][ESS]","level":"-83","frequency":"2417","time":"دوشنبه ۲ دسامبر ۲۰۱۳ ۹:۴۸:۱۰ (وقت عادی ایران)"}}
{"WiFi":{"SSID":"FAJI","BSSID":"00:1f:a4:b8:80:16","capabilities":"[WEP][ESS]","level":"-81","frequency":"2462","time":"دوشنبه ۲ دسامبر ۲۰۱۳ ۹:۴۸:۱۰ (وقت عادی ایران)"}}
{"WiFi":{"SSID":"GFSEH","BSSID":"f4:3e:61:05:59:c5","capabilities":"[WEP][ESS]","level":"-88","frequency":"2462","time":"دوشنبه ۲ دسامبر ۲۰۱۳ ۹:۴۸:۱۰ (وقت عادی ایران)"}}
{"WiFi":{"SSID":"SLS-GROUP","BSSID":"c0:c1:c0:ae:a6:9a","capabilities":"[WPA2-PSK-CCMP][WPS][ESS]","level":"-85","frequency":"2412","time":"دوشنبه ۲ دسامبر ۲۰۱۳ ۹:۴۸:۱۰ (وقت عادی ایران)"}}
{"WiFi":{"SSID":"DLink","BSSID":"84:c9:b2:c6:5e:60","capabilities":"[WPA-PSK-TKIP+CCMP][WPA2-PSK-TKIP+CCMP][ESS]","level":"-85","frequency":"2462","time":"دوشنبه ۲ دسامبر ۲۰۱۳ ۹:۴۸:۱۰ (وقت عادی ایران)"}}
{"WiFi":{"SSID":"Amirzco","BSSID":"c0:c1:c0:17:4e:c2","capabilities":"[WPA2-PSK-CCMP][WPS][ESS]","level":"-74","frequency":"2462","time":"دوشنبه ۲ دسامبر ۲۰۱۳ ۹:۴۸:۱۰ (وقت عادی ایران)"}}
{"WiFi":{"SSID":"GOD110","BSSID":"00:14:bf:16:40:11","capabilities":"[WPA-PSK-TKIP][ESS]","level":"-76","frequency":"2437","time":"دوشنبه ۲ دسامبر ۲۰۱۳ ۹:۴۸:۱۰ (وقت عادی ایران)"}}
{"WiFi":{"SSID":"MiddleEast-AP","BSSID":"c0:c1:c0:c1:b9:2f","capabilities":"[WPA2-PSK-TKIP][ESS]","level":"-82","frequency":"2437","time":"دوشنبه ۲ دسامبر ۲۰۱۳ ۹:۴۸:۱۰ (وقت عادی ایران)"}}
{"WiFi":{"SSID":"FTS","BSSID":"00:0d:f0:a7:28:d8","capabilities":"[WPA2-PSK-TKIP][ESS]","level":"-83","frequency":"2417","time":"دوشنبه ۲ دسامبر ۲۰۱۳ ۹:۴۸:۱۰ (وقت عادی ایران)"}}
{"WiFi":{"SSID":"FAJI","BSSID":"00:1f:a4:b8:80:16","capabilities":"[WEP][ESS]","level":"-81","frequency":"2462","time":"دوشنبه ۲ دسامبر ۲۰۱۳ ۹:۴۸:۱۰ (وقت عادی ایران)"}}
{"WiFi":{"SSID":"GFSEH","BSSID":"f4:3e:61:05:59:c5","capabilities":"[WEP][ESS]","level":"-88","frequency":"2462","time":"دوشنبه ۲ دسامبر ۲۰۱۳ ۹:۴۸:۱۰ (وقت عادی ایران)"}}
{"WiFi":{"SSID":"SLS-GROUP","BSSID":"c0:c1:c0:ae:a6:9a","capabilities":"[WPA2-PSK-CCMP][WPS][ESS]","level":"-85","frequency":"2412","time":"دوشنبه ۲ دسامبر ۲۰۱۳ ۹:۴۸:۱۰ (وقت عادی ایران)"}}
{"WiFi":{"SSID":"DLink","BSSID":"84:c9:b2:c6:5e:60","capabilities":"[WPA-PSK-TKIP+CCMP][WPA2-PSK-TKIP+CCMP][ESS]","level":"-85","frequency":"2462","time":"دوشنبه ۲ دسامبر ۲۰۱۳ ۹:۴۸:۱۰ (وقت عادی ایران)"}}
{"WiFi":{"SSID":"Amirzco","BSSID":"c0:c1:c0:17:4e:c2","capabilities":"[WPA2-PSK-CCMP][WPS][ESS]","level":"-74","frequency":"2462","time":"دوشنبه ۲ دسامبر ۲۰۱۳ ۹:۴۸:۱۰ (وقت عادی ایران)"}}
{"WiFi":{"SSID":"GOD110","BSSID":"00:14:bf:16:40:11","capabilities":"[WPA-PSK-TKIP][ESS]","level":"-76","frequency":"2437","time":"دوشنبه ۲ دسامبر ۲۰۱۳ ۹:۴۸:۱۰ (وقت عادی ایران)"}}
{"WiFi":{"SSID":"MiddleEast-AP","BSSID":"c0:c1:c0:c1:b9:2f","capabilities":"[WPA2-PSK-TKIP][ESS]","level":"-82","frequency":"2437","time":"دوشنبه ۲ دسامبر ۲۰۱۳ ۹:۴۸:۱۰ (وقت عادی ایران)"}}
{"WiFi":{"SSID":"FTS","BSSID":"00:0d:f0:a7:28:d8","capabilities":"[WPA2-PSK-TKIP][ESS]","level":"-83","frequency":"2417","time":"دوشنبه ۲ دسامبر ۲۰۱۳ ۹:۴۸:۱۰ (وقت عادی ایران)"}}
{"WiFi":{"SSID":"FAJI","BSSID":"00:1f:a4:b8:80:16","capabilities":"[WEP][ESS]","level":"-81","frequency":"2462","time":"دوشنبه ۲ دسامبر ۲۰۱۳ ۹:۴۸:۱۰ (وقت عادی ایران)"}}
{"WiFi":{"SSID":"GFSEH","BSSID":"f4:3e:61:05:59:c5","capabilities":"[WEP][ESS]","level":"-88","frequency":"2462","time":"دوشنبه ۲ دسامبر ۲۰۱۳ ۹:۴۸:۱۰ (وقت عادی ایران)"}}
{"WiFi":{"SSID":"SLS-GROUP","BSSID":"c0:c1:c0:ae:a6:9a","capabilities":"[WPA2-PSK-CCMP][WPS][ESS]","level":"-85","frequency":"2412","time":"دوشنبه ۲ دسامبر ۲۰۱۳ ۹:۴۸:۱۰ (وقت عادی ایران)"}}
{"WiFi":{"SSID":"DLink","BSSID":"84:c9:b2:c6:5e:60","capabilities":"[WPA-PSK-TKIP+CCMP][WPA2-PSK-TKIP+CCMP][ESS]","level":"-85","frequency":"2462","time":"دوشنبه ۲ دسامبر ۲۰۱۳ ۹:۴۸:۱۰ (وقت عادی ایران)"}}
{"Application":{"ProcessName":"com.mxtech.videoplayer.ad","Start":"۱۲-۲-۲۰۱۳ ۰۹:۴۷:۴۳","End":"۱۲-۲-۲۰۱۳ ۰۹:۴۸:۱۳"}}
{"Location":{"Latitude":"35.7325084","Longtitude":"51.3891158","Altitude":"0.0","time":"۱۲-۲-۲۰۱۳ ۰۹:۴۸:۲۱","Accuracy":"41.994","Provider":"fused","Speed":"0.0"}}
{"Application":{"ProcessName":"com.lge.keepscreenon","Start":"۱۲-۲-۲۰۱۳ ۰۹:۴۴:۲۲","End":"۱۲-۲-۲۰۱۳ ۰۹:۴۸:۲۳"}}
{"Application":{"ProcessName":"com.rahpou.irib","Start":"۱۲-۲-۲۰۱۳ ۰۹:۴۸:۱۳","End":"۱۲-۲-۲۰۱۳ ۰۹:۴۸:۲۳"}}
{"Application":{"ProcessName":"com.lge.systemserver","Start":"۱۲-۲-۲۰۱۳ ۰۹:۴۴:۲۲","End":"۱۲-۲-۲۰۱۳ ۰۹:۴۸:۲۳"}}
{"Location":{"Latitude":"35.7325084","Longtitude":"51.3891158","Altitude":"0.0","time":"۱۲-۲-۲۰۱۳ ۰۹:۵۰:۱۹","Accuracy":"43.743","Provider":"fused","Speed":"0.0"}}
{"Location":{"Latitude":"35.7325084","Longtitude":"51.3891158","Altitude":"0.0","time":"۱۲-۲-۲۰۱۳ ۰۹:۵۲:۱۹","Accuracy":"43.743","Provider":"fused","Speed":"0.0"}}
{"SMS":{"Address":"+98930770####","type":"1","date":"۱۲-۲-۲۰۱۳ ۱۰:۱۰:۵۵","body":"ANONYMIZED","Type":"1", "metadata": {"name": "خانومی"}}}
{"Application":{"ProcessName":"com.lge.keepscreenon","Start":"۱۲-۲-۲۰۱۳ ۱۰:۱۰:۵۶","End":"۱۲-۲-۲۰۱۳ ۱۰:۱۱:۰۶"}}
{"Application":{"ProcessName":"com.lge.systemserver","Start":"۱۲-۲-۲۰۱۳ ۱۰:۱۰:۵۶","End":"۱۲-۲-۲۰۱۳ ۱۰:۱۱:۰۶"}}
{"Application":{"ProcessName":"com.lge.launcher2","Start":"۱۲-۲-۲۰۱۳ ۱۰:۱۰:۵۶","End":"۱۲-۲-۲۰۱۳ ۱۰:۱۱:۰۶"}}
{"SMS":{"Address":"+9810####","type":"1","date":"۱۲-۲-۲۰۱۳ ۱۰:۳۵:۲۰","body":"ANONYMIZED","Type":"1", "metadata": {"name": ""}}}
{"Application":{"ProcessName":"com.lge.keepscreenon","Start":"۱۲-۲-۲۰۱۳ ۱۰:۳۵:۲۴","End":"۱۲-۲-۲۰۱۳ ۱۰:۳۶:۲۵"}}
{"Application":{"ProcessName":"com.lge.systemserver","Start":"۱۲-۲-۲۰۱۳ ۱۰:۳۵:۲۴","End":"۱۲-۲-۲۰۱۳ ۱۰:۳۶:۲۵"}}
{"Application":{"ProcessName":"com.lge.launcher2","Start":"۱۲-۲-۲۰۱۳ ۱۰:۳۵:۲۴","End":"۱۲-۲-۲۰۱۳ ۱۰:۳۶:۲۵"}}
{"Location":{"Latitude":"35.7325084","Longtitude":"51.3891158","Altitude":"0.0","time":"۱۲-۲-۲۰۱۳ ۱۰:۳۹:۲۶","Accuracy":"43.743","Provider":"fused","Speed":"0.0"}}
{"Location":{"Latitude":"35.7325084","Longtitude":"51.3891158","Altitude":"0.0","time":"۱۲-۲-۲۰۱۳ ۱۰:۴۰:۲۶","Accuracy":"43.743","Provider":"fused","Speed":"0.0"}}
{"SMS":{"Address":"+98930770####","type":"1","date":"۱۲-۲-۲۰۱۳ ۱۰:۴۰:۵۱","body":"ANONYMIZED","Type":"1", "metadata": {"name": "خانومی"}}}
{"Location":{"Latitude":"35.7325084","Longtitude":"51.3891158","Altitude":"0.0","time":"۱۲-۲-۲۰۱۳ ۱۰:۴۱:۲۶","Accuracy":"43.743","Provider":"fused","Speed":"0.0"}}
{"Application":{"ProcessName":"com.lge.keepscreenon","Start":"۱۲-۲-۲۰۱۳ ۱۰:۴۰:۵۵","End":"۱۲-۲-۲۰۱۳ ۱۰:۴۲:۲۷"}}
{"Application":{"ProcessName":"com.lge.systemserver","Start":"۱۲-۲-۲۰۱۳ ۱۰:۴۰:۵۵","End":"۱۲-۲-۲۰۱۳ ۱۰:۴۲:۲۷"}}
{"Application":{"ProcessName":"com.lge.launcher2","Start":"۱۲-۲-۲۰۱۳ ۱۰:۴۰:۵۵","End":"۱۲-۲-۲۰۱۳ ۱۰:۴۲:۲۷"}}
{"Location":{"Latitude":"35.7316937","Longtitude":"51.3925519","Altitude":"0.0","time":"۱۲-۲-۲۰۱۳ ۱۵:۵۵:۴۷","Accuracy":"1300.0","Provider":"fused","Speed":"0.0"}}
{"Location":{"Latitude":"35.7316937","Longtitude":"51.3925519","Altitude":"0.0","time":"۱۲-۲-۲۰۱۳ ۱۵:۵۵:۴۷","Accuracy":"1300.0","Provider":"fused","Speed":"0.0"}}
{"Application":{"ProcessName":"com.lge.mlt","Start":"۱۲-۲-۲۰۱۳ ۱۵:۵۵:۵۷","End":"۱۲-۲-۲۰۱۳ ۱۵:۵۶:۰۷"}}
{"Application":{"ProcessName":"com.yahoo.mobile.client.android.mail:com.yahoo.snp.service","Start":"۱۲-۲-۲۰۱۳ ۱۵:۵۶:۱۷","End":"۱۲-۲-۲۰۱۳ ۱۵:۵۶:۲۷"}}
{"Application":{"ProcessName":"com.IranModernBusinesses.Netbarg","Start":"۱۲-۲-۲۰۱۳ ۱۵:۵۶:۲۷","End":"۱۲-۲-۲۰۱۳ ۱۵:۵۶:۳۷"}}
{"Location":{"Latitude":"35.7316937","Longtitude":"51.3925519","Altitude":"0.0","time":"۱۲-۲-۲۰۱۳ ۱۵:۵۶:۴۷","Accuracy":"1300.0","Provider":"fused","Speed":"0.0"}}
{"Location":{"Latitude":"35.7316937","Longtitude":"51.3925519","Altitude":"0.0","time":"۱۲-۲-۲۰۱۳ ۱۵:۵۷:۴۸","Accuracy":"1300.0","Provider":"fused","Speed":"0.0"}}
{"Application":{"ProcessName":"com.lge.keepscreenon","Start":"۱۲-۲-۲۰۱۳ ۱۵:۵۵:۴۷","End":"۱۲-۲-۲۰۱۳ ۱۵:۵۹:۴۹"}}
{"Application":{"ProcessName":"com.android.gallery3d","Start":"۱۲-۲-۲۰۱۳ ۱۵:۵۵:۴۷","End":"۱۲-۲-۲۰۱۳ ۱۵:۵۹:۴۹"}}
{"Application":{"ProcessName":"com.lge.systemserver","Start":"۱۲-۲-۲۰۱۳ ۱۵:۵۵:۴۷","End":"۱۲-۲-۲۰۱۳ ۱۵:۵۹:۴۹"}}
{"Application":{"ProcessName":"com.android.gallery3d","Start":"۱۲-۲-۲۰۱۳ ۱۶:۰۱:۵۵","End":"۱۲-۲-۲۰۱۳ ۱۶:۰۲:۵۵"}}
{"Application":{"ProcessName":"com.android.mms","Start":"۱۲-۲-۲۰۱۳ ۱۶:۰۲:۵۵","End":"۱۲-۲-۲۰۱۳ ۱۶:۰۳:۰۵"}}
{"Application":{"ProcessName":"com.android.mms","Start":"۱۲-۲-۲۰۱۳ ۱۶:۰۳:۳۶","End":"۱۲-۲-۲۰۱۳ ۱۶:۰۳:۳۶"}}
{"Call": {"Number":"+98930770####","Duration":"0","Time":"۱۲-۲-۲۰۱۳ ۱۶:۰۲:۵۵","Type":"2"}}
{"Call": {"Number":"+98930770####","Duration":"0","Time":"۱۲-۲-۲۰۱۳ ۱۶:۰۲:۵۵","Type":"2"}}
{"Call": {"Number":"+98930770####","Duration":"0","Time":"۱۲-۲-۲۰۱۳ ۱۶:۰۲:۵۵","Type":"2"}}
{"Call": {"Number":"+98930770####","Duration":"0","Time":"۱۲-۲-۲۰۱۳ ۱۶:۰۲:۵۵","Type":"2"}}
{"Call": {"Number":"+98930770####","Duration":"0","Time":"۱۲-۲-۲۰۱۳ ۱۶:۰۲:۵۵","Type":"2"}}
{"Call": {"Number":"+98930770####","Duration":"0","Time":"۱۲-۲-۲۰۱۳ ۱۶:۰۲:۵۵","Type":"2"}}
{"Call": {"Number":"+98930770####","Duration":"0","Time":"۱۲-۲-۲۰۱۳ ۱۶:۰۲:۵۵","Type":"2"}}
{"Call": {"Number":"+98930770####","Duration":"0","Time":"۱۲-۲-۲۰۱۳ ۱۶:۰۲:۵۵","Type":"2"}}
{"Call": {"Number":"+98930770####","Duration":"0","Time":"۱۲-۲-۲۰۱۳ ۱۶:۰۲:۵۵","Type":"2"}}
{"Application":{"ProcessName":"com.lge.keepscreenon","Start":"۱۲-۲-۲۰۱۳ ۱۶:۰۱:۵۵","End":"۱۲-۲-۲۰۱۳ ۱۶:۰۴:۲۳"}}
{"Application":{"ProcessName":"com.lge.launcher2","Start":"۱۲-۲-۲۰۱۳ ۱۶:۰۳:۴۶","End":"۱۲-۲-۲۰۱۳ ۱۶:۰۴:۲۳"}}
{"Application":{"ProcessName":"com.lge.systemserver","Start":"۱۲-۲-۲۰۱۳ ۱۶:۰۱:۵۵","End":"۱۲-۲-۲۰۱۳ ۱۶:۰۴:۲۳"}}
{"Application":{"ProcessName":"com.android.settings","Start":"۱۲-۲-۲۰۱۳ ۱۶:۰۷:۰۳","End":"۱۲-۲-۲۰۱۳ ۱۶:۰۷:۱۳"}}
{"Application":{"ProcessName":"com.lge.launcher2","Start":"۱۲-۲-۲۰۱۳ ۱۶:۰۷:۰۳","End":"۱۲-۲-۲۰۱۳ ۱۶:۰۷:۱۳"}}
{"Application":{"ProcessName":"com.google.android.apps.plus","Start":"۱۲-۲-۲۰۱۳ ۱۶:۰۷:۱۳","End":"۱۲-۲-۲۰۱۳ ۱۶:۰۷:۲۴"}}
{"Application":{"ProcessName":"com.rahpou.irib","Start":"۱۲-۲-۲۰۱۳ ۱۶:۰۷:۱۳","End":"۱۲-۲-۲۰۱۳ ۱۶:۰۷:۳۴"}}
{"Application":{"ProcessName":"com.mxtech.videoplayer.ad","Start":"۱۲-۲-۲۰۱۳ ۱۶:۰۷:۳۴","End":"۱۲-۲-۲۰۱۳ ۱۶:۰۷:۴۴"}}
{"Application":{"ProcessName":"com.google.android.apps.plus","Start":"۱۲-۲-۲۰۱۳ ۱۶:۰۷:۴۴","End":"۱۲-۲-۲۰۱۳ ۱۶:۰۷:۵۴"}}
{"WiFi":{"SSID":"GOD110","BSSID":"00:14:bf:16:40:11","capabilities":"[WPA-PSK-TKIP][ESS]","level":"-70","frequency":"2437","time":"دوشنبه ۲ دسامبر ۲۰۱۳ ۱۶:۰۸:۰۲ (وقت عادی ایران)"}}
{"WiFi":{"SSID":"Amirzco","BSSID":"c0:c1:c0:17:4e:c2","capabilities":"[WPA2-PSK-CCMP][WPS][ESS]","level":"-76","frequency":"2462","time":"دوشنبه ۲ دسامبر ۲۰۱۳ ۱۶:۰۸:۰۲ (وقت عادی ایران)"}}
{"WiFi":{"SSID":"MiddleEast-AP","BSSID":"c0:c1:c0:c1:b9:2f","capabilities":"[WPA2-PSK-TKIP][ESS]","level":"-83","frequency":"2437","time":"دوشنبه ۲ دسامبر ۲۰۱۳ ۱۶:۰۸:۰۲ (وقت عادی ایران)"}}
{"WiFi":{"SSID":"SLS-GROUP","BSSID":"c0:c1:c0:ae:a6:9a","capabilities":"[WPA2-PSK-CCMP][WPS][ESS]","level":"-86","frequency":"2412","time":"دوشنبه ۲ دسامبر ۲۰۱۳ ۱۶:۰۸:۰۲ (وقت عادی ایران)"}}
{"WiFi":{"SSID":"FAJI","BSSID":"00:1f:a4:b8:80:16","capabilities":"[WEP][ESS]","level":"-87","frequency":"2462","time":"دوشنبه ۲ دسامبر ۲۰۱۳ ۱۶:۰۸:۰۲ (وقت عادی ایران)"}}
{"WiFi":{"SSID":"GFSEH","BSSID":"f4:3e:61:05:59:c5","capabilities":"[WEP][ESS]","level":"-87","frequency":"2462","time":"دوشنبه ۲ دسامبر ۲۰۱۳ ۱۶:۰۸:۰۲ (وقت عادی ایران)"}}
{"WiFi":{"SSID":"GOD110","BSSID":"00:14:bf:16:40:11","capabilities":"[WPA-PSK-TKIP][ESS]","level":"-70","frequency":"2437","time":"دوشنبه ۲ دسامبر ۲۰۱۳ ۱۶:۰۸:۰۲ (وقت عادی ایران)"}}
{"WiFi":{"SSID":"Amirzco","BSSID":"c0:c1:c0:17:4e:c2","capabilities":"[WPA2-PSK-CCMP][WPS][ESS]","level":"-76","frequency":"2462","time":"دوشنبه ۲ دسامبر ۲۰۱۳ ۱۶:۰۸:۰۲ (وقت عادی ایران)"}}
{"WiFi":{"SSID":"MiddleEast-AP","BSSID":"c0:c1:c0:c1:b9:2f","capabilities":"[WPA2-PSK-TKIP][ESS]","level":"-83","frequency":"2437","time":"دوشنبه ۲ دسامبر ۲۰۱۳ ۱۶:۰۸:۰۲ (وقت عادی ایران)"}}
{"WiFi":{"SSID":"SLS-GROUP","BSSID":"c0:c1:c0:ae:a6:9a","capabilities":"[WPA2-PSK-CCMP][WPS][ESS]","level":"-86","frequency":"2412","time":"دوشنبه ۲ دسامبر ۲۰۱۳ ۱۶:۰۸:۰۲ (وقت عادی ایران)"}}
{"WiFi":{"SSID":"FAJI","BSSID":"00:1f:a4:b8:80:16","capabilities":"[WEP][ESS]","level":"-87","frequency":"2462","time":"دوشنبه ۲ دسامبر ۲۰۱۳ ۱۶:۰۸:۰۲ (وقت عادی ایران)"}}
{"WiFi":{"SSID":"GFSEH","BSSID":"f4:3e:61:05:59:c5","capabilities":"[WEP][ESS]","level":"-87","frequency":"2462","time":"دوشنبه ۲ دسامبر ۲۰۱۳ ۱۶:۰۸:۰۲ (وقت عادی ایران)"}}
{"Application":{"ProcessName":"com.rahpou.irib","Start":"۱۲-۲-۲۰۱۳ ۱۶:۰۷:۴۴","End":"۱۲-۲-۲۰۱۳ ۱۶:۰۸:۰۴"}}
{"Application":{"ProcessName":"com.lge.launcher2","Start":"۱۲-۲-۲۰۱۳ ۱۶:۰۸:۰۴","End":"۱۲-۲-۲۰۱۳ ۱۶:۰۸:۱۴"}}
{"Application":{"ProcessName":"com.lge.sizechangable.weather","Start":"۱۲-۲-۲۰۱۳ ۱۶:۰۸:۰۴","End":"۱۲-۲-۲۰۱۳ ۱۶:۰۸:۱۴"}}
{"WiFi":{"SSID":"GOD110","BSSID":"00:14:bf:16:40:11","capabilities":"[WPA-PSK-TKIP][ESS]","level":"-75","frequency":"2437","time":"دوشنبه ۲ دسامبر ۲۰۱۳ ۱۶:۰۹:۰۲ (وقت عادی ایران)"}}
{"WiFi":{"SSID":"Amirzco","BSSID":"c0:c1:c0:17:4e:c2","capabilities":"[WPA2-PSK-CCMP][WPS][ESS]","level":"-76","frequency":"2462","time":"دوشنبه ۲ دسامبر ۲۰۱۳ ۱۶:۰۹:۰۲ (وقت عادی ایران)"}}
{"WiFi":{"SSID":"MiddleEast-AP","BSSID":"c0:c1:c0:c1:b9:2f","capabilities":"[WPA2-PSK-TKIP][ESS]","level":"-87","frequency":"2437","time":"دوشنبه ۲ دسامبر ۲۰۱۳ ۱۶:۰۹:۰۲ (وقت عادی ایران)"}}
{"WiFi":{"SSID":"SLS-GROUP","BSSID":"c0:c1:c0:ae:a6:9a","capabilities":"[WPA2-PSK-CCMP][WPS][ESS]","level":"-84","frequency":"2412","time":"دوشنبه ۲ دسامبر ۲۰۱۳ ۱۶:۰۹:۰۲ (وقت عادی ایران)"}}
{"WiFi":{"SSID":"FAJI","BSSID":"00:1f:a4:b8:80:16","capabilities":"[WEP][ESS]","level":"-84","frequency":"2462","time":"دوشنبه ۲ دسامبر ۲۰۱۳ ۱۶:۰۹:۰۲ (وقت عادی ایران)"}}
{"WiFi":{"SSID":"GFSEH","BSSID":"f4:3e:61:05:59:c5","capabilities":"[WEP][ESS]","level":"-88","frequency":"2462","time":"دوشنبه ۲ دسامبر ۲۰۱۳ ۱۶:۰۹:۰۲ (وقت عادی ایران)"}}
{"WiFi":{"SSID":"takdade2237958","BSSID":"00:1f:fb:65:23:88","capabilities":"[WEP][ESS]","level":"-93","frequency":"2412","time":"دوشنبه ۲ دسامبر ۲۰۱۳ ۱۶:۰۹:۰۲ (وقت عادی ایران)"}}
{"WiFi":{"SSID":"FTS","BSSID":"00:0d:f0:a7:28:d8","capabilities":"[WPA2-PSK-TKIP][ESS]","level":"-89","frequency":"2417","time":"دوشنبه ۲ دسامبر ۲۰۱۳ ۱۶:۰۹:۰۲ (وقت عادی ایران)"}}
{"WiFi":{"SSID":"ZyXEL01","BSSID":"50:67:f0:a1:8d:89","capabilities":"[WPA-PSK-TKIP][ESS]","level":"-92","frequency":"2437","time":"دوشنبه ۲ دسامبر ۲۰۱۳ ۱۶:۰۹:۰۲ (وقت عادی ایران)"}}
{"WiFi":{"SSID":"GOD110","BSSID":"00:14:bf:16:40:11","capabilities":"[WPA-PSK-TKIP][ESS]","level":"-75","frequency":"2437","time":"دوشنبه ۲ دسامبر ۲۰۱۳ ۱۶:۰۹:۰۳ (وقت عادی ایران)"}}
{"WiFi":{"SSID":"Amirzco","BSSID":"c0:c1:c0:17:4e:c2","capabilities":"[WPA2-PSK-CCMP][WPS][ESS]","level":"-76","frequency":"2462","time":"دوشنبه ۲ دسامبر ۲۰۱۳ ۱۶:۰۹:۰۳ (وقت عادی ایران)"}}
{"WiFi":{"SSID":"MiddleEast-AP","BSSID":"c0:c1:c0:c1:b9:2f","capabilities":"[WPA2-PSK-TKIP][ESS]","level":"-87","frequency":"2437","time":"دوشنبه ۲ دسامبر ۲۰۱۳ ۱۶:۰۹:۰۳ (وقت عادی ایران)"}}
{"WiFi":{"SSID":"SLS-GROUP","BSSID":"c0:c1:c0:ae:a6:9a","capabilities":"[WPA2-PSK-CCMP][WPS][ESS]","level":"-84","frequency":"2412","time":"دوشنبه ۲ دسامبر ۲۰۱۳ ۱۶:۰۹:۰۳ (وقت عادی ایران)"}}
{"WiFi":{"SSID":"FAJI","BSSID":"00:1f:a4:b8:80:16","capabilities":"[WEP][ESS]","level":"-84","frequency":"2462","time":"دوشنبه ۲ دسامبر ۲۰۱۳ ۱۶:۰۹:۰۳ (وقت عادی ایران)"}}
{"WiFi":{"SSID":"GFSEH","BSSID":"f4:3e:61:05:59:c5","capabilities":"[WEP][ESS]","level":"-88","frequency":"2462","time":"دوشنبه ۲ دسامبر ۲۰۱۳ ۱۶:۰۹:۰۳ (وقت عادی ایران)"}}
{"WiFi":{"SSID":"takdade2237958","BSSID":"00:1f:fb:65:23:88","capabilities":"[WEP][ESS]","level":"-93","frequency":"2412","time":"دوشنبه ۲ دسامبر ۲۰۱۳ ۱۶:۰۹:۰۳ (وقت عادی ایران)"}}
{"WiFi":{"SSID":"FTS","BSSID":"00:0d:f0:a7:28:d8","capabilities":"[WPA2-PSK-TKIP][ESS]","level":"-89","frequency":"2417","time":"دوشنبه ۲ دسامبر ۲۰۱۳ ۱۶:۰۹:۰۳ (وقت عادی ایران)"}}
{"WiFi":{"SSID":"ZyXEL01","BSSID":"50:67:f0:a1:8d:89","capabilities":"[WPA-PSK-TKIP][ESS]","level":"-92","frequency":"2437","time":"دوشنبه ۲ دسامبر ۲۰۱۳ ۱۶:۰۹:۰۳ (وقت عادی ایران)"}}
{"Application":{"ProcessName":"com.farproc.wifi.analyzer","Start":"۱۲-۲-۲۰۱۳ ۱۶:۰۸:۱۴","End":"۱۲-۲-۲۰۱۳ ۱۶:۰۹:۲۴"}}
{"Application":{"ProcessName":"com.rahpou.irib","Start":"۱۲-۲-۲۰۱۳ ۱۶:۰۹:۲۴","End":"۱۲-۲-۲۰۱۳ ۱۶:۰۹:۳۴"}}
{"WiFi":{"SSID":"GOD110","BSSID":"00:14:bf:16:40:11","capabilities":"[WPA-PSK-TKIP][ESS]","level":"-71","frequency":"2437","time":"دوشنبه ۲ دسامبر ۲۰۱۳ ۱۶:۱۰:۰۳ (وقت عادی ایران)"}}
{"WiFi":{"SSID":"Amirzco","BSSID":"c0:c1:c0:17:4e:c2","capabilities":"[WPA2-PSK-CCMP][WPS][ESS]","level":"-77","frequency":"2462","time":"دوشنبه ۲ دسامبر ۲۰۱۳ ۱۶:۱۰:۰۳ (وقت عادی ایران)"}}
{"WiFi":{"SSID":"MiddleEast-AP","BSSID":"c0:c1:c0:c1:b9:2f","capabilities":"[WPA2-PSK-TKIP][ESS]","level":"-81","frequency":"2437","time":"دوشنبه ۲ دسامبر ۲۰۱۳ ۱۶:۱۰:۰۳ (وقت عادی ایران)"}}
{"WiFi":{"SSID":"SLS-GROUP","BSSID":"c0:c1:c0:ae:a6:9a","capabilities":"[WPA2-PSK-CCMP][WPS][ESS]","level":"-86","frequency":"2412","time":"دوشنبه ۲ دسامبر ۲۰۱۳ ۱۶:۱۰:۰۳ (وقت عادی ایران)"}}
{"WiFi":{"SSID":"FAJI","BSSID":"00:1f:a4:b8:80:16","capabilities":"[WEP][ESS]","level":"-87","frequency":"2462","time":"دوشنبه ۲ دسامبر ۲۰۱۳ ۱۶:۱۰:۰۳ (وقت عادی ایران)"}}
{"WiFi":{"SSID":"GFSEH","BSSID":"f4:3e:61:05:59:c5","capabilities":"[WEP][ESS]","level":"-84","frequency":"2462","time":"دوشنبه ۲ دسامبر ۲۰۱۳ ۱۶:۱۰:۰۳ (وقت عادی ایران)"}}
{"WiFi":{"SSID":"GOD110","BSSID":"00:14:bf:16:40:11","capabilities":"[WPA-PSK-TKIP][ESS]","level":"-71","frequency":"2437","time":"دوشنبه ۲ دسامبر ۲۰۱۳ ۱۶:۱۰:۰۳ (وقت عادی ایران)"}}
{"WiFi":{"SSID":"Amirzco","BSSID":"c0:c1:c0:17:4e:c2","capabilities":"[WPA2-PSK-CCMP][WPS][ESS]","level":"-77","frequency":"2462","time":"دوشنبه ۲ دسامبر ۲۰۱۳ ۱۶:۱۰:۰۳ (وقت عادی ایران)"}}
{"WiFi":{"SSID":"MiddleEast-AP","BSSID":"c0:c1:c0:c1:b9:2f","capabilities":"[WPA2-PSK-TKIP][ESS]","level":"-81","frequency":"2437","time":"دوشنبه ۲ دسامبر ۲۰۱۳ ۱۶:۱۰:۰۳ (وقت عادی ایران)"}}
{"WiFi":{"SSID":"SLS-GROUP","BSSID":"c0:c1:c0:ae:a6:9a","capabilities":"[WPA2-PSK-CCMP][WPS][ESS]","level":"-86","frequency":"2412","time":"دوشنبه ۲ دسامبر ۲۰۱۳ ۱۶:۱۰:۰۳ (وقت عادی ایران)"}}
{"WiFi":{"SSID":"FAJI","BSSID":"00:1f:a4:b8:80:16","capabilities":"[WEP][ESS]","level":"-87","frequency":"2462","time":"دوشنبه ۲ دسامبر ۲۰۱۳ ۱۶:۱۰:۰۳ (وقت عادی ایران)"}}
{"WiFi":{"SSID":"GFSEH","BSSID":"f4:3e:61:05:59:c5","capabilities":"[WEP][ESS]","level":"-84","frequency":"2462","time":"دوشنبه ۲ دسامبر ۲۰۱۳ ۱۶:۱۰:۰۳ (وقت عادی ایران)"}}
{"Application":{"ProcessName":"com.mxtech.videoplayer.ad","Start":"۱۲-۲-۲۰۱۳ ۱۶:۰۹:۳۴","End":"۱۲-۲-۲۰۱۳ ۱۶:۱۰:۴۴"}}
{"Application":{"ProcessName":"com.rahpou.irib","Start":"۱۲-۲-۲۰۱۳ ۱۶:۱۰:۴۴","End":"۱۲-۲-۲۰۱۳ ۱۶:۱۰:۴۴"}}
{"Application":{"ProcessName":"com.lge.sizechangable.weather","Start":"۱۲-۲-۲۰۱۳ ۱۶:۱۰:۴۴","End":"۱۲-۲-۲۰۱۳ ۱۶:۱۰:۵۴"}}
{"Application":{"ProcessName":"com.lge.launcher2","Start":"۱۲-۲-۲۰۱۳ ۱۶:۱۰:۴۴","End":"۱۲-۲-۲۰۱۳ ۱۶:۱۱:۰۴"}}
{"Application":{"ProcessName":"com.yahoo.mobile.client.android.mail","Start":"۱۲-۲-۲۰۱۳ ۱۶:۱۱:۰۴","End":"۱۲-۲-۲۰۱۳ ۱۶:۱۱:۲۴"}}
{"Application":{"ProcessName":"com.lge.sizechangable.weather","Start":"۱۲-۲-۲۰۱۳ ۱۶:۱۱:۲۴","End":"۱۲-۲-۲۰۱۳ ۱۶:۱۱:۲۵"}}
{"Application":{"ProcessName":"com.lge.keepscreenon","Start":"۱۲-۲-۲۰۱۳ ۱۶:۰۷:۰۳","End":"۱۲-۲-۲۰۱۳ ۱۶:۱۱:۳۴"}}
{"Application":{"ProcessName":"com.lge.launcher2","Start":"۱۲-۲-۲۰۱۳ ۱۶:۱۱:۲۴","End":"۱۲-۲-۲۰۱۳ ۱۶:۱۱:۳۴"}}
{"Application":{"ProcessName":"com.lge.systemserver","Start":"۱۲-۲-۲۰۱۳ ۱۶:۰۷:۰۳","End":"۱۲-۲-۲۰۱۳ ۱۶:۱۱:۳۴"}}
{"Application":{"ProcessName":"com.lge.keepscreenon","Start":"۱۲-۲-۲۰۱۳ ۱۶:۱۵:۳۲","End":"۱۲-۲-۲۰۱۳ ۱۶:۱۶:۰۹"}}
{"Application":{"ProcessName":"com.lge.systemserver","Start":"۱۲-۲-۲۰۱۳ ۱۶:۱۵:۳۲","End":"۱۲-۲-۲۰۱۳ ۱۶:۱۶:۰۹"}}
{"Application":{"ProcessName":"com.android.mms","Start":"۱۲-۲-۲۰۱۳ ۱۶:۱۶:۵۰","End":"۱۲-۲-۲۰۱۳ ۱۶:۱۶:۵۱"}}
{"Call": {"Number":"+98930770####","Duration":"76","Time":"۱۲-۲-۲۰۱۳ ۱۶:۱۵:۲۵","Type":"1"}}
{"Call": {"Number":"+98930770####","Duration":"76","Time":"۱۲-۲-۲۰۱۳ ۱۶:۱۵:۲۵","Type":"1"}}
{"Call": {"Number":"+98930770####","Duration":"76","Time":"۱۲-۲-۲۰۱۳ ۱۶:۱۵:۲۵","Type":"1"}}
{"Call": {"Number":"+98930770####","Duration":"76","Time":"۱۲-۲-۲۰۱۳ ۱۶:۱۵:۲۵","Type":"1"}}
{"Call": {"Number":"+98930770####","Duration":"76","Time":"۱۲-۲-۲۰۱۳ ۱۶:۱۵:۲۵","Type":"1"}}
{"Call": {"Number":"+98930770####","Duration":"76","Time":"۱۲-۲-۲۰۱۳ ۱۶:۱۵:۲۵","Type":"1"}}
{"Application":{"ProcessName":"com.lge.safetycare","Start":"۱۲-۲-۲۰۱۳ ۱۶:۱۶:۵۱","End":"۱۲-۲-۲۰۱۳ ۱۶:۱۷:۰۰"}}
{"Application":{"ProcessName":"com.lge.sizechangable.weather","Start":"۱۲-۲-۲۰۱۳ ۱۶:۱۷:۰۰","End":"۱۲-۲-۲۰۱۳ ۱۶:۱۷:۰۱"}}
{"Application":{"ProcessName":"com.lge.keepscreenon","Start":"۱۲-۲-۲۰۱۳ ۱۶:۱۶:۵۰","End":"۱۲-۲-۲۰۱۳ ۱۶:۱۸:۵۸"}}
{"Application":{"ProcessName":"com.lge.launcher2","Start":"۱۲-۲-۲۰۱۳ ۱۶:۱۷:۰۰","End":"۱۲-۲-۲۰۱۳ ۱۶:۱۸:۵۸"}}
{"Application":{"ProcessName":"com.lge.systemserver","Start":"۱۲-۲-۲۰۱۳ ۱۶:۱۶:۵۰","End":"۱۲-۲-۲۰۱۳ ۱۶:۱۸:۵۸"}}
{"SMS":{"Address":"+98930770####","type":"1","date":"۱۲-۲-۲۰۱۳ ۱۶:۲۶:۱۲","body":"ANONYMIZED","Type":"1", "metadata": {"name": "خانومی"}}}
{"Application":{"ProcessName":"com.lge.sizechangable.weather","Start":"۱۲-۲-۲۰۱۳ ۱۶:۲۶:۱۳","End":"۱۲-۲-۲۰۱۳ ۱۶:۲۶:۱۵"}}
{"Application":{"ProcessName":"com.lge.launcher2","Start":"۱۲-۲-۲۰۱۳ ۱۶:۲۶:۱۳","End":"۱۲-۲-۲۰۱۳ ۱۶:۲۶:۲۳"}}
{"Application":{"ProcessName":"com.android.mms","Start":"۱۲-۲-۲۰۱۳ ۱۶:۲۶:۱۳","End":"۱۲-۲-۲۰۱۳ ۱۶:۲۶:۵۳"}}
{"SMS":{"Address":"+98930770####","type":"2","date":"۱۲-۲-۲۰۱۳ ۱۶:۲۶:۴۸","body":"ANONYMIZED","Type":"2", "metadata": {"name": "خانومی"}}}
{"Application":{"ProcessName":"com.lge.keepscreenon","Start":"۱۲-۲-۲۰۱۳ ۱۶:۲۶:۱۳","End":"۱۲-۲-۲۰۱۳ ۱۶:۲۷:۴۹"}}
{"Application":{"ProcessName":"com.lge.launcher2","Start":"۱۲-۲-۲۰۱۳ ۱۶:۲۶:۵۳","End":"۱۲-۲-۲۰۱۳ ۱۶:۲۷:۴۹"}}
{"Application":{"ProcessName":"com.lge.systemserver","Start":"۱۲-۲-۲۰۱۳ ۱۶:۲۶:۱۳","End":"۱۲-۲-۲۰۱۳ ۱۶:۲۷:۴۹"}}
{"SMS":{"Address":"+98930770####","type":"1","date":"۱۲-۲-۲۰۱۳ ۱۶:۲۷:۵۱","body":"ANONYMIZED","Type":"1", "metadata": {"name": "خانومی"}}}
{"Application":{"ProcessName":"com.lge.keepscreenon","Start":"۱۲-۲-۲۰۱۳ ۱۶:۲۷:۵۹","End":"۱۲-۲-۲۰۱۳ ۱۶:۳۱:۱۲"}}
{"Application":{"ProcessName":"com.lge.systemserver","Start":"۱۲-۲-۲۰۱۳ ۱۶:۲۷:۵۹","End":"۱۲-۲-۲۰۱۳ ۱۶:۳۱:۱۲"}}
{"Application":{"ProcessName":"com.lge.launcher2","Start":"۱۲-۲-۲۰۱۳ ۱۶:۲۷:۵۹","End":"۱۲-۲-۲۰۱۳ ۱۶:۳۱:۱۲"}}
{"SMS":{"Address":"+98930770####","type":"1","date":"۱۲-۲-۲۰۱۳ ۱۷:۴۲:۴۳","body":"ANONYMIZED","Type":"1", "metadata": {"name": "خانومی"}}}
{"Application":{"ProcessName":"com.lge.keepscreenon","Start":"۱۲-۲-۲۰۱۳ ۱۷:۴۲:۴۹","End":"۱۲-۲-۲۰۱۳ ۱۷:۴۴:۴۹"}}
{"Application":{"ProcessName":"com.lge.systemserver","Start":"۱۲-۲-۲۰۱۳ ۱۷:۴۲:۴۹","End":"۱۲-۲-۲۰۱۳ ۱۷:۴۴:۴۹"}}
{"Application":{"ProcessName":"com.lge.launcher2","Start":"۱۲-۲-۲۰۱۳ ۱۷:۴۲:۴۹","End":"۱۲-۲-۲۰۱۳ ۱۷:۴۴:۴۹"}}
{"Call": {"Number":"+98930770####","Duration":"2","Time":"۱۲-۲-۲۰۱۳ ۱۸:۰۲:۱۰","Type":"1"}}
{"Call": {"Number":"+98930770####","Duration":"2","Time":"۱۲-۲-۲۰۱۳ ۱۸:۰۲:۱۰","Type":"1"}}
{"Call": {"Number":"+98930770####","Duration":"2","Time":"۱۲-۲-۲۰۱۳ ۱۸:۰۲:۱۰","Type":"1"}}
{"Call": {"Number":"+98930770####","Duration":"2","Time":"۱۲-۲-۲۰۱۳ ۱۸:۰۲:۱۰","Type":"1"}}
{"Call": {"Number":"+98930770####","Duration":"2","Time":"۱۲-۲-۲۰۱۳ ۱۸:۰۲:۱۰","Type":"1"}}
{"Call": {"Number":"+98930770####","Duration":"2","Time":"۱۲-۲-۲۰۱۳ ۱۸:۰۲:۱۰","Type":"1"}}
{"Application":{"ProcessName":"com.lge.launcher2","Start":"۱۲-۲-۲۰۱۳ ۱۸:۰۲:۲۱","End":"۱۲-۲-۲۰۱۳ ۱۸:۰۲:۳۱"}}
{"SMS":{"Address":"+98930770####","type":"2","date":"۱۲-۲-۲۰۱۳ ۱۸:۰۲:۳۴","body":"ANONYMIZED","Type":"2", "metadata": {"name": "خانومی"}}}
{"Application":{"ProcessName":"com.android.mms","Start":"۱۲-۲-۲۰۱۳ ۱۸:۰۲:۳۱","End":"۱۲-۲-۲۰۱۳ ۱۸:۰۴:۱۷"}}
{"Application":{"ProcessName":"com.lge.keepscreenon","Start":"۱۲-۲-۲۰۱۳ ۱۸:۰۲:۱۱","End":"۱۲-۲-۲۰۱۳ ۱۸:۰۴:۱۷"}}
{"Application":{"ProcessName":"com.lge.systemserver","Start":"۱۲-۲-۲۰۱۳ ۱۸:۰۲:۱۱","End":"۱۲-۲-۲۰۱۳ ۱۸:۰۴:۱۷"}}
{"Application":{"ProcessName":"com.android.mms","Start":"۱۲-۲-۲۰۱۳ ۱۸:۰۷:۱۶","End":"۱۲-۲-۲۰۱۳ ۱۸:۰۷:۱۸"}}
{"Application":{"ProcessName":"com.lge.keepscreenon","Start":"۱۲-۲-۲۰۱۳ ۱۸:۰۷:۱۶","End":"۱۲-۲-۲۰۱۳ ۱۸:۰۷:۵۲"}}
{"Application":{"ProcessName":"com.lge.systemserver","Start":"۱۲-۲-۲۰۱۳ ۱۸:۰۷:۱۶","End":"۱۲-۲-۲۰۱۳ ۱۸:۰۷:۵۲"}}
{"Call": {"Number":"+98930770####","Duration":"51","Time":"۱۲-۲-۲۰۱۳ ۱۸:۰۷:۱۵","Type":"1"}}
{"Call": {"Number":"+98930770####","Duration":"51","Time":"۱۲-۲-۲۰۱۳ ۱۸:۰۷:۱۵","Type":"1"}}
{"Call": {"Number":"+98930770####","Duration":"51","Time":"۱۲-۲-۲۰۱۳ ۱۸:۰۷:۱۵","Type":"1"}}
{"Call": {"Number":"+98930770####","Duration":"51","Time":"۱۲-۲-۲۰۱۳ ۱۸:۰۷:۱۵","Type":"1"}}
{"Call": {"Number":"+98930770####","Duration":"51","Time":"۱۲-۲-۲۰۱۳ ۱۸:۰۷:۱۵","Type":"1"}}
{"Call": {"Number":"+98930770####","Duration":"51","Time":"۱۲-۲-۲۰۱۳ ۱۸:۰۷:۱۵","Type":"1"}}
{"Application":{"ProcessName":"com.android.mms","Start":"۱۲-۲-۲۰۱۳ ۱۸:۰۸:۲۰","End":"۱۲-۲-۲۰۱۳ ۱۸:۰۸:۲۲"}}
{"Application":{"ProcessName":"com.lge.keepscreenon","Start":"۱۲-۲-۲۰۱۳ ۱۸:۰۸:۲۰","End":"۱۲-۲-۲۰۱۳ ۱۸:۰۸:۳۱"}}
{"Application":{"ProcessName":"com.lge.systemserver","Start":"۱۲-۲-۲۰۱۳ ۱۸:۰۸:۲۰","End":"۱۲-۲-۲۰۱۳ ۱۸:۰۸:۳۱"}}
{"Application":{"ProcessName":"com.lge.launcher2","Start":"۱۲-۲-۲۰۱۳ ۱۸:۰۸:۲۰","End":"۱۲-۲-۲۰۱۳ ۱۸:۰۸:۳۱"}}
{"Call": {"Number":"+98930770####","Duration":"51","Time":"۱۲-۲-۲۰۱۳ ۱۸:۰۷:۱۵","Type":"1"}}
{"Call": {"Number":"+98930770####","Duration":"51","Time":"۱۲-۲-۲۰۱۳ ۱۸:۰۷:۱۵","Type":"1"}}
{"Application":{"ProcessName":"com.lge.launcher2","Start":"۱۲-۲-۲۰۱۳ ۱۸:۱۴:۲۳","End":"۱۲-۲-۲۰۱۳ ۱۸:۱۴:۳۳"}}
{"Application":{"ProcessName":"com.lge.keepscreenon","Start":"۱۲-۲-۲۰۱۳ ۱۸:۱۴:۲۳","End":"۱۲-۲-۲۰۱۳ ۱۸:۱۴:۴۳"}}
{"Application":{"ProcessName":"com.lge.systemserver","Start":"۱۲-۲-۲۰۱۳ ۱۸:۱۴:۲۳","End":"۱۲-۲-۲۰۱۳ ۱۸:۱۴:۴۳"}}
{"Call": {"Number":"0935214####","Duration":"9","Time":"۱۲-۲-۲۰۱۳ ۱۸:۱۴:۳۲","Type":"2"}}
{"Call": {"Number":"0935214####","Duration":"9","Time":"۱۲-۲-۲۰۱۳ ۱۸:۱۴:۳۲","Type":"2"}}
{"Call": {"Number":"0935214####","Duration":"9","Time":"۱۲-۲-۲۰۱۳ ۱۸:۱۴:۳۲","Type":"2"}}
{"Application":{"ProcessName":"com.android.mms","Start":"۱۲-۲-۲۰۱۳ ۱۸:۱۵:۰۵","End":"۱۲-۲-۲۰۱۳ ۱۸:۱۵:۱۵"}}
{"Call": {"Number":"0935214####","Duration":"9","Time":"۱۲-۲-۲۰۱۳ ۱۸:۱۴:۳۲","Type":"2"}}
{"Application":{"ProcessName":"com.lge.launcher2","Start":"۱۲-۲-۲۰۱۳ ۱۸:۱۵:۱۵","End":"۱۲-۲-۲۰۱۳ ۱۸:۱۵:۲۵"}}
{"Application":{"ProcessName":"com.lge.keepscreenon","Start":"۱۲-۲-۲۰۱۳ ۱۸:۱۴:۵۵","End":"۱۲-۲-۲۰۱۳ ۱۸:۱۵:۲۶"}}
{"Application":{"ProcessName":"com.lge.systemserver","Start":"۱۲-۲-۲۰۱۳ ۱۸:۱۴:۵۵","End":"۱۲-۲-۲۰۱۳ ۱۸:۱۵:۲۶"}}
{"Application":{"ProcessName":"com.lge.keepscreenon","Start":"۱۲-۲-۲۰۱۳ ۱۸:۱۸:۳۲","End":"۱۲-۲-۲۰۱۳ ۱۸:۲۰:۲۶"}}
{"Application":{"ProcessName":"com.lge.systemserver","Start":"۱۲-۲-۲۰۱۳ ۱۸:۱۸:۳۲","End":"۱۲-۲-۲۰۱۳ ۱۸:۲۰:۲۶"}}
{"Call": {"Number":"+98930770####","Duration":"356","Time":"۱۲-۲-۲۰۱۳ ۱۸:۱۵:۲۱","Type":"2"}}
{"Call": {"Number":"+98930770####","Duration":"356","Time":"۱۲-۲-۲۰۱۳ ۱۸:۱۵:۲۱","Type":"2"}}
{"Call": {"Number":"+98930770####","Duration":"356","Time":"۱۲-۲-۲۰۱۳ ۱۸:۱۵:۲۱","Type":"2"}}
{"Call": {"Number":"+98930770####","Duration":"356","Time":"۱۲-۲-۲۰۱۳ ۱۸:۱۵:۲۱","Type":"2"}}
{"SMS":{"Address":"+98930770####","type":"1","date":"۱۲-۲-۲۰۱۳ ۱۸:۳۸:۵۶","body":"ANONYMIZED","Type":"1", "metadata": {"name": "خانومی"}}}
{"Application":{"ProcessName":"com.lge.launcher2","Start":"۱۲-۲-۲۰۱۳ ۱۸:۳۹:۰۶","End":"۱۲-۲-۲۰۱۳ ۱۸:۳۹:۱۶"}}
{"SMS":{"Address":"+98930770####","type":"2","date":"۱۲-۲-۲۰۱۳ ۱۸:۳۹:۴۶","body":"ANONYMIZED","Type":"2", "metadata": {"name": "خانومی"}}}
{"Application":{"ProcessName":"com.android.mms","Start":"۱۲-۲-۲۰۱۳ ۱۸:۳۹:۱۶","End":"۱۲-۲-۲۰۱۳ ۱۸:۳۹:۵۶"}}
{"Application":{"ProcessName":"com.lge.keepscreenon","Start":"۱۲-۲-۲۰۱۳ ۱۸:۳۹:۰۶","End":"۱۲-۲-۲۰۱۳ ۱۸:۳۹:۵۶"}}
{"Application":{"ProcessName":"com.lge.systemserver","Start":"۱۲-۲-۲۰۱۳ ۱۸:۳۹:۰۶","End":"۱۲-۲-۲۰۱۳ ۱۸:۳۹:۵۶"}}
{"Application":{"ProcessName":"com.lge.launcher2","Start":"۱۲-۲-۲۰۱۳ ۱۸:۴۲:۰۳","End":"۱۲-۲-۲۰۱۳ ۱۸:۴۲:۲۳"}}
{"Application":{"ProcessName":"com.lge.app.richnote","Start":"۱۲-۲-۲۰۱۳ ۱۸:۴۲:۲۳","End":"۱۲-۲-۲۰۱۳ ۱۸:۴۳:۲۳"}}
{"Application":{"ProcessName":"com.lge.keepscreenon","Start":"۱۲-۲-۲۰۱۳ ۱۸:۴۲:۰۳","End":"۱۲-۲-۲۰۱۳ ۱۸:۴۶:۱۵"}}
{"Application":{"ProcessName":"com.lge.launcher2","Start":"۱۲-۲-۲۰۱۳ ۱۸:۴۳:۲۳","End":"۱۲-۲-۲۰۱۳ ۱۸:۴۶:۱۵"}}
{"Application":{"ProcessName":"com.lge.systemserver","Start":"۱۲-۲-۲۰۱۳ ۱۸:۴۲:۰۳","End":"۱۲-۲-۲۰۱۳ ۱۸:۴۶:۱۵"}}
{"SMS":{"Address":"+98930770####","type":"2","date":"۱۲-۲-۲۰۱۳ ۱۸:۵۰:۳۵","body":"ANONYMIZED","Type":"2", "metadata": {"name": "خانومی"}}}
{"Application":{"ProcessName":"com.android.mms","Start":"۱۲-۲-۲۰۱۳ ۱۸:۵۰:۱۱","End":"۱۲-۲-۲۰۱۳ ۱۸:۵۰:۴۱"}}
{"Application":{"ProcessName":"com.lge.keepscreenon","Start":"۱۲-۲-۲۰۱۳ ۱۸:۵۰:۱۱","End":"۱۲-۲-۲۰۱۳ ۱۸:۵۱:۱۵"}}
{"Application":{"ProcessName":"com.lge.launcher2","Start":"۱۲-۲-۲۰۱۳ ۱۸:۵۰:۴۱","End":"۱۲-۲-۲۰۱۳ ۱۸:۵۱:۱۵"}}
{"Application":{"ProcessName":"com.lge.systemserver","Start":"۱۲-۲-۲۰۱۳ ۱۸:۵۰:۱۱","End":"۱۲-۲-۲۰۱۳ ۱۸:۵۱:۱۵"}}
{"SMS":{"Address":"+98930770####","type":"1","date":"۱۲-۲-۲۰۱۳ ۱۸:۵۱:۲۴","body":"ANONYMIZED","Type":"1", "metadata": {"name": "خانومی"}}}
{"Application":{"ProcessName":"com.lge.keepscreenon","Start":"۱۲-۲-۲۰۱۳ ۱۸:۵۱:۳۱","End":"۱۲-۲-۲۰۱۳ ۱۸:۵۲:۴۱"}}
{"Application":{"ProcessName":"com.lge.systemserver","Start":"۱۲-۲-۲۰۱۳ ۱۸:۵۱:۳۱","End":"۱۲-۲-۲۰۱۳ ۱۸:۵۲:۴۱"}}
{"Application":{"ProcessName":"com.lge.launcher2","Start":"۱۲-۲-۲۰۱۳ ۱۸:۵۱:۳۱","End":"۱۲-۲-۲۰۱۳ ۱۸:۵۲:۴۱"}}
{"Application":{"ProcessName":"com.android.mms","Start":"۱۲-۲-۲۰۱۳ ۱۸:۵۳:۴۵","End":"۱۲-۲-۲۰۱۳ ۱۸:۵۴:۲۵"}}
{"Application":{"ProcessName":"com.lge.keepscreenon","Start":"۱۲-۲-۲۰۱۳ ۱۸:۵۳:۴۵","End":"۱۲-۲-۲۰۱۳ ۱۸:۵۴:۲۵"}}
{"Application":{"ProcessName":"com.lge.systemserver","Start":"۱۲-۲-۲۰۱۳ ۱۸:۵۳:۴۵","End":"۱۲-۲-۲۰۱۳ ۱۸:۵۴:۲۵"}}
{"SMS":{"Address":"+98930770####","type":"2","date":"۱۲-۲-۲۰۱۳ ۱۸:۵۴:۰۶","body":"ANONYMIZED","Type":"2", "metadata": {"name": "خانومی"}}}
{"SMS":{"Address":"+98930770####","type":"1","date":"۱۲-۲-۲۰۱۳ ۱۸:۵۵:۰۶","body":"ANONYMIZED","Type":"1", "metadata": {"name": "خانومی"}}}
{"Application":{"ProcessName":"com.android.mms","Start":"۱۲-۲-۲۰۱۳ ۱۸:۵۵:۱۶","End":"۱۲-۲-۲۰۱۳ ۱۸:۵۷:۱۲"}}
{"Application":{"ProcessName":"com.lge.keepscreenon","Start":"۱۲-۲-۲۰۱۳ ۱۸:۵۵:۱۶","End":"۱۲-۲-۲۰۱۳ ۱۸:۵۷:۱۲"}}
{"Application":{"ProcessName":"com.lge.systemserver","Start":"۱۲-۲-۲۰۱۳ ۱۸:۵۵:۱۶","End":"۱۲-۲-۲۰۱۳ ۱۸:۵۷:۱۲"}}
{"SMS":{"Address":"+98930770####","type":"1","date":"۱۲-۲-۲۰۱۳ ۱۹:۱۱:۳۲","body":"ANONYMIZED","Type":"1", "metadata": {"name": "خانومی"}}}
{"SMS":{"Address":"+98930770####","type":"2","date":"۱۲-۲-۲۰۱۳ ۱۹:۱۲:۰۴","body":"ANONYMIZED","Type":"2", "metadata": {"name": "خانومی"}}}
{"Application":{"ProcessName":"com.android.mms","Start":"۱۲-۲-۲۰۱۳ ۱۹:۱۱:۴۱","End":"۱۲-۲-۲۰۱۳ ۱۹:۱۵:۰۳"}}
{"Application":{"ProcessName":"com.lge.keepscreenon","Start":"۱۲-۲-۲۰۱۳ ۱۹:۱۱:۴۱","End":"۱۲-۲-۲۰۱۳ ۱۹:۱۵:۰۳"}}
{"Application":{"ProcessName":"com.lge.systemserver","Start":"۱۲-۲-۲۰۱۳ ۱۹:۱۱:۴۱","End":"۱۲-۲-۲۰۱۳ ۱۹:۱۵:۰۳"}}
{"SMS":{"Address":"+98930770####","type":"1","date":"۱۲-۲-۲۰۱۳ ۱۹:۱۶:۳۵","body":"ANONYMIZED","Type":"1", "metadata": {"name": "خانومی"}}}
{"Application":{"ProcessName":"com.lge.launcher2","Start":"۱۲-۲-۲۰۱۳ ۱۹:۱۶:۴۱","End":"۱۲-۲-۲۰۱۳ ۱۹:۱۷:۲۵"}}
{"SMS":{"Address":"+98930770####","type":"2","date":"۱۲-۲-۲۰۱۳ ۱۹:۱۸:۰۲","body":"ANONYMIZED","Type":"2", "metadata": {"name": "خانومی"}}}
{"Application":{"ProcessName":"com.android.mms","Start":"۱۲-۲-۲۰۱۳ ۱۹:۱۷:۲۵","End":"۱۲-۲-۲۰۱۳ ۱۹:۱۸:۲۰"}}
{"Application":{"ProcessName":"com.lge.keepscreenon","Start":"۱۲-۲-۲۰۱۳ ۱۹:۱۶:۴۱","End":"۱۲-۲-۲۰۱۳ ۱۹:۱۸:۲۰"}}
{"Application":{"ProcessName":"com.lge.systemserver","Start":"۱۲-۲-۲۰۱۳ ۱۹:۱۶:۴۱","End":"۱۲-۲-۲۰۱۳ ۱۹:۱۸:۲۰"}}
{"SMS":{"Address":"+98930770####","type":"1","date":"۱۲-۲-۲۰۱۳ ۱۹:۱۸:۵۳","body":"ANONYMIZED","Type":"1", "metadata": {"name": "خانومی"}}}
{"Application":{"ProcessName":"com.android.mms","Start":"۱۲-۲-۲۰۱۳ ۱۹:۱۸:۵۵","End":"۱۲-۲-۲۰۱۳ ۱۹:۱۹:۰۵"}}
{"Application":{"ProcessName":"com.lge.keepscreenon","Start":"۱۲-۲-۲۰۱۳ ۱۹:۱۸:۵۵","End":"۱۲-۲-۲۰۱۳ ۱۹:۱۹:۰۵"}}
{"Application":{"ProcessName":"com.lge.systemserver","Start":"۱۲-۲-۲۰۱۳ ۱۹:۱۸:۵۵","End":"۱۲-۲-۲۰۱۳ ۱۹:۱۹:۰۵"}}
{"Application":{"ProcessName":"com.lge.launcher2","Start":"۱۲-۲-۲۰۱۳ ۱۹:۱۸:۵۵","End":"۱۲-۲-۲۰۱۳ ۱۹:۱۹:۰۵"}}
{"SMS":{"Address":"+98930770####","type":"2","date":"۱۲-۲-۲۰۱۳ ۱۹:۲۵:۵۲","body":"ANONYMIZED","Type":"2", "metadata": {"name": "خانومی"}}}
{"Application":{"ProcessName":"com.android.mms","Start":"۱۲-۲-۲۰۱۳ ۱۹:۲۵:۱۹","End":"۱۲-۲-۲۰۱۳ ۱۹:۲۵:۵۹"}}
{"Application":{"ProcessName":"com.lge.launcher2","Start":"۱۲-۲-۲۰۱۳ ۱۹:۲۵:۵۹","End":"۱۲-۲-۲۰۱۳ ۱۹:۲۶:۳۹"}}
{"SMS":{"Address":"+98930770####","type":"1","date":"۱۲-۲-۲۰۱۳ ۱۹:۲۸:۰۶","body":"ANONYMIZED","Type":"1", "metadata": {"name": "خانومی"}}}
{"Application":{"ProcessName":"com.android.contacts","Start":"۱۲-۲-۲۰۱۳ ۱۹:۲۶:۳۹","End":"۱۲-۲-۲۰۱۳ ۱۹:۲۸:۲۰"}}
{"SMS":{"Address":"+98930770####","type":"2","date":"۱۲-۲-۲۰۱۳ ۱۹:۲۸:۴۷","body":"ANONYMIZED","Type":"2", "metadata": {"name": "خانومی"}}}
{"Application":{"ProcessName":"com.android.mms","Start":"۱۲-۲-۲۰۱۳ ۱۹:۲۸:۲۰","End":"۱۲-۲-۲۰۱۳ ۱۹:۲۹:۰۰"}}
{"Application":{"ProcessName":"com.android.contacts","Start":"۱۲-۲-۲۰۱۳ ۱۹:۲۹:۰۰","End":"۱۲-۲-۲۰۱۳ ۱۹:۲۹:۱۰"}}
{"Application":{"ProcessName":"com.android.contacts","Start":"۱۲-۲-۲۰۱۳ ۱۹:۲۹:۴۰","End":"۱۲-۲-۲۰۱۳ ۱۹:۳۰:۱۰"}}
{"Application":{"ProcessName":"com.lge.keepscreenon","Start":"۱۲-۲-۲۰۱۳ ۱۹:۲۵:۱۹","End":"۱۲-۲-۲۰۱۳ ۱۹:۳۰:۲۰"}}
{"Application":{"ProcessName":"com.lge.launcher2","Start":"۱۲-۲-۲۰۱۳ ۱۹:۳۰:۱۰","End":"۱۲-۲-۲۰۱۳ ۱۹:۳۰:۲۰"}}
{"Application":{"ProcessName":"com.lge.systemserver","Start":"۱۲-۲-۲۰۱۳ ۱۹:۲۵:۱۹","End":"۱۲-۲-۲۰۱۳ ۱۹:۳۰:۲۰"}}
{"Application":{"ProcessName":"com.android.mms","Start":"۱۲-۲-۲۰۱۳ ۱۹:۳۰:۲۰","End":"۱۲-۲-۲۰۱۳ ۱۹:۳۱:۴۰"}}
{"Application":{"ProcessName":"com.lge.keepscreenon","Start":"۱۲-۲-۲۰۱۳ ۱۹:۳۰:۲۰","End":"۱۲-۲-۲۰۱۳ ۱۹:۳۱:۴۰"}}
{"Application":{"ProcessName":"com.lge.systemserver","Start":"۱۲-۲-۲۰۱۳ ۱۹:۳۰:۲۰","End":"۱۲-۲-۲۰۱۳ ۱۹:۳۱:۴۰"}}
{"Application":{"ProcessName":"com.android.mms","Start":"۱۲-۲-۲۰۱۳ ۱۹:۳۲:۳۰","End":"۱۲-۲-۲۰۱۳ ۱۹:۳۳:۱۱"}}
{"Application":{"ProcessName":"com.lge.keepscreenon","Start":"۱۲-۲-۲۰۱۳ ۱۹:۳۲:۳۰","End":"۱۲-۲-۲۰۱۳ ۱۹:۳۳:۱۱"}}
{"Application":{"ProcessName":"com.lge.systemserver","Start":"۱۲-۲-۲۰۱۳ ۱۹:۳۲:۳۰","End":"۱۲-۲-۲۰۱۳ ۱۹:۳۳:۱۱"}}
{"Call": {"Number":"+98930770####","Duration":"0","Time":"۱۲-۲-۲۰۱۳ ۱۹:۴۳:۱۴","Type":"3"}}
{"Call": {"Number":"+98930770####","Duration":"0","Time":"۱۲-۲-۲۰۱۳ ۱۹:۴۳:۱۴","Type":"3"}}
{"Application":{"ProcessName":"com.android.mms","Start":"۱۲-۲-۲۰۱۳ ۱۹:۴۳:۲۳","End":"۱۲-۲-۲۰۱۳ ۱۹:۴۴:۱۰"}}
{"Application":{"ProcessName":"com.lge.keepscreenon","Start":"۱۲-۲-۲۰۱۳ ۱۹:۴۳:۲۳","End":"۱۲-۲-۲۰۱۳ ۱۹:۴۴:۱۰"}}
{"Application":{"ProcessName":"com.lge.systemserver","Start":"۱۲-۲-۲۰۱۳ ۱۹:۴۳:۲۳","End":"۱۲-۲-۲۰۱۳ ۱۹:۴۴:۱۰"}}
{"SMS":{"Address":"+98930770####","type":"1","date":"۱۲-۲-۲۰۱۳ ۱۹:۴۵:۲۸","body":"ANONYMIZED","Type":"1", "metadata": {"name": "خانومی"}}}
{"Call": {"Number":"+98930770####","Duration":"0","Time":"۱۲-۲-۲۰۱۳ ۱۹:۴۳:۱۴","Type":"3"}}
{"Call": {"Number":"+98930770####","Duration":"0","Time":"۱۲-۲-۲۰۱۳ ۱۹:۴۳:۱۴","Type":"3"}}
{"Call": {"Number":"+98930770####","Duration":"0","Time":"۱۲-۲-۲۰۱۳ ۱۹:۴۳:۱۴","Type":"3"}}
{"Application":{"ProcessName":"com.android.mms","Start":"۱۲-۲-۲۰۱۳ ۱۹:۴۵:۳۵","End":"۱۲-۲-۲۰۱۳ ۱۹:۴۶:۰۶"}}
{"Application":{"ProcessName":"com.lge.launcher2","Start":"۱۲-۲-۲۰۱۳ ۱۹:۴۶:۰۶","End":"۱۲-۲-۲۰۱۳ ۱۹:۴۶:۱۶"}}
{"SMS":{"Address":"+98930770####","type":"2","date":"۱۲-۲-۲۰۱۳ ۱۹:۴۶:۲۰","body":"ANONYMIZED","Type":"2", "metadata": {"name": "خانومی"}}}
{"Application":{"ProcessName":"com.android.mms","Start":"۱۲-۲-۲۰۱۳ ۱۹:۴۶:۱۶","End":"۱۲-۲-۲۰۱۳ ۱۹:۴۶:۴۰"}}
{"Application":{"ProcessName":"com.lge.keepscreenon","Start":"۱۲-۲-۲۰۱۳ ۱۹:۴۵:۳۵","End":"۱۲-۲-۲۰۱۳ ۱۹:۴۶:۴۰"}}
{"Application":{"ProcessName":"com.lge.systemserver","Start":"۱۲-۲-۲۰۱۳ ۱۹:۴۵:۳۵","End":"۱۲-۲-۲۰۱۳ ۱۹:۴۶:۴۰"}}
{"Application":{"ProcessName":"com.mxtech.videoplayer.ad","Start":"۱۲-۲-۲۰۱۳ ۱۹:۵۴:۵۱","End":"۱۲-۲-۲۰۱۳ ۱۹:۵۸:۲۲"}}
{"Application":{"ProcessName":"com.lge.launcher2","Start":"۱۲-۲-۲۰۱۳ ۱۹:۵۸:۲۲","End":"۱۲-۲-۲۰۱۳ ۱۹:۵۸:۳۲"}}
{"SMS":{"Address":"+98930770####","type":"2","date":"۱۲-۲-۲۰۱۳ ۱۹:۵۲:۲۸","body":"ANONYMIZED","Type":"2", "metadata": {"name": "خانومی"}}}
{"SMS":{"Address":"+98930770####","type":"1","date":"۱۲-۲-۲۰۱۳ ۱۹:۵۹:۰۰","body":"ANONYMIZED","Type":"1", "metadata": {"name": "خانومی"}}}
{"Application":{"ProcessName":"com.lge.music","Start":"۱۲-۲-۲۰۱۳ ۱۹:۵۸:۳۲","End":"۱۲-۲-۲۰۱۳ ۱۹:۵۹:۱۳"}}
{"SMS":{"Address":"+98930770####","type":"2","date":"۱۲-۲-۲۰۱۳ ۱۹:۵۹:۴۰","body":"ANONYMIZED","Type":"2", "metadata": {"name": "خانومی"}}}
{"Application":{"ProcessName":"com.lge.systemserver","Start":"۱۲-۲-۲۰۱۳ ۱۹:۵۴:۵۱","End":"۱۲-۲-۲۰۱۳ ۱۹:۵۹:۵۳"}}
{"Application":{"ProcessName":"com.lge.keepscreenon","Start":"۱۲-۲-۲۰۱۳ ۱۹:۵۴:۵۱","End":"۱۲-۲-۲۰۱۳ ۱۹:۵۹:۵۳"}}
{"SMS":{"Address":"+98930770####","type":"1","date":"۱۲-۲-۲۰۱۳ ۲۰:۰۰:۰۳","body":"ANONYMIZED","Type":"1", "metadata": {"name": "خانومی"}}}
{"SMS":{"Address":"+98930770####","type":"1","date":"۱۲-۲-۲۰۱۳ ۲۰:۰۰:۲۰","body":"ANONYMIZED","Type":"1", "metadata": {"name": "خانومی"}}}
{"SMS":{"Address":"+98930770####","type":"2","date":"۱۲-۲-۲۰۱۳ ۲۰:۰۱:۳۴","body":"ANONYMIZED","Type":"2", "metadata": {"name": "خانومی"}}}
{"Application":{"ProcessName":"com.android.mms","Start":"۱۲-۲-۲۰۱۳ ۱۹:۵۹:۱۳","End":"۱۲-۲-۲۰۱۳ ۲۰:۰۱:۵۳"}}
{"Application":{"ProcessName":"com.lge.music","Start":"۱۲-۲-۲۰۱۳ ۲۰:۰۱:۵۳","End":"۱۲-۲-۲۰۱۳ ۲۰:۰۴:۰۴"}}
{"SMS":{"Address":"+98930770####","type":"1","date":"۱۲-۲-۲۰۱۳ ۲۰:۰۴:۰۴","body":"ANONYMIZED","Type":"1", "metadata": {"name": "خانومی"}}}
{"Application":{"ProcessName":"com.lge.launcher2","Start":"۱۲-۲-۲۰۱۳ ۲۰:۰۴:۰۴","End":"۱۲-۲-۲۰۱۳ ۲۰:۰۴:۱۴"}}
{"SMS":{"Address":"+98930770####","type":"2","date":"۱۲-۲-۲۰۱۳ ۲۰:۰۴:۳۳","body":"ANONYMIZED","Type":"2", "metadata": {"name": "خانومی"}}}
{"Application":{"ProcessName":"com.android.mms","Start":"۱۲-۲-۲۰۱۳ ۲۰:۰۴:۰۴","End":"۱۲-۲-۲۰۱۳ ۲۰:۰۴:۴۴"}}
{"Application":{"ProcessName":"com.lge.keepscreenon","Start":"۱۲-۲-۲۰۱۳ ۱۹:۵۹:۵۳","End":"۱۲-۲-۲۰۱۳ ۲۰:۰۴:۵۴"}}
{"Application":{"ProcessName":"com.lge.systemserver","Start":"۱۲-۲-۲۰۱۳ ۱۹:۵۹:۵۳","End":"۱۲-۲-۲۰۱۳ ۲۰:۰۴:۵۴"}}
{"SMS":{"Address":"+98930770####","type":"1","date":"۱۲-۲-۲۰۱۳ ۲۰:۰۵:۰۸","body":"ANONYMIZED","Type":"1", "metadata": {"name": "خانومی"}}}
{"Application":{"ProcessName":"com.lge.music","Start":"۱۲-۲-۲۰۱۳ ۲۰:۰۴:۴۴","End":"۱۲-۲-۲۰۱۳ ۲۰:۰۵:۱۴"}}
{"SMS":{"Address":"+98930770####","type":"2","date":"۱۲-۲-۲۰۱۳ ۲۰:۰۵:۲۳","body":"ANONYMIZED","Type":"2", "metadata": {"name": "خانومی"}}}
{"Application":{"ProcessName":"com.android.mms","Start":"۱۲-۲-۲۰۱۳ ۲۰:۰۵:۱۴","End":"۱۲-۲-۲۰۱۳ ۲۰:۰۵:۳۴"}}
{"Application":{"ProcessName":"com.lge.music","Start":"۱۲-۲-۲۰۱۳ ۲۰:۰۵:۳۴","End":"۱۲-۲-۲۰۱۳ ۲۰:۰۶:۰۴"}}
{"Application":{"ProcessName":"com.lge.keepscreenon","Start":"۱۲-۲-۲۰۱۳ ۲۰:۰۴:۵۴","End":"۱۲-۲-۲۰۱۳ ۲۰:۰۶:۰۴"}}
{"Application":{"ProcessName":"com.lge.systemserver","Start":"۱۲-۲-۲۰۱۳ ۲۰:۰۴:۵۴","End":"۱۲-۲-۲۰۱۳ ۲۰:۰۶:۰۴"}}
{"Application":{"ProcessName":"com.lge.music","Start":"۱۲-۲-۲۰۱۳ ۲۰:۰۶:۱۴","End":"۱۲-۲-۲۰۱۳ ۲۰:۰۸:۴۵"}}
{"Application":{"ProcessName":"com.lge.keepscreenon","Start":"۱۲-۲-۲۰۱۳ ۲۰:۰۶:۱۴","End":"۱۲-۲-۲۰۱۳ ۲۰:۰۸:۴۵"}}
{"Application":{"ProcessName":"com.lge.systemserver","Start":"۱۲-۲-۲۰۱۳ ۲۰:۰۶:۱۴","End":"۱۲-۲-۲۰۱۳ ۲۰:۰۸:۴۵"}}
{"Application":{"ProcessName":"com.lge.music","Start":"۱۲-۲-۲۰۱۳ ۲۰:۱۴:۲۶","End":"۱۲-۲-۲۰۱۳ ۲۰:۱۴:۵۶"}}
{"Application":{"ProcessName":"com.lge.keepscreenon","Start":"۱۲-۲-۲۰۱۳ ۲۰:۱۴:۲۶","End":"۱۲-۲-۲۰۱۳ ۲۰:۱۴:۵۶"}}
{"Application":{"ProcessName":"com.lge.systemserver","Start":"۱۲-۲-۲۰۱۳ ۲۰:۱۴:۲۶","End":"۱۲-۲-۲۰۱۳ ۲۰:۱۴:۵۶"}}
{"Application":{"ProcessName":"com.lge.music","Start":"۱۲-۲-۲۰۱۳ ۲۰:۱۷:۰۶","End":"۱۲-۲-۲۰۱۳ ۲۰:۱۷:۵۲"}}
{"Application":{"ProcessName":"com.lge.keepscreenon","Start":"۱۲-۲-۲۰۱۳ ۲۰:۱۷:۰۶","End":"۱۲-۲-۲۰۱۳ ۲۰:۱۷:۵۲"}}
{"Application":{"ProcessName":"com.lge.systemserver","Start":"۱۲-۲-۲۰۱۳ ۲۰:۱۷:۰۶","End":"۱۲-۲-۲۰۱۳ ۲۰:۱۷:۵۲"}}
{"Application":{"ProcessName":"com.lge.keepscreenon","Start":"۱۲-۲-۲۰۱۳ ۲۰:۲۰:۰۵","End":"۱۲-۲-۲۰۱۳ ۲۰:۲۰:۱۵"}}
{"Application":{"ProcessName":"com.lge.systemserver","Start":"۱۲-۲-۲۰۱۳ ۲۰:۲۰:۰۵","End":"۱۲-۲-۲۰۱۳ ۲۰:۲۰:۱۵"}}
{"Application":{"ProcessName":"com.lge.launcher2","Start":"۱۲-۲-۲۰۱۳ ۲۰:۲۰:۰۵","End":"۱۲-۲-۲۰۱۳ ۲۰:۲۰:۱۵"}}
{"Application":{"ProcessName":"com.lge.sizechangable.weather","Start":"۱۲-۲-۲۰۱۳ ۲۰:۲۰:۰۵","End":"۱۲-۲-۲۰۱۳ ۲۰:۲۰:۱۵"}}
{"SMS":{"Address":"+98930770####","type":"1","date":"۱۲-۲-۲۰۱۳ ۲۰:۳۰:۳۸","body":"ANONYMIZED","Type":"1", "metadata": {"name": "خانومی"}}}
{"Application":{"ProcessName":"com.lge.keepscreenon","Start":"۱۲-۲-۲۰۱۳ ۲۰:۳۰:۴۶","End":"۱۲-۲-۲۰۱۳ ۲۰:۳۴:۴۱"}}
{"Application":{"ProcessName":"com.lge.systemserver","Start":"۱۲-۲-۲۰۱۳ ۲۰:۳۰:۴۶","End":"۱۲-۲-۲۰۱۳ ۲۰:۳۴:۴۱"}}
{"Application":{"ProcessName":"com.lge.launcher2","Start":"۱۲-۲-۲۰۱۳ ۲۰:۳۰:۴۶","End":"۱۲-۲-۲۰۱۳ ۲۰:۳۴:۴۱"}}
{"Application":{"ProcessName":"com.lge.mlt","Start":"۱۲-۲-۲۰۱۳ ۲۰:۳۵:۰۴","End":"۱۲-۲-۲۰۱۳ ۲۰:۳۵:۰۴"}}
{"Call": {"Number":"+98218843####","Duration":"8","Time":"۱۲-۲-۲۰۱۳ ۲۰:۳۴:۴۳","Type":"1"}}
{"Call": {"Number":"+98218843####","Duration":"8","Time":"۱۲-۲-۲۰۱۳ ۲۰:۳۴:۴۳","Type":"1"}}
{"Application":{"ProcessName":"com.lge.keepscreenon","Start":"۱۲-۲-۲۰۱۳ ۲۰:۳۴:۵۱","End":"۱۲-۲-۲۰۱۳ ۲۰:۳۵:۲۹"}}
{"Application":{"ProcessName":"com.lge.sizechangable.weather","Start":"۱۲-۲-۲۰۱۳ ۲۰:۳۵:۱۵","End":"۱۲-۲-۲۰۱۳ ۲۰:۳۵:۲۹"}}
{"Application":{"ProcessName":"com.lge.launcher2","Start":"۱۲-۲-۲۰۱۳ ۲۰:۳۵:۱۴","End":"۱۲-۲-۲۰۱۳ ۲۰:۳۵:۲۹"}}
{"Application":{"ProcessName":"com.lge.systemserver","Start":"۱۲-۲-۲۰۱۳ ۲۰:۳۴:۵۱","End":"۱۲-۲-۲۰۱۳ ۲۰:۳۵:۲۹"}}
{"SMS":{"Address":"+98930770####","type":"1","date":"۱۲-۲-۲۰۱۳ ۲۱:۲۲:۴۷","body":"ANONYMIZED","Type":"1", "metadata": {"name": "خانومی"}}}
{"Application":{"ProcessName":"com.lge.keepscreenon","Start":"۱۲-۲-۲۰۱۳ ۲۱:۲۲:۴۸","End":"۱۲-۲-۲۰۱۳ ۲۱:۲۲:۵۸"}}
{"Application":{"ProcessName":"com.lge.sizechangable.weather","Start":"۱۲-۲-۲۰۱۳ ۲۱:۲۲:۴۸","End":"۱۲-۲-۲۰۱۳ ۲۱:۲۲:۵۸"}}
{"Application":{"ProcessName":"com.lge.systemserver","Start":"۱۲-۲-۲۰۱۳ ۲۱:۲۲:۴۸","End":"۱۲-۲-۲۰۱۳ ۲۱:۲۲:۵۸"}}
{"Application":{"ProcessName":"com.lge.launcher2","Start":"۱۲-۲-۲۰۱۳ ۲۱:۲۲:۴۸","End":"۱۲-۲-۲۰۱۳ ۲۱:۲۲:۵۸"}}
{"Application":{"ProcessName":"com.lge.launcher2","Start":"۱۲-۲-۲۰۱۳ ۲۱:۲۷:۲۵","End":"۱۲-۲-۲۰۱۳ ۲۱:۲۷:۳۶"}}
{"Application":{"ProcessName":"com.lge.sizechangable.weather","Start":"۱۲-۲-۲۰۱۳ ۲۱:۲۷:۲۵","End":"۱۲-۲-۲۰۱۳ ۲۱:۲۷:۳۶"}}
{"SMS":{"Address":"+98930770####","type":"2","date":"۱۲-۲-۲۰۱۳ ۲۱:۲۷:۴۲","body":"ANONYMIZED","Type":"2", "metadata": {"name": "خانومی"}}}
{"Application":{"ProcessName":"com.android.mms","Start":"۱۲-۲-۲۰۱۳ ۲۱:۲۷:۳۶","End":"۱۲-۲-۲۰۱۳ ۲۱:۲۸:۴۳"}}
{"Application":{"ProcessName":"com.lge.keepscreenon","Start":"۱۲-۲-۲۰۱۳ ۲۱:۲۷:۲۵","End":"۱۲-۲-۲۰۱۳ ۲۱:۲۸:۴۳"}}
{"Application":{"ProcessName":"com.lge.systemserver","Start":"۱۲-۲-۲۰۱۳ ۲۱:۲۷:۲۵","End":"۱۲-۲-۲۰۱۳ ۲۱:۲۸:۴۳"}}
{"SMS":{"Address":"+98930770####","type":"1","date":"۱۲-۲-۲۰۱۳ ۲۱:۲۹:۳۳","body":"ANONYMIZED","Type":"1", "metadata": {"name": "خانومی"}}}
{"SMS":{"Address":"+98930770####","type":"2","date":"۱۲-۲-۲۰۱۳ ۲۱:۳۰:۳۴","body":"ANONYMIZED","Type":"2", "metadata": {"name": "خانومی"}}}
{"Application":{"ProcessName":"com.android.mms","Start":"۱۲-۲-۲۰۱۳ ۲۱:۲۹:۳۵","End":"۱۲-۲-۲۰۱۳ ۲۱:۳۱:۱۹"}}
{"Application":{"ProcessName":"com.lge.keepscreenon","Start":"۱۲-۲-۲۰۱۳ ۲۱:۲۹:۳۵","End":"۱۲-۲-۲۰۱۳ ۲۱:۳۱:۱۹"}}
{"Application":{"ProcessName":"com.lge.systemserver","Start":"۱۲-۲-۲۰۱۳ ۲۱:۲۹:۳۵","End":"۱۲-۲-۲۰۱۳ ۲۱:۳۱:۱۹"}}
{"SMS":{"Address":"+98930770####","type":"1","date":"۱۲-۲-۲۰۱۳ ۲۱:۳۴:۰۲","body":"ANONYMIZED","Type":"1", "metadata": {"name": "خانومی"}}}
{"Application":{"ProcessName":"com.lge.launcher2","Start":"۱۲-۲-۲۰۱۳ ۲۱:۳۶:۴۰","End":"۱۲-۲-۲۰۱۳ ۲۱:۳۶:۴۰"}}
{"Application":{"ProcessName":"com.android.mms","Start":"۱۲-۲-۲۰۱۳ ۲۱:۳۴:۱۲","End":"۱۲-۲-۲۰۱۳ ۲۱:۳۷:۰۰"}}
{"Application":{"ProcessName":"com.lge.keepscreenon","Start":"۱۲-۲-۲۰۱۳ ۲۱:۳۴:۱۲","End":"۱۲-۲-۲۰۱۳ ۲۱:۴۱:۰۴"}}
{"Application":{"ProcessName":"com.lge.launcher2","Start":"۱۲-۲-۲۰۱۳ ۲۱:۳۷:۰۰","End":"۱۲-۲-۲۰۱۳ ۲۱:۴۱:۰۴"}}
{"Application":{"ProcessName":"com.lge.systemserver","Start":"۱۲-۲-۲۰۱۳ ۲۱:۳۴:۱۲","End":"۱۲-۲-۲۰۱۳ ۲۱:۴۱:۰۴"}}
{"SMS":{"Address":"+98930770####","type":"1","date":"۱۲-۲-۲۰۱۳ ۲۲:۱۲:۴۸","body":"ANONYMIZED","Type":"1", "metadata": {"name": "خانومی"}}}
{"Application":{"ProcessName":"com.lge.launcher2","Start":"۱۲-۲-۲۰۱۳ ۲۲:۱۲:۵۷","End":"۱۲-۲-۲۰۱۳ ۲۲:۱۳:۰۷"}}
{"SMS":{"Address":"+98930770####","type":"2","date":"۱۲-۲-۲۰۱۳ ۲۲:۱۳:۴۶","body":"ANONYMIZED","Type":"2", "metadata": {"name": "خانومی"}}}
{"Application":{"ProcessName":"com.android.mms","Start":"۱۲-۲-۲۰۱۳ ۲۲:۱۳:۰۷","End":"۱۲-۲-۲۰۱۳ ۲۲:۱۴:۱۷"}}
{"Application":{"ProcessName":"com.lge.keepscreenon","Start":"۱۲-۲-۲۰۱۳ ۲۲:۱۲:۵۷","End":"۱۲-۲-۲۰۱۳ ۲۲:۱۴:۱۷"}}
{"Application":{"ProcessName":"com.lge.systemserver","Start":"۱۲-۲-۲۰۱۳ ۲۲:۱۲:۵۷","End":"۱۲-۲-۲۰۱۳ ۲۲:۱۴:۱۷"}}
{"SMS":{"Address":"+98930770####","type":"1","date":"۱۲-۲-۲۰۱۳ ۲۲:۱۴:۳۸","body":"ANONYMIZED","Type":"1", "metadata": {"name": "خانومی"}}}
{"SMS":{"Address":"+98930770####","type":"2","date":"۱۲-۲-۲۰۱۳ ۲۲:۱۵:۱۰","body":"ANONYMIZED","Type":"2", "metadata": {"name": "خانومی"}}}
{"Application":{"ProcessName":"com.android.mms","Start":"۱۲-۲-۲۰۱۳ ۲۲:۱۴:۴۴","End":"۱۲-۲-۲۰۱۳ ۲۲:۱۷:۰۸"}}
{"Application":{"ProcessName":"com.lge.keepscreenon","Start":"۱۲-۲-۲۰۱۳ ۲۲:۱۴:۴۴","End":"۱۲-۲-۲۰۱۳ ۲۲:۱۷:۰۸"}}
{"Application":{"ProcessName":"com.lge.systemserver","Start":"۱۲-۲-۲۰۱۳ ۲۲:۱۴:۴۴","End":"۱۲-۲-۲۰۱۳ ۲۲:۱۷:۰۸"}}
{"SMS":{"Address":"+98930770####","type":"1","date":"۱۲-۲-۲۰۱۳ ۲۲:۴۱:۱۰","body":"ANONYMIZED","Type":"1", "metadata": {"name": "خانومی"}}}
{"Application":{"ProcessName":"com.android.mms","Start":"۱۲-۲-۲۰۱۳ ۲۲:۴۱:۱۸","End":"۱۲-۲-۲۰۱۳ ۲۲:۴۴:۵۰"}}
{"Application":{"ProcessName":"com.lge.keepscreenon","Start":"۱۲-۲-۲۰۱۳ ۲۲:۴۱:۱۸","End":"۱۲-۲-۲۰۱۳ ۲۲:۴۴:۵۰"}}
{"Application":{"ProcessName":"com.lge.systemserver","Start":"۱۲-۲-۲۰۱۳ ۲۲:۴۱:۱۸","End":"۱۲-۲-۲۰۱۳ ۲۲:۴۴:۵۰"}}
{"Application":{"ProcessName":"com.android.mms","Start":"۱۲-۲-۲۰۱۳ ۲۲:۵۴:۴۸","End":"۱۲-۲-۲۰۱۳ ۲۲:۵۵:۱۸"}}
{"Application":{"ProcessName":"com.lge.keepscreenon","Start":"۱۲-۲-۲۰۱۳ ۲۲:۵۴:۴۸","End":"۱۲-۲-۲۰۱۳ ۲۲:۵۶:۳۷"}}
{"Application":{"ProcessName":"com.lge.systemserver","Start":"۱۲-۲-۲۰۱۳ ۲۲:۵۴:۴۸","End":"۱۲-۲-۲۰۱۳ ۲۲:۵۶:۳۷"}}
{"Call": {"Number":"+98930770####","Duration":"136","Time":"۱۲-۲-۲۰۱۳ ۲۲:۵۵:۱۷","Type":"1"}}
{"Call": {"Number":"+98930770####","Duration":"136","Time":"۱۲-۲-۲۰۱۳ ۲۲:۵۵:۱۷","Type":"1"}}
{"Application":{"ProcessName":"com.android.mms","Start":"۱۲-۲-۲۰۱۳ ۲۲:۵۷:۳۹","End":"۱۲-۲-۲۰۱۳ ۲۲:۵۸:۰۳"}}
{"Application":{"ProcessName":"com.lge.keepscreenon","Start":"۱۲-۲-۲۰۱۳ ۲۲:۵۷:۳۹","End":"۱۲-۲-۲۰۱۳ ۲۲:۵۸:۰۳"}}
{"Application":{"ProcessName":"com.lge.systemserver","Start":"۱۲-۲-۲۰۱۳ ۲۲:۵۷:۳۹","End":"۱۲-۲-۲۰۱۳ ۲۲:۵۸:۰۳"}}
{"SMS":{"Address":"+98930770####","type":"1","date":"۱۲-۲-۲۰۱۳ ۲۳:۰۰:۳۷","body":"ANONYMIZED","Type":"1", "metadata": {"name": "خانومی"}}}
{"SMS":{"Address":"+98930770####","type":"2","date":"۱۲-۲-۲۰۱۳ ۲۳:۰۱:۳۹","body":"ANONYMIZED","Type":"2", "metadata": {"name": "خانومی"}}}
{"Application":{"ProcessName":"com.android.mms","Start":"۱۲-۲-۲۰۱۳ ۲۳:۰۰:۴۷","End":"۱۲-۲-۲۰۱۳ ۲۳:۰۴:۰۸"}}
{"Application":{"ProcessName":"com.lge.keepscreenon","Start":"۱۲-۲-۲۰۱۳ ۲۳:۰۰:۴۷","End":"۱۲-۲-۲۰۱۳ ۲۳:۰۴:۰۸"}}
{"Application":{"ProcessName":"com.lge.systemserver","Start":"۱۲-۲-۲۰۱۳ ۲۳:۰۰:۴۷","End":"۱۲-۲-۲۰۱۳ ۲۳:۰۴:۰۸"}}
{"SMS":{"Address":"+98930770####","type":"1","date":"۱۲-۲-۲۰۱۳ ۲۳:۰۴:۲۰","body":"ANONYMIZED","Type":"1", "metadata": {"name": "خانومی"}}}
{"Application":{"ProcessName":"com.android.mms","Start":"۱۲-۲-۲۰۱۳ ۲۳:۰۴:۲۲","End":"۱۲-۲-۲۰۱۳ ۲۳:۰۵:۱۵"}}
{"Application":{"ProcessName":"com.lge.keepscreenon","Start":"۱۲-۲-۲۰۱۳ ۲۳:۰۴:۲۲","End":"۱۲-۲-۲۰۱۳ ۲۳:۰۵:۱۵"}}
{"Application":{"ProcessName":"com.lge.systemserver","Start":"۱۲-۲-۲۰۱۳ ۲۳:۰۴:۲۲","End":"۱۲-۲-۲۰۱۳ ۲۳:۰۵:۱۵"}}
{"SMS":{"Address":"+98930770####","type":"2","date":"۱۲-۲-۲۰۱۳ ۲۳:۰۶:۱۰","body":"ANONYMIZED","Type":"2", "metadata": {"name": "خانومی"}}}
{"Application":{"ProcessName":"com.android.mms","Start":"۱۲-۲-۲۰۱۳ ۲۳:۰۵:۳۶","End":"۱۲-۲-۲۰۱۳ ۲۳:۰۶:۱۶"}}
{"Application":{"ProcessName":"com.lge.keepscreenon","Start":"۱۲-۲-۲۰۱۳ ۲۳:۰۵:۳۶","End":"۱۲-۲-۲۰۱۳ ۲۳:۰۶:۱۶"}}
{"Application":{"ProcessName":"com.lge.systemserver","Start":"۱۲-۲-۲۰۱۳ ۲۳:۰۵:۳۶","End":"۱۲-۲-۲۰۱۳ ۲۳:۰۶:۱۶"}}
{"SMS":{"Address":"+98930770####","type":"1","date":"۱۲-۲-۲۰۱۳ ۲۳:۱۳:۵۹","body":"ANONYMIZED","Type":"1", "metadata": {"name": "خانومی"}}}
{"Application":{"ProcessName":"com.lge.launcher2","Start":"۱۲-۲-۲۰۱۳ ۲۳:۱۴:۰۹","End":"۱۲-۲-۲۰۱۳ ۲۳:۱۴:۲۲"}}
{"SMS":{"Address":"+98930770####","type":"2","date":"۱۲-۲-۲۰۱۳ ۲۳:۱۴:۵۲","body":"ANONYMIZED","Type":"2", "metadata": {"name": "خانومی"}}}
{"Application":{"ProcessName":"com.android.mms","Start":"۱۲-۲-۲۰۱۳ ۲۳:۱۴:۲۲","End":"۱۲-۲-۲۰۱۳ ۲۳:۱۵:۱۴"}}
{"Application":{"ProcessName":"com.lge.keepscreenon","Start":"۱۲-۲-۲۰۱۳ ۲۳:۱۴:۰۹","End":"۱۲-۲-۲۰۱۳ ۲۳:۱۵:۱۴"}}
{"Application":{"ProcessName":"com.lge.systemserver","Start":"۱۲-۲-۲۰۱۳ ۲۳:۱۴:۰۹","End":"۱۲-۲-۲۰۱۳ ۲۳:۱۵:۱۴"}}
{"Application":{"ProcessName":"com.lge.keepscreenon","Start":"۱۲-۲-۲۰۱۳ ۲۳:۱۵:۲۸","End":"۱۲-۲-۲۰۱۳ ۲۳:۱۷:۱۶"}}
{"Application":{"ProcessName":"com.lge.systemserver","Start":"۱۲-۲-۲۰۱۳ ۲۳:۱۵:۲۸","End":"۱۲-۲-۲۰۱۳ ۲۳:۱۷:۱۶"}}
{"Call": {"Number":"+98930770####","Duration":"475","Time":"۱۲-۲-۲۰۱۳ ۲۳:۱۵:۲۴","Type":"1"}}
{"Call": {"Number":"+98930770####","Duration":"475","Time":"۱۲-۲-۲۰۱۳ ۲۳:۱۵:۲۴","Type":"1"}}
{"Application":{"ProcessName":"com.lge.keepscreenon","Start":"۱۲-۲-۲۰۱۳ ۲۳:۲۳:۴۰","End":"۱۲-۲-۲۰۱۳ ۲۳:۲۵:۱۱"}}
{"Application":{"ProcessName":"com.lge.systemserver","Start":"۱۲-۲-۲۰۱۳ ۲۳:۲۳:۴۰","End":"۱۲-۲-۲۰۱۳ ۲۳:۲۵:۱۱"}}
{"Application":{"ProcessName":"com.lge.launcher2","Start":"۱۲-۲-۲۰۱۳ ۲۳:۲۳:۴۰","End":"۱۲-۲-۲۰۱۳ ۲۳:۲۵:۱۱"}}
{"Application":{"ProcessName":"com.lge.launcher2","Start":"۱۲-۲-۲۰۱۳ ۲۳:۲۸:۵۳","End":"۱۲-۲-۲۰۱۳ ۲۳:۲۹:۰۳"}}
{"Application":{"ProcessName":"com.farsitel.bazaar","Start":"۱۲-۲-۲۰۱۳ ۲۳:۲۹:۰۳","End":"۱۲-۲-۲۰۱۳ ۲۳:۲۹:۰۳"}}
{"Application":{"ProcessName":"com.lge.keepscreenon","Start":"۱۲-۲-۲۰۱۳ ۲۳:۲۸:۵۳","End":"۱۲-۲-۲۰۱۳ ۲۳:۲۹:۱۳"}}
{"Application":{"ProcessName":"com.lge.systemserver","Start":"۱۲-۲-۲۰۱۳ ۲۳:۲۸:۵۳","End":"۱۲-۲-۲۰۱۳ ۲۳:۲۹:۱۳"}}
{"Call": {"Number":"+98930770####","Duration":"316","Time":"۱۲-۲-۲۰۱۳ ۲۳:۲۹:۰۰","Type":"2"}}
{"Call": {"Number":"+98930770####","Duration":"316","Time":"۱۲-۲-۲۰۱۳ ۲۳:۲۹:۰۰","Type":"2"}}
{"Call": {"Number":"+98930770####","Duration":"316","Time":"۱۲-۲-۲۰۱۳ ۲۳:۲۹:۰۰","Type":"2"}}
{"Call": {"Number":"+98930770####","Duration":"316","Time":"۱۲-۲-۲۰۱۳ ۲۳:۲۹:۰۰","Type":"2"}}
{"Application":{"ProcessName":"com.android.mms","Start":"۱۲-۲-۲۰۱۳ ۲۳:۳۴:۳۴","End":"۱۲-۲-۲۰۱۳ ۲۳:۳۴:۴۴"}}
{"Application":{"ProcessName":"com.android.contacts","Start":"۱۲-۲-۲۰۱۳ ۲۳:۳۴:۳۴","End":"۱۲-۲-۲۰۱۳ ۲۳:۳۴:۴۴"}}
{"Location":{"Latitude":"35.7066109","Longtitude":"51.1975348","Altitude":"0.0","time":"۱۲-۲-۲۰۱۳ ۲۳:۳۹:۳۱","Accuracy":"117.192","Provider":"fused","Speed":"0.0"}}
{"SMS":{"Address":"+98930770####","type":"1","date":"۱۲-۲-۲۰۱۳ ۲۳:۳۹:۳۳","body":"ANONYMIZED","Type":"1"}}
{"WiFi":{"SSID":"svf","BSSID":"00:1b:9e:00:08:7e","capabilities":"[WPA-PSK-TKIP][ESS]","level":"0","frequency":"2462","time":"دوشنبه ۲ دسامبر ۲۰۱۳ ۲۳:۳۹:۴۵ (وقت عادی ایران)"}}
{"WiFi":{"SSID":"SH","BSSID":"64:70:02:c3:4b:d9","capabilities":"[WPA2-PSK-TKIP+CCMP][ESS]","level":"-59","frequency":"2457","time":"دوشنبه ۲ دسامبر ۲۰۱۳ ۲۳:۳۹:۴۵ (وقت عادی ایران)"}}
{"WiFi":{"SSID":"adsl","BSSID":"6c:fd:b9:80:18:bb","capabilities":"[WEP][ESS]","level":"-85","frequency":"2412","time":"دوشنبه ۲ دسامبر ۲۰۱۳ ۲۳:۳۹:۴۵ (وقت عادی ایران)"}}
{"WiFi":{"SSID":"svf","BSSID":"00:1b:9e:00:08:7e","capabilities":"[WPA-PSK-TKIP][ESS]","level":"-76","frequency":"2462","time":"دوشنبه ۲ دسامبر ۲۰۱۳ ۲۳:۴۰:۴۵ (وقت عادی ایران)"}}
{"WiFi":{"SSID":"SH","BSSID":"64:70:02:c3:4b:d9","capabilities":"[WPA2-PSK-TKIP+CCMP][ESS]","level":"-60","frequency":"2457","time":"دوشنبه ۲ دسامبر ۲۰۱۳ ۲۳:۴۰:۴۵ (وقت عادی ایران)"}}
{"WiFi":{"SSID":"adsl","BSSID":"6c:fd:b9:80:18:bb","capabilities":"[WEP][ESS]","level":"-85","frequency":"2412","time":"دوشنبه ۲ دسامبر ۲۰۱۳ ۲۳:۴۰:۴۵ (وقت عادی ایران)"}}
{"Location":{"Latitude":"35.7065258","Longtitude":"51.1975356","Altitude":"0.0","time":"۱۲-۲-۲۰۱۳ ۲۳:۴۱:۲۶","Accuracy":"28.672","Provider":"fused","Speed":"0.0"}}
{"WiFi":{"SSID":"svf","BSSID":"00:1b:9e:00:08:7e","capabilities":"[WPA-PSK-TKIP][ESS]","level":"-66","frequency":"2462","time":"دوشنبه ۲ دسامبر ۲۰۱۳ ۲۳:۴۱:۴۵ (وقت عادی ایران)"}}
{"WiFi":{"SSID":"SH","BSSID":"64:70:02:c3:4b:d9","capabilities":"[WPA2-PSK-TKIP+CCMP][ESS]","level":"-59","frequency":"2457","time":"دوشنبه ۲ دسامبر ۲۰۱۳ ۲۳:۴۱:۴۵ (وقت عادی ایران)"}}
{"Location":{"Latitude":"35.7065563","Longtitude":"51.1975776","Altitude":"0.0","time":"۱۲-۲-۲۰۱۳ ۲۳:۴۲:۲۷","Accuracy":"83.087","Provider":"fused","Speed":"0.0"}}
{"WiFi":{"SSID":"svf","BSSID":"00:1b:9e:00:08:7e","capabilities":"[WPA-PSK-TKIP][ESS]","level":"-79","frequency":"2462","time":"دوشنبه ۲ دسامبر ۲۰۱۳ ۲۳:۴۲:۴۵ (وقت عادی ایران)"}}
{"WiFi":{"SSID":"SH","BSSID":"64:70:02:c3:4b:d9","capabilities":"[WPA2-PSK-TKIP+CCMP][ESS]","level":"-70","frequency":"2457","time":"دوشنبه ۲ دسامبر ۲۰۱۳ ۲۳:۴۲:۴۵ (وقت عادی ایران)"}}
{"WiFi":{"SSID":"adsl","BSSID":"6c:fd:b9:80:18:bb","capabilities":"[WEP][ESS]","level":"-83","frequency":"2412","time":"دوشنبه ۲ دسامبر ۲۰۱۳ ۲۳:۴۲:۴۵ (وقت عادی ایران)"}}
{"WiFi":{"SSID":"svf","BSSID":"00:1b:9e:00:08:7e","capabilities":"[WPA-PSK-TKIP][ESS]","level":"-64","frequency":"2462","time":"دوشنبه ۲ دسامبر ۲۰۱۳ ۲۳:۴۳:۴۵ (وقت عادی ایران)"}}
{"WiFi":{"SSID":"SH","BSSID":"64:70:02:c3:4b:d9","capabilities":"[WPA2-PSK-TKIP+CCMP][ESS]","level":"-64","frequency":"2457","time":"دوشنبه ۲ دسامبر ۲۰۱۳ ۲۳:۴۳:۴۵ (وقت عادی ایران)"}}
{"WiFi":{"SSID":"adsl","BSSID":"6c:fd:b9:80:18:bb","capabilities":"[WEP][ESS]","level":"-83","frequency":"2412","time":"دوشنبه ۲ دسامبر ۲۰۱۳ ۲۳:۴۳:۴۵ (وقت عادی ایران)"}}
{"Location":{"Latitude":"35.7065922","Longtitude":"51.1975001","Altitude":"0.0","time":"۱۲-۲-۲۰۱۳ ۲۳:۴۴:۲۶","Accuracy":"120.319","Provider":"fused","Speed":"0.0"}}
{"Application":{"ProcessName":"com.lge.systemserver","Start":"۱۲-۲-۲۰۱۳ ۲۳:۴۴:۳۵","End":"۱۲-۲-۲۰۱۳ ۲۳:۴۵:۱۵"}}
{"Application":{"ProcessName":"com.lge.keepscreenon","Start":"۱۲-۲-۲۰۱۳ ۲۳:۴۴:۳۵","End":"۱۲-۲-۲۰۱۳ ۲۳:۴۵:۱۵"}}
{"Application":{"ProcessName":"com.lge.launcher2","Start":"۱۲-۲-۲۰۱۳ ۲۳:۴۴:۳۵","End":"۱۲-۲-۲۰۱۳ ۲۳:۴۵:۱۵"}}
