{"Application":{"ProcessName":"com.lge.keepscreenon","Start":"۱۱-۲۲-۲۰۱۳ ۱۰:۴۱:۳۸","End":"۱۱-۲۲-۲۰۱۳ ۱۰:۴۶:۲۷"}}
{"Application":{"ProcessName":"com.lge.launcher2","Start":"۱۱-۲۲-۲۰۱۳ ۱۰:۴۵:۵۴","End":"۱۱-۲۲-۲۰۱۳ ۱۰:۴۶:۲۷"}}
{"Application":{"ProcessName":"com.lge.systemserver","Start":"۱۱-۲۲-۲۰۱۳ ۱۰:۴۱:۳۸","End":"۱۱-۲۲-۲۰۱۳ ۱۰:۴۶:۲۷"}}
{"Application":{"ProcessName":"com.lge.launcher2","Start":"۱۱-۲۲-۲۰۱۳ ۱۰:۴۸:۰۱","End":"۱۱-۲۲-۲۰۱۳ ۱۰:۴۸:۱۱"}}
{"Application":{"ProcessName":"com.lge.launcher2","Start":"۱۱-۲۲-۲۰۱۳ ۱۰:۴۸:۲۱","End":"۱۱-۲۲-۲۰۱۳ ۱۰:۴۸:۳۱"}}
{"Application":{"ProcessName":"com.mxtech.videoplayer.ad:remote","Start":"۱۱-۲۲-۲۰۱۳ ۱۰:۴۸:۳۱","End":"۱۱-۲۲-۲۰۱۳ ۱۰:۴۸:۵۱"}}
{"Application":{"ProcessName":"com.lge.keepscreenon","Start":"۱۱-۲۲-۲۰۱۳ ۱۰:۴۸:۰۱","End":"۱۱-۲۲-۲۰۱۳ ۱۰:۵۳:۰۲"}}
{"Application":{"ProcessName":"com.lge.systemserver","Start":"۱۱-۲۲-۲۰۱۳ ۱۰:۴۸:۰۱","End":"۱۱-۲۲-۲۰۱۳ ۱۰:۵۳:۰۲"}}
{"Application":{"ProcessName":"com.mxtech.videoplayer.ad","Start":"۱۱-۲۲-۲۰۱۳ ۱۰:۴۸:۳۱","End":"۱۱-۲۲-۲۰۱۳ ۱۰:۵۳:۳۲"}}
{"Application":{"ProcessName":"com.mxtech.videoplayer.ad:remote","Start":"۱۱-۲۲-۲۰۱۳ ۱۰:۵۴:۱۲","End":"۱۱-۲۲-۲۰۱۳ ۱۰:۵۴:۵۳"}}
{"Application":{"ProcessName":"com.lge.keepscreenon","Start":"۱۱-۲۲-۲۰۱۳ ۱۰:۵۳:۰۲","End":"۱۱-۲۲-۲۰۱۳ ۱۰:۵۴:۵۳"}}
{"Application":{"ProcessName":"com.mxtech.videoplayer.ad","Start":"۱۱-۲۲-۲۰۱۳ ۱۰:۵۳:۳۲","End":"۱۱-۲۲-۲۰۱۳ ۱۰:۵۴:۵۳"}}
{"Application":{"ProcessName":"com.lge.systemserver","Start":"۱۱-۲۲-۲۰۱۳ ۱۰:۵۳:۰۲","End":"۱۱-۲۲-۲۰۱۳ ۱۰:۵۴:۵۳"}}
{"Application":{"ProcessName":"com.mxtech.videoplayer.ad:remote","Start":"۱۱-۲۲-۲۰۱۳ ۱۲:۱۹:۵۶","End":"۱۱-۲۲-۲۰۱۳ ۱۲:۲۰:۳۶"}}
{"Application":{"ProcessName":"com.lge.keepscreenon","Start":"۱۱-۲۲-۲۰۱۳ ۱۲:۱۹:۴۶","End":"۱۱-۲۲-۲۰۱۳ ۱۲:۲۴:۴۶"}}
{"Application":{"ProcessName":"com.mxtech.videoplayer.ad","Start":"۱۱-۲۲-۲۰۱۳ ۱۲:۱۹:۴۶","End":"۱۱-۲۲-۲۰۱۳ ۱۲:۲۴:۴۶"}}
{"Application":{"ProcessName":"com.lge.systemserver","Start":"۱۱-۲۲-۲۰۱۳ ۱۲:۱۹:۴۶","End":"۱۱-۲۲-۲۰۱۳ ۱۲:۲۴:۴۶"}}
{"Application":{"ProcessName":"com.mxtech.videoplayer.ad:remote","Start":"۱۱-۲۲-۲۰۱۳ ۱۲:۲۴:۰۶","End":"۱۱-۲۲-۲۰۱۳ ۱۲:۲۵:۳۷"}}
{"Application":{"ProcessName":"com.lge.keepscreenon","Start":"۱۱-۲۲-۲۰۱۳ ۱۲:۲۴:۴۶","End":"۱۱-۲۲-۲۰۱۳ ۱۲:۲۹:۴۹"}}
{"Application":{"ProcessName":"com.mxtech.videoplayer.ad","Start":"۱۱-۲۲-۲۰۱۳ ۱۲:۲۴:۴۷","End":"۱۱-۲۲-۲۰۱۳ ۱۲:۲۹:۴۹"}}
{"Application":{"ProcessName":"com.lge.systemserver","Start":"۱۱-۲۲-۲۰۱۳ ۱۲:۲۴:۴۷","End":"۱۱-۲۲-۲۰۱۳ ۱۲:۲۹:۴۹"}}
{"Application":{"ProcessName":"com.lge.keepscreenon","Start":"۱۱-۲۲-۲۰۱۳ ۱۲:۲۹:۴۹","End":"۱۱-۲۲-۲۰۱۳ ۱۲:۳۳:۱۳"}}
{"Application":{"ProcessName":"com.mxtech.videoplayer.ad","Start":"۱۱-۲۲-۲۰۱۳ ۱۲:۲۹:۴۹","End":"۱۱-۲۲-۲۰۱۳ ۱۲:۳۳:۱۳"}}
{"Application":{"ProcessName":"com.lge.systemserver","Start":"۱۱-۲۲-۲۰۱۳ ۱۲:۲۹:۴۹","End":"۱۱-۲۲-۲۰۱۳ ۱۲:۳۳:۱۳"}}
{"Application":{"ProcessName":"com.lge.launcher2","Start":"۱۱-۲۲-۲۰۱۳ ۱۲:۳۴:۱۸","End":"۱۱-۲۲-۲۰۱۳ ۱۲:۳۵:۰۵"}}
{"Application":{"ProcessName":"com.lge.camera","Start":"۱۱-۲۲-۲۰۱۳ ۱۲:۳۵:۰۵","End":"۱۱-۲۲-۲۰۱۳ ۱۲:۳۵:۵۵"}}
{"Application":{"ProcessName":"com.android.gallery3d","Start":"۱۱-۲۲-۲۰۱۳ ۱۲:۳۵:۵۵","End":"۱۱-۲۲-۲۰۱۳ ۱۲:۳۶:۴۵"}}
{"Application":{"ProcessName":"com.lge.camera","Start":"۱۱-۲۲-۲۰۱۳ ۱۲:۳۶:۴۵","End":"۱۱-۲۲-۲۰۱۳ ۱۲:۳۷:۳۵"}}
{"Application":{"ProcessName":"com.android.gallery3d","Start":"۱۱-۲۲-۲۰۱۳ ۱۲:۳۷:۳۵","End":"۱۱-۲۲-۲۰۱۳ ۱۲:۳۷:۴۵"}}
{"Application":{"ProcessName":"com.lge.camera","Start":"۱۱-۲۲-۲۰۱۳ ۱۲:۳۷:۴۵","End":"۱۱-۲۲-۲۰۱۳ ۱۲:۳۸:۱۵"}}
{"Application":{"ProcessName":"com.android.gallery3d","Start":"۱۱-۲۲-۲۰۱۳ ۱۲:۳۸:۱۵","End":"۱۱-۲۲-۲۰۱۳ ۱۲:۳۸:۲۵"}}
{"Application":{"ProcessName":"com.lge.keepscreenon","Start":"۱۱-۲۲-۲۰۱۳ ۱۲:۳۴:۱۸","End":"۱۱-۲۲-۲۰۱۳ ۱۲:۳۹:۲۵"}}
{"Application":{"ProcessName":"com.lge.systemserver","Start":"۱۱-۲۲-۲۰۱۳ ۱۲:۳۴:۱۸","End":"۱۱-۲۲-۲۰۱۳ ۱۲:۳۹:۲۵"}}
{"Application":{"ProcessName":"com.lge.camera","Start":"۱۱-۲۲-۲۰۱۳ ۱۲:۳۸:۲۵","End":"۱۱-۲۲-۲۰۱۳ ۱۲:۴۰:۲۵"}}
{"Application":{"ProcessName":"com.android.gallery3d","Start":"۱۱-۲۲-۲۰۱۳ ۱۲:۴۰:۲۵","End":"۱۱-۲۲-۲۰۱۳ ۱۲:۴۰:۳۵"}}
{"Application":{"ProcessName":"com.lge.camera","Start":"۱۱-۲۲-۲۰۱۳ ۱۲:۴۰:۳۵","End":"۱۱-۲۲-۲۰۱۳ ۱۲:۴۱:۵۶"}}
{"Application":{"ProcessName":"com.android.gallery3d","Start":"۱۱-۲۲-۲۰۱۳ ۱۲:۴۱:۵۶","End":"۱۱-۲۲-۲۰۱۳ ۱۲:۴۲:۱۶"}}
{"Application":{"ProcessName":"com.lge.camera","Start":"۱۱-۲۲-۲۰۱۳ ۱۲:۴۲:۱۶","End":"۱۱-۲۲-۲۰۱۳ ۱۲:۴۲:۵۶"}}
{"Application":{"ProcessName":"com.lge.launcher2","Start":"۱۱-۲۲-۲۰۱۳ ۱۲:۴۲:۵۶","End":"۱۱-۲۲-۲۰۱۳ ۱۲:۴۳:۰۶"}}
{"Application":{"ProcessName":"com.lge.keepscreenon","Start":"۱۱-۲۲-۲۰۱۳ ۱۲:۳۹:۲۵","End":"۱۱-۲۲-۲۰۱۳ ۱۲:۴۴:۲۶"}}
{"Application":{"ProcessName":"com.lge.systemserver","Start":"۱۱-۲۲-۲۰۱۳ ۱۲:۳۹:۲۵","End":"۱۱-۲۲-۲۰۱۳ ۱۲:۴۴:۲۶"}}
{"Application":{"ProcessName":"com.lge.camera","Start":"۱۱-۲۲-۲۰۱۳ ۱۲:۴۳:۰۶","End":"۱۱-۲۲-۲۰۱۳ ۱۲:۴۵:۲۶"}}
{"Application":{"ProcessName":"com.android.gallery3d","Start":"۱۱-۲۲-۲۰۱۳ ۱۲:۴۵:۲۶","End":"۱۱-۲۲-۲۰۱۳ ۱۲:۴۵:۳۶"}}
{"Application":{"ProcessName":"com.lge.camera","Start":"۱۱-۲۲-۲۰۱۳ ۱۲:۴۵:۳۶","End":"۱۱-۲۲-۲۰۱۳ ۱۲:۴۶:۱۶"}}
{"Application":{"ProcessName":"com.android.gallery3d","Start":"۱۱-۲۲-۲۰۱۳ ۱۲:۴۶:۱۶","End":"۱۱-۲۲-۲۰۱۳ ۱۲:۴۶:۲۶"}}
{"Application":{"ProcessName":"com.lge.keepscreenon","Start":"۱۱-۲۲-۲۰۱۳ ۱۲:۴۴:۲۶","End":"۱۱-۲۲-۲۰۱۳ ۱۲:۴۹:۲۷"}}
{"Application":{"ProcessName":"com.lge.camera","Start":"۱۱-۲۲-۲۰۱۳ ۱۲:۴۶:۲۶","End":"۱۱-۲۲-۲۰۱۳ ۱۲:۴۹:۲۷"}}
{"Application":{"ProcessName":"com.lge.systemserver","Start":"۱۱-۲۲-۲۰۱۳ ۱۲:۴۴:۲۶","End":"۱۱-۲۲-۲۰۱۳ ۱۲:۴۹:۲۷"}}
{"Application":{"ProcessName":"com.android.gallery3d","Start":"۱۱-۲۲-۲۰۱۳ ۱۲:۴۹:۲۷","End":"۱۱-۲۲-۲۰۱۳ ۱۲:۴۹:۳۷"}}
{"Application":{"ProcessName":"com.lge.camera","Start":"۱۱-۲۲-۲۰۱۳ ۱۲:۴۹:۳۷","End":"۱۱-۲۲-۲۰۱۳ ۱۲:۵۲:۰۸"}}
{"Application":{"ProcessName":"com.android.gallery3d","Start":"۱۱-۲۲-۲۰۱۳ ۱۲:۵۲:۰۸","End":"۱۱-۲۲-۲۰۱۳ ۱۲:۵۲:۱۸"}}
{"Application":{"ProcessName":"com.lge.camera","Start":"۱۱-۲۲-۲۰۱۳ ۱۲:۵۲:۱۸","End":"۱۱-۲۲-۲۰۱۳ ۱۲:۵۳:۱۸"}}
{"Application":{"ProcessName":"com.android.gallery3d","Start":"۱۱-۲۲-۲۰۱۳ ۱۲:۵۳:۱۸","End":"۱۱-۲۲-۲۰۱۳ ۱۲:۵۳:۳۸"}}
{"Application":{"ProcessName":"com.lge.keepscreenon","Start":"۱۱-۲۲-۲۰۱۳ ۱۲:۴۹:۲۷","End":"۱۱-۲۲-۲۰۱۳ ۱۲:۵۴:۲۸"}}
{"Application":{"ProcessName":"com.lge.systemserver","Start":"۱۱-۲۲-۲۰۱۳ ۱۲:۴۹:۲۷","End":"۱۱-۲۲-۲۰۱۳ ۱۲:۵۴:۲۸"}}
{"Application":{"ProcessName":"com.lge.camera","Start":"۱۱-۲۲-۲۰۱۳ ۱۲:۵۳:۳۸","End":"۱۱-۲۲-۲۰۱۳ ۱۲:۵۵:۲۸"}}
{"Application":{"ProcessName":"com.android.gallery3d","Start":"۱۱-۲۲-۲۰۱۳ ۱۲:۵۵:۲۸","End":"۱۱-۲۲-۲۰۱۳ ۱۲:۵۵:۳۸"}}
{"Application":{"ProcessName":"com.lge.camera","Start":"۱۱-۲۲-۲۰۱۳ ۱۲:۵۵:۳۸","End":"۱۱-۲۲-۲۰۱۳ ۱۲:۵۵:۵۸"}}
{"Application":{"ProcessName":"com.android.gallery3d","Start":"۱۱-۲۲-۲۰۱۳ ۱۲:۵۵:۵۸","End":"۱۱-۲۲-۲۰۱۳ ۱۲:۵۶:۰۸"}}
{"Application":{"ProcessName":"com.lge.keepscreenon","Start":"۱۱-۲۲-۲۰۱۳ ۱۲:۵۴:۲۸","End":"۱۱-۲۲-۲۰۱۳ ۱۲:۵۹:۲۹"}}
{"Application":{"ProcessName":"com.lge.systemserver","Start":"۱۱-۲۲-۲۰۱۳ ۱۲:۵۴:۲۸","End":"۱۱-۲۲-۲۰۱۳ ۱۲:۵۹:۲۹"}}
{"Application":{"ProcessName":"com.lge.camera","Start":"۱۱-۲۲-۲۰۱۳ ۱۲:۵۶:۰۸","End":"۱۱-۲۲-۲۰۱۳ ۱۳:۰۰:۵۹"}}
{"Application":{"ProcessName":"com.android.gallery3d","Start":"۱۱-۲۲-۲۰۱۳ ۱۳:۰۰:۵۹","End":"۱۱-۲۲-۲۰۱۳ ۱۳:۰۱:۰۹"}}
{"Application":{"ProcessName":"com.lge.camera","Start":"۱۱-۲۲-۲۰۱۳ ۱۳:۱۰:۳۸","End":"۱۱-۲۲-۲۰۱۳ ۱۳:۱۱:۵۸"}}
{"Application":{"ProcessName":"com.android.gallery3d","Start":"۱۱-۲۲-۲۰۱۳ ۱۳:۱۱:۵۸","End":"۱۱-۲۲-۲۰۱۳ ۱۳:۱۲:۰۸"}}
{"Application":{"ProcessName":"com.lge.camera","Start":"۱۱-۲۲-۲۰۱۳ ۱۳:۱۲:۰۸","End":"۱۱-۲۲-۲۰۱۳ ۱۳:۱۳:۴۸"}}
{"Application":{"ProcessName":"com.android.gallery3d","Start":"۱۱-۲۲-۲۰۱۳ ۱۳:۱۳:۴۸","End":"۱۱-۲۲-۲۰۱۳ ۱۳:۱۳:۵۸"}}
{"Application":{"ProcessName":"com.lge.camera","Start":"۱۱-۲۲-۲۰۱۳ ۱۳:۱۳:۵۸","End":"۱۱-۲۲-۲۰۱۳ ۱۳:۱۴:۱۹"}}
{"Application":{"ProcessName":"com.android.gallery3d","Start":"۱۱-۲۲-۲۰۱۳ ۱۳:۱۴:۱۹","End":"۱۱-۲۲-۲۰۱۳ ۱۳:۱۴:۲۹"}}
{"Application":{"ProcessName":"com.lge.camera","Start":"۱۱-۲۲-۲۰۱۳ ۱۳:۱۴:۲۹","End":"۱۱-۲۲-۲۰۱۳ ۱۳:۱۵:۱۹"}}
{"Application":{"ProcessName":"com.android.gallery3d","Start":"۱۱-۲۲-۲۰۱۳ ۱۳:۱۵:۱۹","End":"۱۱-۲۲-۲۰۱۳ ۱۳:۱۵:۲۹"}}
{"Application":{"ProcessName":"com.lge.systemserver","Start":"۱۱-۲۲-۲۰۱۳ ۱۳:۱۰:۳۸","End":"۱۱-۲۲-۲۰۱۳ ۱۳:۱۵:۳۹"}}
{"Application":{"ProcessName":"com.lge.keepscreenon","Start":"۱۱-۲۲-۲۰۱۳ ۱۳:۱۰:۳۸","End":"۱۱-۲۲-۲۰۱۳ ۱۳:۱۵:۳۹"}}
{"Application":{"ProcessName":"com.lge.camera","Start":"۱۱-۲۲-۲۰۱۳ ۱۳:۱۵:۲۹","End":"۱۱-۲۲-۲۰۱۳ ۱۳:۱۶:۰۹"}}
{"Application":{"ProcessName":"com.android.gallery3d","Start":"۱۱-۲۲-۲۰۱۳ ۱۳:۱۶:۰۹","End":"۱۱-۲۲-۲۰۱۳ ۱۳:۱۶:۲۹"}}
{"Application":{"ProcessName":"com.lge.camera","Start":"۱۱-۲۲-۲۰۱۳ ۱۳:۱۶:۲۹","End":"۱۱-۲۲-۲۰۱۳ ۱۳:۱۸:۲۹"}}
{"Application":{"ProcessName":"com.android.gallery3d","Start":"۱۱-۲۲-۲۰۱۳ ۱۳:۱۸:۲۹","End":"۱۱-۲۲-۲۰۱۳ ۱۳:۱۸:۴۹"}}
{"Application":{"ProcessName":"com.lge.systemserver","Start":"۱۱-۲۲-۲۰۱۳ ۱۳:۱۵:۳۹","End":"۱۱-۲۲-۲۰۱۳ ۱۳:۲۰:۴۰"}}
{"Application":{"ProcessName":"com.lge.keepscreenon","Start":"۱۱-۲۲-۲۰۱۳ ۱۳:۱۵:۳۹","End":"۱۱-۲۲-۲۰۱۳ ۱۳:۲۰:۴۰"}}
{"Application":{"ProcessName":"com.lge.camera","Start":"۱۱-۲۲-۲۰۱۳ ۱۳:۱۸:۴۹","End":"۱۱-۲۲-۲۰۱۳ ۱۳:۲۲:۵۰"}}
{"Application":{"ProcessName":"com.android.gallery3d","Start":"۱۱-۲۲-۲۰۱۳ ۱۳:۲۲:۵۰","End":"۱۱-۲۲-۲۰۱۳ ۱۳:۲۳:۰۰"}}
{"Application":{"ProcessName":"com.lge.camera","Start":"۱۱-۲۲-۲۰۱۳ ۱۳:۲۳:۰۰","End":"۱۱-۲۲-۲۰۱۳ ۱۳:۲۳:۴۰"}}
{"Application":{"ProcessName":"com.android.gallery3d","Start":"۱۱-۲۲-۲۰۱۳ ۱۳:۲۳:۴۰","End":"۱۱-۲۲-۲۰۱۳ ۱۳:۲۴:۱۰"}}
{"Application":{"ProcessName":"com.android.gallery3d","Start":"۱۱-۲۲-۲۰۱۳ ۱۳:۲۴:۲۰","End":"۱۱-۲۲-۲۰۱۳ ۱۳:۲۴:۵۰"}}
{"Application":{"ProcessName":"com.lge.camera","Start":"۱۱-۲۲-۲۰۱۳ ۱۳:۲۴:۵۰","End":"۱۱-۲۲-۲۰۱۳ ۱۳:۲۵:۰۰"}}
{"Application":{"ProcessName":"com.lge.systemserver","Start":"۱۱-۲۲-۲۰۱۳ ۱۳:۲۰:۴۰","End":"۱۱-۲۲-۲۰۱۳ ۱۳:۲۵:۴۰"}}
{"Application":{"ProcessName":"com.lge.keepscreenon","Start":"۱۱-۲۲-۲۰۱۳ ۱۳:۲۰:۴۰","End":"۱۱-۲۲-۲۰۱۳ ۱۳:۲۵:۴۰"}}
{"Application":{"ProcessName":"com.android.gallery3d","Start":"۱۱-۲۲-۲۰۱{"Application":{"ProcessName":"com.lge.android.atservice","Start":"۱۱-۲۲-۲۰۱۳ ۱۴:۴۲:۲۵","End":"۱۱-۲۲-۲۰۱۳ ۱۴:۴۲:۳۵"}}
{"Application":{"ProcessName":"com.lge.launcher2","Start":"۱۱-۲۲-۲۰۱۳ ۱۴:۴۲:۱۵","End":"۱۱-۲۲-۲۰۱۳ ۱۴:۴۲:۳۵"}}
{"Application":{"ProcessName":"com.android.settings","Start":"۱۱-۲۲-۲۰۱۳ ۱۴:۴۲:۳۵","End":"۱۱-۲۲-۲۰۱۳ ۱۴:۴۲:۴۵"}}
{"Application":{"ProcessName":"com.lge.keepscreenon","Start":"۱۱-۲۲-۲۰۱۳ ۱۴:۴۲:۱۵","End":"۱۱-۲۲-۲۰۱۳ ۱۴:۴۳:۱۵"}}
{"Application":{"ProcessName":"com.lge.android.atservice","Start":"۱۱-۲۲-۲۰۱۳ ۱۴:۴۲:۵۵","End":"۱۱-۲۲-۲۰۱۳ ۱۴:۴۳:۱۵"}}
{"Application":{"ProcessName":"com.lge.launcher2","Start":"۱۱-۲۲-۲۰۱۳ ۱۴:۴۲:۴۵","End":"۱۱-۲۲-۲۰۱۳ ۱۴:۴۳:۱۵"}}
{"Application":{"ProcessName":"com.lge.systemserver","Start":"۱۱-۲۲-۲۰۱۳ ۱۴:۴۲:۱۵","End":"۱۱-۲۲-۲۰۱۳ ۱۴:۴۳:۱۵"}}
{"Application":{"ProcessName":"com.lge.sizechangable.weather","Start":"۱۱-۲۲-۲۰۱۳ ۱۴:۴۹:۲۷","End":"۱۱-۲۲-۲۰۱۳ ۱۴:۴۹:۲۷"}}
{"Application":{"ProcessName":"com.lge.launcher2","Start":"۱۱-۲۲-۲۰۱۳ ۱۴:۴۸:۲۵","End":"۱۱-۲۲-۲۰۱۳ ۱۴:۴۹:۳۷"}}
{"Application":{"ProcessName":"com.lge.camera","Start":"۱۱-۲۲-۲۰۱۳ ۱۴:۴۹:۳۷","End":"۱۱-۲۲-۲۰۱۳ ۱۴:۴۹:۴۷"}}
{"Application":{"ProcessName":"com.android.gallery3d","Start":"۱۱-۲۲-۲۰۱۳ ۱۴:۴۹:۴۷","End":"۱۱-۲۲-۲۰۱۳ ۱۴:۴۹:۵۷"}}
{"Application":{"ProcessName":"com.lge.camera","Start":"۱۱-۲۲-۲۰۱۳ ۱۴:۴۹:۵۷","End":"۱۱-۲۲-۲۰۱۳ ۱۴:۵۰:۰۷"}}
{"Application":{"ProcessName":"com.lge.keepscreenon","Start":"۱۱-۲۲-۲۰۱۳ ۱۴:۴۸:۲۵","End":"۱۱-۲۲-۲۰۱۳ ۱۴:۵۰:۵۷"}}
{"Application":{"ProcessName":"com.lge.launcher2","Start":"۱۱-۲۲-۲۰۱۳ ۱۴:۵۰:۰۷","End":"۱۱-۲۲-۲۰۱۳ ۱۴:۵۰:۵۷"}}
{"Application":{"ProcessName":"com.lge.systemserver","Start":"۱۱-۲۲-۲۰۱۳ ۱۴:۴۸:۲۵","End":"۱۱-۲۲-۲۰۱۳ ۱۴:۵۰:۵۷"}}
{"Application":{"ProcessName":"com.lge.launcher2","Start":"۱۱-۲۲-۲۰۱۳ ۱۵:۳۷:۰۲","End":"۱۱-۲۲-۲۰۱۳ ۱۵:۳۷:۱۲"}}
{"Application":{"ProcessName":"com.lge.videoplayer","Start":"۱۱-۲۲-۲۰۱۳ ۱۵:۳۷:۱۲","End":"۱۱-۲۲-۲۰۱۳ ۱۵:۳۹:۰۲"}}
{"Application":{"ProcessName":"com.lge.launcher2","Start":"۱۱-۲۲-۲۰۱۳ ۱۵:۳۹:۰۲","End":"۱۱-۲۲-۲۰۱۳ ۱۵:۳۹:۱۲"}}
{"Application":{"ProcessName":"com.lge.keepscreenon","Start":"۱۱-۲۲-۲۰۱۳ ۱۵:۳۷:۰۲","End":"۱۱-۲۲-۲۰۱۳ ۱۵:۴۲:۰۳"}}
{"Application":{"ProcessName":"com.lge.systemserver","Start":"۱۱-۲۲-۲۰۱۳ ۱۵:۳۷:۰۲","End":"۱۱-۲۲-۲۰۱۳ ۱۵:۴۲:۰۳"}}
{"Application":{"ProcessName":"com.mxtech.videoplayer.ad","Start":"۱۱-۲۲-۲۰۱۳ ۱۵:۳۹:۱۲","End":"۱۱-۲۲-۲۰۱۳ ۱۵:۴۲:۱۳"}}
{"Application":{"ProcessName":"com.lge.launcher2","Start":"۱۱-۲۲-۲۰۱۳ ۱۶:۰۱:۱۲","End":"۱۱-۲۲-۲۰۱۳ ۱۶:۰۱:۲۲"}}
{"Application":{"ProcessName":"com.android.gallery3d","Start":"۱۱-۲۲-۲۰۱۳ ۱۶:۰۱:۲۲","End":"۱۱-۲۲-۲۰۱۳ ۱۶:۰۱:۳۲"}}
{"Application":{"ProcessName":"com.lge.launcher2","Start":"۱۱-۲۲-۲۰۱۳ ۱۶:۰۱:۳۲","End":"۱۱-۲۲-۲۰۱۳ ۱۶:۰۱:۴۲"}}
{"Application":{"ProcessName":"com.android.gallery3d","Start":"۱۱-۲۲-۲۰۱۳ ۱۶:۰۱:۴۲","End":"۱۱-۲۲-۲۰۱۳ ۱۶:۰۳:۵۲"}}
{"Application":{"ProcessName":"com.android.settings","Start":"۱۱-۲۲-۲۰۱۳ ۱۶:۰۳:۵۲","End":"۱۱-۲۲-۲۰۱۳ ۱۶:۰۴:۱۲"}}
{"Application":{"ProcessName":"com.lge.android.atservice","Start":"۱۱-۲۲-۲۰۱۳ ۱۶:۰۳:۵۲","End":"۱۱-۲۲-۲۰۱۳ ۱۶:۰۴:۱۲"}}
{"Application":{"ProcessName":"com.lge.keepscreenon","Start":"۱۱-۲۲-۲۰۱۳ ۱۶:۰۱:۱۲","End":"۱۱-۲۲-۲۰۱۳ ۱۶:۰۴:۴۳"}}
{"Application":{"ProcessName":"com.lge.android.atservice","Start":"۱۱-۲۲-۲۰۱۳ ۱۶:۰۴:۲۳","End":"۱۱-۲۲-۲۰۱۳ ۱۶:۰۴:۴۳"}}
{"Application":{"ProcessName":"com.lge.launcher2","Start":"۱۱-۲۲-۲۰۱۳ ۱۶:۰۴:۱۲","End":"۱۱-۲۲-۲۰۱۳ ۱۶:۰۴:۴۳"}}
{"Application":{"ProcessName":"com.lge.systemserver","Start":"۱۱-۲۲-۲۰۱۳ ۱۶:۰۱:۱۲","End":"۱۱-۲۲-۲۰۱۳ ۱۶:۰۴:۴۳"}}
{"Application":{"ProcessName":"com.lge.launcher2","Start":"۱۱-۲۲-۲۰۱۳ ۱۶:۰۷:۱۳","End":"۱۱-۲۲-۲۰۱۳ ۱۶:۰۸:۱۳"}}
{"Application":{"ProcessName":"com.android.gallery3d","Start":"۱۱-۲۲-۲۰۱۳ ۱۶:۰۸:۱۳","End":"۱۱-۲۲-۲۰۱۳ ۱۶:۰۹:۴۳"}}
{"Application":{"ProcessName":"com.lge.keepscreenon","Start":"۱۱-۲۲-۲۰۱۳ ۱۶:۰۷:۱۳","End":"۱۱-۲۲-۲۰۱۳ ۱۶:۱۲:۱۱"}}
{"Application":{"ProcessName":"com.lge.launcher2","Start":"۱۱-۲۲-۲۰۱۳ ۱۶:۰۹:۴۳","End":"۱۱-۲۲-۲۰۱۳ ۱۶:۱۲:۱۱"}}
{"Application":{"ProcessName":"com.lge.systemserver","Start":"۱۱-۲۲-۲۰۱۳ ۱۶:۰۷:۱۳","End":"۱۱-۲۲-۲۰۱۳ ۱۶:۱۲:۱۱"}}
{"Application":{"ProcessName":"com.lge.keepscreenon","Start":"۱۱-۲۲-۲۰۱۳ ۱۶:۱۶:۳۷","End":"۱۱-۲۲-۲۰۱۳ ۱۶:۱۸:۳۲"}}
{"Application":{"ProcessName":"com.lge.systemserver","Start":"۱۱-۲۲-۲۰۱۳ ۱۶:۱۶:۳۷","End":"۱۱-۲۲-۲۰۱۳ ۱۶:۱۸:۳۲"}}
{"Application":{"ProcessName":"com.lge.launcher2","Start":"۱۱-۲۲-۲۰۱۳ ۱۶:۱۶:۳۷","End":"۱۱-۲۲-۲۰۱۳ ۱۶:۱۸:۳۲"}}
{"Application":{"ProcessName":"com.lge.sizechangable.weather","Start":"۱۱-۲۲-۲۰۱۳ ۱۶:۲۶:۴۲","End":"۱۱-۲۲-۲۰۱۳ ۱۶:۲۶:۴۲"}}
{"Application":{"ProcessName":"com.lge.keepscreenon","Start":"۱۱-۲۲-۲۰۱۳ ۱۶:۲۶:۴۲","End":"۱۱-۲۲-۲۰۱۳ ۱۶:۲۶:۵۲"}}
{"Application":{"ProcessName":"com.lge.systemserver","Start":"۱۱-۲۲-۲۰۱۳ ۱۶:۲۶:۴۲","End":"۱۱-۲۲-۲۰۱۳ ۱۶:۲۶:۵۲"}}
{"Application":{"ProcessName":"com.lge.launcher2","Start":"۱۱-۲۲-۲۰۱۳ ۱۶:۲۶:۴۲","End":"۱۱-۲۲-۲۰۱۳ ۱۶:۲۶:۵۲"}}
{"Application":{"ProcessName":"com.lge.keepscreenon","Start":"۱۱-۲۲-۲۰۱۳ ۱۷:۲۳:۳۵","End":"۱۱-۲۲-۲۰۱۳ ۱۷:۲۳:۴۵"}}
{"Application":{"ProcessName":"com.lge.systemserver","Start":"۱۱-۲۲-۲۰۱۳ ۱۷:۲۳:۳۵","End":"۱۱-۲۲-۲۰۱۳ ۱۷:۲۳:۴۵"}}
{"Call": {"Number":"+98919863####","Duration":"27","Time":"۱۱-۲۲-۲۰۱۳ ۱۷:۲۳:۲۸","Type":"1"}}
{"Call": {"Number":"+98919863####","Duration":"27","Time":"۱۱-۲۲-۲۰۱۳ ۱۷:۲۳:۲۸","Type":"1"}}
{"Call": {"Number":"+98919863####","Duration":"27","Time":"۱۱-۲۲-۲۰۱۳ ۱۷:۲۳:۲۸","Type":"1"}}
{"Call": {"Number":"+98919863####","Duration":"27","Time":"۱۱-۲۲-۲۰۱۳ ۱۷:۲۳:۲۸","Type":"1"}}
{"Call": {"Number":"+98919863####","Duration":"27","Time":"۱۱-۲۲-۲۰۱۳ ۱۷:۲۳:۲۸","Type":"1"}}
{"Call": {"Number":"+98919863####","Duration":"27","Time":"۱۱-۲۲-۲۰۱۳ ۱۷:۲۳:۲۸","Type":"1"}}
{"Application":{"ProcessName":"com.lge.keepscreenon","Start":"۱۱-۲۲-۲۰۱۳ ۱۷:۲۴:۱۷","End":"۱۱-۲۲-۲۰۱۳ ۱۷:۲۵:۰۶"}}
{"Application":{"ProcessName":"com.lge.systemserver","Start":"۱۱-۲۲-۲۰۱۳ ۱۷:۲۴:۱۷","End":"۱۱-۲۲-۲۰۱۳ ۱۷:۲۵:۰۶"}}
{"Application":{"ProcessName":"com.lge.launcher2","Start":"۱۱-۲۲-۲۰۱۳ ۱۷:۲۴:۱۷","End":"۱۱-۲۲-۲۰۱۳ ۱۷:۲۵:۰۶"}}
{"Application":{"ProcessName":"com.lge.keepscreenon","Start":"۱۱-۲۲-۲۰۱۳ ۱۷:۲۵:۲۴","End":"۱۱-۲۲-۲۰۱۳ ۱۷:۲۶:۳۶"}}
{"Application":{"ProcessName":"com.lge.systemserver","Start":"۱۱-۲۲-۲۰۱۳ ۱۷:۲۵:۲۴","End":"۱۱-۲۲-۲۰۱۳ ۱۷:۲۶:۳۶"}}
{"Application":{"ProcessName":"com.lge.launcher2","Start":"۱۱-۲۲-۲۰۱۳ ۱۷:۲۵:۲۴","End":"۱۱-۲۲-۲۰۱۳ ۱۷:۲۶:۳۶"}}
{"Application":{"ProcessName":"com.lge.launcher2","Start":"۱۱-۲۲-۲۰۱۳ ۱۷:۳۳:۵۱","End":"۱۱-۲۲-۲۰۱۳ ۱۷:۳۴:۰۱"}}
{"Application":{"ProcessName":"com.lge.keepscreenon","Start":"۱۱-۲۲-۲۰۱۳ ۱۷:۳۳:۵۱","End":"۱۱-۲۲-۲۰۱۳ ۱۷:۳۶:۱۴"}}
{"Application":{"ProcessName":"com.android.gallery3d","Start":"۱۱-۲۲-۲۰۱۳ ۱۷:۳۴:۰۱","End":"۱۱-۲۲-۲۰۱۳ ۱۷:۳۶:۱۴"}}
{"Application":{"ProcessName":"com.lge.systemserver","Start":"۱۱-۲۲-۲۰۱۳ ۱۷:۳۳:۵۱","End":"۱۱-۲۲-۲۰۱۳ ۱۷:۳۶:۱۴"}}
{"Application":{"ProcessName":"com.lge.keepscreenon","Start":"۱۱-۲۲-۲۰۱۳ ۱۷:۵۶:۰۴","End":"۱۱-۲۲-۲۰۱۳ ۱۷:۵۶:۳۴"}}
{"Application":{"ProcessName":"com.lge.systemserver","Start":"۱۱-۲۲-۲۰۱۳ ۱۷:۵۶:۰۴","End":"۱۱-۲۲-۲۰۱۳ ۱۷:۵۶:۳۴"}}
{"Application":{"ProcessName":"com.lge.launcher2","Start":"۱۱-۲۲-۲۰۱۳ ۱۷:۵۶:۰۴","End":"۱۱-۲۲-۲۰۱۳ ۱۷:۵۶:۳۴"}}
{"Call": {"Number":"+98919863####","Duration":"27","Time":"۱۱-۲۲-۲۰۱۳ ۱۷:۲۳:۲۸","Type":"1"}}
{"Application":{"ProcessName":"com.android.contacts","Start":"۱۱-۲۲-۲۰۱۳ ۱۷:۵۶:۴۶","End":"۱۱-۲۲-۲۰۱۳ ۱۷:۵۶:۵۶"}}
{"Application":{"ProcessName":"com.lge.keepscreenon","Start":"۱۱-۲۲-۲۰۱۳ ۱۷:۵۶:۴۶","End":"۱۱-۲۲-۲۰۱۳ ۱۷:۵۷:۰۶"}}
{"Application":{"ProcessName":"com.lge.systemserver","Start":"۱۱-۲۲-۲۰۱۳ ۱۷:۵۶:۴۶","End":"۱۱-۲۲-۲۰۱۳ ۱۷:۵۷:۰۶"}}
{"Call": {"Number":"+98935236####","Duration":"34","Time":"۱۱-۲۲-۲۰۱۳ ۱۷:۵۶:۵۵","Type":"2"}}
{"Call": {"Number":"+98935236####","Duration":"34","Time":"۱۱-۲۲-۲۰۱۳ ۱۷:۵۶:۵۵","Type":"2"}}
{"Call": {"Number":"+98935236####","Duration":"34","Time":"۱۱-۲۲-۲۰۱۳ ۱۷:۵۶:۵۵","Type":"2"}}
{"Application":{"ProcessName":"com.lge.launcher2","Start":"۱۱-۲۲-۲۰۱۳ ۱۷:۵۸:۰۷","End":"۱۱-۲۲-۲۰۱۳ ۱۷:۵۸:۵۷"}}
{"Application":{"ProcessName":"com.lge.keepscreenon","Start":"۱۱-۲۲-۲۰۱۳ ۱۷:۵۸:۰۷","End":"۱۱-۲۲-۲۰۱۳ ۱۷:۵۹:۲۲"}}
{"Application":{"ProcessName":"com.lge.camera","Start":"۱۱-۲۲-۲۰۱۳ ۱۷:۵۸:۵۷","End":"۱۱-۲۲-۲۰۱۳ ۱۷:۵۹:۲۲"}}
{"Application":{"ProcessName":"com.lge.systemserver","Start":"۱۱-۲۲-۲۰۱۳ ۱۷:۵۸:۰۷","End":"۱۱-۲۲-۲۰۱۳ ۱۷:۵۹:۲۲"}}
{"Application":{"ProcessName":"com.lge.launcher2","Start":"۱۱-۲۲-۲۰۱۳ ۱۷:۵۹:۳۲","End":"۱۱-۲۲-۲۰۱۳ ۱۷:۵۹:۴۲"}}
{"SMS":{"Address":"0919 554 ####","type":"2","date":"۱۱-۲۲-۲۰۱۳ ۱۷:۵۹:۵۶","body":"ANONYMIZED","Type":"2", "metadata": {"name": "آرزو جان"}}}
{"Application":{"ProcessName":"com.android.mms","Start":"۱۱-۲۲-۲۰۱۳ ۱۷:۵۹:۴۲","End":"۱۱-۲۲-۲۰۱۳ ۱۸:۰۰:۰۲"}}
{"Call": {"Number":"+98935236####","Duration":"34","Time":"۱۱-۲۲-۲۰۱۳ ۱۷:۵۶:۵۵","Type":"2"}}
{"Application":{"ProcessName":"com.android.contacts","Start":"۱۱-۲۲-۲۰۱۳ ۱۸:۰۰:۰۲","End":"۱۱-۲۲-۲۰۱۳ ۱۸:۰۰:۱۲"}}
{"Application":{"ProcessName":"com.lge.keepscreenon","Start":"۱۱-۲۲-۲۰۱۳ ۱۷:۵۹:۳۲","End":"۱۱-۲۲-۲۰۱۳ ۱۸:۰۰:۱۲"}}
{"Application":{"ProcessName":"com.lge.systemserver","Start":"۱۱-۲۲-۲۰۱۳ ۱۷:۵۹:۳۲","End":"۱۱-۲۲-۲۰۱۳ ۱۸:۰۰:۱۲"}}
{"Application":{"ProcessName":"com.lge.launcher2","Start":"۱۱-۲۲-۲۰۱۳ ۱۸:۰۸:۲۷","End":"۱۱-۲۲-۲۰۱۳ ۱۸:۰۸:۳۷"}}
{"SMS":{"Address":"0919 554 ####","type":"2","date":"۱۱-۲۲-۲۰۱۳ ۱۸:۰۸:۴۴","body":"ANONYMIZED","Type":"2", "metadata": {"name": "آرزو جان"}}}
{"Application":{"ProcessName":"com.android.mms","Start":"۱۱-۲۲-۲۰۱۳ ۱۸:۰۸:۳۷","End":"۱۱-۲۲-۲۰۱۳ ۱۸:۰۹:۰۹"}}
{"Application":{"ProcessName":"com.lge.keepscreenon","Start":"۱۱-۲۲-۲۰۱۳ ۱۸:۰۸:۲۷","End":"۱۱-۲۲-۲۰۱۳ ۱۸:۰۹:۰۹"}}
{"Application":{"ProcessName":"com.lge.systemserver","Start":"۱۱-۲۲-۲۰۱۳ ۱۸:۰۸:۲۷","End":"۱۱-۲۲-۲۰۱۳ ۱۸:۰۹:۰۹"}}
{"SMS":{"Address":"+98919554####","type":"1","date":"۱۱-۲۲-۲۰۱۳ ۱۸:۱۰:۰۶","body":"ANONYMIZED","Type":"1", "metadata": {"name": "آرزو جان"}}}
{"Application":{"ProcessName":"com.lge.launcher2","Start":"۱۱-۲۲-۲۰۱۳ ۱۸:۱۰:۱۴","End":"۱۱-۲۲-۲۰۱۳ ۱۸:۱۰:۲۴"}}
{"Application":{"ProcessName":"com.lge.launcher2","Start":"۱۱-۲۲-۲۰۱۳ ۱۸:۱۰:۲۴","End":"۱۱-۲۲-۲۰۱۳ ۱۸:۱۰:۳۴"}}
{"SMS":{"Address":"0919 554 ####","type":"2","date":"۱۱-۲۲-۲۰۱۳ ۱۸:۱۰:۴۴","body":"ANONYMIZED","Type":"2", "metadata": {"name": "آرزو جان"}}}
{"Application":{"ProcessName":"com.android.mms","Start":"۱۱-۲۲-۲۰۱۳ ۱۸:۱۰:۲۴","End":"۱۱-۲۲-۲۰۱۳ ۱۸:۱۱:۰۰"}}
{"Application":{"ProcessName":"com.lge.keepscreenon","Start":"۱۱-۲۲-۲۰۱۳ ۱۸:۱۰:۱۴","End":"۱۱-۲۲-۲۰۱۳ ۱۸:۱۱:۰۰"}}
{"Application":{"ProcessName":"com.lge.systemserver","Start":"۱۱-۲۲-۲۰۱۳ ۱۸:۱۰:۱۴","End":"۱۱-۲۲-۲۰۱۳ ۱۸:۱۱:۰۰"}}
{"SMS":{"Address":"+98919554####","type":"1","date":"۱۱-۲۲-۲۰۱۳ ۱۸:۱۱:۵۲","body":"ANONYMIZED","Type":"1", "metadata": {"name": "آرزو جان"}}}
{"Application":{"ProcessName":"com.lge.launcher2","Start":"۱۱-۲۲-۲۰۱۳ ۱۸:۱۲:۰۰","End":"۱۱-۲۲-۲۰۱۳ ۱۸:۱۲:۱۰"}}
{"SMS":{"Address":"0919 554 ####","type":"2","date":"۱۱-۲۲-۲۰۱۳ ۱۸:۱۳:۰۵","body":"ANONYMIZED","Type":"2", "metadata": {"name": "آرزو جان"}}}
{"SMS":{"Address":"+98919554####","type":"1","date":"۱۱-۲۲-۲۰۱۳ ۱۸:۱۳:۴۱","body":"ANONYMIZED","Type":"1", "metadata": {"name": "آرزو جان"}}}
{"Application":{"ProcessName":"com.android.mms","Start":"۱۱-۲۲-۲۰۱۳ ۱۸:۱۲:۱۰","End":"۱۱-۲۲-۲۰۱۳ ۱۸:۱۳:۴۴"}}
{"Application":{"ProcessName":"com.lge.launcher2","Start":"۱۱-۲۲-۲۰۱۳ ۱۸:۱۳:۴۴","End":"۱۱-۲۲-۲۰۱۳ ۱۸:۱۳:۵۴"}}
{"SMS":{"Address":"0919 554 ####","type":"2","date":"۱۱-۲۲-۲۰۱۳ ۱۸:۱۴:۳۴","body":"ANONYMIZED","Type":"2", "metadata": {"name": "آرزو جان"}}}
{"Application":{"ProcessName":"com.android.mms","Start":"۱۱-۲۲-۲۰۱۳ ۱۸:۱۳:۵۴","End":"۱۱-۲۲-۲۰۱۳ ۱۸:۱۴:۵۱"}}
{"Application":{"ProcessName":"com.lge.keepscreenon","Start":"۱۱-۲۲-۲۰۱۳ ۱۸:۱۲:۰۰","End":"۱۱-۲۲-۲۰۱۳ ۱۸:۱۴:۵۱"}}
{"Application":{"ProcessName":"com.lge.systemserver","Start":"۱۱-۲۲-۲۰۱۳ ۱۸:۱۲:۰۰","End":"۱۱-۲۲-۲۰۱۳ ۱۸:۱۴:۵۱"}}
{"SMS":{"Address":"+98919554####","type":"1","date":"۱۱-۲۲-۲۰۱۳ ۱۸:۱۵:۵۲","body":"ANONYMIZED","Type":"1", "metadata": {"name": "آرزو جان"}}}
{"Application":{"ProcessName":"com.macropinch.pearl:remote","Start":"۱۱-۲۲-۲۰۱۳ ۱۸:۱۵:۵۳","End":"۱۱-۲۲-۲۰۱۳ ۱۸:۱۵:۵۳"}}
{"Application":{"ProcessName":"com.android.mms","Start":"۱۱-۲۲-۲۰۱۳ ۱۸:۱۵:۵۳","End":"۱۱-۲۲-۲۰۱۳ ۱۸:۱۶:۰۲"}}
{"Application":{"ProcessName":"com.lge.keepscreenon","Start":"۱۱-۲۲-۲۰۱۳ ۱۸:۱۵:۵۳","End":"۱۱-۲۲-۲۰۱۳ ۱۸:۱۶:۰۳"}}
{"Application":{"ProcessName":"com.lge.systemserver","Start":"۱۱-۲۲-۲۰۱۳ ۱۸:۱۵:۵۳","End":"۱۱-۲۲-۲۰۱۳ ۱۸:۱۶:۰۳"}}
{"Application":{"ProcessName":"com.lge.launcher2","Start":"۱۱-۲۲-۲۰۱۳ ۱۸:۱۵:۵۳","End":"۱۱-۲۲-۲۰۱۳ ۱۸:۱۶:۰۳"}}
{"Application":{"ProcessName":"com.lge.launcher2","Start":"۱۱-۲۲-۲۰۱۳ ۱۸:۱۹:۴۵","End":"۱۱-۲۲-۲۰۱۳ ۱۸:۱۹:۴۶"}}
{"SMS":{"Address":"0919 554 ####","type":"2","date":"۱۱-۲۲-۲۰۱۳ ۱۸:۲۰:۲۱","body":"ANONYMIZED","Type":"2", "metadata": {"name": "آرزو جان"}}}
{"Application":{"ProcessName":"com.android.mms","Start":"۱۱-۲۲-۲۰۱۳ ۱۸:۱۹:۴۶","End":"۱۱-۲۲-۲۰۱۳ ۱۸:۲۰:۵۲"}}
{"Application":{"ProcessName":"com.lge.keepscreenon","Start":"۱۱-۲۲-۲۰۱۳ ۱۸:۱۹:۴۵","End":"۱۱-۲۲-۲۰۱۳ ۱۸:۲۰:۵۲"}}
{"Application":{"ProcessName":"com.lge.systemserver","Start":"۱۱-۲۲-۲۰۱۳ ۱۸:۱۹:۴۵","End":"۱۱-۲۲-۲۰۱۳ ۱۸:۲۰:۵۲"}}
{"Application":{"ProcessName":"com.lge.launcher2","Start":"۱۱-۲۲-۲۰۱۳ ۱۸:۵۲:۱۶","End":"۱۱-۲۲-۲۰۱۳ ۱۸:۵۲:۲۴"}}
{"Application":{"ProcessName":"com.lge.camera","Start":"۱۱-۲۲-۲۰۱۳ ۱۸:۵۲:۲۴","End":"۱۱-۲۲-۲۰۱۳ ۱۸:۵۳:۲۴"}}
{"Application":{"ProcessName":"com.lge.keepscreenon","Start":"۱۱-۲۲-۲۰۱۳ ۱۸:۵۲:۱۶","End":"۱۱-۲۲-۲۰۱۳ ۱۸:۵۴:۰۷"}}
{"Application":{"ProcessName":"com.android.gallery3d","Start":"۱۱-۲۲-۲۰۱۳ ۱۸:۵۳:۲۴","End":"۱۱-۲۲-۲۰۱۳ ۱۸:۵۴:۰۷"}}
{"Application":{"ProcessName":"com.lge.systemserver","Start":"۱۱-۲۲-۲۰۱۳ ۱۸:۵۲:۱۶","End":"۱۱-۲۲-۲۰۱۳ ۱۸:۵۴:۰۷"}}
{"Application":{"ProcessName":"com.lge.launcher2","Start":"۱۱-۲۲-۲۰۱۳ ۱۹:۰۸:۵۳","End":"۱۱-۲۲-۲۰۱۳ ۱۹:۰۹:۰۲"}}
{"Application":{"ProcessName":"com.lge.sizechangable.weather","Start":"۱۱-۲۲-۲۰۱۳ ۱۹:۰۸:۵۳","End":"۱۱-۲۲-۲۰۱۳ ۱۹:۰۹:۰۲"}}
{"Application":{"ProcessName":"com.android.contacts","Start":"۱۱-۲۲-۲۰۱۳ ۱۹:۰۹:۰۲","End":"۱۱-۲۲-۲۰۱۳ ۱۹:۰۹:۱۲"}}
{"Application":{"ProcessName":"com.lge.keepscreenon","Start":"۱۱-۲۲-۲۰۱۳ ۱۹:۰۸:۵۳","End":"۱۱-۲۲-۲۰۱۳ ۱۹:۰۹:۲۲"}}
{"Application":{"ProcessName":"com.lge.systemserver","Start":"۱۱-۲۲-۲۰۱۳ ۱۹:۰۸:۵۳","End":"۱۱-۲۲-۲۰۱۳ ۱۹:۰۹:۲۲"}}
{"Call": {"Number":"+98935236####","Duration":"99","Time":"۱۱-۲۲-۲۰۱۳ ۱۹:۰۹:۰۶","Type":"2"}}
{"Call": {"Number":"+98935236####","Duration":"99","Time":"۱۱-۲۲-۲۰۱۳ ۱۹:۰۹:۰۶","Type":"2"}}
{"Application":{"ProcessName":"com.lge.keepscreenon","Start":"۱۱-۲۲-۲۰۱۳ ۱۹:۱۱:۱۳","End":"۱۱-۲۲-۲۰۱۳ ۱۹:۱۲:۵۳"}}
{"Application":{"ProcessName":"com.android.contacts","Start":"۱۱-۲۲-۲۰۱۳ ۱۹:۱۱:۱۳","End":"۱۱-۲۲-۲۰۱۳ ۱۹:۱۲:۵۳"}}
{"Application":{"ProcessName":"com.lge.systemserver","Start":"۱۱-۲۲-۲۰۱۳ ۱۹:۱۱:۱۳","End":"۱۱-۲۲-۲۰۱۳ ۱۹:۱۲:۵۳"}}
{"SMS":{"Address":"+987026","type":"1","date":"۱۱-۲۲-۲۰۱۳ ۲۰:۴۳:۱۱","body":"ANONYMIZED","Type":"1", "metadata": {"name": ""}}}
{"Application":{"ProcessName":"com.android.contacts","Start":"۱۱-۲۲-۲۰۱۳ ۲۰:۴۳:۱۲","End":"۱۱-۲۲-۲۰۱۳ ۲۰:۴۳:۲۲"}}
{"SMS":{"Address":"0919 554 ####","type":"2","date":"۱۱-۲۲-۲۰۱۳ ۱۸:۲۰:۲۱","body":"ANONYMIZED","Type":"2", "metadata": {"name": "آرزو جان"}}}
{"Application":{"ProcessName":"com.android.mms","Start":"۱۱-۲۲-۲۰۱۳ ۲۰:۴۳:۱۲","End":"۱۱-۲۲-۲۰۱۳ ۲۰:۴۳:۳۲"}}
{"Call": {"Number":"+98935236####","Duration":"99","Time":"۱۱-۲۲-۲۰۱۳ ۱۹:۰۹:۰۶","Type":"2"}}
{"Call": {"Number":"+98935236####","Duration":"99","Time":"۱۱-۲۲-۲۰۱۳ ۱۹:۰۹:۰۶","Type":"2"}}
{"Application":{"ProcessName":"com.android.contacts","Start":"۱۱-۲۲-۲۰۱۳ ۲۰:۴۳:۳۲","End":"۱۱-۲۲-۲۰۱۳ ۲۰:۴۴:۳۰"}}
{"Application":{"ProcessName":"com.lge.keepscreenon","Start":"۱۱-۲۲-۲۰۱۳ ۲۰:۴۳:۱۲","End":"۱۱-۲۲-۲۰۱۳ ۲۰:۴۴:۳۰"}}
{"Application":{"ProcessName":"com.lge.systemserver","Start":"۱۱-۲۲-۲۰۱۳ ۲۰:۴۳:۱۲","End":"۱۱-۲۲-۲۰۱۳ ۲۰:۴۴:۳۰"}}
{"WiFi":{"SSID":"ORS","BSSID":"04:c0:6f:5f:a9:d2","capabilities":"[WPA-PSK-CCMP][WPA2-PSK-CCMP][WPS][ESS]","level":"-74","frequency":"2442","time":"جمعه ۲۲ نوامبر ۲۰۱۳ ۲۲:۲۲:۳۷ (وقت عادی ایران)"}}
{"WiFi":{"SSID":"Irancell-01EC25","BSSID":"98:42:46:01:ec:25","capabilities":"[WPS][WEP][ESS]","level":"-90","frequency":"2462","time":"جمعه ۲۲ نوامبر ۲۰۱۳ ۲۲:۲۲:۳۷ (وقت عادی ایران)"}}
{"WiFi":{"SSID":"39DD76","BSSID":"00:1f:fb:39:dd:76","capabilities":"[WEP][ESS]","level":"-92","frequency":"2472","time":"جمعه ۲۲ نوامبر ۲۰۱۳ ۲۲:۲۲:۳۷ (وقت عادی ایران)"}}
{"WiFi":{"SSID":"ORS","BSSID":"04:c0:6f:5f:a9:d2","capabilities":"[WPA-PSK-CCMP][WPA2-PSK-CCMP][WPS][ESS]","level":"-74","frequency":"2442","time":"جمعه ۲۲ نوامبر ۲۰۱۳ ۲۲:۲۲:۳۷ (وقت عادی ایران)"}}
{"WiFi":{"SSID":"Irancell-01EC25","BSSID":"98:42:46:01:ec:25","capabilities":"[WPS][WEP][ESS]","level":"-90","frequency":"2462","time":"جمعه ۲۲ نوامبر ۲۰۱۳ ۲۲:۲۲:۳۷ (وقت عادی ایران)"}}
{"WiFi":{"SSID":"39DD76","BSSID":"00:1f:fb:39:dd:76","capabilities":"[WEP][ESS]","level":"-92","frequency":"2472","time":"جمعه ۲۲ نوامبر ۲۰۱۳ ۲۲:۲۲:۳۷ (وقت عادی ایران)"}}
{"Application":{"ProcessName":"com.lge.launcher2","Start":"۱۱-۲۲-۲۰۱۳ ۲۲:۲۲:۲۷","End":"۱۱-۲۲-۲۰۱۳ ۲۲:۲۲:۳۸"}}
{"Application":{"ProcessName":"com.android.settings","Start":"۱۱-۲۲-۲۰۱۳ ۲۲:۲۲:۳۸","End":"۱۱-۲۲-۲۰۱۳ ۲۲:۲۲:۴۷"}}
{"Application":{"ProcessName":"com.lge.mlt","Start":"۱۱-۲۲-۲۰۱۳ ۲۲:۲۲:۴۸","End":"۱۱-۲۲-۲۰۱۳ ۲۲:۲۲:۵۷"}}
{"Application":{"ProcessName":"com.yahoo.mobile.client.android.mail","Start":"۱۱-۲۲-۲۰۱۳ ۲۲:۲۲:۵۷","End":"۱۱-۲۲-۲۰۱۳ ۲۲:۲۲:۵۸"}}
{"Application":{"ProcessName":"com.lge.lgdmsclient","Start":"۱۱-۲۲-۲۰۱۳ ۲۲:۲۲:۵۸","End":"۱۱-۲۲-۲۰۱۳ ۲۲:۲۲:۵۸"}}
{"Application":{"ProcessName":"com.yahoo.mobile.client.android.mail:com.yahoo.snp.service","Start":"۱۱-۲۲-۲۰۱۳ ۲۲:۲۲:۵۸","End":"۱۱-۲۲-۲۰۱۳ ۲۲:۲۳:۰۷"}}
{"Application":{"ProcessName":"com.lge.launcher2","Start":"۱۱-۲۲-۲۰۱۳ ۲۲:۲۲:۴۷","End":"۱۱-۲۲-۲۰۱۳ ۲۲:۲۳:۱۷"}}
{"Application":{"ProcessName":"com.android.settings","Start":"۱۱-۲۲-۲۰۱۳ ۲۲:۲۳:۱۷","End":"۱۱-۲۲-۲۰۱۳ ۲۲:۲۳:۲۷"}}
{"Application":{"ProcessName":"com.lge.launcher2","Start":"۱۱-۲۲-۲۰۱۳ ۲۲:۲۳:۲۷","End":"۱۱-۲۲-۲۰۱۳ ۲۲:۲۳:۵۷"}}
{"Application":{"ProcessName":"com.android.settings","Start":"۱۱-۲۲-۲۰۱۳ ۲۲:۲۳:۵۷","End":"۱۱-۲۲-۲۰۱۳ ۲۲:۲۴:۱۷"}}
{"Application":{"ProcessName":"com.lge.launcher2","Start":"۱۱-۲۲-۲۰۱۳ ۲۲:۲۴:۱۷","End":"۱۱-۲۲-۲۰۱۳ ۲۲:۲۴:۲۷"}}
{"Application":{"ProcessName":"com.tencent.mm","Start":"۱۱-۲۲-۲۰۱۳ ۲۲:۲۴:۲۷","End":"۱۱-۲۲-۲۰۱۳ ۲۲:۲۴:۲۹"}}
{"WiFi":{"SSID":"mobinnet6481","BSSID":"00:0d:f0:a6:c8:6d","capabilities":"[WPA-PSK-TKIP][ESS]","level":"-61","frequency":"2417","time":"جمعه ۲۲ نوامبر ۲۰۱۳ ۲۲:۲۴:۳۷ (وقت عادی ایران)"}}
{"WiFi":{"SSID":"ORS","BSSID":"04:c0:6f:5f:a9:d2","capabilities":"[WPA-PSK-CCMP][WPA2-PSK-CCMP][WPS][ESS]","level":"-80","frequency":"2442","time":"جمعه ۲۲ نوامبر ۲۰۱۳ ۲۲:۲۴:۳۷ (وقت عادی ایران)"}}
{"WiFi":{"SSID":"Mahsa","BSSID":"64:66:b3:c2:06:05","capabilities":"[WPA2-PSK-CCMP][WPS][ESS]","level":"-87","frequency":"2412","time":"جمعه ۲۲ نوامبر ۲۰۱۳ ۲۲:۲۴:۳۷ (وقت عادی ایران)"}}
{"WiFi":{"SSID":"39DD76","BSSID":"00:1f:fb:39:dd:76","capabilities":"[WEP][ESS]","level":"-89","frequency":"2472","time":"جمعه ۲۲ نوامبر ۲۰۱۳ ۲۲:۲۴:۳۷ (وقت عادی ایران)"}}
{"WiFi":{"SSID":"mobinnet6481","BSSID":"00:0d:f0:a6:c8:6d","capabilities":"[WPA-PSK-TKIP][ESS]","level":"-61","frequency":"2417","time":"جمعه ۲۲ نوامبر ۲۰۱۳ ۲۲:۲۴:۳۷ (وقت عادی ایران)"}}
{"WiFi":{"SSID":"ORS","BSSID":"04:c0:6f:5f:a9:d2","capabilities":"[WPA-PSK-CCMP][WPA2-PSK-CCMP][WPS][ESS]","level":"-80","frequency":"2442","time":"جمعه ۲۲ نوامبر ۲۰۱۳ ۲۲:۲۴:۳۷ (وقت عادی ایران)"}}
{"WiFi":{"SSID":"Mahsa","BSSID":"64:66:b3:c2:06:05","capabilities":"[WPA2-PSK-CCMP][WPS][ESS]","level":"-87","frequency":"2412","time":"جمعه ۲۲ نوامبر ۲۰۱۳ ۲۲:۲۴:۳۷ (وقت عادی ایران)"}}
{"WiFi":{"SSID":"39DD76","BSSID":"00:1f:fb:39:dd:76","capabilities":"[WEP][ESS]","level":"-89","frequency":"2472","time":"جمعه ۲۲ نوامبر ۲۰۱۳ ۲۲:۲۴:۳۷ (وقت عادی ایران)"}}
{"WiFi":{"SSID":"mobinnet6481","BSSID":"00:0d:f0:a6:c8:6d","capabilities":"[WPA-PSK-TKIP][ESS]","level":"-73","frequency":"2417","time":"جمعه ۲۲ نوامبر ۲۰۱۳ ۲۲:۲۵:۳۷ (وقت عادی ایران)"}}
{"WiFi":{"SSID":"ORS","BSSID":"04:c0:6f:5f:a9:d2","capabilities":"[WPA-PSK-CCMP][WPA2-PSK-CCMP][WPS][ESS]","level":"-80","frequency":"2442","time":"جمعه ۲۲ نوامبر ۲۰۱۳ ۲۲:۲۵:۳۷ (وقت عادی ایران)"}}
{"WiFi":{"SSID":"39DD76","BSSID":"00:1f:fb:39:dd:76","capabilities":"[WEP][ESS]","level":"-89","frequency":"2472","time":"جمعه ۲۲ نوامبر ۲۰۱۳ ۲۲:۲۵:۳۷ (وقت عادی ایران)"}}
{"WiFi":{"SSID":"razieh","BSSID":"c8:6c:87:52:13:43","capabilities":"[WPA-PSK-TKIP][ESS]","level":"-93","frequency":"2437","time":"جمعه ۲۲ نوامبر ۲۰۱۳ ۲۲:۲۵:۳۷ (وقت عادی ایران)"}}
{"WiFi":{"SSID":"Irancell-01EC25","BSSID":"98:42:46:01:ec:25","capabilities":"[WPS][WEP][ESS]","level":"-88","frequency":"2462","time":"جمعه ۲۲ نوامبر ۲۰۱۳ ۲۲:۲۵:۳۷ (وقت عادی ایران)"}}
{"WiFi":{"SSID":"mobinnet6481","BSSID":"00:0d:f0:a6:c8:6d","capabilities":"[WPA-PSK-TKIP][ESS]","level":"-73","frequency":"2417","time":"جمعه ۲۲ نوامبر ۲۰۱۳ ۲۲:۲۵:۳۷ (وقت عادی ایران)"}}
{"WiFi":{"SSID":"ORS","BSSID":"04:c0:6f:5f:a9:d2","capabilities":"[WPA-PSK-CCMP][WPA2-PSK-CCMP][WPS][ESS]","level":"-80","frequency":"2442","time":"جمعه ۲۲ نوامبر ۲۰۱۳ ۲۲:۲۵:۳۷ (وقت عادی ایران)"}}
{"WiFi":{"SSID":"39DD76","BSSID":"00:1f:fb:39:dd:76","capabilities":"[WEP][ESS]","level":"-89","frequency":"2472","time":"جمعه ۲۲ نوامبر ۲۰۱۳ ۲۲:۲۵:۳۷ (وقت عادی ایران)"}}
{"WiFi":{"SSID":"razieh","BSSID":"c8:6c:87:52:13:43","capabilities":"[WPA-PSK-TKIP][ESS]","level":"-93","frequency":"2437","time":"جمعه ۲۲ نوامبر ۲۰۱۳ ۲۲:۲۵:۳۷ (وقت عادی ایران)"}}
{"WiFi":{"SSID":"Irancell-01EC25","BSSID":"98:42:46:01:ec:25","capabilities":"[WPS][WEP][ESS]","level":"-88","frequency":"2462","time":"جمعه ۲۲ نوامبر ۲۰۱۳ ۲۲:۲۵:۳۷ (وقت عادی ایران)"}}
{"Application":{"ProcessName":"com.farsitel.bazaar","Start":"۱۱-۲۲-۲۰۱۳ ۲۲:۲۴:۲۷","End":"۱۱-۲۲-۲۰۱۳ ۲۲:۲۵:۳۸"}}
{"WiFi":{"SSID":"mobinnet6481","BSSID":"00:0d:f0:a6:c8:6d","capabilities":"[WPA-PSK-TKIP][ESS]","level":"-74","frequency":"2417","time":"جمعه ۲۲ نوامبر ۲۰۱۳ ۲۲:۲۷:۲۶ (وقت عادی ایران)"}}
{"WiFi":{"SSID":"ORS","BSSID":"04:c0:6f:5f:a9:d2","capabilities":"[WPA-PSK-CCMP][WPA2-PSK-CCMP][WPS][ESS]","level":"-77","frequency":"2442","time":"جمعه ۲۲ نوامبر ۲۰۱۳ ۲۲:۲۷:۲۶ (وقت عادی ایران)"}}
{"WiFi":{"SSID":"39DD76","BSSID":"00:1f:fb:39:dd:76","capabilities":"[WEP][ESS]","level":"-85","frequency":"2472","time":"جمعه ۲۲ نوامبر ۲۰۱۳ ۲۲:۲۷:۲۶ (وقت عادی ایران)"}}
{"WiFi":{"SSID":"mobinnet6481","BSSID":"00:0d:f0:a6:c8:6d","capabilities":"[WPA-PSK-TKIP][ESS]","level":"-74","frequency":"2417","time":"جمعه ۲۲ نوامبر ۲۰۱۳ ۲۲:۲۷:۲۶ (وقت عادی ایران)"}}
{"WiFi":{"SSID":"ORS","BSSID":"04:c0:6f:5f:a9:d2","capabilities":"[WPA-PSK-CCMP][WPA2-PSK-CCMP][WPS][ESS]","level":"-77","frequency":"2442","time":"جمعه ۲۲ نوامبر ۲۰۱۳ ۲۲:۲۷:۲۶ (وقت عادی ایران)"}}
{"WiFi":{"SSID":"39DD76","BSSID":"00:1f:fb:39:dd:76","capabilities":"[WEP][ESS]","level":"-85","frequency":"2472","time":"جمعه ۲۲ نوامبر ۲۰۱۳ ۲۲:۲۷:۲۶ (وقت عادی ایران)"}}
{"Location":{"Latitude":"35.7289159","Longtitude":"51.460745","Altitude":"0.0","time":"۱۱-۲۲-۲۰۱۳ ۲۲:۲۷:۲۶","Accuracy":"37.5","Provider":"network"}}
{"Location":{"Latitude":"35.7288684","Longtitude":"51.4607664","Altitude":"0.0","time":"۱۱-۲۲-۲۰۱۳ ۲۲:۲۷:۴۷","Accuracy":"36.0","Provider":"network"}}
{"Application":{"ProcessName":"com.yahoo.mobile.client.android.mail","Start":"۱۱-۲۲-۲۰۱۳ ۲۲:۲۷:۵۶","End":"۱۱-۲۲-۲۰۱۳ ۲۲:۲۷:۵۷"}}
{"Location":{"Latitude":"35.7288784","Longtitude":"51.4607683","Altitude":"0.0","time":"۱۱-۲۲-۲۰۱۳ ۲۲:۲۸:۱۲","Accuracy":"33.0","Provider":"network"}}
{"WiFi":{"SSID":"mobinnet6481","BSSID":"00:0d:f0:a6:c8:6d","capabilities":"[WPA-PSK-TKIP][ESS]","level":"-60","frequency":"2417","time":"جمعه ۲۲ نوامبر ۲۰۱۳ ۲۲:۲۸:۲۶ (وقت عادی ایران)"}}
{"WiFi":{"SSID":"ORS","BSSID":"04:c0:6f:5f:a9:d2","capabilities":"[WPA-PSK-CCMP][WPA2-PSK-CCMP][WPS][ESS]","level":"-84","frequency":"2442","time":"جمعه ۲۲ نوامبر ۲۰۱۳ ۲۲:۲۸:۲۶ (وقت عادی ایران)"}}
{"WiFi":{"SSID":"mobinnet6481","BSSID":"00:0d:f0:a6:c8:6d","capabilities":"[WPA-PSK-TKIP][ESS]","level":"-60","frequency":"2417","time":"جمعه ۲۲ نوامبر ۲۰۱۳ ۲۲:۲۸:۲۶ (وقت عادی ایران)"}}
{"WiFi":{"SSID":"ORS","BSSID":"04:c0:6f:5f:a9:d2","capabilities":"[WPA-PSK-CCMP][WPA2-PSK-CCMP][WPS][ESS]","level":"-84","frequency":"2442","time":"جمعه ۲۲ نوامبر ۲۰۱۳ ۲۲:۲۸:۲۶ (وقت عادی ایران)"}}
{"Location":{"Latitude":"35.7289444","Longtitude":"51.460742","Altitude":"0.0","time":"۱۱-۲۲-۲۰۱۳ ۲۲:۲۸:۳۲","Accuracy":"37.5","Provider":"network"}}
{"Application":{"ProcessName":"com.farsitel.bazaar","Start":"۱۱-۲۲-۲۰۱۳ ۲۲:۲۷:۲۶","End":"۱۱-۲۲-۲۰۱۳ ۲۲:۲۸:۳۷"}}
{"Application":{"ProcessName":"com.android.packageinstaller","Start":"۱۱-۲۲-۲۰۱۳ ۲۲:۲۸:۳۷","End":"۱۱-۲۲-۲۰۱۳ ۲۲:۲۸:۵۷"}}
{"Application":{"ProcessName":"com.google.android.apps.plus","Start":"۱۱-۲۲-۲۰۱۳ ۲۲:۲۸:۵۷","End":"۱۱-۲۲-۲۰۱۳ ۲۲:۲۹:۰۷"}}
{"Location":{"Latitude":"35.7289252","Longtitude":"51.4607416","Altitude":"0.0","time":"۱۱-۲۲-۲۰۱۳ ۲۲:۲۹:۱۷","Accuracy":"37.5","Provider":"network"}}
{"WiFi":{"SSID":"mobinnet6481","BSSID":"00:0d:f0:a6:c8:6d","capabilities":"[WPA-PSK-TKIP][ESS]","level":"-61","frequency":"2417","time":"جمعه ۲۲ نوامبر ۲۰۱۳ ۲۲:۲۹:۲۶ (وقت عادی ایران)"}}
{"WiFi":{"SSID":"ORS","BSSID":"04:c0:6f:5f:a9:d2","capabilities":"[WPA-PSK-CCMP][WPA2-PSK-CCMP][WPS][ESS]","level":"-79","frequency":"2442","time":"جمعه ۲۲ نوامبر ۲۰۱۳ ۲۲:۲۹:۲۶ (وقت عادی ایران)"}}
{"WiFi":{"SSID":"39DD76","BSSID":"00:1f:fb:39:dd:76","capabilities":"[WEP][ESS]","level":"-87","frequency":"2472","time":"جمعه ۲۲ نوامبر ۲۰۱۳ ۲۲:۲۹:۲۶ (وقت عادی ایران)"}}
{"WiFi":{"SSID":"Mahsa","BSSID":"64:66:b3:c2:06:05","capabilities":"[WPA2-PSK-CCMP][WPS][ESS]","level":"-84","frequency":"2412","time":"جمعه ۲۲ نوامبر ۲۰۱۳ ۲۲:۲۹:۲۶ (وقت عادی ایران)"}}
{"WiFi":{"SSID":"mobinnet6481","BSSID":"00:0d:f0:a6:c8:6d","capabilities":"[WPA-PSK-TKIP][ESS]","level":"-61","frequency":"2417","time":"جمعه ۲۲ نوامبر ۲۰۱۳ ۲۲:۲۹:۲۶ (وقت عادی ایران)"}}
{"WiFi":{"SSID":"ORS","BSSID":"04:c0:6f:5f:a9:d2","capabilities":"[WPA-PSK-CCMP][WPA2-PSK-CCMP][WPS][ESS]","level":"-79","frequency":"2442","time":"جمعه ۲۲ نوامبر ۲۰۱۳ ۲۲:۲۹:۲۶ (وقت عادی ایران)"}}
{"WiFi":{"SSID":"39DD76","BSSID":"00:1f:fb:39:dd:76","capabilities":"[WEP][ESS]","level":"-87","frequency":"2472","time":"جمعه ۲۲ نوامبر ۲۰۱۳ ۲۲:۲۹:۲۶ (وقت عادی ایران)"}}
{"WiFi":{"SSID":"Mahsa","BSSID":"64:66:b3:c2:06:05","capabilities":"[WPA2-PSK-CCMP][WPS][ESS]","level":"-84","frequency":"2412","time":"جمعه ۲۲ نوامبر ۲۰۱۳ ۲۲:۲۹:۲۶ (وقت عادی ایران)"}}
{"Location":{"Latitude":"35.728967","Longtitude":"51.4608165","Altitude":"0.0","time":"۱۱-۲۲-۲۰۱۳ ۲۲:۲۹:۵۸","Accuracy":"30.0","Provider":"network"}}
{"Location":{"Latitude":"35.7289867","Longtitude":"51.4608264","Altitude":"0.0","time":"۱۱-۲۲-۲۰۱۳ ۲۲:۳۰:۱۷","Accuracy":"40.5","Provider":"network"}}
{"WiFi":{"SSID":"mobinnet6481","BSSID":"00:0d:f0:a6:c8:6d","capabilities":"[WPA-PSK-TKIP][ESS]","level":"-54","frequency":"2417","time":"جمعه ۲۲ نوامبر ۲۰۱۳ ۲۲:۳۰:۲۶ (وقت عادی ایران)"}}
{"WiFi":{"SSID":"ORS","BSSID":"04:c0:6f:5f:a9:d2","capabilities":"[WPA-PSK-CCMP][WPA2-PSK-CCMP][WPS][ESS]","level":"-84","frequency":"2442","time":"جمعه ۲۲ نوامبر ۲۰۱۳ ۲۲:۳۰:۲۶ (وقت عادی ایران)"}}
{"WiFi":{"SSID":"39DD76","BSSID":"00:1f:fb:39:dd:76","capabilities":"[WEP][ESS]","level":"-84","frequency":"2472","time":"جمعه ۲۲ نوامبر ۲۰۱۳ ۲۲:۳۰:۲۶ (وقت عادی ایران)"}}
{"WiFi":{"SSID":"mobinnet","BSSID":"ac:e8:7b:0f:0b:c2","capabilities":"[WPA-PSK-TKIP+CCMP][WPA2-PSK-TKIP+CCMP][ESS]","level":"-82","frequency":"2432","time":"جمعه ۲۲ نوامبر ۲۰۱۳ ۲۲:۳۰:۲۶ (وقت عادی ایران)"}}
{"WiFi":{"SSID":"naderi","BSSID":"ac:e8:7b:1f:d9:a8","capabilities":"[WPA-PSK-TKIP+CCMP][WPA2-PSK-TKIP+CCMP][ESS]","level":"-83","frequency":"2432","time":"جمعه ۲۲ نوامبر ۲۰۱۳ ۲۲:۳۰:۲۶ (وقت عادی ایران)"}}
{"WiFi":{"SSID":"baran","BSSID":"28:3c:e4:35:1e:f4","capabilities":"[WPA-PSK-TKIP+CCMP][WPA2-PSK-TKIP+CCMP][WPS][ESS]","level":"-86","frequency":"2462","time":"جمعه ۲۲ نوامبر ۲۰۱۳ ۲۲:۳۰:۲۶ (وقت عادی ایران)"}}
{"WiFi":{"SSID":"S.V","BSSID":"00:1f:a4:c9:cd:c8","capabilities":"[WPA-PSK-TKIP][ESS]","level":"-85","frequency":"2412","time":"جمعه ۲۲ نوامبر ۲۰۱۳ ۲۲:۳۰:۲۶ (وقت عادی ایران)"}}
{"WiFi":{"SSID":"TOKTAM","BSSID":"c8:3a:35:1a:49:68","capabilities":"[WPA2-PSK-CCMP][ESS]","level":"-92","frequency":"2447","time":"جمعه ۲۲ نوامبر ۲۰۱۳ ۲۲:۳۰:۲۶ (وقت عادی ایران)"}}
{"WiFi":{"SSID":"mobinnet6481","BSSID":"00:0d:f0:a6:c8:6d","capabilities":"[WPA-PSK-TKIP][ESS]","level":"-54","frequency":"2417","time":"جمعه ۲۲ نوامبر ۲۰۱۳ ۲۲:۳۰:۲۶ (وقت عادی ایران)"}}
{"WiFi":{"SSID":"ORS","BSSID":"04:c0:6f:5f:a9:d2","capabilities":"[WPA-PSK-CCMP][WPA2-PSK-CCMP][WPS][ESS]","level":"-84","frequency":"2442","time":"جمعه ۲۲ نوامبر ۲۰۱۳ ۲۲:۳۰:۲۶ (وقت عادی ایران)"}}
{"WiFi":{"SSID":"39DD76","BSSID":"00:1f:fb:39:dd:76","capabilities":"[WEP][ESS]","level":"-84","frequency":"2472","time":"جمعه ۲۲ نوامبر ۲۰۱۳ ۲۲:۳۰:۲۶ (وقت عادی ایران)"}}
{"WiFi":{"SSID":"mobinnet","BSSID":"ac:e8:7b:0f:0b:c2","capabilities":"[WPA-PSK-TKIP+CCMP][WPA2-PSK-TKIP+CCMP][ESS]","level":"-82","frequency":"2432","time":"جمعه ۲۲ نوامبر ۲۰۱۳ ۲۲:۳۰:۲۶ (وقت عادی ایران)"}}
{"WiFi":{"SSID":"naderi","BSSID":"ac:e8:7b:1f:d9:a8","capabilities":"[WPA-PSK-TKIP+CCMP][WPA2-PSK-TKIP+CCMP][ESS]","level":"-83","frequency":"2432","time":"جمعه ۲۲ نوامبر ۲۰۱۳ ۲۲:۳۰:۲۶ (وقت عادی ایران)"}}
{"WiFi":{"SSID":"baran","BSSID":"28:3c:e4:35:1e:f4","capabilities":"[WPA-PSK-TKIP+CCMP][WPA2-PSK-TKIP+CCMP][WPS][ESS]","level":"-86","frequency":"2462","time":"جمعه ۲۲ نوامبر ۲۰۱۳ ۲۲:۳۰:۲۶ (وقت عادی ایران)"}}
{"WiFi":{"SSID":"S.V","BSSID":"00:1f:a4:c9:cd:c8","capabilities":"[WPA-PSK-TKIP][ESS]","level":"-85","frequency":"2412","time":"جمعه ۲۲ نوامبر ۲۰۱۳ ۲۲:۳۰:۲۶ (وقت عادی ایران)"}}
{"WiFi":{"SSID":"TOKTAM","BSSID":"c8:3a:35:1a:49:68","capabilities":"[WPA2-PSK-CCMP][ESS]","level":"-92","frequency":"2447","time":"جمعه ۲۲ نوامبر ۲۰۱۳ ۲۲:۳۰:۲۶ (وقت عادی ایران)"}}
{"Location":{"Latitude":"35.7289689","Longtitude":"51.4608124","Altitude":"0.0","time":"۱۱-۲۲-۲۰۱۳ ۲۲:۳۰:۳۷","Accuracy":"30.0","Provider":"network"}}
{"Application":{"ProcessName":"com.progimax.candle.free","Start":"۱۱-۲۲-۲۰۱۳ ۲۲:۲۸:۵۷","End":"۱۱-۲۲-۲۰۱۳ ۲۲:۳۰:۴۷"}}
{"Location":{"Latitude":"35.7289606","Longtitude":"51.4608672","Altitude":"0.0","time":"۱۱-۲۲-۲۰۱۳ ۲۲:۳۰:۵۷","Accuracy":"40.5","Provider":"network"}}
{"Application":{"ProcessName":"com.farsitel.bazaar","Start":"۱۱-۲۲-۲۰۱۳ ۲۲:۳۰:۴۷","End":"۱۱-۲۲-۲۰۱۳ ۲۲:۳۱:۰۷"}}
{"Location":{"Latitude":"35.7289088","Longtitude":"51.4608366","Altitude":"0.0","time":"۱۱-۲۲-۲۰۱۳ ۲۲:۳۱:۱۷","Accuracy":"37.5","Provider":"network"}}
{"WiFi":{"SSID":"mobinnet6481","BSSID":"00:0d:f0:a6:c8:6d","capabilities":"[WPA-PSK-TKIP][ESS]","level":"-75","frequency":"2417","time":"جمعه ۲۲ نوامبر ۲۰۱۳ ۲۲:۳۱:۲۶ (وقت عادی ایران)"}}
{"WiFi":{"SSID":"ORS","BSSID":"04:c0:6f:5f:a9:d2","capabilities":"[WPA-PSK-CCMP][WPA2-PSK-CCMP][WPS][ESS]","level":"-72","frequency":"2442","time":"جمعه ۲۲ نوامبر ۲۰۱۳ ۲۲:۳۱:۲۶ (وقت عادی ایران)"}}
{"WiFi":{"SSID":"mobinnet","BSSID":"ac:e8:7b:0f:0b:c2","capabilities":"[WPA-PSK-TKIP+CCMP][WPA2-PSK-TKIP+CCMP][ESS]","level":"-82","frequency":"2432","time":"جمعه ۲۲ نوامبر ۲۰۱۳ ۲۲:۳۱:۲۶ (وقت عادی ایران)"}}
{"WiFi":{"SSID":"naderi","BSSID":"ac:e8:7b:1f:d9:a8","capabilities":"[WPA-PSK-TKIP+CCMP][WPA2-PSK-TKIP+CCMP][ESS]","level":"-84","frequency":"2432","time":"جمعه ۲۲ نوامبر ۲۰۱۳ ۲۲:۳۱:۲۶ (وقت عادی ایران)"}}
{"WiFi":{"SSID":"Mahsa","BSSID":"64:66:b3:c2:06:05","capabilities":"[WPA2-PSK-CCMP][WPS][ESS]","level":"-89","frequency":"2412","time":"جمعه ۲۲ نوامبر ۲۰۱۳ ۲۲:۳۱:۲۶ (وقت عادی ایران)"}}
{"WiFi":{"SSID":"mobinnet6481","BSSID":"00:0d:f0:a6:c8:6d","capabilities":"[WPA-PSK-TKIP][ESS]","level":"-75","frequency":"2417","time":"جمعه ۲۲ نوامبر ۲۰۱۳ ۲۲:۳۱:۲۶ (وقت عادی ایران)"}}
{"WiFi":{"SSID":"ORS","BSSID":"04:c0:6f:5f:a9:d2","capabilities":"[WPA-PSK-CCMP][WPA2-PSK-CCMP][WPS][ESS]","level":"-72","frequency":"2442","time":"جمعه ۲۲ نوامبر ۲۰۱۳ ۲۲:۳۱:۲۶ (وقت عادی ایران)"}}
{"WiFi":{"SSID":"mobinnet","BSSID":"ac:e8:7b:0f:0b:c2","capabilities":"[WPA-PSK-TKIP+CCMP][WPA2-PSK-TKIP+CCMP][ESS]","level":"-82","frequency":"2432","time":"جمعه ۲۲ نوامبر ۲۰۱۳ ۲۲:۳۱:۲۶ (وقت عادی ایران)"}}
{"WiFi":{"SSID":"naderi","BSSID":"ac:e8:7b:1f:d9:a8","capabilities":"[WPA-PSK-TKIP+CCMP][WPA2-PSK-TKIP+CCMP][ESS]","level":"-84","frequency":"2432","time":"جمعه ۲۲ نوامبر ۲۰۱۳ ۲۲:۳۱:۲۶ (وقت عادی ایران)"}}
{"WiFi":{"SSID":"Mahsa","BSSID":"64:66:b3:c2:06:05","capabilities":"[WPA2-PSK-CCMP][WPS][ESS]","level":"-89","frequency":"2412","time":"جمعه ۲۲ نوامبر ۲۰۱۳ ۲۲:۳۱:۲۶ (وقت عادی ایران)"}}
{"Location":{"Latitude":"35.7288563","Longtitude":"51.4607683","Altitude":"0.0","time":"۱۱-۲۲-۲۰۱۳ ۲۲:۳۱:۳۷","Accuracy":"34.5","Provider":"network"}}
{"Location":{"Latitude":"35.7289122","Longtitude":"51.46075","Altitude":"0.0","time":"۱۱-۲۲-۲۰۱۳ ۲۲:۳۱:۵۷","Accuracy":"40.5","Provider":"network"}}
{"Application":{"ProcessName":"com.tencent.mm","Start":"۱۱-۲۲-۲۰۱۳ ۲۲:۳۱:۰۷","End":"۱۱-۲۲-۲۰۱۳ ۲۲:۳۲:۰۷"}}
{"Application":{"ProcessName":"com.android.packageinstaller","Start":"۱۱-۲۲-۲۰۱۳ ۲۲:۳۲:۰۷","End":"۱۱-۲۲-۲۰۱۳ ۲۲:۳۲:۱۷"}}
{"WiFi":{"SSID":"mobinnet6481","BSSID":"00:0d:f0:a6:c8:6d","capabilities":"[WPA-PSK-TKIP][ESS]","level":"-71","frequency":"2417","time":"جمعه ۲۲ نوامبر ۲۰۱۳ ۲۲:۳۲:۲۶ (وقت عادی ایران)"}}
{"WiFi":{"SSID":"ORS","BSSID":"04:c0:6f:5f:a9:d2","capabilities":"[WPA-PSK-CCMP][WPA2-PSK-CCMP][WPS][ESS]","level":"-77","frequency":"2442","time":"جمعه ۲۲ نوامبر ۲۰۱۳ ۲۲:۳۲:۲۶ (وقت عادی ایران)"}}
{"WiFi":{"SSID":"Mahsa","BSSID":"64:66:b3:c2:06:05","capabilities":"[WPA2-PSK-CCMP][WPS][ESS]","level":"-84","frequency":"2412","time":"جمعه ۲۲ نوامبر ۲۰۱۳ ۲۲:۳۲:۲۶ (وقت عادی ایران)"}}
{"WiFi":{"SSID":"39DD76","BSSID":"00:1f:fb:39:dd:76","capabilities":"[WEP][ESS]","level":"-91","frequency":"2472","time":"جمعه ۲۲ نوامبر ۲۰۱۳ ۲۲:۳۲:۲۶ (وقت عادی ایران)"}}
{"WiFi":{"SSID":"mobinnet6481","BSSID":"00:0d:f0:a6:c8:6d","capabilities":"[WPA-PSK-TKIP][ESS]","level":"-71","frequency":"2417","time":"جمعه ۲۲ نوامبر ۲۰۱۳ ۲۲:۳۲:۲۶ (وقت عادی ایران)"}}
{"WiFi":{"SSID":"ORS","BSSID":"04:c0:6f:5f:a9:d2","capabilities":"[WPA-PSK-CCMP][WPA2-PSK-CCMP][WPS][ESS]","level":"-77","frequency":"2442","time":"جمعه ۲۲ نوامبر ۲۰۱۳ ۲۲:۳۲:۲۶ (وقت عادی ایران)"}}
{"WiFi":{"SSID":"Mahsa","BSSID":"64:66:b3:c2:06:05","capabilities":"[WPA2-PSK-CCMP][WPS][ESS]","level":"-84","frequency":"2412","time":"جمعه ۲۲ نوامبر ۲۰۱۳ ۲۲:۳۲:۲۶ (وقت عادی ایران)"}}
{"WiFi":{"SSID":"39DD76","BSSID":"00:1f:fb:39:dd:76","capabilities":"[WEP][ESS]","level":"-91","frequency":"2472","time":"جمعه ۲۲ نوامبر ۲۰۱۳ ۲۲:۳۲:۲۶ (وقت عادی ایران)"}}
{"Application":{"ProcessName":"com.google.android.apps.plus","Start":"۱۱-۲۲-۲۰۱۳ ۲۲:۳۲:۱۷","End":"۱۱-۲۲-۲۰۱۳ ۲۲:۳۲:۲۷"}}
{"Application":{"ProcessName":"com.lge.keepscreenon","Start":"۱۱-۲۲-۲۰۱۳ ۲۲:۲۷:۲۶","End":"۱۱-۲۲-۲۰۱۳ ۲۲:۳۲:۲۷"}}
{"Application":{"ProcessName":"com.lge.systemserver","Start":"۱۱-۲۲-۲۰۱۳ ۲۲:۲۷:۲۶","End":"۱۱-۲۲-۲۰۱۳ ۲۲:۳۲:۲۷"}}
{"Application":{"ProcessName":"com.tencent.mm","Start":"۱۱-۲۲-۲۰۱۳ ۲۲:۳۲:۱۷","End":"۱۱-۲۲-۲۰۱۳ ۲۲:۳۳:۱۷"}}
{"WiFi":{"SSID":"mobinnet6481","BSSID":"00:0d:f0:a6:c8:6d","capabilities":"[WPA-PSK-TKIP][ESS]","level":"-68","frequency":"2417","time":"جمعه ۲۲ نوامبر ۲۰۱۳ ۲۲:۳۳:۲۶ (وقت عادی ایران)"}}
{"WiFi":{"SSID":"ORS","BSSID":"04:c0:6f:5f:a9:d2","capabilities":"[WPA-PSK-CCMP][WPA2-PSK-CCMP][WPS][ESS]","level":"-79","frequency":"2442","time":"جمعه ۲۲ نوامبر ۲۰۱۳ ۲۲:۳۳:۲۶ (وقت عادی ایران)"}}
{"WiFi":{"SSID":"Mahsa","BSSID":"64:66:b3:c2:06:05","capabilities":"[WPA2-PSK-CCMP][WPS][ESS]","level":"-88","frequency":"2412","time":"جمعه ۲۲ نوامبر ۲۰۱۳ ۲۲:۳۳:۲۶ (وقت عادی ایران)"}}
{"WiFi":{"SSID":"39DD76","BSSID":"00:1f:fb:39:dd:76","capabilities":"[WEP][ESS]","level":"-92","frequency":"2472","time":"جمعه ۲۲ نوامبر ۲۰۱۳ ۲۲:۳۳:۲۶ (وقت عادی ایران)"}}
{"WiFi":{"SSID":"mobinnet6481","BSSID":"00:0d:f0:a6:c8:6d","capabilities":"[WPA-PSK-TKIP][ESS]","level":"-68","frequency":"2417","time":"جمعه ۲۲ نوامبر ۲۰۱۳ ۲۲:۳۳:۲۶ (وقت عادی ایران)"}}
{"WiFi":{"SSID":"ORS","BSSID":"04:c0:6f:5f:a9:d2","capabilities":"[WPA-PSK-CCMP][WPA2-PSK-CCMP][WPS][ESS]","level":"-79","frequency":"2442","time":"جمعه ۲۲ نوامبر ۲۰۱۳ ۲۲:۳۳:۲۶ (وقت عادی ایران)"}}
{"WiFi":{"SSID":"Mahsa","BSSID":"64:66:b3:c2:06:05","capabilities":"[WPA2-PSK-CCMP][WPS][ESS]","level":"-88","frequency":"2412","time":"جمعه ۲۲ نوامبر ۲۰۱۳ ۲۲:۳۳:۲۶ (وقت عادی ایران)"}}
{"WiFi":{"SSID":"39DD76","BSSID":"00:1f:fb:39:dd:76","capabilities":"[WEP][ESS]","level":"-92","frequency":"2472","time":"جمعه ۲۲ نوامبر ۲۰۱۳ ۲۲:۳۳:۲۶ (وقت عادی ایران)"}}
{"Application":{"ProcessName":"com.game.BubbleShoot","Start":"۱۱-۲۲-۲۰۱۳ ۲۲:۳۳:۱۷","End":"۱۱-۲۲-۲۰۱۳ ۲۲:۳۳:۲۷"}}
{"Location":{"Latitude":"35.7289485","Longtitude":"51.4607811","Altitude":"0.0","time":"۱۱-۲۲-۲۰۱۳ ۲۲:۳۳:۳۹","Accuracy":"37.5","Provider":"network"}}
{"Location":{"Latitude":"35.7288899","Longtitude":"51.4608025","Altitude":"0.0","time":"۱۱-۲۲-۲۰۱۳ ۲۲:۳۳:۵۹","Accuracy":"36.0","Provider":"network"}}
{"Location":{"Latitude":"35.7288832","Longtitude":"51.4608127","Altitude":"0.0","time":"۱۱-۲۲-۲۰۱۳ ۲۲:۳۴:۱۹","Accuracy":"37.5","Provider":"network"}}
{"WiFi":{"SSID":"mobinnet6481","BSSID":"00:0d:f0:a6:c8:6d","capabilities":"[WPA-PSK-TKIP][ESS]","level":"-75","frequency":"2417","time":"جمعه ۲۲ نوامبر ۲۰۱۳ ۲۲:۳۴:۲۶ (وقت عادی ایران)"}}
{"WiFi":{"SSID":"ORS","BSSID":"04:c0:6f:5f:a9:d2","capabilities":"[WPA-PSK-CCMP][WPA2-PSK-CCMP][WPS][ESS]","level":"-75","frequency":"2442","time":"جمعه ۲۲ نوامبر ۲۰۱۳ ۲۲:۳۴:۲۶ (وقت عادی ایران)"}}
{"WiFi":{"SSID":"Mahsa","BSSID":"64:66:b3:c2:06:05","capabilities":"[WPA2-PSK-CCMP][WPS][ESS]","level":"-87","frequency":"2412","time":"جمعه ۲۲ نوامبر ۲۰۱۳ ۲۲:۳۴:۲۶ (وقت عادی ایران)"}}
{"WiFi":{"SSID":"baran","BSSID":"28:3c:e4:35:1e:f4","capabilities":"[WPA-PSK-TKIP+CCMP][WPA2-PSK-TKIP+CCMP][WPS][ESS]","level":"-88","frequency":"2462","time":"جمعه ۲۲ نوامبر ۲۰۱۳ ۲۲:۳۴:۲۶ (وقت عادی ایران)"}}
{"WiFi":{"SSID":"mobinnet6481","BSSID":"00:0d:f0:a6:c8:6d","capabilities":"[WPA-PSK-TKIP][ESS]","level":"-75","frequency":"2417","time":"جمعه ۲۲ نوامبر ۲۰۱۳ ۲۲:۳۴:۲۶ (وقت عادی ایران)"}}
{"WiFi":{"SSID":"ORS","BSSID":"04:c0:6f:5f:a9:d2","capabilities":"[WPA-PSK-CCMP][WPA2-PSK-CCMP][WPS][ESS]","level":"-75","frequency":"2442","time":"جمعه ۲۲ نوامبر ۲۰۱۳ ۲۲:۳۴:۲۶ (وقت عادی ایران)"}}
{"WiFi":{"SSID":"Mahsa","BSSID":"64:66:b3:c2:06:05","capabilities":"[WPA2-PSK-CCMP][WPS][ESS]","level":"-87","frequency":"2412","time":"جمعه ۲۲ نوامبر ۲۰۱۳ ۲۲:۳۴:۲۶ (وقت عادی ایران)"}}
{"WiFi":{"SSID":"baran","BSSID":"28:3c:e4:35:1e:f4","capabilities":"[WPA-PSK-TKIP+CCMP][WPA2-PSK-TKIP+CCMP][WPS][ESS]","level":"-88","frequency":"2462","time":"جمعه ۲۲ نوامبر ۲۰۱۳ ۲۲:۳۴:۲۶ (وقت عادی ایران)"}}
{"Application":{"ProcessName":"com.farsitel.bazaar","Start":"۱۱-۲۲-۲۰۱۳ ۲۲:۳۳:۲۷","End":"۱۱-۲۲-۲۰۱۳ ۲۲:۳۴:۳۷"}}
{"Location":{"Latitude":"35.7288665","Longtitude":"51.4607681","Altitude":"0.0","time":"۱۱-۲۲-۲۰۱۳ ۲۲:۳۴:۴۲","Accuracy":"36.0","Provider":"network"}}
{"Application":{"ProcessName":"com.google.android.apps.plus","Start":"۱۱-۲۲-۲۰۱۳ ۲۲:۳۴:۳۸","End":"۱۱-۲۲-۲۰۱۳ ۲۲:۳۴:۴۸"}}
{"Application":{"ProcessName":"com.android.packageinstaller","Start":"۱۱-۲۲-۲۰۱۳ ۲۲:۳۴:۳۷","End":"۱۱-۲۲-۲۰۱۳ ۲۲:۳۴:۴۸"}}
{"Application":{"ProcessName":"com.farsitel.bazaar","Start":"۱۱-۲۲-۲۰۱۳ ۲۲:۳۴:۴۸","End":"۱۱-۲۲-۲۰۱۳ ۲۲:۳۴:۴۸"}}
{"Application":{"ProcessName":"com.android.vending","Start":"۱۱-۲۲-۲۰۱۳ ۲۲:۳۴:۴۸","End":"۱۱-۲۲-۲۰۱۳ ۲۲:۳۴:۴۸"}}
{"WiFi":{"SSID":"mobinnet6481","BSSID":"00:0d:f0:a6:c8:6d","capabilities":"[WPA-PSK-TKIP][ESS]","level":"-72","frequency":"2417","time":"جمعه ۲۲ نوامبر ۲۰۱۳ ۲۲:۳۵:۲۶ (وقت عادی ایران)"}}
{"WiFi":{"SSID":"ORS","BSSID":"04:c0:6f:5f:a9:d2","capabilities":"[WPA-PSK-CCMP][WPA2-PSK-CCMP][WPS][ESS]","level":"-78","frequency":"2442","time":"جمعه ۲۲ نوامبر ۲۰۱۳ ۲۲:۳۵:۲۶ (وقت عادی ایران)"}}
{"WiFi":{"SSID":"mobinnet6481","BSSID":"00:0d:f0:a6:c8:6d","capabilities":"[WPA-PSK-TKIP][ESS]","level":"-72","frequency":"2417","time":"جمعه ۲۲ نوامبر ۲۰۱۳ ۲۲:۳۵:۲۶ (وقت عادی ایران)"}}
{"WiFi":{"SSID":"ORS","BSSID":"04:c0:6f:5f:a9:d2","capabilities":"[WPA-PSK-CCMP][WPA2-PSK-CCMP][WPS][ESS]","level":"-78","frequency":"2442","time":"جمعه ۲۲ نوامبر ۲۰۱۳ ۲۲:۳۵:۲۶ (وقت عادی ایران)"}}
{"Location":{"Latitude":"35.728857","Longtitude":"51.4607658","Altitude":"0.0","time":"۱۱-۲۲-۲۰۱۳ ۲۲:۳۵:۳۵","Accuracy":"39.0","Provider":"network"}}
{"Application":{"ProcessName":"dk.logisoft.aircontrol","Start":"۱۱-۲۲-۲۰۱۳ ۲۲:۳۴:۴۸","End":"۱۱-۲۲-۲۰۱۳ ۲۲:۳۵:۴۸"}}
{"Application":{"ProcessName":"com.android.settings","Start":"۱۱-۲۲-۲۰۱۳ ۲۲:۳۵:۵۸","End":"۱۱-۲۲-۲۰۱۳ ۲۲:۳۵:۵۸"}}
{"Location":{"Latitude":"35.7288778","Longtitude":"51.460766","Altitude":"0.0","time":"۱۱-۲۲-۲۰۱۳ ۲۲:۳۶:۰۳","Accuracy":"37.5","Provider":"network"}}
{"Application":{"ProcessName":"com.android.vending","Start":"۱۱-۲۲-۲۰۱۳ ۲۲:۳۵:۵۸","End":"۱۱-۲۲-۲۰۱۳ ۲۲:۳۶:۰۸"}}
{"Location":{"Latitude":"35.7288574","Longtitude":"51.4607665","Altitude":"0.0","time":"۱۱-۲۲-۲۰۱۳ ۲۲:۳۶:۲۳","Accuracy":"34.5","Provider":"network"}}
{"WiFi":{"SSID":"mobinnet6481","BSSID":"00:0d:f0:a6:c8:6d","capabilities":"[WPA-PSK-TKIP][ESS]","level":"-68","frequency":"2417","time":"جمعه ۲۲ نوامبر ۲۰۱۳ ۲۲:۳۶:۲۶ (وقت عادی ایران)"}}
{"WiFi":{"SSID":"ORS","BSSID":"04:c0:6f:5f:a9:d2","capabilities":"[WPA-PSK-CCMP][WPA2-PSK-CCMP][WPS][ESS]","level":"-75","frequency":"2442","time":"جمعه ۲۲ نوامبر ۲۰۱۳ ۲۲:۳۶:۲۶ (وقت عادی ایران)"}}
{"WiFi":{"SSID":"mobinnet6481","BSSID":"00:0d:f0:a6:c8:6d","capabilities":"[WPA-PSK-TKIP][ESS]","level":"-68","frequency":"2417","time":"جمعه ۲۲ نوامبر ۲۰۱۳ ۲۲:۳۶:۲۶ (وقت عادی ایران)"}}
{"WiFi":{"SSID":"ORS","BSSID":"04:c0:6f:5f:a9:d2","capabilities":"[WPA-PSK-CCMP][WPA2-PSK-CCMP][WPS][ESS]","level":"-75","frequency":"2442","time":"جمعه ۲۲ نوامبر ۲۰۱۳ ۲۲:۳۶:۲۶ (وقت عادی ایران)"}}
{"Location":{"Latitude":"35.7288678","Longtitude":"51.4607661","Altitude":"0.0","time":"۱۱-۲۲-۲۰۱۳ ۲۲:۳۶:۴۳","Accuracy":"36.0","Provider":"network"}}
{"Application":{"ProcessName":"com.farsitel.bazaar","Start":"۱۱-۲۲-۲۰۱۳ ۲۲:۳۵:۴۸","End":"۱۱-۲۲-۲۰۱۳ ۲۲:۳۶:۴۸"}}
{"Application":{"ProcessName":"com.lge.osp","Start":"۱۱-۲۲-۲۰۱۳ ۲۲:۳۶:۴۸","End":"۱۱-۲۲-۲۰۱۳ ۲۲:۳۶:۵۸"}}
{"Application":{"ProcessName":"com.lge.launcher2","Start":"۱۱-۲۲-۲۰۱۳ ۲۲:۳۶:۴۸","End":"۱۱-۲۲-۲۰۱۳ ۲۲:۳۶:۵۸"}}
{"Application":{"ProcessName":"com.tencent.mm","Start":"۱۱-۲۲-۲۰۱۳ ۲۲:۳۶:۵۸","End":"۱۱-۲۲-۲۰۱۳ ۲۲:۳۷:۰۸"}}
{"Application":{"ProcessName":"com.lge.keepscreenon","Start":"۱۱-۲۲-۲۰۱۳ ۲۲:۳۲:۲۷","End":"۱۱-۲۲-۲۰۱۳ ۲۲:۳۷:۲۸"}}
{"Application":{"ProcessName":"com.lge.systemserver","Start":"۱۱-۲۲-۲۰۱۳ ۲۲:۳۲:۲۷","End":"۱۱-۲۲-۲۰۱۳ ۲۲:۳۷:۲۸"}}
{"Location":{"Latitude":"35.730404","Longtitude":"51.4597622","Altitude":"0.0","time":"۱۱-۲۲-۲۰۱۳ ۲۲:۳۷:۴۳","Accuracy":"1147.0","Provider":"network"}}
{"Application":{"ProcessName":"com.game.BubbleShoot","Start":"۱۱-۲۲-۲۰۱۳ ۲۲:۳۷:۰۸","End":"۱۱-۲۲-۲۰۱۳ ۲۲:۴۲:۰۸"}}
{"Application":{"ProcessName":"com.lge.keepscreenon","Start":"۱۱-۲۲-۲۰۱۳ ۲۲:۳۷:۲۸","End":"۱۱-۲۲-۲۰۱۳ ۲۲:۴۲:۲۸"}}
{"Application":{"ProcessName":"com.lge.systemserver","Start":"۱۱-۲۲-۲۰۱۳ ۲۲:۳۷:۲۸","End":"۱۱-۲۲-۲۰۱۳ ۲۲:۴۲:۲۸"}}
{"Application":{"ProcessName":"com.game.BubbleShoot","Start":"۱۱-۲۲-۲۰۱۳ ۲۲:۴۲:۰۸","End":"۱۱-۲۲-۲۰۱۳ ۲۲:۴۷:۰۹"}}
{"Application":{"ProcessName":"com.lge.keepscreenon","Start":"۱۱-۲۲-۲۰۱۳ ۲۲:۴۲:۲۸","End":"۱۱-۲۲-۲۰۱۳ ۲۲:۴۷:۲۹"}}
{"Application":{"ProcessName":"com.lge.systemserver","Start":"۱۱-۲۲-۲۰۱۳ ۲۲:۴۲:۲۸","End":"۱۱-۲۲-۲۰۱۳ ۲۲:۴۷:۲۹"}}
{"Application":{"ProcessName":"com.lge.launcher2","Start":"۱۱-۲۲-۲۰۱۳ ۲۲:۴۷:۰۹","End":"۱۱-۲۲-۲۰۱۳ ۲۲:۴۷:۳۹"}}
{"Location":{"Latitude":"35.7288219","Longtitude":"51.4607656","Altitude":"0.0","time":"۱۱-۲۲-۲۰۱۳ ۲۲:۴۷:۴۷","Accuracy":"36.0","Provider":"network"}}
{"Application":{"ProcessName":"com.lge.appbox.client","Start":"۱۱-۲۲-۲۰۱۳ ۲۲:۴۷:۴۰","End":"۱۱-۲۲-۲۰۱۳ ۲۲:۴۷:۴۹"}}
{"Location":{"Latitude":"35.7288756","Longtitude":"51.4607657","Altitude":"0.0","time":"۱۱-۲۲-۲۰۱۳ ۲۲:۴۸:۰۷","Accuracy":"37.5","Provider":"network"}}
{"WiFi":{"SSID":"mobinnet6481","BSSID":"00:0d:f0:a6:c8:6d","capabilities":"[WPA-PSK-TKIP][ESS]","level":"-66","frequency":"2417","time":"جمعه ۲۲ نوامبر ۲۰۱۳ ۲۲:۴۸:۲۶ (وقت عادی ایران)"}}
{"WiFi":{"SSID":"ORS","BSSID":"04:c0:6f:5f:a9:d2","capabilities":"[WPA-PSK-CCMP][WPA2-PSK-CCMP][WPS][ESS]","level":"-85","frequency":"2442","time":"جمعه ۲۲ نوامبر ۲۰۱۳ ۲۲:۴۸:۲۶ (وقت عادی ایران)"}}
{"WiFi":{"SSID":"mobinnet6481","BSSID":"00:0d:f0:a6:c8:6d","capabilities":"[WPA-PSK-TKIP][ESS]","level":"-66","frequency":"2417","time":"جمعه ۲۲ نوامبر ۲۰۱۳ ۲۲:۴۸:۲۶ (وقت عادی ایران)"}}
{"WiFi":{"SSID":"ORS","BSSID":"04:c0:6f:5f:a9:d2","capabilities":"[WPA-PSK-CCMP][WPA2-PSK-CCMP][WPS][ESS]","level":"-85","frequency":"2442","time":"جمعه ۲۲ نوامبر ۲۰۱۳ ۲۲:۴۸:۲۶ (وقت عادی ایران)"}}
{"Location":{"Latitude":"35.7289078","Longtitude":"51.4607488","Altitude":"0.0","time":"۱۱-۲۲-۲۰۱۳ ۲۲:۴۹:۰۸","Accuracy":"36.0","Provider":"network"}}
{"WiFi":{"SSID":"mobinnet6481","BSSID":"00:0d:f0:a6:c8:6d","capabilities":"[WPA-PSK-TKIP][ESS]","level":"-60","frequency":"2417","time":"جمعه ۲۲ نوامبر ۲۰۱۳ ۲۲:۴۹:۲۶ (وقت عادی ایران)"}}
{"WiFi":{"SSID":"Mahsa","BSSID":"64:66:b3:c2:06:05","capabilities":"[WPA2-PSK-CCMP][WPS][ESS]","level":"-87","frequency":"2412","time":"جمعه ۲۲ نوامبر ۲۰۱۳ ۲۲:۴۹:۲۶ (وقت عادی ایران)"}}
{"WiFi":{"SSID":"mobinnet6481","BSSID":"00:0d:f0:a6:c8:6d","capabilities":"[WPA-PSK-TKIP][ESS]","level":"-60","frequency":"2417","time":"جمعه ۲۲ نوامبر ۲۰۱۳ ۲۲:۴۹:۲۶ (وقت عادی ایران)"}}
{"WiFi":{"SSID":"Mahsa","BSSID":"64:66:b3:c2:06:05","capabilities":"[WPA2-PSK-CCMP][WPS][ESS]","level":"-87","frequency":"2412","time":"جمعه ۲۲ نوامبر ۲۰۱۳ ۲۲:۴۹:۲۶ (وقت عادی ایران)"}}
{"Location":{"Latitude":"35.7288697","Longtitude":"51.4607672","Altitude":"0.0","time":"۱۱-۲۲-۲۰۱۳ ۲۲:۴۹:۴۸","Accuracy":"36.0","Provider":"network"}}
{"WiFi":{"SSID":"mobinnet6481","BSSID":"00:0d:f0:a6:c8:6d","capabilities":"[WPA-PSK-TKIP][ESS]","level":"-72","frequency":"2417","time":"جمعه ۲۲ نوامبر ۲۰۱۳ ۲۲:۵۰:۲۶ (وقت عادی ایران)"}}
{"WiFi":{"SSID":"Mahsa","BSSID":"64:66:b3:c2:06:05","capabilities":"[WPA2-PSK-CCMP][WPS][ESS]","level":"-90","frequency":"2412","time":"جمعه ۲۲ نوامبر ۲۰۱۳ ۲۲:۵۰:۲۶ (وقت عادی ایران)"}}
{"WiFi":{"SSID":"ORS","BSSID":"04:c0:6f:5f:a9:d2","capabilities":"[WPA-PSK-CCMP][WPA2-PSK-CCMP][WPS][ESS]","level":"-86","frequency":"2442","time":"جمعه ۲۲ نوامبر ۲۰۱۳ ۲۲:۵۰:۲۶ (وقت عادی ایران)"}}
{"WiFi":{"SSID":"mobinnet6481","BSSID":"00:0d:f0:a6:c8:6d","capabilities":"[WPA-PSK-TKIP][ESS]","level":"-72","frequency":"2417","time":"جمعه ۲۲ نوامبر ۲۰۱۳ ۲۲:۵۰:۲۶ (وقت عادی ایران)"}}
{"WiFi":{"SSID":"Mahsa","BSSID":"64:66:b3:c2:06:05","capabilities":"[WPA2-PSK-CCMP][WPS][ESS]","level":"-90","frequency":"2412","time":"جمعه ۲۲ نوامبر ۲۰۱۳ ۲۲:۵۰:۲۶ (وقت عادی ایران)"}}
{"WiFi":{"SSID":"ORS","BSSID":"04:c0:6f:5f:a9:d2","capabilities":"[WPA-PSK-CCMP][WPA2-PSK-CCMP][WPS][ESS]","level":"-86","frequency":"2442","time":"جمعه ۲۲ نوامبر ۲۰۱۳ ۲۲:۵۰:۲۶ (وقت عادی ایران)"}}
{"WiFi":{"SSID":"mobinnet6481","BSSID":"00:0d:f0:a6:c8:6d","capabilities":"[WPA-PSK-TKIP][ESS]","level":"-68","frequency":"2417","time":"جمعه ۲۲ نوامبر ۲۰۱۳ ۲۲:۵۱:۲۶ (وقت عادی ایران)"}}
{"WiFi":{"SSID":"ORS","BSSID":"04:c0:6f:5f:a9:d2","capabilities":"[WPA-PSK-CCMP][WPA2-PSK-CCMP][WPS][ESS]","level":"-89","frequency":"2442","time":"جمعه ۲۲ نوامبر ۲۰۱۳ ۲۲:۵۱:۲۶ (وقت عادی ایران)"}}
{"WiFi":{"SSID":"mobinnet6481","BSSID":"00:0d:f0:a6:c8:6d","capabilities":"[WPA-PSK-TKIP][ESS]","level":"-68","frequency":"2417","time":"جمعه ۲۲ نوامبر ۲۰۱۳ ۲۲:۵۱:۲۶ (وقت عادی ایران)"}}
{"WiFi":{"SSID":"ORS","BSSID":"04:c0:6f:5f:a9:d2","capabilities":"[WPA-PSK-CCMP][WPA2-PSK-CCMP][WPS][ESS]","level":"-89","frequency":"2442","time":"جمعه ۲۲ نوامبر ۲۰۱۳ ۲۲:۵۱:۲۶ (وقت عادی ایران)"}}
{"Location":{"Latitude":"35.7288607","Longtitude":"51.4607663","Altitude":"0.0","time":"۱۱-۲۲-۲۰۱۳ ۲۲:۵۱:۲۸","Accuracy":"36.0","Provider":"network"}}
{"Location":{"Latitude":"35.7289302","Longtitude":"51.4607402","Altitude":"0.0","time":"۱۱-۲۲-۲۰۱۳ ۲۲:۵۱:۴۸","Accuracy":"39.0","Provider":"network"}}
{"Application":{"ProcessName":"com.opera.mini.android","Start":"۱۱-۲۲-۲۰۱۳ ۲۲:۴۷:۳۹","End":"۱۱-۲۲-۲۰۱۳ ۲۲:۵۱:۵۰"}}
{"Application":{"ProcessName":"com.lge.keepscreenon","Start":"۱۱-۲۲-۲۰۱۳ ۲۲:۴۷:۲۹","End":"۱۱-۲۲-۲۰۱۳ ۲۲:۵۱:۵۰"}}
{"Application":{"ProcessName":"com.lge.systemserver","Start":"۱۱-۲۲-۲۰۱۳ ۲۲:۴۷:۲۹","End":"۱۱-۲۲-۲۰۱۳ ۲۲:۵۱:۵۰"}}
{"Location":{"Latitude":"35.7289152","Longtitude":"51.4607418","Altitude":"0.0","time":"۱۱-۲۲-۲۰۱۳ ۲۲:۵۲:۲۸","Accuracy":"34.5","Provider":"network"}}
{"Location":{"Latitude":"35.7289252","Longtitude":"51.4607416","Altitude":"0.0","time":"۱۱-۲۲-۲۰۱۳ ۲۲:۵۲:۵۵","Accuracy":"37.5","Provider":"network"}}
{"Location":{"Latitude":"35.7289086","Longtitude":"51.460743","Altitude":"0.0","time":"۱۱-۲۲-۲۰۱۳ ۲۲:۵۴:۳۰","Accuracy":"34.5","Provider":"network"}}
{"WiFi":{"SSID":"mobinnet6481","BSSID":"00:0d:f0:a6:c8:6d","capabilities":"[WPA-PSK-TKIP][ESS]","level":"-61","frequency":"2417","time":"جمعه ۲۲ نوامبر ۲۰۱۳ ۲۲:۵۴:۳۵ (وقت عادی ایران)"}}
{"WiFi":{"SSID":"ORS","BSSID":"04:c0:6f:5f:a9:d2","capabilities":"[WPA-PSK-CCMP][WPA2-PSK-CCMP][WPS][ESS]","level":"-81","frequency":"2442","time":"جمعه ۲۲ نوامبر ۲۰۱۳ ۲۲:۵۴:۳۵ (وقت عادی ایران)"}}
{"WiFi":{"SSID":"39DD76","BSSID":"00:1f:fb:39:dd:76","capabilities":"[WEP][ESS]","level":"-86","frequency":"2472","time":"جمعه ۲۲ نوامبر ۲۰۱۳ ۲۲:۵۴:۳۵ (وقت عادی ایران)"}}
{"WiFi":{"SSID":"mobinnet6481","BSSID":"00:0d:f0:a6:c8:6d","capabilities":"[WPA-PSK-TKIP][ESS]","level":"-61","frequency":"2417","time":"جمعه ۲۲ نوامبر ۲۰۱۳ ۲۲:۵۴:۳۵ (وقت عادی ایران)"}}
{"WiFi":{"SSID":"ORS","BSSID":"04:c0:6f:5f:a9:d2","capabilities":"[WPA-PSK-CCMP][WPA2-PSK-CCMP][WPS][ESS]","level":"-81","frequency":"2442","time":"جمعه ۲۲ نوامبر ۲۰۱۳ ۲۲:۵۴:۳۵ (وقت عادی ایران)"}}
{"WiFi":{"SSID":"39DD76","BSSID":"00:1f:fb:39:dd:76","capabilities":"[WEP][ESS]","level":"-86","frequency":"2472","time":"جمعه ۲۲ نوامبر ۲۰۱۳ ۲۲:۵۴:۳۵ (وقت عادی ایران)"}}
{"Location":{"Latitude":"35.7289376","Longtitude":"51.4607357","Altitude":"0.0","time":"۱۱-۲۲-۲۰۱۳ ۲۲:۵۴:۴۹","Accuracy":"34.5","Provider":"network"}}
{"Location":{"Latitude":"35.728952","Longtitude":"51.4607449","Altitude":"0.0","time":"۱۱-۲۲-۲۰۱۳ ۲۲:۵۵:۰۹","Accuracy":"36.0","Provider":"network"}}
{"WiFi":{"SSID":"mobinnet6481","BSSID":"00:0d:f0:a6:c8:6d","capabilities":"[WPA-PSK-TKIP][ESS]","level":"-60","frequency":"2417","time":"جمعه ۲۲ نوامبر ۲۰۱۳ ۲۲:۵۵:۳۵ (وقت عادی ایران)"}}
{"WiFi":{"SSID":"ORS","BSSID":"04:c0:6f:5f:a9:d2","capabilities":"[WPA-PSK-CCMP][WPA2-PSK-CCMP][WPS][ESS]","level":"-82","frequency":"2442","time":"جمعه ۲۲ نوامبر ۲۰۱۳ ۲۲:۵۵:۳۵ (وقت عادی ایران)"}}
{"WiFi":{"SSID":"39DD76","BSSID":"00:1f:fb:39:dd:76","capabilities":"[WEP][ESS]","level":"-90","frequency":"2472","time":"جمعه ۲۲ نوامبر ۲۰۱۳ ۲۲:۵۵:۳۵ (وقت عادی ایران)"}}
{"WiFi":{"SSID":"mobinnet6481","BSSID":"00:0d:f0:a6:c8:6d","capabilities":"[WPA-PSK-TKIP][ESS]","level":"-60","frequency":"2417","time":"جمعه ۲۲ نوامبر ۲۰۱۳ ۲۲:۵۵:۳۵ (وقت عادی ایران)"}}
{"WiFi":{"SSID":"ORS","BSSID":"04:c0:6f:5f:a9:d2","capabilities":"[WPA-PSK-CCMP][WPA2-PSK-CCMP][WPS][ESS]","level":"-82","frequency":"2442","time":"جمعه ۲۲ نوامبر ۲۰۱۳ ۲۲:۵۵:۳۵ (وقت عادی ایران)"}}
{"WiFi":{"SSID":"39DD76","BSSID":"00:1f:fb:39:dd:76","capabilities":"[WEP][ESS]","level":"-90","frequency":"2472","time":"جمعه ۲۲ نوامبر ۲۰۱۳ ۲۲:۵۵:۳۵ (وقت عادی ایران)"}}
{"Location":{"Latitude":"35.7289344","Longtitude":"51.4607416","Altitude":"0.0","time":"۱۱-۲۲-۲۰۱۳ ۲۲:۵۵:۴۹","Accuracy":"33.0","Provider":"network"}}
{"Location":{"Latitude":"35.7289484","Longtitude":"51.4607517","Altitude":"0.0","time":"۱۱-۲۲-۲۰۱۳ ۲۲:۵۶:۰۹","Accuracy":"36.0","Provider":"network"}}
{"Location":{"Latitude":"35.728932","Longtitude":"51.4607428","Altitude":"0.0","time":"۱۱-۲۲-۲۰۱۳ ۲۲:۵۶:۲۹","Accuracy":"40.5","Provider":"network"}}
{"WiFi":{"SSID":"mobinnet6481","BSSID":"00:0d:f0:a6:c8:6d","capabilities":"[WPA-PSK-TKIP][ESS]","level":"-58","frequency":"2417","time":"جمعه ۲۲ نوامبر ۲۰۱۳ ۲۲:۵۶:۳۵ (وقت عادی ایران)"}}
{"WiFi":{"SSID":"39DD76","BSSID":"00:1f:fb:39:dd:76","capabilities":"[WEP][ESS]","level":"-88","frequency":"2472","time":"جمعه ۲۲ نوامبر ۲۰۱۳ ۲۲:۵۶:۳۵ (وقت عادی ایران)"}}
{"WiFi":{"SSID":"ORS","BSSID":"04:c0:6f:5f:a9:d2","capabilities":"[WPA-PSK-CCMP][WPA2-PSK-CCMP][WPS][ESS]","level":"-82","frequency":"2442","time":"جمعه ۲۲ نوامبر ۲۰۱۳ ۲۲:۵۶:۳۵ (وقت عادی ایران)"}}
{"WiFi":{"SSID":"mobinnet6481","BSSID":"00:0d:f0:a6:c8:6d","capabilities":"[WPA-PSK-TKIP][ESS]","level":"-58","frequency":"2417","time":"جمعه ۲۲ نوامبر ۲۰۱۳ ۲۲:۵۶:۳۵ (وقت عادی ایران)"}}
{"WiFi":{"SSID":"39DD76","BSSID":"00:1f:fb:39:dd:76","capabilities":"[WEP][ESS]","level":"-88","frequency":"2472","time":"جمعه ۲۲ نوامبر ۲۰۱۳ ۲۲:۵۶:۳۵ (وقت عادی ایران)"}}
{"WiFi":{"SSID":"ORS","BSSID":"04:c0:6f:5f:a9:d2","capabilities":"[WPA-PSK-CCMP][WPA2-PSK-CCMP][WPS][ESS]","level":"-82","frequency":"2442","time":"جمعه ۲۲ نوامبر ۲۰۱۳ ۲۲:۵۶:۳۵ (وقت عادی ایران)"}}
