{"Application":{"ProcessName":"com.lge.keepscreenon","Start":"۱-۱۵-۲۰۱۴ ۲۳:۲۳:۵۸","End":"۱-۱۵-۲۰۱۴ ۲۳:۲۴:۴۲"}}
{"Application":{"ProcessName":"com.lge.launcher2","Start":"۱-۱۵-۲۰۱۴ ۲۳:۲۴:۰۸","End":"۱-۱۵-۲۰۱۴ ۲۳:۲۴:۴۲"}}
{"Application":{"ProcessName":"com.lge.systemserver","Start":"۱-۱۵-۲۰۱۴ ۲۳:۲۳:۵۸","End":"۱-۱۵-۲۰۱۴ ۲۳:۲۴:۴۲"}}
{"Application":{"ProcessName":"com.lge.launcher2","Start":"۱-۱۶-۲۰۱۴ ۰۶:۵۰:۰۰","End":"۱-۱۶-۲۰۱۴ ۰۶:۵۰:۰۳"}}
{"Application":{"ProcessName":"com.lge.keepscreenon","Start":"۱-۱۶-۲۰۱۴ ۰۶:۴۵:۰۷","End":"۱-۱۶-۲۰۱۴ ۰۶:۵۰:۱۰"}}
{"Application":{"ProcessName":"com.lge.clock","Start":"۱-۱۶-۲۰۱۴ ۰۶:۴۵:۰۷","End":"۱-۱۶-۲۰۱۴ ۰۶:۵۰:۱۰"}}
{"Application":{"ProcessName":"com.lge.systemserver","Start":"۱-۱۶-۲۰۱۴ ۰۶:۴۵:۰۷","End":"۱-۱۶-۲۰۱۴ ۰۶:۵۰:۱۰"}}
{"Application":{"ProcessName":"com.lge.clock","Start":"۱-۱۶-۲۰۱۴ ۰۶:۵۰:۱۰","End":"۱-۱۶-۲۰۱۴ ۰۶:۵۰:۱۳"}}
{"Application":{"ProcessName":"com.lge.launcher2","Start":"۱-۱۶-۲۰۱۴ ۰۶:۵۰:۱۳","End":"۱-۱۶-۲۰۱۴ ۰۶:۵۰:۳۰"}}
{"Application":{"ProcessName":"com.lge.keepscreenon","Start":"۱-۱۶-۲۰۱۴ ۰۶:۵۰:۱۰","End":"۱-۱۶-۲۰۱۴ ۰۶:۵۰:۵۳"}}
{"Application":{"ProcessName":"com.lge.clock","Start":"۱-۱۶-۲۰۱۴ ۰۶:۵۰:۳۰","End":"۱-۱۶-۲۰۱۴ ۰۶:۵۰:۵۳"}}
{"Application":{"ProcessName":"com.lge.systemserver","Start":"۱-۱۶-۲۰۱۴ ۰۶:۵۰:۱۰","End":"۱-۱۶-۲۰۱۴ ۰۶:۵۰:۵۳"}}
{"Application":{"ProcessName":"com.lge.keepscreenon","Start":"۱-۱۶-۲۰۱۴ ۰۶:۵۱:۰۵","End":"۱-۱۶-۲۰۱۴ ۰۶:۵۲:۰۵"}}
{"Application":{"ProcessName":"com.lge.clock","Start":"۱-۱۶-۲۰۱۴ ۰۶:۵۱:۰۵","End":"۱-۱۶-۲۰۱۴ ۰۶:۵۲:۰۵"}}
{"Application":{"ProcessName":"com.lge.systemserver","Start":"۱-۱۶-۲۰۱۴ ۰۶:۵۱:۰۵","End":"۱-۱۶-۲۰۱۴ ۰۶:۵۲:۰۵"}}
{"Application":{"ProcessName":"com.lge.clock","Start":"۱-۱۶-۲۰۱۴ ۰۷:۴۵:۰۶","End":"۱-۱۶-۲۰۱۴ ۰۷:۴۵:۱۶"}}
{"Application":{"ProcessName":"com.lge.keepscreenon","Start":"۱-۱۶-۲۰۱۴ ۰۷:۴۵:۰۶","End":"۱-۱۶-۲۰۱۴ ۰۷:۵۴:۴۵"}}
{"Application":{"ProcessName":"com.lge.launcher2","Start":"۱-۱۶-۲۰۱۴ ۰۷:۴۵:۱۶","End":"۱-۱۶-۲۰۱۴ ۰۷:۵۴:۴۵"}}
{"Application":{"ProcessName":"com.lge.systemserver","Start":"۱-۱۶-۲۰۱۴ ۰۷:۴۵:۰۶","End":"۱-۱۶-۲۰۱۴ ۰۷:۵۴:۴۵"}}
{"Application":{"ProcessName":"com.lge.keepscreenon","Start":"۱-۱۶-۲۰۱۴ ۰۹:۱۱:۵۸","End":"۱-۱۶-۲۰۱۴ ۰۹:۱۲:۱۰"}}
{"Application":{"ProcessName":"com.lge.systemserver","Start":"۱-۱۶-۲۰۱۴ ۰۹:۱۱:۵۸","End":"۱-۱۶-۲۰۱۴ ۰۹:۱۲:۱۰"}}
{"Location":{"Latitude":"35.7047479","Longtitude":"51.1933961","Altitude":"0.0","time":"۱-۱۶-۲۰۱۴ ۰۹:۵۴:۵۸","Accuracy":"2027.0","Provider":"fused","Speed":"0.0"}}
{"Location":{"Latitude":"35.7047479","Longtitude":"51.1933961","Altitude":"0.0","time":"۱-۱۶-۲۰۱۴ ۰۹:۵۴:۵۸","Accuracy":"2027.0","Provider":"fused","Speed":"0.0"}}
{"Location":{"Latitude":"35.7111134","Longtitude":"51.2058287","Altitude":"0.0","time":"۱-۱۶-۲۰۱۴ ۰۹:۵۶:۵۸","Accuracy":"2397.0","Provider":"fused","Speed":"0.0"}}
{"Location":{"Latitude":"35.7111134","Longtitude":"51.2058287","Altitude":"0.0","time":"۱-۱۶-۲۰۱۴ ۰۹:۵۸:۵۸","Accuracy":"2397.0","Provider":"fused","Speed":"0.0"}}
{"Location":{"Latitude":"35.7111134","Longtitude":"51.2058287","Altitude":"0.0","time":"۱-۱۶-۲۰۱۴ ۰۹:۵۹:۵۸","Accuracy":"2397.0","Provider":"fused","Speed":"0.0"}}
{"Location":{"Latitude":"35.7111134","Longtitude":"51.2058287","Altitude":"0.0","time":"۱-۱۶-۲۰۱۴ ۱۰:۰۰:۵۸","Accuracy":"2397.0","Provider":"fused","Speed":"0.0"}}
{"SMS":{"Address":"+98930770####","type":"1","date":"۱-۱۶-۲۰۱۴ ۱۰:۰۲:۵۳","body":"ANONYMIZED","Type":"1"}}
{"Location":{"Latitude":"35.7111134","Longtitude":"51.2058287","Altitude":"0.0","time":"۱-۱۶-۲۰۱۴ ۱۰:۰۲:۵۸","Accuracy":"2397.0","Provider":"fused","Speed":"0.0"}}
{"Location":{"Latitude":"35.7111134","Longtitude":"51.2058287","Altitude":"0.0","time":"۱-۱۶-۲۰۱۴ ۱۰:۰۳:۵۹","Accuracy":"2397.0","Provider":"fused","Speed":"0.0"}}
{"SMS":{"Address":"+98930770####","type":"1","date":"۱-۱۶-۲۰۱۴ ۱۰:۰۴:۰۲","body":"ANONYMIZED","Type":"1"}}
{"Location":{"Latitude":"35.7111134","Longtitude":"51.2058287","Altitude":"0.0","time":"۱-۱۶-۲۰۱۴ ۱۰:۰۴:۵۹","Accuracy":"2397.0","Provider":"fused","Speed":"0.0"}}
{"Location":{"Latitude":"35.7111134","Longtitude":"51.2058287","Altitude":"0.0","time":"۱-۱۶-۲۰۱۴ ۱۰:۰۵:۵۹","Accuracy":"2397.0","Provider":"fused","Speed":"0.0"}}
{"Location":{"Latitude":"35.7111134","Longtitude":"51.2058287","Altitude":"0.0","time":"۱-۱۶-۲۰۱۴ ۱۰:۰۶:۵۹","Accuracy":"2397.0","Provider":"fused","Speed":"0.0"}}
{"Location":{"Latitude":"35.7111134","Longtitude":"51.2058287","Altitude":"0.0","time":"۱-۱۶-۲۰۱۴ ۱۰:۰۷:۵۹","Accuracy":"2397.0","Provider":"fused","Speed":"0.0"}}
{"SMS":{"Address":"+98930770####","type":"1","date":"۱-۱۶-۲۰۱۴ ۱۰:۰۸:۰۶","body":"ANONYMIZED","Type":"1", "metadata": {"name": "خانومی"}}}
{"SMS":{"Address":"+98930770####","type":"1","date":"۱-۱۶-۲۰۱۴ ۱۰:۰۸:۰۸","body":"ANONYMIZED","Type":"1", "metadata": {"name": "خانومی"}}}
{"Application":{"ProcessName":"com.lge.lgdmsclient","Start":"۱-۱۶-۲۰۱۴ ۱۰:۰۸:۱۵","End":"۱-۱۶-۲۰۱۴ ۱۰:۰۸:۱۶"}}
{"Location":{"Latitude":"35.7111134","Longtitude":"51.2058287","Altitude":"0.0","time":"۱-۱۶-۲۰۱۴ ۱۰:۰۸:۵۹","Accuracy":"2397.0","Provider":"fused","Speed":"0.0"}}
{"Location":{"Latitude":"35.7111134","Longtitude":"51.2058287","Altitude":"0.0","time":"۱-۱۶-۲۰۱۴ ۱۰:۰۹:۵۹","Accuracy":"2397.0","Provider":"fused","Speed":"0.0"}}
{"Location":{"Latitude":"35.7111134","Longtitude":"51.2058287","Altitude":"0.0","time":"۱-۱۶-۲۰۱۴ ۱۰:۱۰:۵۹","Accuracy":"2397.0","Provider":"fused","Speed":"0.0"}}
{"Application":{"ProcessName":"com.android.mms","Start":"۱-۱۶-۲۰۱۴ ۱۰:۰۸:۱۵","End":"۱-۱۶-۲۰۱۴ ۱۰:۱۱:۰۰"}}
{"Application":{"ProcessName":"com.lge.keepscreenon","Start":"۱-۱۶-۲۰۱۴ ۱۰:۰۸:۱۵","End":"۱-۱۶-۲۰۱۴ ۱۰:۱۱:۰۰"}}
{"Application":{"ProcessName":"com.lge.systemserver","Start":"۱-۱۶-۲۰۱۴ ۱۰:۰۸:۱۵","End":"۱-۱۶-۲۰۱۴ ۱۰:۱۱:۰۰"}}
{"Application":{"ProcessName":"com.lge.launcher2","Start":"۱-۱۶-۲۰۱۴ ۱۰:۰۸:۱۵","End":"۱-۱۶-۲۰۱۴ ۱۰:۱۱:۰۰"}}
{"Location":{"Latitude":"35.7111134","Longtitude":"51.2058287","Altitude":"0.0","time":"۱-۱۶-۲۰۱۴ ۱۰:۱۱:۵۹","Accuracy":"2397.0","Provider":"fused","Speed":"0.0"}}
{"Location":{"Latitude":"35.7111134","Longtitude":"51.2058287","Altitude":"0.0","time":"۱-۱۶-۲۰۱۴ ۱۰:۱۲:۵۹","Accuracy":"2397.0","Provider":"fused","Speed":"0.0"}}
{"Location":{"Latitude":"35.7111134","Longtitude":"51.2058287","Altitude":"0.0","time":"۱-۱۶-۲۰۱۴ ۱۰:۱۴:۵۹","Accuracy":"2397.0","Provider":"fused","Speed":"0.0"}}
{"Location":{"Latitude":"35.7111134","Longtitude":"51.2058287","Altitude":"0.0","time":"۱-۱۶-۲۰۱۴ ۱۰:۱۵:۵۹","Accuracy":"2397.0","Provider":"fused","Speed":"0.0"}}
{"Location":{"Latitude":"35.7111134","Longtitude":"51.2058287","Altitude":"0.0","time":"۱-۱۶-۲۰۱۴ ۱۰:۱۶:۵۹","Accuracy":"2397.0","Provider":"fused","Speed":"0.0"}}
{"Location":{"Latitude":"35.7111134","Longtitude":"51.2058287","Altitude":"0.0","time":"۱-۱۶-۲۰۱۴ ۱۰:۱۷:۵۹","Accuracy":"2397.0","Provider":"fused","Speed":"0.0"}}
{"Call": {"Number":"+98930770####","Duration":"0","Time":"۱-۱۶-۲۰۱۴ ۱۰:۱۸:۲۶","Type":"3"}}
{"Call": {"Number":"+98930770####","Duration":"0","Time":"۱-۱۶-۲۰۱۴ ۱۰:۱۸:۲۶","Type":"3"}}
{"Call": {"Number":"+98930770####","Duration":"0","Time":"۱-۱۶-۲۰۱۴ ۱۰:۱۸:۲۶","Type":"3"}}
{"Call": {"Number":"+98930770####","Duration":"0","Time":"۱-۱۶-۲۰۱۴ ۱۰:۱۸:۲۶","Type":"3"}}
{"Location":{"Latitude":"35.7111134","Longtitude":"51.2058287","Altitude":"0.0","time":"۱-۱۶-۲۰۱۴ ۱۰:۱۸:۵۹","Accuracy":"2397.0","Provider":"fused","Speed":"0.0"}}
{"Call": {"Number":"+98930770####","Duration":"0","Time":"۱-۱۶-۲۰۱۴ ۱۰:۱۸:۴۵","Type":"3"}}
{"Call": {"Number":"+98930770####","Duration":"0","Time":"۱-۱۶-۲۰۱۴ ۱۰:۱۸:۴۵","Type":"3"}}
{"Call": {"Number":"+98930770####","Duration":"0","Time":"۱-۱۶-۲۰۱۴ ۱۰:۱۸:۴۵","Type":"3"}}
{"Call": {"Number":"+98930770####","Duration":"0","Time":"۱-۱۶-۲۰۱۴ ۱۰:۱۸:۴۵","Type":"3"}}
{"Application":{"ProcessName":"com.lge.launcher2","Start":"۱-۱۶-۲۰۱۴ ۱۰:۱۹:۰۹","End":"۱-۱۶-۲۰۱۴ ۱۰:۲۰:۰۱"}}
{"SMS":{"Address":"+98930770####","type":"2","date":"۱-۱۶-۲۰۱۴ ۱۰:۲۰:۲۵","body":"ANONYMIZED","Type":"2", "metadata": {"name": "خانومی"}}}
{"SMS":{"Address":"+98930770####","type":"1","date":"۱-۱۶-۲۰۱۴ ۱۰:۲۰:۵۸","body":"ANONYMIZED","Type":"1", "metadata": {"name": "خانومی"}}}
{"Location":{"Latitude":"35.7079307","Longtitude":"51.1996124","Altitude":"0.0","time":"۱-۱۶-۲۰۱۴ ۱۰:۲۱:۰۰","Accuracy":"2027.0","Provider":"fused","Speed":"0.0"}}
{"Application":{"ProcessName":"com.android.mms","Start":"۱-۱۶-۲۰۱۴ ۱۰:۲۰:۰۱","End":"۱-۱۶-۲۰۱۴ ۱۰:۲۱:۵۴"}}
{"Application":{"ProcessName":"com.lge.keepscreenon","Start":"۱-۱۶-۲۰۱۴ ۱۰:۱۸:۴۹","End":"۱-۱۶-۲۰۱۴ ۱۰:۲۱:۵۴"}}
{"Application":{"ProcessName":"com.lge.systemserver","Start":"۱-۱۶-۲۰۱۴ ۱۰:۱۸:۴۹","End":"۱-۱۶-۲۰۱۴ ۱۰:۲۱:۵۴"}}
{"Location":{"Latitude":"35.7111134","Longtitude":"51.2058287","Altitude":"0.0","time":"۱-۱۶-۲۰۱۴ ۱۰:۲۳:۰۰","Accuracy":"2397.0","Provider":"fused","Speed":"0.0"}}
{"Location":{"Latitude":"35.7111134","Longtitude":"51.2058287","Altitude":"0.0","time":"۱-۱۶-۲۰۱۴ ۱۰:۲۴:۰۰","Accuracy":"2397.0","Provider":"fused","Speed":"0.0"}}
{"Location":{"Latitude":"35.7111134","Longtitude":"51.2058287","Altitude":"0.0","time":"۱-۱۶-۲۰۱۴ ۱۰:۲۵:۰۰","Accuracy":"2397.0","Provider":"fused","Speed":"0.0"}}
{"Location":{"Latitude":"35.7111134","Longtitude":"51.2058287","Altitude":"0.0","time":"۱-۱۶-۲۰۱۴ ۱۰:۲۶:۰۰","Accuracy":"2397.0","Provider":"fused","Speed":"0.0"}}
{"Location":{"Latitude":"35.7111134","Longtitude":"51.2058287","Altitude":"0.0","time":"۱-۱۶-۲۰۱۴ ۱۰:۲۷:۰۰","Accuracy":"2397.0","Provider":"fused","Speed":"0.0"}}
{"Location":{"Latitude":"35.7111134","Longtitude":"51.2058287","Altitude":"0.0","time":"۱-۱۶-۲۰۱۴ ۱۰:۲۸:۰۰","Accuracy":"2397.0","Provider":"fused","Speed":"0.0"}}
{"Location":{"Latitude":"35.7111134","Longtitude":"51.2058287","Altitude":"0.0","time":"۱-۱۶-۲۰۱۴ ۱۰:۲۹:۰۰","Accuracy":"2397.0","Provider":"fused","Speed":"0.0"}}
{"Location":{"Latitude":"35.7111134","Longtitude":"51.2058287","Altitude":"0.0","time":"۱-۱۶-۲۰۱۴ ۱۰:۳۰:۰۰","Accuracy":"2397.0","Provider":"fused","Speed":"0.0"}}
{"Location":{"Latitude":"35.7111134","Longtitude":"51.2058287","Altitude":"0.0","time":"۱-۱۶-۲۰۱۴ ۱۰:۳۱:۰۰","Accuracy":"2397.0","Provider":"fused","Speed":"0.0"}}
{"Location":{"Latitude":"35.7111134","Longtitude":"51.2058287","Altitude":"0.0","time":"۱-۱۶-۲۰۱۴ ۱۰:۳۲:۰۰","Accuracy":"2397.0","Provider":"fused","Speed":"0.0"}}
{"Location":{"Latitude":"35.7047479","Longtitude":"51.1933961","Altitude":"0.0","time":"۱-۱۶-۲۰۱۴ ۱۰:۳۳:۰۰","Accuracy":"2027.0","Provider":"fused","Speed":"0.0"}}
{"Location":{"Latitude":"35.7111134","Longtitude":"51.2058287","Altitude":"0.0","time":"۱-۱۶-۲۰۱۴ ۱۰:۳۴:۰۰","Accuracy":"2397.0","Provider":"fused","Speed":"0.0"}}
{"Location":{"Latitude":"35.7111134","Longtitude":"51.2058287","Altitude":"0.0","time":"۱-۱۶-۲۰۱۴ ۱۰:۳۵:۰۰","Accuracy":"2397.0","Provider":"fused","Speed":"0.0"}}
{"Location":{"Latitude":"35.7111134","Longtitude":"51.2058287","Altitude":"0.0","time":"۱-۱۶-۲۰۱۴ ۱۰:۳۶:۰۰","Accuracy":"2397.0","Provider":"fused","Speed":"0.0"}}
{"Location":{"Latitude":"35.7079307","Longtitude":"51.1996124","Altitude":"0.0","time":"۱-۱۶-۲۰۱۴ ۱۰:۳۷:۰۰","Accuracy":"2027.0","Provider":"fused","Speed":"0.0"}}
{"Location":{"Latitude":"35.7047479","Longtitude":"51.1933961","Altitude":"0.0","time":"۱-۱۶-۲۰۱۴ ۱۰:۳۸:۰۱","Accuracy":"2027.0","Provider":"fused","Speed":"0.0"}}
{"Location":{"Latitude":"35.7111134","Longtitude":"51.2058287","Altitude":"0.0","time":"۱-۱۶-۲۰۱۴ ۱۰:۳۹:۰۱","Accuracy":"2397.0","Provider":"fused","Speed":"0.0"}}
{"Location":{"Latitude":"35.7047479","Longtitude":"51.1933961","Altitude":"0.0","time":"۱-۱۶-۲۰۱۴ ۱۰:۴۰:۰۱","Accuracy":"2027.0","Provider":"fused","Speed":"0.0"}}
{"Location":{"Latitude":"35.7111134","Longtitude":"51.2058287","Altitude":"0.0","time":"۱-۱۶-۲۰۱۴ ۱۰:۴۲:۰۱","Accuracy":"2397.0","Provider":"fused","Speed":"0.0"}}
{"Location":{"Latitude":"35.7111134","Longtitude":"51.2058287","Altitude":"0.0","time":"۱-۱۶-۲۰۱۴ ۱۰:۴۳:۰۲","Accuracy":"2397.0","Provider":"fused","Speed":"0.0"}}
{"Call": {"Number":"+98930770####","Duration":"0","Time":"۱-۱۶-۲۰۱۴ ۱۰:۱۸:۴۵","Type":"3"}}
{"Call": {"Number":"+98930770####","Duration":"0","Time":"۱-۱۶-۲۰۱۴ ۱۰:۱۸:۴۵","Type":"3"}}
{"Call": {"Number":"+98930770####","Duration":"0","Time":"۱-۱۶-۲۰۱۴ ۱۰:۱۸:۴۵","Type":"3"}}
{"Call": {"Number":"+98930770####","Duration":"0","Time":"۱-۱۶-۲۰۱۴ ۱۰:۱۸:۴۵","Type":"3"}}
{"Call": {"Number":"+98930770####","Duration":"0","Time":"۱-۱۶-۲۰۱۴ ۱۰:۱۸:۴۵","Type":"3"}}
{"Call": {"Number":"+98930770####","Duration":"0","Time":"۱-۱۶-۲۰۱۴ ۱۰:۱۸:۴۵","Type":"3"}}
{"Call": {"Number":"+98930770####","Duration":"0","Time":"۱-۱۶-۲۰۱۴ ۱۰:۱۸:۴۵","Type":"3"}}
{"Call": {"Number":"+98930770####","Duration":"0","Time":"۱-۱۶-۲۰۱۴ ۱۰:۱۸:۴۵","Type":"3"}}
{"Application":{"ProcessName":"com.android.mms","Start":"۱-۱۶-۲۰۱۴ ۱۰:۴۸:۴۴","End":"۱-۱۶-۲۰۱۴ ۱۰:۴۹:۰۴"}}
{"Application":{"ProcessName":"com.lge.keepscreenon","Start":"۱-۱۶-۲۰۱۴ ۱۰:۴۸:۴۴","End":"۱-۱۶-۲۰۱۴ ۱۰:۴۹:۰۵"}}
{"Application":{"ProcessName":"com.lge.systemserver","Start":"۱-۱۶-۲۰۱۴ ۱۰:۴۸:۴۴","End":"۱-۱۶-۲۰۱۴ ۱۰:۴۹:۰۵"}}
{"Call": {"Number":"+98930770####","Duration":"32","Time":"۱-۱۶-۲۰۱۴ ۱۰:۴۹:۰۲","Type":"2"}}
{"Call": {"Number":"+98930770####","Duration":"32","Time":"۱-۱۶-۲۰۱۴ ۱۰:۴۹:۰۲","Type":"2"}}
{"Call": {"Number":"+98930770####","Duration":"32","Time":"۱-۱۶-۲۰۱۴ ۱۰:۴۹:۰۲","Type":"2"}}
{"Call": {"Number":"+98930770####","Duration":"32","Time":"۱-۱۶-۲۰۱۴ ۱۰:۴۹:۰۲","Type":"2"}}
{"Call": {"Number":"+98930770####","Duration":"32","Time":"۱-۱۶-۲۰۱۴ ۱۰:۴۹:۰۲","Type":"2"}}
{"Call": {"Number":"+98930770####","Duration":"32","Time":"۱-۱۶-۲۰۱۴ ۱۰:۴۹:۰۲","Type":"2"}}
{"Call": {"Number":"+98930770####","Duration":"32","Time":"۱-۱۶-۲۰۱۴ ۱۰:۴۹:۰۲","Type":"2"}}
{"Call": {"Number":"+98930770####","Duration":"32","Time":"۱-۱۶-۲۰۱۴ ۱۰:۴۹:۰۲","Type":"2"}}
{"Application":{"ProcessName":"com.lge.sizechangable.weather","Start":"۱-۱۶-۲۰۱۴ ۱۰:۴۹:۵۴","End":"۱-۱۶-۲۰۱۴ ۱۰:۴۹:۵۵"}}
{"Application":{"ProcessName":"com.lge.keepscreenon","Start":"۱-۱۶-۲۰۱۴ ۱۰:۴۹:۴۴","End":"۱-۱۶-۲۰۱۴ ۱۰:۵۰:۰۵"}}
{"Application":{"ProcessName":"com.lge.launcher2","Start":"۱-۱۶-۲۰۱۴ ۱۰:۴۹:۵۴","End":"۱-۱۶-۲۰۱۴ ۱۰:۵۰:۰۵"}}
{"Application":{"ProcessName":"com.lge.systemserver","Start":"۱-۱۶-۲۰۱۴ ۱۰:۴۹:۴۴","End":"۱-۱۶-۲۰۱۴ ۱۰:۵۰:۰۵"}}
{"SMS":{"Address":"DERBI","type":"1","date":"۱-۱۶-۲۰۱۴ ۱۱:۲۲:۱۱","body":"ANONYMIZED","Type":"1", "metadata": {"name": ""}}}
{"Application":{"ProcessName":"com.android.mms","Start":"۱-۱۶-۲۰۱۴ ۱۱:۲۲:۱۸","End":"۱-۱۶-۲۰۱۴ ۱۱:۲۳:۳۴"}}
{"Application":{"ProcessName":"com.lge.keepscreenon","Start":"۱-۱۶-۲۰۱۴ ۱۱:۲۲:۱۸","End":"۱-۱۶-۲۰۱۴ ۱۱:۲۳:۳۴"}}
{"Application":{"ProcessName":"com.lge.systemserver","Start":"۱-۱۶-۲۰۱۴ ۱۱:۲۲:۱۸","End":"۱-۱۶-۲۰۱۴ ۱۱:۲۳:۳۴"}}
{"Application":{"ProcessName":"com.lge.launcher2","Start":"۱-۱۶-۲۰۱۴ ۱۱:۲۲:۱۸","End":"۱-۱۶-۲۰۱۴ ۱۱:۲۳:۳۴"}}
{"Application":{"ProcessName":"com.lge.launcher2","Start":"۱-۱۶-۲۰۱۴ ۱۱:۳۳:۴۴","End":"۱-۱۶-۲۰۱۴ ۱۱:۳۳:۵۴"}}
{"Application":{"ProcessName":"com.lge.sizechangable.weather","Start":"۱-۱۶-۲۰۱۴ ۱۱:۳۳:۴۴","End":"۱-۱۶-۲۰۱۴ ۱۱:۳۳:۵۴"}}
{"Application":{"ProcessName":"com.android.mms","Start":"۱-۱۶-۲۰۱۴ ۱۱:۳۳:۴۴","End":"۱-۱۶-۲۰۱۴ ۱۱:۳۴:۲۹"}}
{"Application":{"ProcessName":"com.lge.keepscreenon","Start":"۱-۱۶-۲۰۱۴ ۱۱:۳۳:۴۴","End":"۱-۱۶-۲۰۱۴ ۱۱:۳۴:۲۹"}}
{"Application":{"ProcessName":"com.lge.systemserver","Start":"۱-۱۶-۲۰۱۴ ۱۱:۳۳:۴۴","End":"۱-۱۶-۲۰۱۴ ۱۱:۳۴:۲۹"}}
{"Application":{"ProcessName":"com.lge.keepscreenon","Start":"۱-۱۶-۲۰۱۴ ۱۱:۳۶:۴۷","End":"۱-۱۶-۲۰۱۴ ۱۱:۳۶:۵۷"}}
{"Application":{"ProcessName":"com.lge.systemserver","Start":"۱-۱۶-۲۰۱۴ ۱۱:۳۶:۴۷","End":"۱-۱۶-۲۰۱۴ ۱۱:۳۶:۵۷"}}
{"Application":{"ProcessName":"com.lge.launcher2","Start":"۱-۱۶-۲۰۱۴ ۱۱:۳۶:۴۷","End":"۱-۱۶-۲۰۱۴ ۱۱:۳۶:۵۷"}}
{"Application":{"ProcessName":"com.lge.sizechangable.weather","Start":"۱-۱۶-۲۰۱۴ ۱۱:۳۶:۴۷","End":"۱-۱۶-۲۰۱۴ ۱۱:۳۶:۵۷"}}
{"Call": {"Number":"+98935214####","Duration":"12","Time":"۱-۱۶-۲۰۱۴ ۱۱:۳۶:۵۵","Type":"2"}}
{"Call": {"Number":"+98935214####","Duration":"12","Time":"۱-۱۶-۲۰۱۴ ۱۱:۳۶:۵۵","Type":"2"}}
{"Call": {"Number":"+98935214####","Duration":"12","Time":"۱-۱۶-۲۰۱۴ ۱۱:۳۶:۵۵","Type":"2"}}
{"Call": {"Number":"+98935214####","Duration":"12","Time":"۱-۱۶-۲۰۱۴ ۱۱:۳۶:۵۵","Type":"2"}}
{"Call": {"Number":"+98935214####","Duration":"12","Time":"۱-۱۶-۲۰۱۴ ۱۱:۳۶:۵۵","Type":"2"}}
{"Call": {"Number":"+98935214####","Duration":"12","Time":"۱-۱۶-۲۰۱۴ ۱۱:۳۶:۵۵","Type":"2"}}
{"Call": {"Number":"+98935214####","Duration":"12","Time":"۱-۱۶-۲۰۱۴ ۱۱:۳۶:۵۵","Type":"2"}}
{"Call": {"Number":"+98935214####","Duration":"12","Time":"۱-۱۶-۲۰۱۴ ۱۱:۳۶:۵۵","Type":"2"}}
{"Application":{"ProcessName":"com.android.contacts","Start":"۱-۱۶-۲۰۱۴ ۱۱:۳۷:۳۴","End":"۱-۱۶-۲۰۱۴ ۱۱:۳۷:۴۴"}}
{"Application":{"ProcessName":"com.lge.keepscreenon","Start":"۱-۱۶-۲۰۱۴ ۱۱:۳۷:۳۴","End":"۱-۱۶-۲۰۱۴ ۱۱:۳۷:۵۴"}}
{"Application":{"ProcessName":"com.lge.systemserver","Start":"۱-۱۶-۲۰۱۴ ۱۱:۳۷:۳۴","End":"۱-۱۶-۲۰۱۴ ۱۱:۳۷:۵۴"}}
{"Call": {"Number":"+98935236####","Duration":"196","Time":"۱-۱۶-۲۰۱۴ ۱۱:۳۷:۴۱","Type":"2"}}
{"Call": {"Number":"+98935236####","Duration":"196","Time":"۱-۱۶-۲۰۱۴ ۱۱:۳۷:۴۱","Type":"2"}}
{"Call": {"Number":"+98935236####","Duration":"196","Time":"۱-۱۶-۲۰۱۴ ۱۱:۳۷:۴۱","Type":"2"}}
{"Call": {"Number":"+98935236####","Duration":"196","Time":"۱-۱۶-۲۰۱۴ ۱۱:۳۷:۴۱","Type":"2"}}
{"Call": {"Number":"+98935236####","Duration":"196","Time":"۱-۱۶-۲۰۱۴ ۱۱:۳۷:۴۱","Type":"2"}}
{"Call": {"Number":"+98935236####","Duration":"196","Time":"۱-۱۶-۲۰۱۴ ۱۱:۳۷:۴۱","Type":"2"}}
{"Application":{"ProcessName":"com.lge.keepscreenon","Start":"۱-۱۶-۲۰۱۴ ۱۱:۴۱:۱۶","End":"۱-۱۶-۲۰۱۴ ۱۱:۴۱:۴۴"}}
{"Application":{"ProcessName":"com.android.contacts","Start":"۱-۱۶-۲۰۱۴ ۱۱:۴۱:۱۶","End":"۱-۱۶-۲۰۱۴ ۱۱:۴۱:۴۴"}}
{"Application":{"ProcessName":"com.lge.systemserver","Start":"۱-۱۶-۲۰۱۴ ۱۱:۴۱:۱۶","End":"۱-۱۶-۲۰۱۴ ۱۱:۴۱:۴۴"}}
{"SMS":{"Address":"+982000####","type":"1","date":"۱-۱۶-۲۰۱۴ ۱۱:۴۷:۱۸","body":"ANONYMIZED","Type":"1", "metadata": {"name": ""}}}
{"Application":{"ProcessName":"com.lge.keepscreenon","Start":"۱-۱۶-۲۰۱۴ ۱۱:۴۷:۲۳","End":"۱-۱۶-۲۰۱۴ ۱۱:۴۷:۴۱"}}
{"Application":{"ProcessName":"com.lge.systemserver","Start":"۱-۱۶-۲۰۱۴ ۱۱:۴۷:۲۳","End":"۱-۱۶-۲۰۱۴ ۱۱:۴۷:۴۱"}}
{"Application":{"ProcessName":"com.lge.launcher2","Start":"۱-۱۶-۲۰۱۴ ۱۱:۴۷:۲۳","End":"۱-۱۶-۲۰۱۴ ۱۱:۴۷:۴۱"}}
{"SMS":{"Address":"+98100####","type":"1","date":"۱-۱۶-۲۰۱۴ ۱۱:۴۷:۵۵","body":"ANONYMIZED","Type":"1", "metadata": {"name": ""}}}
{"Application":{"ProcessName":"com.lge.launcher2","Start":"۱-۱۶-۲۰۱۴ ۱۱:۴۸:۰۲","End":"۱-۱۶-۲۰۱۴ ۱۱:۴۸:۱۷"}}
{"Application":{"ProcessName":"com.android.mms","Start":"۱-۱۶-۲۰۱۴ ۱۱:۴۸:۱۷","End":"۱-۱۶-۲۰۱۴ ۱۱:۴۸:۳۷"}}
{"Application":{"ProcessName":"com.lge.keepscreenon","Start":"۱-۱۶-۲۰۱۴ ۱۱:۴۸:۰۲","End":"۱-۱۶-۲۰۱۴ ۱۱:۵۰:۱۳"}}
{"Application":{"ProcessName":"com.lge.launcher2","Start":"۱-۱۶-۲۰۱۴ ۱۱:۴۸:۳۷","End":"۱-۱۶-۲۰۱۴ ۱۱:۵۰:۱۳"}}
{"Application":{"ProcessName":"com.lge.systemserver","Start":"۱-۱۶-۲۰۱۴ ۱۱:۴۸:۰۲","End":"۱-۱۶-۲۰۱۴ ۱۱:۵۰:۱۳"}}
{"SMS":{"Address":"+982000####","type":"1","date":"۱-۱۶-۲۰۱۴ ۱۱:۵۳:۱۵","body":"ANONYMIZED","Type":"1", "metadata": {"name": ""}}}
{"Application":{"ProcessName":"com.lge.launcher2","Start":"۱-۱۶-۲۰۱۴ ۱۱:۵۳:۲۱","End":"۱-۱۶-۲۰۱۴ ۱۱:۵۳:۳۱"}}
{"Application":{"ProcessName":"com.android.mms","Start":"۱-۱۶-۲۰۱۴ ۱۱:۵۴:۱۱","End":"۱-۱۶-۲۰۱۴ ۱۱:۵۴:۱۱"}}
{"Call": {"Number":"+98930770####","Duration":"0","Time":"۱-۱۶-۲۰۱۴ ۱۱:۵۳:۲۵","Type":"3"}}
{"Call": {"Number":"+98930770####","Duration":"0","Time":"۱-۱۶-۲۰۱۴ ۱۱:۵۳:۲۵","Type":"3"}}
{"Call": {"Number":"+98930770####","Duration":"0","Time":"۱-۱۶-۲۰۱۴ ۱۱:۵۳:۲۵","Type":"3"}}
{"Call": {"Number":"+98930770####","Duration":"0","Time":"۱-۱۶-۲۰۱۴ ۱۱:۵۳:۲۵","Type":"3"}}
{"Application":{"ProcessName":"com.lge.launcher2","Start":"۱-۱۶-۲۰۱۴ ۱۱:۵۴:۱۱","End":"۱-۱۶-۲۰۱۴ ۱۱:۵۴:۲۱"}}
{"Application":{"ProcessName":"com.android.mms","Start":"۱-۱۶-۲۰۱۴ ۱۱:۵۴:۲۱","End":"۱-۱۶-۲۰۱۴ ۱۱:۵۴:۳۱"}}
{"Application":{"ProcessName":"com.lge.keepscreenon","Start":"۱-۱۶-۲۰۱۴ ۱۱:۵۳:۲۱","End":"۱-۱۶-۲۰۱۴ ۱۱:۵۴:۳۱"}}
{"Application":{"ProcessName":"com.lge.systemserver","Start":"۱-۱۶-۲۰۱۴ ۱۱:۵۳:۲۱","End":"۱-۱۶-۲۰۱۴ ۱۱:۵۴:۳۱"}}
{"Call": {"Number":"+98930770####","Duration":"199","Time":"۱-۱۶-۲۰۱۴ ۱۱:۵۴:۲۵","Type":"1"}}
{"Call": {"Number":"+98930770####","Duration":"199","Time":"۱-۱۶-۲۰۱۴ ۱۱:۵۴:۲۵","Type":"1"}}
{"Call": {"Number":"+98930770####","Duration":"199","Time":"۱-۱۶-۲۰۱۴ ۱۱:۵۴:۲۵","Type":"1"}}
{"Call": {"Number":"+98930770####","Duration":"199","Time":"۱-۱۶-۲۰۱۴ ۱۱:۵۴:۲۵","Type":"1"}}
{"Application":{"ProcessName":"com.android.mms","Start":"۱-۱۶-۲۰۱۴ ۱۱:۵۷:۵۰","End":"۱-۱۶-۲۰۱۴ ۱۱:۵۷:۵۱"}}
{"Call": {"Number":"+98930770####","Duration":"199","Time":"۱-۱۶-۲۰۱۴ ۱۱:۵۴:۲۵","Type":"1"}}
{"Call": {"Number":"+98930770####","Duration":"199","Time":"۱-۱۶-۲۰۱۴ ۱۱:۵۴:۲۵","Type":"1"}}
{"Call": {"Number":"+98930770####","Duration":"199","Time":"۱-۱۶-۲۰۱۴ ۱۱:۵۴:۲۵","Type":"1"}}
{"Call": {"Number":"+98930770####","Duration":"199","Time":"۱-۱۶-۲۰۱۴ ۱۱:۵۴:۲۵","Type":"1"}}
{"Application":{"ProcessName":"com.lge.launcher2","Start":"۱-۱۶-۲۰۱۴ ۱۱:۵۷:۵۱","End":"۱-۱۶-۲۰۱۴ ۱۱:۵۸:۰۰"}}
{"Application":{"ProcessName":"com.lge.sizechangable.weather","Start":"۱-۱۶-۲۰۱۴ ۱۱:۵۷:۵۱","End":"۱-۱۶-۲۰۱۴ ۱۱:۵۸:۰۰"}}
{"Call": {"Number":"+98930770####","Duration":"199","Time":"۱-۱۶-۲۰۱۴ ۱۱:۵۴:۲۵","Type":"1"}}
{"Call": {"Number":"+98930770####","Duration":"199","Time":"۱-۱۶-۲۰۱۴ ۱۱:۵۴:۲۵","Type":"1"}}
{"Application":{"ProcessName":"com.android.contacts","Start":"۱-۱۶-۲۰۱۴ ۱۱:۵۸:۰۰","End":"۱-۱۶-۲۰۱۴ ۱۱:۵۸:۳۵"}}
{"Application":{"ProcessName":"com.lge.keepscreenon","Start":"۱-۱۶-۲۰۱۴ ۱۱:۵۷:۵۰","End":"۱-۱۶-۲۰۱۴ ۱۱:۵۸:۳۵"}}
{"Application":{"ProcessName":"com.lge.systemserver","Start":"۱-۱۶-۲۰۱۴ ۱۱:۵۷:۵۰","End":"۱-۱۶-۲۰۱۴ ۱۱:۵۸:۳۵"}}
{"Application":{"ProcessName":"com.lge.launcher2","Start":"۱-۱۶-۲۰۱۴ ۱۲:۳۱:۲۷","End":"۱-۱۶-۲۰۱۴ ۱۲:۳۱:۳۷"}}
{"Application":{"ProcessName":"com.android.calculator2","Start":"۱-۱۶-۲۰۱۴ ۱۲:۳۱:۳۷","End":"۱-۱۶-۲۰۱۴ ۱۲:۳۱:۵۷"}}
{"Application":{"ProcessName":"com.lge.keepscreenon","Start":"۱-۱۶-۲۰۱۴ ۱۲:۳۱:۲۷","End":"۱-۱۶-۲۰۱۴ ۱۲:۳۱:۵۷"}}
{"Application":{"ProcessName":"com.lge.systemserver","Start":"۱-۱۶-۲۰۱۴ ۱۲:۳۱:۲۷","End":"۱-۱۶-۲۰۱۴ ۱۲:۳۱:۵۷"}}
{"SMS":{"Address":"+98930770####","type":"1","date":"۱-۱۶-۲۰۱۴ ۱۲:۴۶:۲۷","body":"ANONYMIZED","Type":"1", "metadata": {"name": "خانومی"}}}
{"Application":{"ProcessName":"com.android.calculator2","Start":"۱-۱۶-۲۰۱۴ ۱۲:۴۵:۰۳","End":"۱-۱۶-۲۰۱۴ ۱۲:۴۷:۱۰"}}
{"Application":{"ProcessName":"com.lge.keepscreenon","Start":"۱-۱۶-۲۰۱۴ ۱۲:۴۵:۰۳","End":"۱-۱۶-۲۰۱۴ ۱۲:۴۷:۱۰"}}
{"Application":{"ProcessName":"com.lge.systemserver","Start":"۱-۱۶-۲۰۱۴ ۱۲:۴۵:۰۳","End":"۱-۱۶-۲۰۱۴ ۱۲:۴۷:۱۰"}}
{"SMS":{"Address":"+98930770####","type":"1","date":"۱-۱۶-۲۰۱۴ ۱۲:۴۹:۱۳","body":"ANONYMIZED","Type":"1", "metadata": {"name": "خانومی"}}}
{"Application":{"ProcessName":"com.android.mms","Start":"۱-۱۶-۲۰۱۴ ۱۲:۴۹:۱۸","End":"۱-۱۶-۲۰۱۴ ۱۲:۵۰:۳۴"}}
{"Application":{"ProcessName":"com.lge.launcher2","Start":"۱-۱۶-۲۰۱۴ ۱۲:۴۹:۱۸","End":"۱-۱۶-۲۰۱۴ ۱۲:۵۰:۳۴"}}
{"Call": {"Number":"+98930770####","Duration":"199","Time":"۱-۱۶-۲۰۱۴ ۱۱:۵۴:۲۵","Type":"1"}}
{"Call": {"Number":"+98930770####","Duration":"199","Time":"۱-۱۶-۲۰۱۴ ۱۱:۵۴:۲۵","Type":"1"}}
{"Application":{"ProcessName":"com.android.contacts","Start":"۱-۱۶-۲۰۱۴ ۱۲:۵۰:۳۴","End":"۱-۱۶-۲۰۱۴ ۱۲:۵۰:۴۴"}}
{"Application":{"ProcessName":"com.lge.keepscreenon","Start":"۱-۱۶-۲۰۱۴ ۱۲:۴۹:۱۸","End":"۱-۱۶-۲۰۱۴ ۱۲:۵۰:۴۴"}}
{"Application":{"ProcessName":"com.lge.systemserver","Start":"۱-۱۶-۲۰۱۴ ۱۲:۴۹:۱۸","End":"۱-۱۶-۲۰۱۴ ۱۲:۵۰:۴۴"}}
{"Application":{"ProcessName":"com.lge.keepscreenon","Start":"۱-۱۶-۲۰۱۴ ۱۲:۵۰:۵۴","End":"۱-۱۶-۲۰۱۴ ۱۲:۵۱:۲۷"}}
{"Application":{"ProcessName":"com.lge.systemserver","Start":"۱-۱۶-۲۰۱۴ ۱۲:۵۰:۵۴","End":"۱-۱۶-۲۰۱۴ ۱۲:۵۱:۲۷"}}
{"Call": {"Number":"+98930770####","Duration":"54","Time":"۱-۱۶-۲۰۱۴ ۱۲:۵۰:۳۷","Type":"2"}}
{"Call": {"Number":"+98930770####","Duration":"54","Time":"۱-۱۶-۲۰۱۴ ۱۲:۵۰:۳۷","Type":"2"}}
{"Call": {"Number":"+98930770####","Duration":"54","Time":"۱-۱۶-۲۰۱۴ ۱۲:۵۰:۳۷","Type":"2"}}
{"Call": {"Number":"+98930770####","Duration":"54","Time":"۱-۱۶-۲۰۱۴ ۱۲:۵۰:۳۷","Type":"2"}}
{"Application":{"ProcessName":"com.lge.keepscreenon","Start":"۱-۱۶-۲۰۱۴ ۱۲:۵۱:۵۵","End":"۱-۱۶-۲۰۱۴ ۱۲:۵۲:۴۱"}}
{"Application":{"ProcessName":"com.android.contacts","Start":"۱-۱۶-۲۰۱۴ ۱۲:۵۱:۵۵","End":"۱-۱۶-۲۰۱۴ ۱۲:۵۲:۴۱"}}
{"Application":{"ProcessName":"com.lge.systemserver","Start":"۱-۱۶-۲۰۱۴ ۱۲:۵۱:۵۵","End":"۱-۱۶-۲۰۱۴ ۱۲:۵۲:۴۱"}}
{"SMS":{"Address":"+98930770####","type":"1","date":"۱-۱۶-۲۰۱۴ ۱۲:۵۴:۱۷","body":"ANONYMIZED","Type":"1", "metadata": {"name": "خانومی"}}}
{"Application":{"ProcessName":"com.lge.keepscreenon","Start":"۱-۱۶-۲۰۱۴ ۱۲:۵۴:۲۰","End":"۱-۱۶-۲۰۱۴ ۱۲:۵۵:۲۵"}}
{"Application":{"ProcessName":"com.lge.systemserver","Start":"۱-۱۶-۲۰۱۴ ۱۲:۵۴:۲۰","End":"۱-۱۶-۲۰۱۴ ۱۲:۵۵:۲۵"}}
{"Application":{"ProcessName":"com.lge.launcher2","Start":"۱-۱۶-۲۰۱۴ ۱۲:۵۴:۲۰","End":"۱-۱۶-۲۰۱۴ ۱۲:۵۵:۲۵"}}
{"Application":{"ProcessName":"com.lge.launcher2","Start":"۱-۱۶-۲۰۱۴ ۱۲:۵۷:۰۸","End":"۱-۱۶-۲۰۱۴ ۱۲:۵۷:۱۸"}}
{"Application":{"ProcessName":"com.lge.keepscreenon","Start":"۱-۱۶-۲۰۱۴ ۱۲:۵۷:۰۸","End":"۱-۱۶-۲۰۱۴ ۱۲:۵۷:۲۸"}}
{"Application":{"ProcessName":"com.lge.systemserver","Start":"۱-۱۶-۲۰۱۴ ۱۲:۵۷:۰۸","End":"۱-۱۶-۲۰۱۴ ۱۲:۵۷:۲۸"}}
{"Call": {"Number":"+98930770####","Duration":"0","Time":"۱-۱۶-۲۰۱۴ ۱۲:۵۷:۱۸","Type":"2"}}
{"Call": {"Number":"+98930770####","Duration":"0","Time":"۱-۱۶-۲۰۱۴ ۱۲:۵۷:۱۸","Type":"2"}}
{"Application":{"ProcessName":"com.lge.keepscreenon","Start":"۱-۱۶-۲۰۱۴ ۱۲:۵۷:۲۸","End":"۱-۱۶-۲۰۱۴ ۱۲:۵۷:۳۸"}}
{"Application":{"ProcessName":"com.lge.systemserver","Start":"۱-۱۶-۲۰۱۴ ۱۲:۵۷:۲۸","End":"۱-۱۶-۲۰۱۴ ۱۲:۵۷:۳۸"}}
{"Application":{"ProcessName":"com.lge.launcher2","Start":"۱-۱۶-۲۰۱۴ ۱۲:۵۷:۲۸","End":"۱-۱۶-۲۰۱۴ ۱۲:۵۷:۳۸"}}
{"Call": {"Number":"+98930770####","Duration":"0","Time":"۱-۱۶-۲۰۱۴ ۱۲:۵۷:۳۵","Type":"2"}}
{"Call": {"Number":"+98930770####","Duration":"0","Time":"۱-۱۶-۲۰۱۴ ۱۲:۵۷:۳۵","Type":"2"}}
{"Application":{"ProcessName":"com.lge.keepscreenon","Start":"۱-۱۶-۲۰۱۴ ۱۲:۵۷:۴۸","End":"۱-۱۶-۲۰۱۴ ۱۲:۵۷:۵۸"}}
{"Application":{"ProcessName":"com.android.contacts","Start":"۱-۱۶-۲۰۱۴ ۱۲:۵۷:۴۸","End":"۱-۱۶-۲۰۱۴ ۱۲:۵۷:۵۸"}}
{"Application":{"ProcessName":"com.lge.systemserver","Start":"۱-۱۶-۲۰۱۴ ۱۲:۵۷:۴۸","End":"۱-۱۶-۲۰۱۴ ۱۲:۵۷:۵۸"}}
{"Call": {"Number":"+98930770####","Duration":"120","Time":"۱-۱۶-۲۰۱۴ ۱۲:۵۷:۵۱","Type":"2"}}
{"Call": {"Number":"+98930770####","Duration":"120","Time":"۱-۱۶-۲۰۱۴ ۱۲:۵۷:۵۱","Type":"2"}}
{"Call": {"Number":"+98930770####","Duration":"120","Time":"۱-۱۶-۲۰۱۴ ۱۲:۵۷:۵۱","Type":"2"}}
{"Call": {"Number":"+98930770####","Duration":"120","Time":"۱-۱۶-۲۰۱۴ ۱۲:۵۷:۵۱","Type":"2"}}
