{"Location":{"Latitude":"35.7539213","Longtitude":"51.3032732","Altitude":"1412.5","time":"12-10-2013 23:30:12","Accuracy":"158.0","Provider":"fused","Speed":"0.0"}}
{"Call": {"Number":"+98912402####","Duration":"267","Time":"12-10-2013 23:30:02","Type":"2"}}
{"Call": {"Number":"+98912402####","Duration":"267","Time":"12-10-2013 23:30:02","Type":"2"}}
{"Application":{"ProcessName":"com.android.contacts","Start":"12-10-2013 23:34:40","End":"12-10-2013 23:34:50"}}
{"Location":{"Latitude":"35.7538707","Longtitude":"51.3032709","Altitude":"1418.800048828125","time":"12-10-2013 23:37:33","Accuracy":"80.0","Provider":"fused","Speed":"0.0"}}
{"Location":{"Latitude":"35.7536119","Longtitude":"51.303271","Altitude":"1403.800048828125","time":"12-10-2013 23:39:07","Accuracy":"84.0","Provider":"fused","Speed":"0.0"}}
{"Location":{"Latitude":"35.753641","Longtitude":"51.3032746","Altitude":"1407.199951171875","time":"12-10-2013 23:41:27","Accuracy":"211.0","Provider":"fused","Speed":"0.0"}}
{"Location":{"Latitude":"35.7536479","Longtitude":"51.3032745","Altitude":"1407.4000244140625","time":"12-10-2013 23:43:16","Accuracy":"212.0","Provider":"fused","Speed":"0.0"}}
{"Location":{"Latitude":"35.7536927","Longtitude":"51.30328","Altitude":"1409.9000244140625","time":"12-10-2013 23:53:37","Accuracy":"95.0","Provider":"fused","Speed":"0.0"}}
{"Location":{"Latitude":"35.7536943","Longtitude":"51.3032802","Altitude":"1410.0999755859375","time":"12-10-2013 23:56:59","Accuracy":"236.0","Provider":"fused","Speed":"0.0"}}
{"Location":{"Latitude":"35.7535938","Longtitude":"51.303268","Altitude":"1404.300048828125","time":"12-10-2013 23:58:39","Accuracy":"96.0","Provider":"fused","Speed":"0.0"}}
{"Location":{"Latitude":"35.7535692","Longtitude":"51.3032732","Altitude":"1400.5","time":"12-11-2013 00:00:24","Accuracy":"68.0","Provider":"fused","Speed":"0.0"}}
{"Location":{"Latitude":"35.7535964","Longtitude":"51.3032775","Altitude":"1402.199951171875","time":"12-11-2013 00:01:25","Accuracy":"69.0","Provider":"fused","Speed":"0.0"}}
{"Location":{"Latitude":"35.753626","Longtitude":"51.3032845","Altitude":"1402.9000244140625","time":"12-11-2013 00:02:26","Accuracy":"71.0","Provider":"fused","Speed":"0.0"}}
{"Location":{"Latitude":"35.753634","Longtitude":"51.3032913","Altitude":"1404.699951171875","time":"12-11-2013 00:03:37","Accuracy":"89.0","Provider":"fused","Speed":"0.0"}}
{"Location":{"Latitude":"35.7536476","Longtitude":"51.3032907","Altitude":"1406.0999755859375","time":"12-11-2013 00:05:02","Accuracy":"129.0","Provider":"fused","Speed":"0.0"}}
{"Call": {"Number":"+98912402####","Duration":"87","Time":"12-11-2013 00:04:19","Type":"1"}}
{"Call": {"Number":"+98912402####","Duration":"87","Time":"12-11-2013 00:04:19","Type":"1"}}
{"Location":{"Latitude":"35.7536481","Longtitude":"51.3032908","Altitude":"1406.199951171875","time":"12-11-2013 00:06:02","Accuracy":"124.0","Provider":"fused","Speed":"0.0"}}
{"Location":{"Latitude":"35.753651","Longtitude":"51.3032915","Altitude":"1406.0","time":"12-11-2013 00:07:36","Accuracy":"75.0","Provider":"fused","Speed":"0.0"}}
{"Location":{"Latitude":"35.7536584","Longtitude":"51.3032926","Altitude":"1405.800048828125","time":"12-11-2013 00:08:36","Accuracy":"82.0","Provider":"fused","Speed":"0.0"}}
{"Location":{"Latitude":"35.7536637","Longtitude":"51.3032934","Altitude":"1406.199951171875","time":"12-11-2013 00:10:13","Accuracy":"123.0","Provider":"fused","Speed":"0.0"}}
{"Location":{"Latitude":"35.7536894","Longtitude":"51.3032961","Altitude":"1407.5","time":"12-11-2013 00:13:41","Accuracy":"227.0","Provider":"fused","Speed":"0.0"}}
{"Call": {"Number":"+98912402####","Duration":"2525","Time":"12-11-2013 00:12:10","Type":"1"}}
{"Call": {"Number":"+98912402####","Duration":"2525","Time":"12-11-2013 00:12:10","Type":"1"}}
{"Call": {"Number":"+98912402####","Duration":"2525","Time":"12-11-2013 00:12:10","Type":"1"}}
{"Application":{"ProcessName":"com.huawei.android.launcher","Start":"12-11-2013 00:54:37","End":"12-11-2013 00:54:37"}}
{"Application":{"ProcessName":"com.android.gallery3d","Start":"12-11-2013 00:54:37","End":"12-11-2013 00:55:27"}}
{"Application":{"ProcessName":"com.huawei.android.launcher","Start":"12-11-2013 00:55:27","End":"12-11-2013 00:55:37"}}
{"Application":{"ProcessName":"com.lslk.sleepbot","Start":"12-11-2013 00:55:37","End":"12-11-2013 00:56:07"}}
{"Location":{"Latitude":"35.7544935","Longtitude":"51.303712","Altitude":"1405.9000244140625","time":"12-11-2013 01:04:16","Accuracy":"111.0","Provider":"fused","Speed":"0.0"}}
{"Location":{"Latitude":"35.7541821","Longtitude":"51.3034037","Altitude":"1412.0999755859375","time":"12-11-2013 01:05:59","Accuracy":"182.0","Provider":"fused","Speed":"0.0"}}
{"Location":{"Latitude":"35.7539651","Longtitude":"51.3032637","Altitude":"1415.4000244140625","time":"12-11-2013 01:08:41","Accuracy":"197.0","Provider":"fused","Speed":"0.0"}}
{"Location":{"Latitude":"35.7541829","Longtitude":"51.3033234","Altitude":"1415.9000244140625","time":"12-11-2013 01:10:01","Accuracy":"165.0","Provider":"fused","Speed":"0.0"}}
{"Location":{"Latitude":"35.7540927","Longtitude":"51.3032667","Altitude":"1416.699951171875","time":"12-11-2013 01:11:26","Accuracy":"166.0","Provider":"fused","Speed":"0.0"}}
{"Location":{"Latitude":"35.7541296","Longtitude":"51.3033847","Altitude":"1416.0999755859375","time":"12-11-2013 01:13:53","Accuracy":"249.0","Provider":"fused","Speed":"0.0"}}
{"Location":{"Latitude":"35.7540435","Longtitude":"51.3032953","Altitude":"1411.9000244140625","time":"12-11-2013 01:15:05","Accuracy":"152.0","Provider":"fused","Speed":"0.0"}}
{"Location":{"Latitude":"35.7537996","Longtitude":"51.3033748","Altitude":"1408.300048828125","time":"12-11-2013 01:16:36","Accuracy":"181.0","Provider":"fused","Speed":"0.0"}}
{"Location":{"Latitude":"35.753992","Longtitude":"51.3032753","Altitude":"1410.0999755859375","time":"12-11-2013 01:18:20","Accuracy":"106.0","Provider":"fused","Speed":"0.0"}}
{"Location":{"Latitude":"35.7540534","Longtitude":"51.3032663","Altitude":"1417.4000244140625","time":"12-11-2013 01:21:27","Accuracy":"197.0","Provider":"fused","Speed":"0.0"}}
{"Location":{"Latitude":"35.7540747","Longtitude":"51.3033583","Altitude":"1418.0999755859375","time":"12-11-2013 01:22:45","Accuracy":"153.0","Provider":"fused","Speed":"0.0"}}
{"Location":{"Latitude":"35.7539247","Longtitude":"51.3032639","Altitude":"1416.5","time":"12-11-2013 01:25:05","Accuracy":"224.0","Provider":"fused","Speed":"0.0"}}
{"Location":{"Latitude":"35.7539898","Longtitude":"51.303113","Altitude":"1413.5999755859375","time":"12-11-2013 01:27:17","Accuracy":"124.0","Provider":"fused","Speed":"0.0"}}
{"Location":{"Latitude":"35.7539138","Longtitude":"51.3032304","Altitude":"1413.5999755859375","time":"12-11-2013 01:30:04","Accuracy":"169.0","Provider":"fused","Speed":"0.0"}}
{"Location":{"Latitude":"35.7542033","Longtitude":"51.3031586","Altitude":"1412.199951171875","time":"12-11-2013 01:33:51","Accuracy":"219.0","Provider":"fused","Speed":"0.0"}}
{"Location":{"Latitude":"35.7541568","Longtitude":"51.3033264","Altitude":"1424.4000244140625","time":"12-11-2013 01:36:14","Accuracy":"225.0","Provider":"fused","Speed":"0.0"}}
{"Location":{"Latitude":"35.7539988","Longtitude":"51.3034427","Altitude":"1410.9000244140625","time":"12-11-2013 01:37:44","Accuracy":"141.0","Provider":"fused","Speed":"0.0"}}
{"Location":{"Latitude":"35.7538609","Longtitude":"51.3035476","Altitude":"1412.5","time":"12-11-2013 01:50:17","Accuracy":"142.0","Provider":"fused","Speed":"0.0"}}
{"Location":{"Latitude":"35.7540088","Longtitude":"51.3035328","Altitude":"1418.4000244140625","time":"12-11-2013 01:51:50","Accuracy":"130.0","Provider":"fused","Speed":"0.0"}}
{"Location":{"Latitude":"35.7539901","Longtitude":"51.3033898","Altitude":"1418.5","time":"12-11-2013 01:54:42","Accuracy":"241.0","Provider":"fused","Speed":"0.0"}}
{"Location":{"Latitude":"35.7538276","Longtitude":"51.3033769","Altitude":"1466.199951171875","time":"12-11-2013 02:41:25","Accuracy":"215.0","Provider":"fused","Speed":"0.0"}}
{"Location":{"Latitude":"35.7538229","Longtitude":"51.3031842","Altitude":"1443.9000244140625","time":"12-11-2013 02:56:41","Accuracy":"238.0","Provider":"fused","Speed":"0.0"}}
{"Location":{"Latitude":"35.7536992","Longtitude":"51.3033217","Altitude":"1443.5999755859375","time":"12-11-2013 02:59:20","Accuracy":"228.0","Provider":"fused","Speed":"0.0"}}
{"Location":{"Latitude":"35.7537773","Longtitude":"51.3032036","Altitude":"1443.699951171875","time":"12-11-2013 03:02:15","Accuracy":"246.0","Provider":"fused","Speed":"0.0"}}
{"Location":{"Latitude":"35.7542732","Longtitude":"51.303512","Altitude":"1446.5999755859375","time":"12-11-2013 03:04:14","Accuracy":"225.0","Provider":"fused","Speed":"0.0"}}
{"Location":{"Latitude":"35.7539351","Longtitude":"51.3032473","Altitude":"1422.4000244140625","time":"12-11-2013 03:05:39","Accuracy":"70.0","Provider":"fused","Speed":"0.0"}}
{"Location":{"Latitude":"35.7539476","Longtitude":"51.3031192","Altitude":"1417.4000244140625","time":"12-11-2013 03:08:54","Accuracy":"232.0","Provider":"fused","Speed":"0.0"}}
{"Location":{"Latitude":"35.7541201","Longtitude":"51.3033405","Altitude":"1416.5","time":"12-11-2013 03:10:42","Accuracy":"201.0","Provider":"fused","Speed":"0.0"}}
{"Location":{"Latitude":"35.7538554","Longtitude":"51.303084","Altitude":"1414.5999755859375","time":"12-11-2013 03:12:04","Accuracy":"168.0","Provider":"fused","Speed":"0.0"}}
{"Location":{"Latitude":"35.7540215","Longtitude":"51.3034963","Altitude":"1414.4000244140625","time":"12-11-2013 03:14:11","Accuracy":"120.0","Provider":"fused","Speed":"0.0"}}
{"Location":{"Latitude":"35.7539184","Longtitude":"51.3033134","Altitude":"1402.4000244140625","time":"12-11-2013 03:15:56","Accuracy":"95.0","Provider":"fused","Speed":"0.0"}}
{"Location":{"Latitude":"35.7543285","Longtitude":"51.3034828","Altitude":"1391.199951171875","time":"12-11-2013 03:18:12","Accuracy":"216.0","Provider":"fused","Speed":"0.0"}}
{"Location":{"Latitude":"35.7542534","Longtitude":"51.30355","Altitude":"1406.4000244140625","time":"12-11-2013 03:19:35","Accuracy":"156.0","Provider":"fused","Speed":"0.0"}}
{"Location":{"Latitude":"35.7539561","Longtitude":"51.3032104","Altitude":"1403.5999755859375","time":"12-11-2013 03:21:04","Accuracy":"75.0","Provider":"fused","Speed":"0.0"}}
{"Location":{"Latitude":"35.754002","Longtitude":"51.3033712","Altitude":"1407.0","time":"12-11-2013 03:22:32","Accuracy":"109.0","Provider":"fused","Speed":"0.0"}}
{"Location":{"Latitude":"35.7540025","Longtitude":"51.3032419","Altitude":"1418.0","time":"12-11-2013 03:23:55","Accuracy":"58.0","Provider":"fused","Speed":"0.0"}}
{"Location":{"Latitude":"35.7538846","Longtitude":"51.3032906","Altitude":"1410.0999755859375","time":"12-11-2013 03:25:37","Accuracy":"111.0","Provider":"fused","Speed":"0.0"}}
{"Location":{"Latitude":"35.7540777","Longtitude":"51.3033026","Altitude":"1403.5","time":"12-11-2013 03:27:14","Accuracy":"87.0","Provider":"fused","Speed":"0.0"}}
{"Location":{"Latitude":"35.75416","Longtitude":"51.3032229","Altitude":"1405.0999755859375","time":"12-11-2013 03:29:01","Accuracy":"161.0","Provider":"fused","Speed":"0.0"}}
{"Location":{"Latitude":"35.753929","Longtitude":"51.3034968","Altitude":"1407.199951171875","time":"12-11-2013 03:58:01","Accuracy":"131.0","Provider":"fused","Speed":"0.0"}}
{"Location":{"Latitude":"35.7536388","Longtitude":"51.3031004","Altitude":"1413.5","time":"12-11-2013 04:01:52","Accuracy":"197.0","Provider":"fused","Speed":"0.0"}}
{"Location":{"Latitude":"35.753715","Longtitude":"51.3034732","Altitude":"1412.699951171875","time":"12-11-2013 04:02:59","Accuracy":"144.0","Provider":"fused","Speed":"0.0"}}
{"Location":{"Latitude":"35.7538554","Longtitude":"51.3036339","Altitude":"1436.199951171875","time":"12-11-2013 04:04:22","Accuracy":"166.0","Provider":"fused","Speed":"0.0"}}
{"Location":{"Latitude":"35.7538055","Longtitude":"51.3034101","Altitude":"1436.5","time":"12-11-2013 04:06:19","Accuracy":"215.0","Provider":"fused","Speed":"0.0"}}
{"Location":{"Latitude":"35.7537797","Longtitude":"51.303222","Altitude":"1436.0","time":"12-11-2013 04:08:10","Accuracy":"210.0","Provider":"fused","Speed":"0.0"}}
{"Location":{"Latitude":"35.753782","Longtitude":"51.3032786","Altitude":"1435.800048828125","time":"12-11-2013 04:10:27","Accuracy":"248.0","Provider":"fused","Speed":"0.0"}}
{"Application":{"ProcessName":"com.lslk.sleepbot","Start":"12-11-2013 04:10:32","End":"12-11-2013 04:10:42"}}
{"Location":{"Latitude":"35.7539181","Longtitude":"51.3034865","Altitude":"1436.199951171875","time":"12-11-2013 04:12:26","Accuracy":"224.0","Provider":"fused","Speed":"0.0"}}
{"Location":{"Latitude":"35.7535928","Longtitude":"51.3034414","Altitude":"1435.0999755859375","time":"12-11-2013 04:15:06","Accuracy":"249.0","Provider":"fused","Speed":"0.0"}}
{"Location":{"Latitude":"35.7539817","Longtitude":"51.3032664","Altitude":"1416.800048828125","time":"12-11-2013 04:26:36","Accuracy":"157.0","Provider":"fused","Speed":"0.0"}}
{"Location":{"Latitude":"35.7539813","Longtitude":"51.3032288","Altitude":"1416.0","time":"12-11-2013 04:27:58","Accuracy":"169.0","Provider":"fused","Speed":"0.0"}}
{"Location":{"Latitude":"35.7538415","Longtitude":"51.3033413","Altitude":"1411.4000244140625","time":"12-11-2013 04:29:10","Accuracy":"152.0","Provider":"fused","Speed":"0.0"}}
{"Location":{"Latitude":"35.7540476","Longtitude":"51.3028781","Altitude":"1411.300048828125","time":"12-11-2013 04:30:58","Accuracy":"211.0","Provider":"fused","Speed":"0.0"}}
{"Location":{"Latitude":"35.7539477","Longtitude":"51.3030609","Altitude":"1411.300048828125","time":"12-11-2013 04:32:31","Accuracy":"186.0","Provider":"fused","Speed":"0.0"}}
{"Location":{"Latitude":"35.753899","Longtitude":"51.3032531","Altitude":"1411.4000244140625","time":"12-11-2013 04:35:38","Accuracy":"248.0","Provider":"fused","Speed":"0.0"}}
{"Location":{"Latitude":"35.7537558","Longtitude":"51.3031467","Altitude":"1411.0999755859375","time":"12-11-2013 04:37:16","Accuracy":"194.0","Provider":"fused","Speed":"0.0"}}
{"Location":{"Latitude":"35.7541895","Longtitude":"51.3033758","Altitude":"1447.199951171875","time":"12-11-2013 05:23:17","Accuracy":"232.0","Provider":"fused","Speed":"0.0"}}
{"Location":{"Latitude":"35.7541985","Longtitude":"51.3033756","Altitude":"1447.0999755859375","time":"12-11-2013 05:24:34","Accuracy":"160.0","Provider":"fused","Speed":"0.0"}}
{"Location":{"Latitude":"35.7541916","Longtitude":"51.3033743","Altitude":"1446.9000244140625","time":"12-11-2013 05:25:54","Accuracy":"162.0","Provider":"fused","Speed":"0.0"}}
{"Location":{"Latitude":"35.7541866","Longtitude":"51.3033731","Altitude":"1447.0","time":"12-11-2013 05:27:10","Accuracy":"155.0","Provider":"fused","Speed":"0.0"}}
{"Location":{"Latitude":"35.7542111","Longtitude":"51.3033582","Altitude":"1441.0999755859375","time":"12-11-2013 05:29:21","Accuracy":"222.0","Provider":"fused","Speed":"0.0"}}
{"Location":{"Latitude":"35.754245","Longtitude":"51.3033481","Altitude":"1437.5999755859375","time":"12-11-2013 05:31:19","Accuracy":"128.0","Provider":"fused","Speed":"0.0"}}
{"Location":{"Latitude":"35.7542383","Longtitude":"51.3033397","Altitude":"1435.300048828125","time":"12-11-2013 05:34:22","Accuracy":"112.0","Provider":"fused","Speed":"0.0"}}
{"Location":{"Latitude":"35.7542376","Longtitude":"51.3033394","Altitude":"1435.300048828125","time":"12-11-2013 05:36:04","Accuracy":"181.0","Provider":"fused","Speed":"0.0"}}
{"Location":{"Latitude":"35.7542232","Longtitude":"51.3033331","Altitude":"1435.5","time":"12-11-2013 05:40:28","Accuracy":"207.0","Provider":"fused","Speed":"0.0"}}
{"Location":{"Latitude":"35.7542208","Longtitude":"51.303332","Altitude":"1435.4000244140625","time":"12-11-2013 05:42:57","Accuracy":"245.0","Provider":"fused","Speed":"0.0"}}
{"Location":{"Latitude":"35.754218","Longtitude":"51.3033312","Altitude":"1435.300048828125","time":"12-11-2013 05:45:52","Accuracy":"235.0","Provider":"fused","Speed":"0.0"}}
{"Location":{"Latitude":"35.7542138","Longtitude":"51.3033303","Altitude":"1435.199951171875","time":"12-11-2013 05:48:02","Accuracy":"246.0","Provider":"fused","Speed":"0.0"}}
{"Location":{"Latitude":"35.7542057","Longtitude":"51.3033286","Altitude":"1435.199951171875","time":"12-11-2013 05:50:05","Accuracy":"232.0","Provider":"fused","Speed":"0.0"}}
{"Location":{"Latitude":"35.7542027","Longtitude":"51.3033282","Altitude":"1435.199951171875","time":"12-11-2013 05:52:50","Accuracy":"240.0","Provider":"fused","Speed":"0.0"}}
{"Location":{"Latitude":"35.7541995","Longtitude":"51.3033276","Altitude":"1435.0999755859375","time":"12-11-2013 05:54:59","Accuracy":"216.0","Provider":"fused","Speed":"0.0"}}
{"Location":{"Latitude":"35.7541847","Longtitude":"51.303325","Altitude":"1434.800048828125","time":"12-11-2013 06:06:26","Accuracy":"177.0","Provider":"fused","Speed":"0.0"}}
{"Location":{"Latitude":"35.7540723","Longtitude":"51.303316","Altitude":"1432.800048828125","time":"12-11-2013 06:08:55","Accuracy":"176.0","Provider":"fused","Speed":"0.0"}}
{"Location":{"Latitude":"35.754069","Longtitude":"51.3033158","Altitude":"1432.699951171875","time":"12-11-2013 06:10:28","Accuracy":"186.0","Provider":"fused","Speed":"0.0"}}
{"Location":{"Latitude":"35.7540677","Longtitude":"51.3033159","Altitude":"1432.5999755859375","time":"12-11-2013 06:11:48","Accuracy":"158.0","Provider":"fused","Speed":"0.0"}}
{"Location":{"Latitude":"35.7540664","Longtitude":"51.3033159","Altitude":"1432.5999755859375","time":"12-11-2013 06:14:34","Accuracy":"242.0","Provider":"fused","Speed":"0.0"}}
{"Location":{"Latitude":"35.7540681","Longtitude":"51.303316","Altitude":"1432.699951171875","time":"12-11-2013 06:16:05","Accuracy":"175.0","Provider":"fused","Speed":"0.0"}}
{"Location":{"Latitude":"35.7540676","Longtitude":"51.303316","Altitude":"1432.5999755859375","time":"12-11-2013 06:18:04","Accuracy":"201.0","Provider":"fused","Speed":"0.0"}}
{"Location":{"Latitude":"35.7540656","Longtitude":"51.3033161","Altitude":"1432.5999755859375","time":"12-11-2013 06:19:39","Accuracy":"190.0","Provider":"fused","Speed":"0.0"}}
{"Location":{"Latitude":"35.7540685","Longtitude":"51.3033109","Altitude":"1432.9000244140625","time":"12-11-2013 06:21:46","Accuracy":"133.0","Provider":"fused","Speed":"0.0"}}
{"Location":{"Latitude":"35.7540675","Longtitude":"51.3033109","Altitude":"1432.9000244140625","time":"12-11-2013 06:23:35","Accuracy":"212.0","Provider":"fused","Speed":"0.0"}}
{"Location":{"Latitude":"35.7540649","Longtitude":"51.3033108","Altitude":"1432.800048828125","time":"12-11-2013 06:25:59","Accuracy":"248.0","Provider":"fused","Speed":"0.0"}}
{"Location":{"Latitude":"35.7540608","Longtitude":"51.30331","Altitude":"1432.699951171875","time":"12-11-2013 06:27:59","Accuracy":"230.0","Provider":"fused","Speed":"0.0"}}
{"Location":{"Latitude":"35.754057","Longtitude":"51.3033094","Altitude":"1432.5999755859375","time":"12-11-2013 06:31:19","Accuracy":"246.0","Provider":"fused","Speed":"0.0"}}
{"Location":{"Latitude":"35.7540564","Longtitude":"51.3033093","Altitude":"1432.5999755859375","time":"12-11-2013 06:32:29","Accuracy":"142.0","Provider":"fused","Speed":"0.0"}}
{"Location":{"Latitude":"35.7540563","Longtitude":"51.3033092","Altitude":"1432.5999755859375","time":"12-11-2013 06:33:42","Accuracy":"142.0","Provider":"fused","Speed":"0.0"}}
{"Location":{"Latitude":"35.7540458","Longtitude":"51.3033032","Altitude":"1432.0","time":"12-11-2013 06:35:04","Accuracy":"66.0","Provider":"fused","Speed":"0.0"}}
{"Location":{"Latitude":"35.754061","Longtitude":"51.3033117","Altitude":"1433.0","time":"12-11-2013 06:38:00","Accuracy":"176.0","Provider":"fused","Speed":"0.0"}}
{"Location":{"Latitude":"35.7540569","Longtitude":"51.3033118","Altitude":"1432.4000244140625","time":"12-11-2013 06:39:25","Accuracy":"64.0","Provider":"fused","Speed":"0.0"}}
{"Call": {"Number":"+98912402####","Duration":"0","Time":"12-11-2013 06:40:27","Type":"3"}}
{"Application":{"ProcessName":"com.lslk.sleepbot","Start":"12-11-2013 06:40:33","End":"12-11-2013 06:40:54"}}
{"Application":{"ProcessName":"com.huawei.android.launcher","Start":"12-11-2013 06:40:54","End":"12-11-2013 06:41:04"}}
{"Location":{"Latitude":"35.7540602","Longtitude":"51.3033095","Altitude":"1432.300048828125","time":"12-11-2013 06:48:14","Accuracy":"209.0","Provider":"fused","Speed":"0.0"}}
{"Location":{"Latitude":"35.7540571","Longtitude":"51.3033085","Altitude":"1432.0999755859375","time":"12-11-2013 06:51:58","Accuracy":"245.0","Provider":"fused","Speed":"0.0"}}
{"Call": {"Number":"+98912402####","Duration":"0","Time":"12-11-2013 06:52:25","Type":"3"}}
{"Application":{"ProcessName":"com.huawei.android.launcher","Start":"12-11-2013 06:52:33","End":"12-11-2013 06:52:43"}}
{"SMS":{"Address":"+98912402####","type":"1","date":"12-11-2013 06:53:32","body":"ANONYMIZED","Type":"1", "metadata": {"name": "My Love"}}}
{"Application":{"ProcessName":"com.android.mms","Start":"12-11-2013 06:52:43","End":"12-11-2013 06:53:33"}}
{"Location":{"Latitude":"35.7540587","Longtitude":"51.3033018","Altitude":"1430.5999755859375","time":"12-11-2013 06:53:49","Accuracy":"126.0","Provider":"fused","Speed":"0.0"}}
{"Application":{"ProcessName":"com.android.mms","Start":"12-11-2013 06:53:43","End":"12-11-2013 06:53:53"}}
{"SMS":{"Address":"+98912402####","type":"1","date":"12-11-2013 06:55:22","body":"ANONYMIZED","Type":"1", "metadata": {"name": "My Love"}}}
{"Location":{"Latitude":"35.7540585","Longtitude":"51.3033017","Altitude":"1430.5999755859375","time":"12-11-2013 06:55:38","Accuracy":"194.0","Provider":"fused","Speed":"0.0"}}
{"Location":{"Latitude":"35.7540585","Longtitude":"51.3033017","Altitude":"1430.5999755859375","time":"12-11-2013 06:56:48","Accuracy":"139.0","Provider":"fused","Speed":"0.0"}}
{"Location":{"Latitude":"35.7540589","Longtitude":"51.303302","Altitude":"1430.699951171875","time":"12-11-2013 06:58:10","Accuracy":"70.0","Provider":"fused","Speed":"0.0"}}
{"Call": {"Number":"+98912402####","Duration":"0","Time":"12-11-2013 06:52:25","Type":"3"}}
{"Call": {"Number":"+98912402####","Duration":"0","Time":"12-11-2013 06:52:25","Type":"3"}}
{"Call": {"Number":"+98912402####","Duration":"0","Time":"12-11-2013 06:52:25","Type":"3"}}
{"Call": {"Number":"+98912402####","Duration":"0","Time":"12-11-2013 06:59:45","Type":"2"}}
{"Call": {"Number":"+98912402####","Duration":"0","Time":"12-11-2013 06:59:45","Type":"2"}}
{"Application":{"ProcessName":"com.huawei.android.launcher","Start":"12-11-2013 06:59:41","End":"12-11-2013 06:59:51"}}
{"Location":{"Latitude":"35.7543455","Longtitude":"51.3033853","Altitude":"1429.9000244140625","time":"12-11-2013 07:00:04","Accuracy":"74.0","Provider":"fused","Speed":"0.0"}}
{"SMS":{"Address":"+98912402####","type":"2","date":"12-11-2013 07:00:28","body":"ANONYMIZED","Type":"2", "metadata": {"name": "My Love"}}}
{"Application":{"ProcessName":"com.android.mms","Start":"12-11-2013 06:59:51","End":"12-11-2013 07:00:42"}}
{"Location":{"Latitude":"35.7543264","Longtitude":"51.3033755","Altitude":"1430.4000244140625","time":"12-11-2013 07:01:16","Accuracy":"146.0","Provider":"fused","Speed":"0.0"}}
{"SMS":{"Address":"+98912402####","type":"1","date":"12-11-2013 07:01:44","body":"ANONYMIZED","Type":"1", "metadata": {"name": "My Love"}}}
{"SMS":{"Address":"+98912402####","type":"2","date":"12-11-2013 07:03:29","body":"ANONYMIZED","Type":"2", "metadata": {"name": "My Love"}}}
{"Location":{"Latitude":"35.7542158","Longtitude":"51.3033612","Altitude":"1430.0","time":"12-11-2013 07:03:40","Accuracy":"149.0","Provider":"fused","Speed":"0.0"}}
{"Application":{"ProcessName":"com.android.mms","Start":"12-11-2013 07:01:51","End":"12-11-2013 07:03:42"}}
{"SMS":{"Address":"+98912402####","type":"1","date":"12-11-2013 07:05:15","body":"ANONYMIZED","Type":"1", "metadata": {"name": "My Love"}}}
{"Application":{"ProcessName":"com.huawei.android.launcher","Start":"12-11-2013 07:05:20","End":"12-11-2013 07:05:30"}}
{"Location":{"Latitude":"35.7542297","Longtitude":"51.3033403","Altitude":"1433.9000244140625","time":"12-11-2013 07:14:24","Accuracy":"84.0","Provider":"fused","Speed":"0.0"}}
{"Location":{"Latitude":"35.7541812","Longtitude":"51.3033312","Altitude":"1428.300048828125","time":"12-11-2013 07:17:08","Accuracy":"183.0","Provider":"fused","Speed":"0.0"}}
{"Location":{"Latitude":"35.7541781","Longtitude":"51.3033302","Altitude":"1428.0","time":"12-11-2013 07:18:37","Accuracy":"180.0","Provider":"fused","Speed":"0.0"}}
{"Location":{"Latitude":"35.7541607","Longtitude":"51.3033097","Altitude":"1428.0999755859375","time":"12-11-2013 07:20:09","Accuracy":"72.0","Provider":"fused","Speed":"0.0"}}
{"Location":{"Latitude":"35.7541653","Longtitude":"51.3033037","Altitude":"1429.5","time":"12-11-2013 07:22:35","Accuracy":"188.0","Provider":"fused","Speed":"0.0"}}
{"Location":{"Latitude":"35.7541643","Longtitude":"51.3033032","Altitude":"1429.699951171875","time":"12-11-2013 07:26:16","Accuracy":"212.0","Provider":"fused","Speed":"0.0"}}
{"Location":{"Latitude":"35.7541616","Longtitude":"51.3033035","Altitude":"1429.5","time":"12-11-2013 07:27:37","Accuracy":"163.0","Provider":"fused","Speed":"0.0"}}
{"Location":{"Latitude":"35.7541298","Longtitude":"51.303304","Altitude":"1428.4000244140625","time":"12-11-2013 07:29:41","Accuracy":"138.0","Provider":"fused","Speed":"0.0"}}
{"Location":{"Latitude":"35.7541161","Longtitude":"51.3033075","Altitude":"1426.9000244140625","time":"12-11-2013 07:31:10","Accuracy":"65.0","Provider":"fused","Speed":"0.0"}}
{"Location":{"Latitude":"35.7539758","Longtitude":"51.3033048","Altitude":"1424.0","time":"12-11-2013 07:33:45","Accuracy":"120.0","Provider":"fused","Speed":"0.0"}}
{"Location":{"Latitude":"35.7539735","Longtitude":"51.3033061","Altitude":"1423.5999755859375","time":"12-11-2013 07:34:49","Accuracy":"138.0","Provider":"fused","Speed":"0.0"}}
{"Location":{"Latitude":"35.7539737","Longtitude":"51.3033055","Altitude":"1423.699951171875","time":"12-11-2013 07:36:34","Accuracy":"97.0","Provider":"fused","Speed":"0.0"}}
{"Location":{"Latitude":"35.7539716","Longtitude":"51.3033119","Altitude":"1421.699951171875","time":"12-11-2013 07:38:13","Accuracy":"96.0","Provider":"fused","Speed":"0.0"}}
{"Location":{"Latitude":"35.7539716","Longtitude":"51.3033103","Altitude":"1423.0","time":"12-11-2013 07:40:33","Accuracy":"145.0","Provider":"fused","Speed":"0.0"}}
{"Location":{"Latitude":"35.7539729","Longtitude":"51.3033087","Altitude":"1423.5","time":"12-11-2013 07:42:17","Accuracy":"198.0","Provider":"fused","Speed":"0.0"}}
{"Location":{"Latitude":"35.7539732","Longtitude":"51.30331","Altitude":"1423.199951171875","time":"12-11-2013 07:45:25","Accuracy":"90.0","Provider":"fused","Speed":"0.0"}}
{"Location":{"Latitude":"35.7539747","Longtitude":"51.3033084","Altitude":"1423.800048828125","time":"12-11-2013 07:48:36","Accuracy":"229.0","Provider":"fused","Speed":"0.0"}}
{"Location":{"Latitude":"35.753974","Longtitude":"51.3033086","Altitude":"1423.699951171875","time":"12-11-2013 07:50:22","Accuracy":"189.0","Provider":"fused","Speed":"0.0"}}
{"Location":{"Latitude":"35.7539734","Longtitude":"51.3033089","Altitude":"1423.5999755859375","time":"12-11-2013 07:53:08","Accuracy":"239.0","Provider":"fused","Speed":"0.0"}}
{"Location":{"Latitude":"35.753973","Longtitude":"51.3033088","Altitude":"1423.5","time":"12-11-2013 07:56:03","Accuracy":"236.0","Provider":"fused","Speed":"0.0"}}
{"Location":{"Latitude":"35.7539688","Longtitude":"51.3033087","Altitude":"1423.4000244140625","time":"12-11-2013 07:59:42","Accuracy":"237.0","Provider":"fused","Speed":"0.0"}}
{"Location":{"Latitude":"35.7539701","Longtitude":"51.3033081","Altitude":"1423.5999755859375","time":"12-11-2013 08:04:44","Accuracy":"79.0","Provider":"fused","Speed":"0.0"}}
{"Location":{"Latitude":"35.7539775","Longtitude":"51.3033029","Altitude":"1425.5999755859375","time":"12-11-2013 08:07:21","Accuracy":"248.0","Provider":"fused","Speed":"0.0"}}
{"Location":{"Latitude":"35.7539812","Longtitude":"51.3033012","Altitude":"1426.4000244140625","time":"12-11-2013 08:32:27","Accuracy":"247.0","Provider":"fused","Speed":"0.0"}}
{"Location":{"Latitude":"35.7539809","Longtitude":"51.303301","Altitude":"1426.4000244140625","time":"12-11-2013 08:34:57","Accuracy":"235.0","Provider":"fused","Speed":"0.0"}}
{"Location":{"Latitude":"35.7539812","Longtitude":"51.3033009","Altitude":"1426.5","time":"12-11-2013 08:36:10","Accuracy":"133.0","Provider":"fused","Speed":"0.0"}}
{"Location":{"Latitude":"35.7539844","Longtitude":"51.3032998","Altitude":"1426.9000244140625","time":"12-11-2013 08:37:15","Accuracy":"130.0","Provider":"fused","Speed":"0.0"}}
{"Location":{"Latitude":"35.7539849","Longtitude":"51.3032995","Altitude":"1427.0999755859375","time":"12-11-2013 08:38:47","Accuracy":"179.0","Provider":"fused","Speed":"0.0"}}
{"Location":{"Latitude":"35.7539856","Longtitude":"51.3032995","Altitude":"1427.0999755859375","time":"12-11-2013 08:41:10","Accuracy":"241.0","Provider":"fused","Speed":"0.0"}}
{"Location":{"Latitude":"35.7539854","Longtitude":"51.3033018","Altitude":"1426.4000244140625","time":"12-11-2013 08:49:40","Accuracy":"245.0","Provider":"fused","Speed":"0.0"}}
{"Application":{"ProcessName":"com.lslk.sleepbot","Start":"12-11-2013 09:00:04","End":"12-11-2013 09:00:24"}}
{"Application":{"ProcessName":"com.huawei.android.launcher","Start":"12-11-2013 09:00:24","End":"12-11-2013 09:00:36"}}
{"Application":{"ProcessName":"com.huawei.android.launcher","Start":"12-11-2013 09:10:52","End":"12-11-2013 09:11:06"}}
{"Application":{"ProcessName":"com.huawei.android.launcher","Start":"12-11-2013 09:13:10","End":"12-11-2013 09:13:20"}}
{"Application":{"ProcessName":"com.android.deskclock","Start":"12-11-2013 09:13:20","End":"12-11-2013 09:13:41"}}
{"Application":{"ProcessName":"com.huawei.android.launcher","Start":"12-11-2013 09:13:41","End":"12-11-2013 09:13:52"}}
{"Application":{"ProcessName":"com.huawei.android.launcher","Start":"12-11-2013 09:31:36","End":"12-11-2013 09:31:47"}}
{"Application":{"ProcessName":"com.huawei.android.launcher","Start":"12-11-2013 09:31:57","End":"12-11-2013 09:32:07"}}
{"Application":{"ProcessName":"com.android.mms","Start":"12-11-2013 09:45:28","End":"12-11-2013 09:45:58"}}
{"SMS":{"Address":"+98912402####","type":"2","date":"12-11-2013 09:45:56","body":"ANONYMIZED","Type":"2", "metadata": {"name": "My Love"}}}
{"Call": {"Number":"+98912402####","Duration":"0","Time":"12-11-2013 06:59:45","Type":"2"}}
{"Application":{"ProcessName":"com.huawei.android.launcher","Start":"12-11-2013 09:45:58","End":"12-11-2013 09:46:08"}}
{"Call": {"Number":"+98912402####","Duration":"1","Time":"12-11-2013 09:46:03","Type":"2"}}
{"Call": {"Number":"+98912402####","Duration":"1","Time":"12-11-2013 09:46:03","Type":"2"}}
{"SMS":{"Address":"+98912402####","type":"1","date":"12-11-2013 09:48:59","body":"ANONYMIZED","Type":"1", "metadata": {"name": "My Love"}}}
{"Call": {"Number":"+98912402####","Duration":"1","Time":"12-11-2013 09:46:03","Type":"2"}}
{"Application":{"ProcessName":"com.android.mms","Start":"12-11-2013 09:57:27","End":"12-11-2013 09:57:37"}}
{"Location":{"Latitude":"35.755883","Longtitude":"51.3030017","Altitude":"1478.9000244140625","time":"12-11-2013 09:59:12","Accuracy":"56.0","Provider":"fused","Speed":"0.0"}}
{"Location":{"Latitude":"35.7535296","Longtitude":"51.300203","Altitude":"1386.199951171875","time":"12-11-2013 10:00:26","Accuracy":"54.0","Provider":"fused","Speed":"0.0"}}
{"Location":{"Latitude":"35.7531397","Longtitude":"51.2994946","Altitude":"1390.9000244140625","time":"12-11-2013 10:02:20","Accuracy":"32.0","Provider":"fused","Speed":"0.0"}}
{"Location":{"Latitude":"35.7531801","Longtitude":"51.3119337","Altitude":"1389.699951171875","time":"12-11-2013 10:03:21","Accuracy":"49.0","Provider":"fused","Speed":"0.0"}}
{"Location":{"Latitude":"35.7503666","Longtitude":"51.3319166","Altitude":"1413.5999755859375","time":"12-11-2013 10:05:20","Accuracy":"15.0","Provider":"fused","Speed":"0.0"}}
{"Location":{"Latitude":"35.7575629","Longtitude":"51.3344156","Altitude":"1444.800048828125","time":"12-11-2013 10:06:20","Accuracy":"27.0","Provider":"fused","Speed":"0.0"}}
{"Location":{"Latitude":"35.7617899","Longtitude":"51.3403398","Altitude":"1487.300048828125","time":"12-11-2013 10:08:15","Accuracy":"12.0","Provider":"fused","Speed":"0.0"}}
{"Location":{"Latitude":"35.762521","Longtitude":"51.3405976","Altitude":"1478.800048828125","time":"12-11-2013 10:09:16","Accuracy":"24.0","Provider":"fused","Speed":"0.0"}}
{"Location":{"Latitude":"35.7635665","Longtitude":"51.340422","Altitude":"1483.5","time":"12-11-2013 10:10:17","Accuracy":"25.0","Provider":"fused","Speed":"0.0"}}
{"Location":{"Latitude":"35.7627683","Longtitude":"51.3395589","Altitude":"1490.199951171875","time":"12-11-2013 10:12:17","Accuracy":"30.0","Provider":"fused","Speed":"0.0"}}
{"Application":{"ProcessName":"com.huawei.android.launcher","Start":"12-11-2013 10:16:21","End":"12-11-2013 10:16:31"}}
{"SMS":{"Address":"+98912402####","type":"2","date":"12-11-2013 10:16:52","body":"ANONYMIZED","Type":"2", "metadata": {"name": "My Love"}}}
{"Application":{"ProcessName":"com.android.mms","Start":"12-11-2013 10:16:31","End":"12-11-2013 10:17:01"}}
{"SMS":{"Address":"+98912402####","type":"1","date":"12-11-2013 10:18:35","body":"ANONYMIZED","Type":"1", "metadata": {"name": "My Love"}}}
{"Application":{"ProcessName":"com.huawei.android.launcher","Start":"12-11-2013 10:20:07","End":"12-11-2013 10:20:17"}}
{"SMS":{"Address":"+98912402####","type":"2","date":"12-11-2013 10:20:48","body":"ANONYMIZED","Type":"2", "metadata": {"name": "My Love"}}}
{"Application":{"ProcessName":"com.android.mms","Start":"12-11-2013 10:20:17","End":"12-11-2013 10:20:58"}}
{"Application":{"ProcessName":"com.huawei.android.launcher","Start":"12-11-2013 11:57:35","End":"12-11-2013 11:57:43"}}
{"Location":{"Latitude":"35.7627763","Longtitude":"51.339418","Altitude":"1476.300048828125","time":"12-11-2013 12:13:57","Accuracy":"126.0","Provider":"fused","Speed":"0.0"}}
{"Location":{"Latitude":"35.7628127","Longtitude":"51.3403665","Altitude":"1480.0","time":"12-11-2013 12:15:03","Accuracy":"38.0","Provider":"fused","Speed":"0.0"}}
{"Location":{"Latitude":"35.7635701","Longtitude":"51.3404627","Altitude":"1485.0999755859375","time":"12-11-2013 12:16:05","Accuracy":"46.0","Provider":"fused","Speed":"0.0"}}
{"Location":{"Latitude":"35.7630558","Longtitude":"51.3404514","Altitude":"1475.300048828125","time":"12-11-2013 12:17:18","Accuracy":"56.0","Provider":"fused","Speed":"0.0"}}
{"Location":{"Latitude":"35.7611187","Longtitude":"51.3403331","Altitude":"1480.0","time":"12-11-2013 12:18:33","Accuracy":"74.0","Provider":"fused","Speed":"0.0"}}
{"Location":{"Latitude":"35.7610332","Longtitude":"51.3403218","Altitude":"1467.5","time":"12-11-2013 12:24:39","Accuracy":"31.0","Provider":"fused","Speed":"0.0"}}
{"Application":{"ProcessName":"com.huawei.android.launcher","Start":"12-11-2013 12:25:24","End":"12-11-2013 12:25:34"}}
{"Location":{"Latitude":"35.7615407","Longtitude":"51.3403498","Altitude":"1498.699951171875","time":"12-11-2013 12:26:15","Accuracy":"15.0","Provider":"fused","Speed":"0.0"}}
{"Location":{"Latitude":"35.7625175","Longtitude":"51.3404149","Altitude":"1484.699951171875","time":"12-11-2013 12:27:20","Accuracy":"39.0","Provider":"fused","Speed":"0.0"}}
{"Location":{"Latitude":"35.7587501","Longtitude":"51.3348012","Altitude":"1461.9000244140625","time":"12-11-2013 12:29:16","Accuracy":"18.0","Provider":"fused","Speed":"0.0"}}
{"Location":{"Latitude":"35.7515878","Longtitude":"51.3309751","Altitude":"1423.0999755859375","time":"12-11-2013 12:31:18","Accuracy":"27.0","Provider":"fused","Speed":"0.0"}}
{"Location":{"Latitude":"35.753551","Longtitude":"51.3097224","Altitude":"1415.0","time":"12-11-2013 12:33:18","Accuracy":"28.0","Provider":"fused","Speed":"0.0"}}
{"Location":{"Latitude":"35.7553497","Longtitude":"51.3040856","Altitude":"1439.800048828125","time":"12-11-2013 12:35:20","Accuracy":"13.0","Provider":"fused","Speed":"0.0"}}
{"Location":{"Latitude":"35.7536932","Longtitude":"51.3031714","Altitude":"1385.300048828125","time":"12-11-2013 12:37:18","Accuracy":"14.0","Provider":"fused","Speed":"0.0"}}
{"Application":{"ProcessName":"com.huawei.android.launcher","Start":"12-11-2013 12:39:19","End":"12-11-2013 12:39:31"}}
{"Application":{"ProcessName":"com.huawei.android.launcher","Start":"12-11-2013 12:39:57","End":"12-11-2013 12:40:44"}}
{"Location":{"Latitude":"35.753639","Longtitude":"51.3034395","Altitude":"1388.699951171875","time":"12-11-2013 12:41:20","Accuracy":"22.0","Provider":"fused","Speed":"0.0"}}
{"Application":{"ProcessName":"com.huawei.android.launcher","Start":"12-11-2013 12:41:20","End":"12-11-2013 12:41:30"}}
{"Location":{"Latitude":"35.7537383","Longtitude":"51.3035491","Altitude":"1385.9000244140625","time":"12-11-2013 12:42:24","Accuracy":"36.0","Provider":"fused","Speed":"0.0"}}
{"Location":{"Latitude":"35.7537434","Longtitude":"51.3036376","Altitude":"1399.699951171875","time":"12-11-2013 12:43:26","Accuracy":"36.0","Provider":"fused","Speed":"0.0"}}
{"Location":{"Latitude":"35.7537701","Longtitude":"51.303711","Altitude":"1408.699951171875","time":"12-11-2013 12:45:25","Accuracy":"32.0","Provider":"fused","Speed":"0.0"}}
{"Location":{"Latitude":"35.7538122","Longtitude":"51.3037452","Altitude":"1413.9000244140625","time":"12-11-2013 12:46:27","Accuracy":"42.0","Provider":"fused","Speed":"0.0"}}
{"Location":{"Latitude":"35.753859","Longtitude":"51.3037684","Altitude":"1421.300048828125","time":"12-11-2013 12:48:25","Accuracy":"43.0","Provider":"fused","Speed":"0.0"}}
{"Location":{"Latitude":"35.7538707","Longtitude":"51.3037689","Altitude":"1423.5999755859375","time":"12-11-2013 12:49:25","Accuracy":"47.0","Provider":"fused","Speed":"0.0"}}
{"Location":{"Latitude":"35.7538721","Longtitude":"51.3037562","Altitude":"1423.5999755859375","time":"12-11-2013 12:50:25","Accuracy":"42.0","Provider":"fused","Speed":"0.0"}}
{"Location":{"Latitude":"35.7538719","Longtitude":"51.3037512","Altitude":"1423.5","time":"12-11-2013 12:51:26","Accuracy":"47.0","Provider":"fused","Speed":"0.0"}}
{"Location":{"Latitude":"35.7538897","Longtitude":"51.303756","Altitude":"1427.9000244140625","time":"12-11-2013 12:53:30","Accuracy":"43.0","Provider":"fused","Speed":"0.0"}}
{"Location":{"Latitude":"35.7538936","Longtitude":"51.3037809","Altitude":"1429.199951171875","time":"12-11-2013 12:55:25","Accuracy":"37.0","Provider":"fused","Speed":"0.0"}}
{"Location":{"Latitude":"35.7538898","Longtitude":"51.3037842","Altitude":"1428.300048828125","time":"12-11-2013 12:56:26","Accuracy":"42.0","Provider":"fused","Speed":"0.0"}}
{"Location":{"Latitude":"35.7538838","Longtitude":"51.3037817","Altitude":"1427.699951171875","time":"12-11-2013 12:58:26","Accuracy":"44.0","Provider":"fused","Speed":"0.0"}}
{"Location":{"Latitude":"35.7538812","Longtitude":"51.3037682","Altitude":"1427.300048828125","time":"12-11-2013 12:59:26","Accuracy":"44.0","Provider":"fused","Speed":"0.0"}}
{"Location":{"Latitude":"35.7538731","Longtitude":"51.3037688","Altitude":"1426.5999755859375","time":"12-11-2013 13:00:33","Accuracy":"53.0","Provider":"fused","Speed":"0.0"}}
{"Location":{"Latitude":"35.7538741","Longtitude":"51.303772","Altitude":"1426.9000244140625","time":"12-11-2013 13:02:27","Accuracy":"47.0","Provider":"fused","Speed":"0.0"}}
{"Location":{"Latitude":"35.7538776","Longtitude":"51.3037728","Altitude":"1427.699951171875","time":"12-11-2013 13:04:29","Accuracy":"46.0","Provider":"fused","Speed":"0.0"}}
{"Location":{"Latitude":"35.7538687","Longtitude":"51.3037739","Altitude":"1427.5999755859375","time":"12-11-2013 13:06:31","Accuracy":"47.0","Provider":"fused","Speed":"0.0"}}
{"Location":{"Latitude":"35.7538677","Longtitude":"51.303774","Altitude":"1425.300048828125","time":"12-11-2013 13:07:32","Accuracy":"44.0","Provider":"fused","Speed":"0.0"}}
{"Application":{"ProcessName":"com.huawei.android.launcher","Start":"12-11-2013 13:07:42","End":"12-11-2013 13:07:45"}}
{"Location":{"Latitude":"35.7538551","Longtitude":"51.3037698","Altitude":"1424.0","time":"12-11-2013 13:09:31","Accuracy":"44.0","Provider":"fused","Speed":"0.0"}}
{"Application":{"ProcessName":"com.huawei.android.launcher","Start":"12-11-2013 13:10:15","End":"12-11-2013 13:10:32"}}
{"Application":{"ProcessName":"com.lslk.sleepbot","Start":"12-11-2013 13:10:32","End":"12-11-2013 13:10:42"}}
{"Application":{"ProcessName":"com.huawei.android.launcher","Start":"12-11-2013 13:10:42","End":"12-11-2013 13:10:45"}}
{"Application":{"ProcessName":"com.lslk.sleepbot","Start":"12-11-2013 13:10:45","End":"12-11-2013 13:11:05"}}
{"Application":{"ProcessName":"com.huawei.android.launcher","Start":"12-11-2013 13:11:05","End":"12-11-2013 13:11:23"}}
{"Location":{"Latitude":"35.75385","Longtitude":"51.3037623","Altitude":"1423.5999755859375","time":"12-11-2013 13:11:27","Accuracy":"41.0","Provider":"fused","Speed":"0.0"}}
{"Location":{"Latitude":"35.7538494","Longtitude":"51.3037613","Altitude":"1423.300048828125","time":"12-11-2013 13:13:36","Accuracy":"45.0","Provider":"fused","Speed":"0.0"}}
{"Location":{"Latitude":"35.7538439","Longtitude":"51.3037535","Altitude":"1423.300048828125","time":"12-11-2013 13:14:43","Accuracy":"44.0","Provider":"fused","Speed":"0.0"}}
{"Location":{"Latitude":"35.7538434","Longtitude":"51.3037538","Altitude":"1422.9000244140625","time":"12-11-2013 13:15:43","Accuracy":"37.999","Provider":"fused","Speed":"0.0"}}
{"Location":{"Latitude":"35.7538415","Longtitude":"51.3037536","Altitude":"1422.4000244140625","time":"12-11-2013 13:16:45","Accuracy":"44.0","Provider":"fused","Speed":"0.0"}}
{"Location":{"Latitude":"35.7538364","Longtitude":"51.3037466","Altitude":"1415.0999755859375","time":"12-11-2013 13:18:44","Accuracy":"49.0","Provider":"fused","Speed":"0.0"}}
{"Location":{"Latitude":"35.7538286","Longtitude":"51.3037417","Altitude":"1415.199951171875","time":"12-11-2013 13:19:58","Accuracy":"32.0","Provider":"fused","Speed":"0.0"}}
{"Location":{"Latitude":"35.7523872","Longtitude":"51.3037041","Altitude":"1385.300048828125","time":"12-11-2013 13:21:42","Accuracy":"31.0","Provider":"fused","Speed":"0.0"}}
{"Location":{"Latitude":"35.7521958","Longtitude":"51.3039843","Altitude":"1379.0","time":"12-11-2013 13:22:47","Accuracy":"46.0","Provider":"fused","Speed":"0.0"}}
{"Location":{"Latitude":"35.745662","Longtitude":"51.3038826","Altitude":"1374.5999755859375","time":"12-11-2013 13:24:50","Accuracy":"15.0","Provider":"fused","Speed":"0.0"}}
{"Location":{"Latitude":"35.7421089","Longtitude":"51.3003666","Altitude":"1372.300048828125","time":"12-11-2013 13:26:14","Accuracy":"86.0","Provider":"fused","Speed":"0.0"}}
{"Location":{"Latitude":"35.7416432","Longtitude":"51.3001608","Altitude":"1320.5999755859375","time":"12-11-2013 13:27:51","Accuracy":"14.0","Provider":"fused","Speed":"0.0"}}
{"Location":{"Latitude":"35.7335668","Longtitude":"51.3097004","Altitude":"1341.0999755859375","time":"12-11-2013 13:31:28","Accuracy":"201.0","Provider":"fused","Speed":"0.0"}}
{"Location":{"Latitude":"35.7293183","Longtitude":"51.3152464","Altitude":"1304.300048828125","time":"12-11-2013 13:32:53","Accuracy":"167.0","Provider":"fused","Speed":"0.0"}}
{"Location":{"Latitude":"35.7276271","Longtitude":"51.3201148","Altitude":"1290.300048828125","time":"12-11-2013 13:34:31","Accuracy":"192.0","Provider":"fused","Speed":"0.0"}}
{"Location":{"Latitude":"35.7201193","Longtitude":"51.323034","Altitude":"1281.699951171875","time":"12-11-2013 13:37:27","Accuracy":"239.0","Provider":"fused","Speed":"0.0"}}
{"Location":{"Latitude":"35.7180245","Longtitude":"51.3280935","Altitude":"1282.0999755859375","time":"12-11-2013 13:39:15","Accuracy":"203.0","Provider":"fused","Speed":"0.0"}}
{"Location":{"Latitude":"35.7179711","Longtitude":"51.3288795","Altitude":"1273.800048828125","time":"12-11-2013 13:40:25","Accuracy":"45.0","Provider":"fused","Speed":"0.0"}}
{"Location":{"Latitude":"35.7181732","Longtitude":"51.3305931","Altitude":"1266.9000244140625","time":"12-11-2013 13:42:27","Accuracy":"41.0","Provider":"fused","Speed":"0.0"}}
{"Location":{"Latitude":"35.7538496","Longtitude":"51.3031571","Altitude":"1386.699951171875","time":"12-11-2013 20:31:50","Accuracy":"84.0","Provider":"fused","Speed":"0.0"}}
{"Location":{"Latitude":"35.7538868","Longtitude":"51.3032864","Altitude":"1406.9000244140625","time":"12-11-2013 20:33:03","Accuracy":"50.0","Provider":"fused","Speed":"0.0"}}
{"Location":{"Latitude":"35.7538415","Longtitude":"51.3034945","Altitude":"1425.5999755859375","time":"12-11-2013 20:34:04","Accuracy":"53.0","Provider":"fused","Speed":"0.0"}}
{"Call": {"Number":"+98912510####","Duration":"0","Time":"12-11-2013 20:35:54","Type":"3"}}
{"Call": {"Number":"+98912510####","Duration":"0","Time":"12-11-2013 20:35:54","Type":"3"}}
{"Location":{"Latitude":"35.7538792","Longtitude":"51.3033154","Altitude":"1410.199951171875","time":"12-11-2013 20:36:08","Accuracy":"57.0","Provider":"fused","Speed":"0.0"}}
{"Application":{"ProcessName":"com.huawei.android.launcher","Start":"12-11-2013 20:36:15","End":"12-11-2013 20:36:25"}}
{"Location":{"Latitude":"35.7538234","Longtitude":"51.3034775","Altitude":"1426.4000244140625","time":"12-11-2013 20:37:58","Accuracy":"45.0","Provider":"fused","Speed":"0.0"}}
{"Location":{"Latitude":"35.7538288","Longtitude":"51.3033986","Altitude":"1421.5999755859375","time":"12-11-2013 20:39:55","Accuracy":"41.0","Provider":"fused","Speed":"0.0"}}
{"Location":{"Latitude":"35.7538331","Longtitude":"51.3033787","Altitude":"1420.199951171875","time":"12-11-2013 20:40:58","Accuracy":"44.0","Provider":"fused","Speed":"0.0"}}
{"Location":{"Latitude":"35.7538412","Longtitude":"51.303327","Altitude":"1416.699951171875","time":"12-11-2013 20:42:57","Accuracy":"47.0","Provider":"fused","Speed":"0.0"}}
{"Location":{"Latitude":"35.7538493","Longtitude":"51.3032938","Altitude":"1414.5","time":"12-11-2013 20:45:02","Accuracy":"50.0","Provider":"fused","Speed":"0.0"}}
{"Location":{"Latitude":"35.7538411","Longtitude":"51.3032959","Altitude":"1414.5999755859375","time":"12-11-2013 20:46:57","Accuracy":"46.0","Provider":"fused","Speed":"0.0"}}
{"Location":{"Latitude":"35.7538453","Longtitude":"51.3032909","Altitude":"1413.5999755859375","time":"12-11-2013 20:47:57","Accuracy":"48.0","Provider":"fused","Speed":"0.0"}}
{"Location":{"Latitude":"35.7538478","Longtitude":"51.3032803","Altitude":"1413.0","time":"12-11-2013 20:48:59","Accuracy":"49.0","Provider":"fused","Speed":"0.0"}}
{"Location":{"Latitude":"35.7538366","Longtitude":"51.3033026","Altitude":"1415.199951171875","time":"12-11-2013 20:50:00","Accuracy":"48.0","Provider":"fused","Speed":"0.0"}}
{"Location":{"Latitude":"35.7538336","Longtitude":"51.3033089","Altitude":"1415.9000244140625","time":"12-11-2013 20:51:03","Accuracy":"53.0","Provider":"fused","Speed":"0.0"}}
{"Location":{"Latitude":"35.7538201","Longtitude":"51.3033541","Altitude":"1417.800048828125","time":"12-11-2013 20:52:59","Accuracy":"47.0","Provider":"fused","Speed":"0.0"}}
{"Location":{"Latitude":"35.7538209","Longtitude":"51.3033577","Altitude":"1418.0","time":"12-11-2013 20:54:02","Accuracy":"44.0","Provider":"fused","Speed":"0.0"}}
{"Location":{"Latitude":"35.753817","Longtitude":"51.3033725","Altitude":"1418.199951171875","time":"12-11-2013 20:55:58","Accuracy":"47.0","Provider":"fused","Speed":"0.0"}}
{"Location":{"Latitude":"35.7538132","Longtitude":"51.3033794","Altitude":"1419.0999755859375","time":"12-11-2013 20:57:02","Accuracy":"43.0","Provider":"fused","Speed":"0.0"}}
{"Location":{"Latitude":"35.7538107","Longtitude":"51.3033802","Altitude":"1420.0","time":"12-11-2013 20:58:59","Accuracy":"44.0","Provider":"fused","Speed":"0.0"}}
{"Location":{"Latitude":"35.7538088","Longtitude":"51.3033827","Altitude":"1420.5","time":"12-11-2013 21:00:02","Accuracy":"42.0","Provider":"fused","Speed":"0.0"}}
{"Location":{"Latitude":"35.7538008","Longtitude":"51.3034064","Altitude":"1422.5999755859375","time":"12-11-2013 21:02:03","Accuracy":"49.0","Provider":"fused","Speed":"0.0"}}
{"Location":{"Latitude":"35.7538013","Longtitude":"51.3034153","Altitude":"1423.0","time":"12-11-2013 21:03:57","Accuracy":"45.0","Provider":"fused","Speed":"0.0"}}
{"Location":{"Latitude":"35.7538028","Longtitude":"51.3034142","Altitude":"1422.5999755859375","time":"12-11-2013 21:04:59","Accuracy":"46.0","Provider":"fused","Speed":"0.0"}}
{"Location":{"Latitude":"35.7538051","Longtitude":"51.3034082","Altitude":"1422.4000244140625","time":"12-11-2013 21:07:08","Accuracy":"59.0","Provider":"fused","Speed":"0.0"}}
{"Location":{"Latitude":"35.7538068","Longtitude":"51.3033938","Altitude":"1421.5999755859375","time":"12-11-2013 21:08:53","Accuracy":"23.0","Provider":"fused","Speed":"0.0"}}
{"Location":{"Latitude":"35.7538078","Longtitude":"51.3033814","Altitude":"1420.9000244140625","time":"12-11-2013 21:10:55","Accuracy":"32.0","Provider":"fused","Speed":"0.0"}}
{"Call": {"Number":"+98912510####","Duration":"0","Time":"12-11-2013 20:35:54","Type":"3"}}
{"Call": {"Number":"+98912510####","Duration":"0","Time":"12-11-2013 20:35:54","Type":"3"}}
{"Call": {"Number":"+98912510####","Duration":"0","Time":"12-11-2013 20:35:54","Type":"3"}}
{"Call": {"Number":"+98912510####","Duration":"0","Time":"12-11-2013 20:35:54","Type":"3"}}
{"Location":{"Latitude":"35.7538062","Longtitude":"51.3033939","Altitude":"1421.5999755859375","time":"12-11-2013 21:12:56","Accuracy":"30.0","Provider":"fused","Speed":"0.0"}}
{"Call": {"Number":"+98912510####","Duration":"0","Time":"12-11-2013 20:35:54","Type":"3"}}
{"Application":{"ProcessName":"com.huawei.android.launcher","Start":"12-11-2013 21:12:48","End":"12-11-2013 21:12:58"}}
{"Location":{"Latitude":"35.7538076","Longtitude":"51.3033893","Altitude":"1421.199951171875","time":"12-11-2013 21:13:56","Accuracy":"26.999","Provider":"fused","Speed":"0.0"}}
{"Location":{"Latitude":"35.7538087","Longtitude":"51.3033816","Altitude":"1420.800048828125","time":"12-11-2013 21:14:56","Accuracy":"32.0","Provider":"fused","Speed":"0.0"}}
{"Location":{"Latitude":"35.7538083","Longtitude":"51.3033705","Altitude":"1420.0999755859375","time":"12-11-2013 21:15:56","Accuracy":"28.0","Provider":"fused","Speed":"0.0"}}
{"Location":{"Latitude":"35.7538092","Longtitude":"51.3033651","Altitude":"1419.699951171875","time":"12-11-2013 21:16:56","Accuracy":"28.0","Provider":"fused","Speed":"0.0"}}
{"Location":{"Latitude":"35.7538118","Longtitude":"51.3033549","Altitude":"1418.9000244140625","time":"12-11-2013 21:18:56","Accuracy":"32.0","Provider":"fused","Speed":"0.0"}}
{"Location":{"Latitude":"35.7538118","Longtitude":"51.3033552","Altitude":"1418.9000244140625","time":"12-11-2013 21:19:56","Accuracy":"44.0","Provider":"fused","Speed":"0.0"}}
{"Application":{"ProcessName":"com.google.android.apps.uploader","Start":"12-11-2013 21:19:59","End":"12-11-2013 21:20:09"}}
{"Application":{"ProcessName":"com.huawei.android.launcher","Start":"12-11-2013 21:19:59","End":"12-11-2013 21:20:09"}}
{"Call": {"Number":"+98912402####","Duration":"11","Time":"12-11-2013 21:20:02","Type":"2"}}
{"Call": {"Number":"+98912402####","Duration":"11","Time":"12-11-2013 21:20:02","Type":"2"}}
{"Location":{"Latitude":"35.7538118","Longtitude":"51.3033549","Altitude":"1418.9000244140625","time":"12-11-2013 21:21:20","Accuracy":"48.0","Provider":"fused","Speed":"0.0"}}
{"Location":{"Latitude":"35.7536137","Longtitude":"51.3032882","Altitude":"1405.0999755859375","time":"12-11-2013 21:23:49","Accuracy":"19.0","Provider":"fused","Speed":"0.0"}}
{"Location":{"Latitude":"35.7552698","Longtitude":"51.3008953","Altitude":"1404.699951171875","time":"12-11-2013 21:25:10","Accuracy":"60.0","Provider":"fused","Speed":"0.0"}}
{"Location":{"Latitude":"35.7552301","Longtitude":"51.3009223","Altitude":"1395.4000244140625","time":"12-11-2013 21:28:13","Accuracy":"105.0","Provider":"fused","Speed":"0.0"}}
{"Location":{"Latitude":"35.7549512","Longtitude":"51.3008263","Altitude":"1433.300048828125","time":"12-11-2013 21:41:08","Accuracy":"248.0","Provider":"fused","Speed":"0.0"}}
{"Location":{"Latitude":"35.7549376","Longtitude":"51.3008317","Altitude":"1438.800048828125","time":"12-11-2013 21:47:01","Accuracy":"170.0","Provider":"fused","Speed":"0.0"}}
{"Location":{"Latitude":"35.7549934","Longtitude":"51.3008534","Altitude":"1430.9000244140625","time":"12-11-2013 21:49:36","Accuracy":"148.0","Provider":"fused","Speed":"0.0"}}
{"Location":{"Latitude":"35.75507","Longtitude":"51.3008234","Altitude":"1421.800048828125","time":"12-11-2013 21:50:59","Accuracy":"58.0","Provider":"fused","Speed":"0.0"}}
{"Location":{"Latitude":"35.7550616","Longtitude":"51.3008038","Altitude":"1420.300048828125","time":"12-11-2013 21:52:12","Accuracy":"72.0","Provider":"fused","Speed":"0.0"}}
{"Location":{"Latitude":"35.7550673","Longtitude":"51.3007654","Altitude":"1415.5999755859375","time":"12-11-2013 21:53:56","Accuracy":"50.0","Provider":"fused","Speed":"0.0"}}
{"Location":{"Latitude":"35.7550471","Longtitude":"51.3008019","Altitude":"1423.9000244140625","time":"12-11-2013 21:54:57","Accuracy":"51.0","Provider":"fused","Speed":"0.0"}}
{"Location":{"Latitude":"35.7550461","Longtitude":"51.3008225","Altitude":"1427.5999755859375","time":"12-11-2013 21:57:09","Accuracy":"73.0","Provider":"fused","Speed":"0.0"}}
{"Location":{"Latitude":"35.7550473","Longtitude":"51.3008211","Altitude":"1423.5","time":"12-11-2013 21:58:11","Accuracy":"65.0","Provider":"fused","Speed":"0.0"}}
{"Location":{"Latitude":"35.7549228","Longtitude":"51.3009132","Altitude":"1424.699951171875","time":"12-11-2013 21:59:56","Accuracy":"43.0","Provider":"fused","Speed":"0.0"}}
{"Location":{"Latitude":"35.7550321","Longtitude":"51.3008868","Altitude":"1424.199951171875","time":"12-11-2013 22:02:04","Accuracy":"65.0","Provider":"fused","Speed":"0.0"}}
{"Location":{"Latitude":"35.7550477","Longtitude":"51.3008656","Altitude":"1424.699951171875","time":"12-11-2013 22:03:57","Accuracy":"59.0","Provider":"fused","Speed":"0.0"}}
{"Location":{"Latitude":"35.7550516","Longtitude":"51.3008625","Altitude":"1421.0999755859375","time":"12-11-2013 22:05:00","Accuracy":"60.0","Provider":"fused","Speed":"0.0"}}
{"Location":{"Latitude":"35.7550444","Longtitude":"51.3008611","Altitude":"1416.800048828125","time":"12-11-2013 22:06:27","Accuracy":"77.0","Provider":"fused","Speed":"0.0"}}
{"Location":{"Latitude":"35.7550496","Longtitude":"51.3008558","Altitude":"1417.800048828125","time":"12-11-2013 22:08:17","Accuracy":"66.0","Provider":"fused","Speed":"0.0"}}
{"Location":{"Latitude":"35.7551645","Longtitude":"51.3009624","Altitude":"1421.9000244140625","time":"12-11-2013 22:09:21","Accuracy":"78.0","Provider":"fused","Speed":"0.0"}}
{"Location":{"Latitude":"35.7548515","Longtitude":"51.3008386","Altitude":"1414.5999755859375","time":"12-11-2013 22:10:57","Accuracy":"31.0","Provider":"fused","Speed":"0.0"}}
{"Location":{"Latitude":"35.7551807","Longtitude":"51.3010204","Altitude":"1420.0999755859375","time":"12-11-2013 22:12:03","Accuracy":"54.0","Provider":"fused","Speed":"0.0"}}
{"Location":{"Latitude":"35.7552166","Longtitude":"51.301012","Altitude":"1421.800048828125","time":"12-11-2013 22:13:10","Accuracy":"72.0","Provider":"fused","Speed":"0.0"}}
{"Location":{"Latitude":"35.7551909","Longtitude":"51.3010018","Altitude":"1423.300048828125","time":"12-11-2013 22:14:33","Accuracy":"104.0","Provider":"fused","Speed":"0.0"}}
{"Location":{"Latitude":"35.7550376","Longtitude":"51.3012016","Altitude":"1553.300048828125","time":"12-11-2013 22:16:10","Accuracy":"54.0","Provider":"fused","Speed":"0.0"}}
{"Location":{"Latitude":"35.7549037","Longtitude":"51.3011875","Altitude":"1567.0999755859375","time":"12-11-2013 22:18:02","Accuracy":"58.0","Provider":"fused","Speed":"0.0"}}
{"Location":{"Latitude":"35.7549473","Longtitude":"51.3011999","Altitude":"1573.4000244140625","time":"12-11-2013 22:19:05","Accuracy":"64.0","Provider":"fused","Speed":"0.0"}}
{"Location":{"Latitude":"35.7549714","Longtitude":"51.3012152","Altitude":"1573.5","time":"12-11-2013 22:20:08","Accuracy":"70.0","Provider":"fused","Speed":"0.0"}}
{"Location":{"Latitude":"35.7549834","Longtitude":"51.3012221","Altitude":"1569.300048828125","time":"12-11-2013 22:22:04","Accuracy":"66.0","Provider":"fused","Speed":"0.0"}}
{"Location":{"Latitude":"35.7550135","Longtitude":"51.3013096","Altitude":"1597.0","time":"12-11-2013 22:24:10","Accuracy":"57.0","Provider":"fused","Speed":"0.0"}}
{"Location":{"Latitude":"35.7549734","Longtitude":"51.3013018","Altitude":"1577.0","time":"12-11-2013 22:25:21","Accuracy":"79.0","Provider":"fused","Speed":"0.0"}}
{"Location":{"Latitude":"35.7549821","Longtitude":"51.3013157","Altitude":"1575.0999755859375","time":"12-11-2013 22:26:24","Accuracy":"90.0","Provider":"fused","Speed":"0.0"}}
{"Location":{"Latitude":"35.7549783","Longtitude":"51.3013266","Altitude":"1581.300048828125","time":"12-11-2013 22:27:29","Accuracy":"85.0","Provider":"fused","Speed":"0.0"}}
{"Location":{"Latitude":"35.7549749","Longtitude":"51.3013303","Altitude":"1585.199951171875","time":"12-11-2013 22:28:32","Accuracy":"99.0","Provider":"fused","Speed":"0.0"}}
{"Location":{"Latitude":"35.7549701","Longtitude":"51.3009935","Altitude":"1506.9000244140625","time":"12-11-2013 22:30:00","Accuracy":"45.0","Provider":"fused","Speed":"0.0"}}
{"Location":{"Latitude":"35.7550396","Longtitude":"51.301007","Altitude":"1466.5","time":"12-11-2013 22:31:59","Accuracy":"52.0","Provider":"fused","Speed":"0.0"}}
{"Location":{"Latitude":"35.7550613","Longtitude":"51.3010159","Altitude":"1471.0","time":"12-11-2013 22:33:57","Accuracy":"51.0","Provider":"fused","Speed":"0.0"}}
{"Location":{"Latitude":"35.7550518","Longtitude":"51.3010013","Altitude":"1464.800048828125","time":"12-11-2013 22:34:59","Accuracy":"53.0","Provider":"fused","Speed":"0.0"}}
{"Location":{"Latitude":"35.7550477","Longtitude":"51.3009724","Altitude":"1450.4000244140625","time":"12-11-2013 22:36:04","Accuracy":"56.0","Provider":"fused","Speed":"0.0"}}
{"Location":{"Latitude":"35.7547097","Longtitude":"51.3009728","Altitude":"1411.9000244140625","time":"12-11-2013 22:37:07","Accuracy":"55.0","Provider":"fused","Speed":"0.0"}}
{"Location":{"Latitude":"35.75483","Longtitude":"51.3009284","Altitude":"1425.4000244140625","time":"12-11-2013 22:39:04","Accuracy":"54.0","Provider":"fused","Speed":"0.0"}}
{"Location":{"Latitude":"35.7549035","Longtitude":"51.3009513","Altitude":"1427.199951171875","time":"12-11-2013 22:40:58","Accuracy":"52.0","Provider":"fused","Speed":"0.0"}}
{"Location":{"Latitude":"35.7549694","Longtitude":"51.3009525","Altitude":"1427.5999755859375","time":"12-11-2013 22:41:59","Accuracy":"43.0","Provider":"fused","Speed":"0.0"}}
{"Location":{"Latitude":"35.7550899","Longtitude":"51.3012146","Altitude":"1436.5999755859375","time":"12-11-2013 22:43:07","Accuracy":"54.0","Provider":"fused","Speed":"0.0"}}
{"Location":{"Latitude":"35.7552292","Longtitude":"51.300997","Altitude":"1434.4000244140625","time":"12-11-2013 22:44:34","Accuracy":"97.0","Provider":"fused","Speed":"0.0"}}
{"Location":{"Latitude":"35.7551876","Longtitude":"51.3010478","Altitude":"1439.199951171875","time":"12-11-2013 22:46:33","Accuracy":"91.0","Provider":"fused","Speed":"0.0"}}
{"Location":{"Latitude":"35.755123","Longtitude":"51.3010389","Altitude":"1443.199951171875","time":"12-11-2013 22:48:18","Accuracy":"59.0","Provider":"fused","Speed":"0.0"}}
{"Location":{"Latitude":"35.7551061","Longtitude":"51.3007165","Altitude":"1439.300048828125","time":"12-11-2013 22:50:38","Accuracy":"92.0","Provider":"fused","Speed":"0.0"}}
{"Location":{"Latitude":"35.7551305","Longtitude":"51.3007861","Altitude":"1446.699951171875","time":"12-11-2013 22:53:50","Accuracy":"58.0","Provider":"fused","Speed":"0.0"}}
{"Location":{"Latitude":"35.7551035","Longtitude":"51.3009545","Altitude":"1449.300048828125","time":"12-11-2013 22:55:03","Accuracy":"19.0","Provider":"fused","Speed":"0.0"}}
{"Location":{"Latitude":"35.7551094","Longtitude":"51.3009468","Altitude":"1455.5","time":"12-11-2013 22:56:07","Accuracy":"47.0","Provider":"fused","Speed":"0.0"}}
{"Location":{"Latitude":"35.7551721","Longtitude":"51.3008886","Altitude":"1459.699951171875","time":"12-11-2013 22:58:03","Accuracy":"15.0","Provider":"fused","Speed":"0.0"}}
{"Location":{"Latitude":"35.7550623","Longtitude":"51.3010855","Altitude":"1464.800048828125","time":"12-11-2013 23:00:01","Accuracy":"43.0","Provider":"fused","Speed":"0.0"}}
{"Location":{"Latitude":"35.7550863","Longtitude":"51.3009629","Altitude":"1453.0","time":"12-11-2013 23:01:02","Accuracy":"42.0","Provider":"fused","Speed":"0.0"}}
{"Location":{"Latitude":"35.7551367","Longtitude":"51.3008578","Altitude":"1437.9000244140625","time":"12-11-2013 23:02:02","Accuracy":"25.0","Provider":"fused","Speed":"0.0"}}
{"Location":{"Latitude":"35.7551754","Longtitude":"51.3007894","Altitude":"1434.199951171875","time":"12-11-2013 23:03:06","Accuracy":"47.0","Provider":"fused","Speed":"0.0"}}
{"Location":{"Latitude":"35.7551751","Longtitude":"51.3007619","Altitude":"1427.0","time":"12-11-2013 23:04:08","Accuracy":"44.0","Provider":"fused","Speed":"0.0"}}
{"Location":{"Latitude":"35.7551639","Longtitude":"51.3007356","Altitude":"1424.5","time":"12-11-2013 23:05:09","Accuracy":"49.0","Provider":"fused","Speed":"0.0"}}
{"Location":{"Latitude":"35.7551633","Longtitude":"51.3008326","Altitude":"1424.199951171875","time":"12-11-2013 23:06:18","Accuracy":"67.0","Provider":"fused","Speed":"0.0"}}
