{"Location":{"Latitude":"35.7102029","Longtitude":"51.3103977","Altitude":"0.0","time":"1-10-2014 11:41:42","Accuracy":"1412.0","Provider":"network"}}
{"Application":{"ProcessName":"com.uucun4470.android.cms","Start":"1-10-2014 11:41:42","End":"1-10-2014 11:42:02"}}
{"Application":{"ProcessName":"com.mediatek.thermalmanager","Start":"1-10-2014 11:41:42","End":"1-10-2014 11:42:02"}}
{"Application":{"ProcessName":"agold.weatherwidget","Start":"1-10-2014 11:41:42","End":"1-10-2014 11:42:02"}}
{"Application":{"ProcessName":"com.mediatek.bluetooth","Start":"1-10-2014 11:41:42","End":"1-10-2014 11:42:02"}}
{"Application":{"ProcessName":"com.mediatek.voicecommand","Start":"1-10-2014 11:41:42","End":"1-10-2014 11:42:02"}}
{"Application":{"ProcessName":"com.cloudmosa.puffin","Start":"1-10-2014 11:41:42","End":"1-10-2014 11:42:02"}}
{"Application":{"ProcessName":"com.cloudmosa.puffin","Start":"1-10-2014 11:48:02","End":"1-10-2014 11:49:43"}}
{"SMS":{"Address":"0912522####","type":"2","date":"1-10-2014 11:50:53","body":"ANONYMIZED","Type":"2", "metadata": {"name": "Jahan mehr"}}}
{"Location":{"Latitude":"35.7086066","Longtitude":"51.3014804","Altitude":"0.0","time":"1-10-2014 11:51:17","Accuracy":"1412.0","Provider":"network"}}
{"Location":{"Latitude":"35.7076696","Longtitude":"51.2915278","Altitude":"0.0","time":"1-10-2014 11:51:37","Accuracy":"3839.0","Provider":"network"}}
{"Location":{"Latitude":"35.7089363","Longtitude":"51.3009628","Altitude":"0.0","time":"1-10-2014 11:51:57","Accuracy":"1412.0","Provider":"network"}}
{"Location":{"Latitude":"35.7102029","Longtitude":"51.3103977","Altitude":"0.0","time":"1-10-2014 11:52:17","Accuracy":"1412.0","Provider":"network"}}
{"Application":{"ProcessName":"com.uucun4470.android.cms","Start":"1-10-2014 11:48:02","End":"1-10-2014 11:53:03"}}
{"Application":{"ProcessName":"com.mediatek.thermalmanager","Start":"1-10-2014 11:48:02","End":"1-10-2014 11:53:03"}}
{"Application":{"ProcessName":"agold.weatherwidget","Start":"1-10-2014 11:48:02","End":"1-10-2014 11:53:03"}}
{"Application":{"ProcessName":"com.mediatek.bluetooth","Start":"1-10-2014 11:48:02","End":"1-10-2014 11:53:03"}}
{"Application":{"ProcessName":"com.mediatek.voicecommand","Start":"1-10-2014 11:48:02","End":"1-10-2014 11:53:03"}}
{"Location":{"Latitude":"35.7075387","Longtitude":"51.2974175","Altitude":"0.0","time":"1-10-2014 11:53:17","Accuracy":"1412.0","Provider":"network"}}
{"SMS":{"Address":"+98935227####","type":"2","date":"1-10-2014 11:53:14","body":"ANONYMIZED","Type":"2", "metadata": {"name": "Saneei"}}}
{"Application":{"ProcessName":"com.android.mms","Start":"1-10-2014 11:49:43","End":"1-10-2014 11:53:33"}}
{"Location":{"Latitude":"35.7093474","Longtitude":"51.3031395","Altitude":"0.0","time":"1-10-2014 11:53:37","Accuracy":"1412.0","Provider":"network"}}
{"Location":{"Latitude":"35.7103828","Longtitude":"51.3001108","Altitude":"0.0","time":"1-10-2014 11:53:57","Accuracy":"3005.0","Provider":"network"}}
{"Location":{"Latitude":"35.7103228","Longtitude":"51.3035398","Altitude":"0.0","time":"1-10-2014 11:54:17","Accuracy":"1412.0","Provider":"network"}}
{"Location":{"Latitude":"35.7102029","Longtitude":"51.3103977","Altitude":"0.0","time":"1-10-2014 11:54:57","Accuracy":"1412.0","Provider":"network"}}
{"SMS":{"Address":"+98912522####","type":"1","date":"1-10-2014 11:55:26","body":"ANONYMIZED","Type":"1", "metadata": {"name": "Jahan mehr"}}}
{"Location":{"Latitude":"35.7101047","Longtitude":"51.3101061","Altitude":"0.0","time":"1-10-2014 11:57:37","Accuracy":"1412.0","Provider":"network"}}
{"Application":{"ProcessName":"com.android.contacts","Start":"1-10-2014 11:53:33","End":"1-10-2014 11:57:43"}}
{"Application":{"ProcessName":"com.x25.cn.VolumeManager","Start":"1-10-2014 11:57:43","End":"1-10-2014 11:57:53"}}
{"Location":{"Latitude":"35.7113198","Longtitude":"51.3100634","Altitude":"0.0","time":"1-10-2014 11:57:57","Accuracy":"1412.0","Provider":"network"}}
{"Application":{"ProcessName":"com.uucun4470.android.cms","Start":"1-10-2014 11:53:03","End":"1-10-2014 11:58:03"}}
{"Application":{"ProcessName":"com.android.mms","Start":"1-10-2014 11:57:43","End":"1-10-2014 11:58:03"}}
{"Application":{"ProcessName":"com.mediatek.thermalmanager","Start":"1-10-2014 11:53:03","End":"1-10-2014 11:58:03"}}
{"Application":{"ProcessName":"agold.weatherwidget","Start":"1-10-2014 11:53:03","End":"1-10-2014 11:58:03"}}
{"Application":{"ProcessName":"com.mediatek.bluetooth","Start":"1-10-2014 11:53:03","End":"1-10-2014 11:58:03"}}
{"Application":{"ProcessName":"com.mediatek.voicecommand","Start":"1-10-2014 11:53:03","End":"1-10-2014 11:58:03"}}
{"Application":{"ProcessName":"com.android.launcher","Start":"1-10-2014 11:58:03","End":"1-10-2014 11:58:13"}}
{"Location":{"Latitude":"35.7099632","Longtitude":"51.3057719","Altitude":"0.0","time":"1-10-2014 11:58:17","Accuracy":"1412.0","Provider":"network"}}
{"Location":{"Latitude":"35.7100557","Longtitude":"51.3099603","Altitude":"0.0","time":"1-10-2014 11:58:37","Accuracy":"1412.0","Provider":"network"}}
{"Location":{"Latitude":"35.7099085","Longtitude":"51.3095229","Altitude":"0.0","time":"1-10-2014 11:58:57","Accuracy":"1604.0","Provider":"network"}}
{"Application":{"ProcessName":"com.android.mms","Start":"1-10-2014 11:58:13","End":"1-10-2014 11:59:03"}}
{"Application":{"ProcessName":"com.android.launcher","Start":"1-10-2014 11:59:03","End":"1-10-2014 11:59:33"}}
{"Location":{"Latitude":"35.7084065","Longtitude":"51.3027791","Altitude":"0.0","time":"1-10-2014 11:59:37","Accuracy":"1604.0","Provider":"network"}}
{"Application":{"ProcessName":"com.android.contacts","Start":"1-10-2014 11:59:33","End":"1-10-2014 11:59:43"}}
{"Application":{"ProcessName":"system:ui","Start":"1-10-2014 11:59:43","End":"1-10-2014 11:59:53"}}
{"Location":{"Latitude":"35.7076556","Longtitude":"51.2994073","Altitude":"0.0","time":"1-10-2014 11:59:57","Accuracy":"1604.0","Provider":"network"}}
{"Application":{"ProcessName":"com.android.mms","Start":"1-10-2014 11:59:53","End":"1-10-2014 12:00:03"}}
{"Location":{"Latitude":"35.7054028","Longtitude":"51.2892918","Altitude":"0.0","time":"1-10-2014 12:00:37","Accuracy":"2802.0","Provider":"network"}}
{"Application":{"ProcessName":"com.android.contacts","Start":"1-10-2014 12:00:03","End":"1-10-2014 12:01:03"}}
{"Location":{"Latitude":"35.7076556","Longtitude":"51.2994073","Altitude":"0.0","time":"1-10-2014 12:01:17","Accuracy":"1604.0","Provider":"network"}}
{"Location":{"Latitude":"35.7099085","Longtitude":"51.3095229","Altitude":"0.0","time":"1-10-2014 12:01:37","Accuracy":"1604.0","Provider":"network"}}
{"Application":{"ProcessName":"com.android.mms","Start":"1-10-2014 12:01:03","End":"1-10-2014 12:02:14"}}
{"Location":{"Latitude":"35.7100557","Longtitude":"51.3099603","Altitude":"0.0","time":"1-10-2014 12:02:57","Accuracy":"1412.0","Provider":"network"}}
{"Application":{"ProcessName":"com.uucun4470.android.cms","Start":"1-10-2014 11:58:03","End":"1-10-2014 12:03:04"}}
{"Application":{"ProcessName":"com.mediatek.thermalmanager","Start":"1-10-2014 11:58:03","End":"1-10-2014 12:03:04"}}
{"Application":{"ProcessName":"agold.weatherwidget","Start":"1-10-2014 11:58:03","End":"1-10-2014 12:03:04"}}
{"Application":{"ProcessName":"com.mediatek.bluetooth","Start":"1-10-2014 11:58:03","End":"1-10-2014 12:03:04"}}
{"Application":{"ProcessName":"com.mediatek.voicecommand","Start":"1-10-2014 11:58:03","End":"1-10-2014 12:03:04"}}
{"Location":{"Latitude":"35.7099085","Longtitude":"51.3095229","Altitude":"0.0","time":"1-10-2014 12:03:37","Accuracy":"1604.0","Provider":"network"}}
{"Location":{"Latitude":"35.7076556","Longtitude":"51.2994073","Altitude":"0.0","time":"1-10-2014 12:04:37","Accuracy":"1604.0","Provider":"network"}}
{"Location":{"Latitude":"35.7099085","Longtitude":"51.3095229","Altitude":"0.0","time":"1-10-2014 12:05:17","Accuracy":"1604.0","Provider":"network"}}
{"Application":{"ProcessName":"com.android.contacts","Start":"1-10-2014 12:02:14","End":"1-10-2014 12:05:54"}}
{"Location":{"Latitude":"35.7100557","Longtitude":"51.3099603","Altitude":"0.0","time":"1-10-2014 12:05:57","Accuracy":"1412.0","Provider":"network"}}
{"SMS":{"Address":"0912396####","type":"2","date":"1-10-2014 12:05:55","body":"ANONYMIZED","Type":"2", "metadata": {"name": "Sima M"}}}
{"Location":{"Latitude":"35.7102029","Longtitude":"51.3103977","Altitude":"0.0","time":"1-10-2014 12:06:17","Accuracy":"1412.0","Provider":"network"}}
{"Application":{"ProcessName":"com.uucun4470.android.cms","Start":"1-10-2014 12:03:04","End":"1-10-2014 12:06:34"}}
{"Application":{"ProcessName":"com.android.mms","Start":"1-10-2014 12:05:54","End":"1-10-2014 12:06:34"}}
{"Application":{"ProcessName":"com.mediatek.thermalmanager","Start":"1-10-2014 12:03:04","End":"1-10-2014 12:06:34"}}
{"Application":{"ProcessName":"agold.weatherwidget","Start":"1-10-2014 12:03:04","End":"1-10-2014 12:06:34"}}
{"Application":{"ProcessName":"com.mediatek.bluetooth","Start":"1-10-2014 12:03:04","End":"1-10-2014 12:06:34"}}
{"Application":{"ProcessName":"com.mediatek.voicecommand","Start":"1-10-2014 12:03:04","End":"1-10-2014 12:06:34"}}
{"SMS":{"Address":"+98912396####","type":"1","date":"1-10-2014 12:07:35","body":"ANONYMIZED","Type":"1", "metadata": {"name": "Sima M"}}}
{"Location":{"Latitude":"35.7086066","Longtitude":"51.3014804","Altitude":"0.0","time":"1-10-2014 12:07:37","Accuracy":"1412.0","Provider":"network"}}
{"SMS":{"Address":"+98912254####","type":"1","date":"1-10-2014 12:07:47","body":"ANONYMIZED","Type":"1", "metadata": {"name": "Yalda"}}}
{"SMS":{"Address":"+98912333####","type":"1","date":"1-10-2014 12:07:54","body":"ANONYMIZED","Type":"1", "metadata": {"name": "Sahar salimi"}}}
{"Location":{"Latitude":"35.7084594","Longtitude":"51.3010429","Altitude":"0.0","time":"1-10-2014 12:07:58","Accuracy":"1604.0","Provider":"network"}}
{"Application":{"ProcessName":"com.viber.voip","Start":"1-10-2014 12:07:34","End":"1-10-2014 12:08:14"}}
{"Location":{"Latitude":"35.7099085","Longtitude":"51.3095229","Altitude":"0.0","time":"1-10-2014 12:08:17","Accuracy":"1604.0","Provider":"network"}}
{"Application":{"ProcessName":"com.android.launcher","Start":"1-10-2014 12:08:14","End":"1-10-2014 12:08:24"}}
{"Application":{"ProcessName":"com.android.mms","Start":"1-10-2014 12:08:24","End":"1-10-2014 12:08:34"}}
{"Call": {"Number":"+98912127####","Duration":"110","Time":"1-10-2014 12:08:26","Type":"1"}}
{"Call": {"Number":"+98912127####","Duration":"110","Time":"1-10-2014 12:08:26","Type":"1"}}
{"Application":{"ProcessName":"com.android.settings","Start":"1-10-2014 12:10:25","End":"1-10-2014 12:10:34"}}
{"Location":{"Latitude":"35.7100557","Longtitude":"51.3099603","Altitude":"0.0","time":"1-10-2014 12:10:38","Accuracy":"1412.0","Provider":"network"}}
{"Location":{"Latitude":"35.7102029","Longtitude":"51.3103977","Altitude":"0.0","time":"1-10-2014 12:10:58","Accuracy":"1412.0","Provider":"network"}}
{"Location":{"Latitude":"35.7100557","Longtitude":"51.3099603","Altitude":"0.0","time":"1-10-2014 12:12:03","Accuracy":"1412.0","Provider":"network"}}
{"SMS":{"Address":"+98912333####","type":"1","date":"1-10-2014 12:12:16","body":"ANONYMIZED","Type":"1", "metadata": {"name": "Sahar salimi"}}}
{"Location":{"Latitude":"35.7101047","Longtitude":"51.3101061","Altitude":"0.0","time":"1-10-2014 12:12:23","Accuracy":"1412.0","Provider":"network"}}
{"Application":{"ProcessName":"com.viber.voip","Start":"1-10-2014 12:12:03","End":"1-10-2014 12:12:33"}}
{"Location":{"Latitude":"35.7100557","Longtitude":"51.3099603","Altitude":"0.0","time":"1-10-2014 12:12:38","Accuracy":"1412.0","Provider":"network"}}
{"Application":{"ProcessName":"com.android.mms","Start":"1-10-2014 12:12:33","End":"1-10-2014 12:12:43"}}
{"Location":{"Latitude":"35.7102029","Longtitude":"51.3103977","Altitude":"0.0","time":"1-10-2014 12:12:58","Accuracy":"1412.0","Provider":"network"}}
{"Application":{"ProcessName":"com.android.launcher","Start":"1-10-2014 12:12:43","End":"1-10-2014 12:13:03"}}
{"Application":{"ProcessName":"com.android.mms","Start":"1-10-2014 12:13:03","End":"1-10-2014 12:13:13"}}
{"Location":{"Latitude":"35.7096363","Longtitude":"51.302716","Altitude":"0.0","time":"1-10-2014 12:13:18","Accuracy":"1412.0","Provider":"network"}}
{"Application":{"ProcessName":"com.android.launcher","Start":"1-10-2014 12:13:13","End":"1-10-2014 12:13:23"}}
{"Application":{"ProcessName":"com.android.contacts","Start":"1-10-2014 12:13:23","End":"1-10-2014 12:13:33"}}
{"Location":{"Latitude":"35.7090262","Longtitude":"51.2958193","Altitude":"0.0","time":"1-10-2014 12:13:38","Accuracy":"3005.0","Provider":"network"}}
{"Application":{"ProcessName":"com.android.launcher","Start":"1-10-2014 12:13:33","End":"1-10-2014 12:13:43"}}
{"Location":{"Latitude":"35.7103828","Longtitude":"51.3001108","Altitude":"0.0","time":"1-10-2014 12:14:02","Accuracy":"3005.0","Provider":"network"}}
{"Application":{"ProcessName":"com.viber.voip","Start":"1-10-2014 12:13:43","End":"1-10-2014 12:14:03"}}
{"Call": {"Number":"+98912127####","Duration":"110","Time":"1-10-2014 12:08:26","Type":"1"}}
{"Call": {"Number":"+98912127####","Duration":"110","Time":"1-10-2014 12:08:26","Type":"1"}}
{"Call": {"Number":"+98912127####","Duration":"110","Time":"1-10-2014 12:08:26","Type":"1"}}
{"Location":{"Latitude":"35.7124367","Longtitude":"51.309729","Altitude":"0.0","time":"1-10-2014 12:14:22","Accuracy":"3005.0","Provider":"network"}}
{"Application":{"ProcessName":"com.android.contacts","Start":"1-10-2014 12:14:03","End":"1-10-2014 12:14:33"}}
{"Application":{"ProcessName":"com.android.launcher","Start":"1-10-2014 12:14:33","End":"1-10-2014 12:14:43"}}
{"Application":{"ProcessName":"com.android.contacts","Start":"1-10-2014 12:14:43","End":"1-10-2014 12:14:53"}}
{"Location":{"Latitude":"35.7113198","Longtitude":"51.3100634","Altitude":"0.0","time":"1-10-2014 12:15:02","Accuracy":"1412.0","Provider":"network"}}
{"Application":{"ProcessName":"com.uucun4470.android.cms","Start":"1-10-2014 12:12:03","End":"1-10-2014 12:15:14"}}
{"Application":{"ProcessName":"com.mediatek.thermalmanager","Start":"1-10-2014 12:12:03","End":"1-10-2014 12:15:14"}}
{"Application":{"ProcessName":"agold.weatherwidget","Start":"1-10-2014 12:12:03","End":"1-10-2014 12:15:14"}}
{"Application":{"ProcessName":"com.android.launcher","Start":"1-10-2014 12:15:04","End":"1-10-2014 12:15:14"}}
{"Application":{"ProcessName":"com.mediatek.bluetooth","Start":"1-10-2014 12:12:03","End":"1-10-2014 12:15:14"}}
{"Application":{"ProcessName":"com.mediatek.voicecommand","Start":"1-10-2014 12:12:03","End":"1-10-2014 12:15:14"}}
{"SMS":{"Address":"+98912424####","type":"1","date":"1-10-2014 12:15:16","body":"ANONYMIZED","Type":"1", "metadata": {"name": "Elham Talebian"}}}
{"Location":{"Latitude":"35.7086066","Longtitude":"51.3014804","Altitude":"0.0","time":"1-10-2014 12:15:22","Accuracy":"1412.0","Provider":"network"}}
{"Location":{"Latitude":"35.7070104","Longtitude":"51.292563","Altitude":"0.0","time":"1-10-2014 12:15:39","Accuracy":"3839.0","Provider":"network"}}
{"Application":{"ProcessName":"com.uucun4470.android.cms","Start":"1-10-2014 12:15:24","End":"1-10-2014 12:15:44"}}
{"Application":{"ProcessName":"com.mediatek.thermalmanager","Start":"1-10-2014 12:15:24","End":"1-10-2014 12:15:44"}}
{"Application":{"ProcessName":"com.viber.voip","Start":"1-10-2014 12:15:24","End":"1-10-2014 12:15:44"}}
{"Application":{"ProcessName":"agold.weatherwidget","Start":"1-10-2014 12:15:24","End":"1-10-2014 12:15:44"}}
{"Application":{"ProcessName":"com.mediatek.bluetooth","Start":"1-10-2014 12:15:24","End":"1-10-2014 12:15:44"}}
{"Application":{"ProcessName":"com.mediatek.voicecommand","Start":"1-10-2014 12:15:24","End":"1-10-2014 12:15:44"}}
{"Location":{"Latitude":"35.7090406","Longtitude":"51.3041612","Altitude":"0.0","time":"1-10-2014 12:16:59","Accuracy":"1412.0","Provider":"network"}}
{"SMS":{"Address":"0912424####","type":"2","date":"1-10-2014 12:16:57","body":"ANONYMIZED","Type":"2", "metadata": {"name": "Elham Talebian"}}}
{"Application":{"ProcessName":"com.uucun4470.android.cms","Start":"1-10-2014 12:15:54","End":"1-10-2014 12:17:14"}}
{"Application":{"ProcessName":"com.android.mms","Start":"1-10-2014 12:15:54","End":"1-10-2014 12:17:14"}}
{"Application":{"ProcessName":"com.mediatek.thermalmanager","Start":"1-10-2014 12:15:54","End":"1-10-2014 12:17:14"}}
{"Application":{"ProcessName":"agold.weatherwidget","Start":"1-10-2014 12:15:54","End":"1-10-2014 12:17:14"}}
{"Application":{"ProcessName":"com.mediatek.bluetooth","Start":"1-10-2014 12:15:54","End":"1-10-2014 12:17:14"}}
{"Application":{"ProcessName":"com.mediatek.voicecommand","Start":"1-10-2014 12:15:54","End":"1-10-2014 12:17:14"}}
{"Location":{"Latitude":"35.7100557","Longtitude":"51.3099603","Altitude":"0.0","time":"1-10-2014 12:17:19","Accuracy":"1412.0","Provider":"network"}}
{"Location":{"Latitude":"35.7102029","Longtitude":"51.3103977","Altitude":"0.0","time":"1-10-2014 12:17:39","Accuracy":"1412.0","Provider":"network"}}
{"Location":{"Latitude":"35.7086066","Longtitude":"51.3014804","Altitude":"0.0","time":"1-10-2014 12:18:39","Accuracy":"1412.0","Provider":"network"}}
{"Application":{"ProcessName":"com.viber.voip","Start":"1-10-2014 12:18:34","End":"1-10-2014 12:18:44"}}
{"Application":{"ProcessName":"com.android.mms","Start":"1-10-2014 12:18:44","End":"1-10-2014 12:18:54"}}
{"Location":{"Latitude":"35.7070104","Longtitude":"51.292563","Altitude":"0.0","time":"1-10-2014 12:18:59","Accuracy":"3839.0","Provider":"network"}}
{"Application":{"ProcessName":"com.viber.voip","Start":"1-10-2014 12:18:54","End":"1-10-2014 12:19:04"}}
{"Application":{"ProcessName":"com.android.mms","Start":"1-10-2014 12:19:04","End":"1-10-2014 12:19:04"}}
{"Application":{"ProcessName":"com.viber.voip","Start":"1-10-2014 12:19:04","End":"1-10-2014 12:19:24"}}
{"Application":{"ProcessName":"com.uucun4470.android.cms","Start":"1-10-2014 12:18:34","End":"1-10-2014 12:19:34"}}
{"Application":{"ProcessName":"com.android.mms","Start":"1-10-2014 12:19:24","End":"1-10-2014 12:19:34"}}
{"Application":{"ProcessName":"com.mediatek.thermalmanager","Start":"1-10-2014 12:18:34","End":"1-10-2014 12:19:34"}}
{"Application":{"ProcessName":"agold.weatherwidget","Start":"1-10-2014 12:18:34","End":"1-10-2014 12:19:34"}}
{"Application":{"ProcessName":"com.mediatek.bluetooth","Start":"1-10-2014 12:18:34","End":"1-10-2014 12:19:34"}}
{"Application":{"ProcessName":"com.mediatek.voicecommand","Start":"1-10-2014 12:18:34","End":"1-10-2014 12:19:34"}}
{"Location":{"Latitude":"35.7086066","Longtitude":"51.3014804","Altitude":"0.0","time":"1-10-2014 12:20:19","Accuracy":"1412.0","Provider":"network"}}
{"Application":{"ProcessName":"com.viber.voip","Start":"1-10-2014 12:20:14","End":"1-10-2014 12:20:24"}}
{"Application":{"ProcessName":"com.uucun4470.android.cms","Start":"1-10-2014 12:20:14","End":"1-10-2014 12:20:34"}}
{"Application":{"ProcessName":"com.android.mms","Start":"1-10-2014 12:20:24","End":"1-10-2014 12:20:34"}}
{"Application":{"ProcessName":"com.mediatek.thermalmanager","Start":"1-10-2014 12:20:14","End":"1-10-2014 12:20:34"}}
{"Application":{"ProcessName":"agold.weatherwidget","Start":"1-10-2014 12:20:14","End":"1-10-2014 12:20:34"}}
{"Application":{"ProcessName":"com.mediatek.bluetooth","Start":"1-10-2014 12:20:14","End":"1-10-2014 12:20:34"}}
{"Application":{"ProcessName":"com.mediatek.voicecommand","Start":"1-10-2014 12:20:14","End":"1-10-2014 12:20:34"}}
{"Location":{"Latitude":"35.7070104","Longtitude":"51.292563","Altitude":"0.0","time":"1-10-2014 12:20:59","Accuracy":"3839.0","Provider":"network"}}
{"SMS":{"Address":"+98912417####","type":"1","date":"1-10-2014 12:27:16","body":"ANONYMIZED","Type":"1", "metadata": {"name": "Mahsa akbari"}}}
{"Location":{"Latitude":"35.7062066","Longtitude":"51.2909274","Altitude":"0.0","time":"1-10-2014 12:28:40","Accuracy":"2802.0","Provider":"network"}}
{"Location":{"Latitude":"35.7054028","Longtitude":"51.2892918","Altitude":"0.0","time":"1-10-2014 12:28:56","Accuracy":"2802.0","Provider":"network"}}
{"Application":{"ProcessName":"com.android.mms","Start":"1-10-2014 12:28:34","End":"1-10-2014 12:29:04"}}
{"Location":{"Latitude":"35.7076556","Longtitude":"51.2994073","Altitude":"0.0","time":"1-10-2014 12:29:16","Accuracy":"1604.0","Provider":"network"}}
{"Application":{"ProcessName":"com.viber.voip","Start":"1-10-2014 12:29:04","End":"1-10-2014 12:29:24"}}
{"Location":{"Latitude":"35.7099085","Longtitude":"51.3095229","Altitude":"0.0","time":"1-10-2014 12:29:36","Accuracy":"1604.0","Provider":"network"}}
{"Application":{"ProcessName":"com.android.mms","Start":"1-10-2014 12:29:24","End":"1-10-2014 12:29:54"}}
{"Application":{"ProcessName":"com.android.launcher","Start":"1-10-2014 12:29:54","End":"1-10-2014 12:30:35"}}
{"Application":{"ProcessName":"com.android.mms","Start":"1-10-2014 12:30:35","End":"1-10-2014 12:30:45"}}
{"Call": {"Number":"0912417####","Duration":"0","Time":"1-10-2014 12:31:00","Type":"2"}}
{"Call": {"Number":"0912417####","Duration":"0","Time":"1-10-2014 12:31:00","Type":"2"}}
{"Call": {"Number":"0912417####","Duration":"0","Time":"1-10-2014 12:31:00","Type":"2"}}
{"Location":{"Latitude":"35.7090406","Longtitude":"51.3041612","Altitude":"0.0","time":"1-10-2014 12:31:17","Accuracy":"1412.0","Provider":"network"}}
{"Application":{"ProcessName":"com.android.contacts","Start":"1-10-2014 12:30:45","End":"1-10-2014 12:31:35"}}
{"Location":{"Latitude":"35.7070104","Longtitude":"51.292563","Altitude":"0.0","time":"1-10-2014 12:31:37","Accuracy":"3839.0","Provider":"network"}}
{"Application":{"ProcessName":"com.uucun4470.android.cms","Start":"1-10-2014 12:28:34","End":"1-10-2014 12:31:45"}}
{"Application":{"ProcessName":"com.viber.voip","Start":"1-10-2014 12:31:35","End":"1-10-2014 12:31:45"}}
{"Application":{"ProcessName":"com.mediatek.thermalmanager","Start":"1-10-2014 12:28:34","End":"1-10-2014 12:31:45"}}
{"Application":{"ProcessName":"agold.weatherwidget","Start":"1-10-2014 12:28:34","End":"1-10-2014 12:31:45"}}
{"Application":{"ProcessName":"com.mediatek.bluetooth","Start":"1-10-2014 12:28:34","End":"1-10-2014 12:31:45"}}
{"Application":{"ProcessName":"com.mediatek.voicecommand","Start":"1-10-2014 12:28:34","End":"1-10-2014 12:31:45"}}
{"Application":{"ProcessName":"com.uucun4470.android.cms","Start":"1-10-2014 12:32:35","End":"1-10-2014 12:33:15"}}
{"Application":{"ProcessName":"com.mediatek.thermalmanager","Start":"1-10-2014 12:32:35","End":"1-10-2014 12:33:15"}}
{"Application":{"ProcessName":"agold.weatherwidget","Start":"1-10-2014 12:32:35","End":"1-10-2014 12:33:15"}}
{"Application":{"ProcessName":"com.android.contacts","Start":"1-10-2014 12:32:35","End":"1-10-2014 12:33:15"}}
{"Application":{"ProcessName":"com.mediatek.bluetooth","Start":"1-10-2014 12:32:35","End":"1-10-2014 12:33:15"}}
{"Application":{"ProcessName":"com.mediatek.voicecommand","Start":"1-10-2014 12:32:35","End":"1-10-2014 12:33:15"}}
{"Location":{"Latitude":"35.7062066","Longtitude":"51.2909274","Altitude":"0.0","time":"1-10-2014 12:33:20","Accuracy":"2802.0","Provider":"network"}}
{"Location":{"Latitude":"35.7054028","Longtitude":"51.2892918","Altitude":"0.0","time":"1-10-2014 12:33:40","Accuracy":"2802.0","Provider":"network"}}
{"Location":{"Latitude":"35.7076556","Longtitude":"51.2994073","Altitude":"0.0","time":"1-10-2014 12:38:15","Accuracy":"1604.0","Provider":"network"}}
{"Application":{"ProcessName":"com.viber.voip","Start":"1-10-2014 12:37:55","End":"1-10-2014 12:38:15"}}
{"Application":{"ProcessName":"com.uucun4470.android.cms","Start":"1-10-2014 12:37:55","End":"1-10-2014 12:38:35"}}
{"Application":{"ProcessName":"com.mediatek.thermalmanager","Start":"1-10-2014 12:37:55","End":"1-10-2014 12:38:35"}}
{"Application":{"ProcessName":"agold.weatherwidget","Start":"1-10-2014 12:37:55","End":"1-10-2014 12:38:35"}}
{"Application":{"ProcessName":"com.android.launcher","Start":"1-10-2014 12:38:15","End":"1-10-2014 12:38:35"}}
{"Application":{"ProcessName":"com.mediatek.bluetooth","Start":"1-10-2014 12:37:55","End":"1-10-2014 12:38:35"}}
{"Application":{"ProcessName":"com.mediatek.voicecommand","Start":"1-10-2014 12:37:55","End":"1-10-2014 12:38:35"}}
{"Location":{"Latitude":"35.7099085","Longtitude":"51.3095229","Altitude":"0.0","time":"1-10-2014 12:38:55","Accuracy":"1604.0","Provider":"network"}}
{"Call": {"Number":"+98912417####","Duration":"76","Time":"1-10-2014 12:41:09","Type":"1"}}
{"Call": {"Number":"+98912417####","Duration":"76","Time":"1-10-2014 12:41:09","Type":"1"}}
{"Location":{"Latitude":"35.7084594","Longtitude":"51.3010429","Altitude":"0.0","time":"1-10-2014 12:42:35","Accuracy":"1604.0","Provider":"network"}}
{"Application":{"ProcessName":"com.uucun4470.android.cms","Start":"1-10-2014 12:41:15","End":"1-10-2014 12:42:45"}}
{"Application":{"ProcessName":"com.mediatek.thermalmanager","Start":"1-10-2014 12:41:15","End":"1-10-2014 12:42:45"}}
{"Application":{"ProcessName":"com.google.android.apps.maps:LocationFriendService","Start":"1-10-2014 12:42:35","End":"1-10-2014 12:42:45"}}
{"Application":{"ProcessName":"agold.weatherwidget","Start":"1-10-2014 12:41:15","End":"1-10-2014 12:42:45"}}
{"Application":{"ProcessName":"com.android.launcher","Start":"1-10-2014 12:42:35","End":"1-10-2014 12:42:45"}}
{"Application":{"ProcessName":"com.mediatek.bluetooth","Start":"1-10-2014 12:41:15","End":"1-10-2014 12:42:45"}}
{"Application":{"ProcessName":"com.mediatek.voicecommand","Start":"1-10-2014 12:41:15","End":"1-10-2014 12:42:45"}}
{"Location":{"Latitude":"35.7099085","Longtitude":"51.3095229","Altitude":"0.0","time":"1-10-2014 13:09:22","Accuracy":"1604.0","Provider":"network"}}
{"Application":{"ProcessName":"com.mediatek.omacp","Start":"1-10-2014 13:09:21","End":"1-10-2014 13:09:31"}}
{"SMS":{"Address":"+98912417####","type":"1","date":"1-10-2014 12:27:16","body":"ANONYMIZED","Type":"1", "metadata": {"name": "Mahsa akbari"}}}
{"Application":{"ProcessName":"com.google.process.location","Start":"1-10-2014 13:11:22","End":"1-10-2014 13:11:22"}}
{"SMS":{"Address":"+98912424####","type":"1","date":"1-10-2014 12:15:16","body":"ANONYMIZED","Type":"1", "metadata": {"name": "Elham Talebian"}}}
{"Location":{"Latitude":"35.7084065","Longtitude":"51.3027791","Altitude":"0.0","time":"1-10-2014 13:12:02","Accuracy":"1604.0","Provider":"network"}}
{"Location":{"Latitude":"35.7099085","Longtitude":"51.3095229","Altitude":"0.0","time":"1-10-2014 13:12:22","Accuracy":"1604.0","Provider":"network"}}
{"Application":{"ProcessName":"com.uucun4470.android.cms","Start":"1-10-2014 13:09:21","End":"1-10-2014 13:14:22"}}
{"Application":{"ProcessName":"com.mediatek.thermalmanager","Start":"1-10-2014 13:09:21","End":"1-10-2014 13:14:22"}}
{"Application":{"ProcessName":"agold.weatherwidget","Start":"1-10-2014 13:09:21","End":"1-10-2014 13:14:22"}}
{"Application":{"ProcessName":"com.mediatek.bluetooth","Start":"1-10-2014 13:09:21","End":"1-10-2014 13:14:22"}}
{"Application":{"ProcessName":"com.mediatek.voicecommand","Start":"1-10-2014 13:09:21","End":"1-10-2014 13:14:22"}}
{"Application":{"ProcessName":"com.android.mms","Start":"1-10-2014 13:09:31","End":"1-10-2014 13:14:32"}}
{"Location":{"Latitude":"35.7100557","Longtitude":"51.3099603","Altitude":"0.0","time":"1-10-2014 13:15:42","Accuracy":"1412.0","Provider":"network"}}
{"Location":{"Latitude":"35.7102029","Longtitude":"51.3103977","Altitude":"0.0","time":"1-10-2014 13:16:02","Accuracy":"1412.0","Provider":"network"}}
{"Application":{"ProcessName":"com.android.mms","Start":"1-10-2014 13:14:32","End":"1-10-2014 13:16:12"}}
{"Application":{"ProcessName":"com.android.providers.calendar","Start":"1-10-2014 13:18:02","End":"1-10-2014 13:18:02"}}
{"Application":{"ProcessName":"com.uucun4470.android.cms","Start":"1-10-2014 13:14:22","End":"1-10-2014 13:19:23"}}
{"Application":{"ProcessName":"com.mediatek.thermalmanager","Start":"1-10-2014 13:14:22","End":"1-10-2014 13:19:23"}}
{"Application":{"ProcessName":"agold.weatherwidget","Start":"1-10-2014 13:14:22","End":"1-10-2014 13:19:23"}}
{"Application":{"ProcessName":"com.mediatek.bluetooth","Start":"1-10-2014 13:14:22","End":"1-10-2014 13:19:23"}}
{"Application":{"ProcessName":"com.mediatek.voicecommand","Start":"1-10-2014 13:14:22","End":"1-10-2014 13:19:23"}}
{"Bluetooth":{"name":"MILAD-PC","address":"CC:52:AF:02:5D:F3","bond status":"none","time":"Friday, January 10, 2014 1:19:00 PM Iran Standard Time"}}
{"Bluetooth":{"name":"MILAD-PC","address":"CC:52:AF:02:5D:F3","bond status":"none","time":"Friday, January 10, 2014 1:19:00 PM Iran Standard Time"}}
{"Bluetooth":{"name":"MILAD-PC","address":"CC:52:AF:02:5D:F3","bond status":"none","time":"Friday, January 10, 2014 1:19:00 PM Iran Standard Time"}}
{"Application":{"ProcessName":"com.cloudmosa.puffin","Start":"1-10-2014 13:16:12","End":"1-10-2014 13:19:53"}}
{"Application":{"ProcessName":"com.uucun4470.android.cms","Start":"1-10-2014 13:19:23","End":"1-10-2014 13:20:03"}}
{"Application":{"ProcessName":"com.mediatek.thermalmanager","Start":"1-10-2014 13:19:23","End":"1-10-2014 13:20:03"}}
{"Application":{"ProcessName":"agold.weatherwidget","Start":"1-10-2014 13:19:23","End":"1-10-2014 13:20:03"}}
{"Application":{"ProcessName":"com.android.launcher","Start":"1-10-2014 13:19:53","End":"1-10-2014 13:20:03"}}
{"Application":{"ProcessName":"com.mediatek.bluetooth","Start":"1-10-2014 13:19:23","End":"1-10-2014 13:20:03"}}
{"Application":{"ProcessName":"com.mediatek.voicecommand","Start":"1-10-2014 13:19:23","End":"1-10-2014 13:20:03"}}
{"Bluetooth":{"name":"MILAD-PC","address":"CC:52:AF:02:5D:F3","bond status":"none","time":"Friday, January 10, 2014 1:29:00 PM Iran Standard Time"}}
{"Bluetooth":{"name":"MILAD-PC","address":"CC:52:AF:02:5D:F3","bond status":"none","time":"Friday, January 10, 2014 1:29:00 PM Iran Standard Time"}}
{"Bluetooth":{"name":"MILAD-PC","address":"CC:52:AF:02:5D:F3","bond status":"none","time":"Friday, January 10, 2014 1:29:00 PM Iran Standard Time"}}
{"Bluetooth":{"name":"MILAD-PC","address":"CC:52:AF:02:5D:F3","bond status":"none","time":"Friday, January 10, 2014 1:29:00 PM Iran Standard Time"}}
{"Bluetooth":{"name":"MILAD-PC","address":"CC:52:AF:02:5D:F3","bond status":"none","time":"Friday, January 10, 2014 1:29:00 PM Iran Standard Time"}}
{"Bluetooth":{"name":"MILAD-PC","address":"CC:52:AF:02:5D:F3","bond status":"none","time":"Friday, January 10, 2014 1:29:00 PM Iran Standard Time"}}
{"SMS":{"Address":"+98912315####","type":"1","date":"1-10-2014 13:32:05","body":"ANONYMIZED","Type":"1", "metadata": {"name": "Ali ansarian"}}}
{"SMS":{"Address":"+98912315####","type":"1","date":"1-10-2014 13:32:18","body":"ANONYMIZED","Type":"1", "metadata": {"name": "Ali ansarian"}}}
{"Application":{"ProcessName":"com.viber.voip","Start":"1-10-2014 13:32:13","End":"1-10-2014 13:32:33"}}
{"Application":{"ProcessName":"com.uucun4470.android.cms","Start":"1-10-2014 13:32:13","End":"1-10-2014 13:32:43"}}
{"Application":{"ProcessName":"com.android.mms","Start":"1-10-2014 13:32:33","End":"1-10-2014 13:32:43"}}
{"Application":{"ProcessName":"com.mediatek.thermalmanager","Start":"1-10-2014 13:32:13","End":"1-10-2014 13:32:43"}}
{"Application":{"ProcessName":"agold.weatherwidget","Start":"1-10-2014 13:32:13","End":"1-10-2014 13:32:43"}}
{"Application":{"ProcessName":"com.mediatek.bluetooth","Start":"1-10-2014 13:32:13","End":"1-10-2014 13:32:43"}}
{"Application":{"ProcessName":"com.mediatek.voicecommand","Start":"1-10-2014 13:32:13","End":"1-10-2014 13:32:43"}}
{"Location":{"Latitude":"35.7102029","Longtitude":"51.3103977","Altitude":"0.0","time":"1-10-2014 13:39:27","Accuracy":"1412.0","Provider":"network"}}
{"Bluetooth":{"name":"MILAD-PC","address":"CC:52:AF:02:5D:F3","bond status":"none","time":"Friday, January 10, 2014 1:49:00 PM Iran Standard Time"}}
{"Bluetooth":{"name":"MILAD-PC","address":"CC:52:AF:02:5D:F3","bond status":"none","time":"Friday, January 10, 2014 1:49:00 PM Iran Standard Time"}}
{"Bluetooth":{"name":"MILAD-PC","address":"CC:52:AF:02:5D:F3","bond status":"none","time":"Friday, January 10, 2014 1:49:00 PM Iran Standard Time"}}
{"SMS":{"Address":"+98912315####","type":"1","date":"1-10-2014 13:32:18","body":"ANONYMIZED","Type":"1", "metadata": {"name": "Ali ansarian"}}}
{"Location":{"Latitude":"35.7100557","Longtitude":"51.3099603","Altitude":"0.0","time":"1-10-2014 13:51:45","Accuracy":"1412.0","Provider":"network"}}
{"Application":{"ProcessName":"com.android.mms","Start":"1-10-2014 13:51:37","End":"1-10-2014 13:51:47"}}
{"Application":{"ProcessName":"com.viber.voip","Start":"1-10-2014 13:51:47","End":"1-10-2014 13:51:57"}}
{"Location":{"Latitude":"35.7099085","Longtitude":"51.3095229","Altitude":"0.0","time":"1-10-2014 13:52:02","Accuracy":"1604.0","Provider":"network"}}
{"Application":{"ProcessName":"com.android.mms","Start":"1-10-2014 13:51:57","End":"1-10-2014 13:52:07"}}
{"Application":{"ProcessName":"com.uucun4470.android.cms","Start":"1-10-2014 13:51:37","End":"1-10-2014 13:52:17"}}
{"Application":{"ProcessName":"com.mediatek.thermalmanager","Start":"1-10-2014 13:51:37","End":"1-10-2014 13:52:17"}}
{"Application":{"ProcessName":"agold.weatherwidget","Start":"1-10-2014 13:51:37","End":"1-10-2014 13:52:17"}}
{"Application":{"ProcessName":"com.android.launcher","Start":"1-10-2014 13:52:07","End":"1-10-2014 13:52:17"}}
{"Application":{"ProcessName":"com.mediatek.bluetooth","Start":"1-10-2014 13:51:37","End":"1-10-2014 13:52:17"}}
{"Application":{"ProcessName":"com.mediatek.voicecommand","Start":"1-10-2014 13:51:37","End":"1-10-2014 13:52:17"}}
{"Location":{"Latitude":"35.7114966","Longtitude":"51.3043666","Altitude":"0.0","time":"1-10-2014 13:52:23","Accuracy":"1604.0","Provider":"network"}}
{"Location":{"Latitude":"35.7070104","Longtitude":"51.292563","Altitude":"0.0","time":"1-10-2014 13:52:43","Accuracy":"3839.0","Provider":"network"}}
{"Bluetooth":{"name":"MILAD-PC","address":"CC:52:AF:02:5D:F3","bond status":"none","time":"Friday, January 10, 2014 1:59:00 PM Iran Standard Time"}}
{"Bluetooth":{"name":"MILAD-PC","address":"CC:52:AF:02:5D:F3","bond status":"none","time":"Friday, January 10, 2014 1:59:00 PM Iran Standard Time"}}
{"Bluetooth":{"name":"MILAD-PC","address":"CC:52:AF:02:5D:F3","bond status":"none","time":"Friday, January 10, 2014 1:59:00 PM Iran Standard Time"}}
{"Bluetooth":{"name":"MILAD-PC","address":"CC:52:AF:02:5D:F3","bond status":"none","time":"Friday, January 10, 2014 1:59:00 PM Iran Standard Time"}}
{"Bluetooth":{"name":"MILAD-PC","address":"CC:52:AF:02:5D:F3","bond status":"none","time":"Friday, January 10, 2014 1:59:00 PM Iran Standard Time"}}
{"Bluetooth":{"name":"MILAD-PC","address":"CC:52:AF:02:5D:F3","bond status":"none","time":"Friday, January 10, 2014 1:59:00 PM Iran Standard Time"}}
{"Location":{"Latitude":"35.7070104","Longtitude":"51.292563","Altitude":"0.0","time":"1-10-2014 16:10:18","Accuracy":"3839.0","Provider":"network"}}
{"Bluetooth":{"name":"NO_DEVICENAME","address":"00:1D:6E:C4:8F:C9","bond status":"none","time":"Friday, January 10, 2014 4:30:00 PM Iran Standard Time"}}
{"Bluetooth":{"name":"NO_DEVICENAME","address":"00:1D:6E:C4:8F:C9","bond status":"none","time":"Friday, January 10, 2014 4:30:00 PM Iran Standard Time"}}
{"Bluetooth":{"name":"NO_DEVICENAME","address":"00:1D:6E:C4:8F:C9","bond status":"none","time":"Friday, January 10, 2014 4:30:00 PM Iran Standard Time"}}
{"Bluetooth":{"name":"NO_DEVICENAME","address":"00:1D:6E:C4:8F:C9","bond status":"none","time":"Friday, January 10, 2014 4:30:00 PM Iran Standard Time"}}
{"Bluetooth":{"name":"NO_DEVICENAME","address":"00:1D:6E:C4:8F:C9","bond status":"none","time":"Friday, January 10, 2014 4:30:00 PM Iran Standard Time"}}
{"Bluetooth":{"name":"NO_DEVICENAME","address":"00:1D:6E:C4:8F:C9","bond status":"none","time":"Friday, January 10, 2014 4:30:00 PM Iran Standard Time"}}
{"Bluetooth":{"name":"NO_DEVICENAME","address":"00:18:8D:43:28:D3","bond status":"none","time":"Friday, January 10, 2014 4:30:00 PM Iran Standard Time"}}
{"Bluetooth":{"name":"NO_DEVICENAME","address":"00:18:8D:43:28:D3","bond status":"none","time":"Friday, January 10, 2014 4:30:00 PM Iran Standard Time"}}
{"Bluetooth":{"name":"NO_DEVICENAME","address":"00:18:8D:43:28:D3","bond status":"none","time":"Friday, January 10, 2014 4:30:00 PM Iran Standard Time"}}
{"Bluetooth":{"name":"NO_DEVICENAME","address":"00:18:8D:43:28:D3","bond status":"none","time":"Friday, January 10, 2014 4:30:00 PM Iran Standard Time"}}
{"Bluetooth":{"name":"NO_DEVICENAME","address":"00:18:8D:43:28:D3","bond status":"none","time":"Friday, January 10, 2014 4:30:00 PM Iran Standard Time"}}
{"Bluetooth":{"name":"NO_DEVICENAME","address":"00:18:8D:43:28:D3","bond status":"none","time":"Friday, January 10, 2014 4:30:00 PM Iran Standard Time"}}
{"Bluetooth":{"name":"NO_DEVICENAME","address":"00:10:3E:E8:62:62","bond status":"none","time":"Friday, January 10, 2014 4:30:00 PM Iran Standard Time"}}
{"Bluetooth":{"name":"NO_DEVICENAME","address":"00:10:3E:E8:62:62","bond status":"none","time":"Friday, January 10, 2014 4:30:00 PM Iran Standard Time"}}
{"Bluetooth":{"name":"NO_DEVICENAME","address":"00:10:3E:E8:62:62","bond status":"none","time":"Friday, January 10, 2014 4:30:00 PM Iran Standard Time"}}
{"Bluetooth":{"name":"NO_DEVICENAME","address":"00:10:3E:E8:62:62","bond status":"none","time":"Friday, January 10, 2014 4:30:00 PM Iran Standard Time"}}
{"Bluetooth":{"name":"NO_DEVICENAME","address":"00:10:3E:E8:62:62","bond status":"none","time":"Friday, January 10, 2014 4:30:00 PM Iran Standard Time"}}
{"Bluetooth":{"name":"NO_DEVICENAME","address":"00:10:3E:E8:62:62","bond status":"none","time":"Friday, January 10, 2014 4:30:00 PM Iran Standard Time"}}
{"Bluetooth":{"name":"Nokia Asha 501","address":"88:44:F6:98:E1:7F","bond status":"none","time":"Friday, January 10, 2014 4:30:00 PM Iran Standard Time"}}
{"Bluetooth":{"name":"Nokia Asha 501","address":"88:44:F6:98:E1:7F","bond status":"none","time":"Friday, January 10, 2014 4:30:00 PM Iran Standard Time"}}
{"Bluetooth":{"name":"Nokia Asha 501","address":"88:44:F6:98:E1:7F","bond status":"none","time":"Friday, January 10, 2014 4:30:00 PM Iran Standard Time"}}
{"Bluetooth":{"name":"Nokia Asha 501","address":"88:44:F6:98:E1:7F","bond status":"none","time":"Friday, January 10, 2014 4:30:00 PM Iran Standard Time"}}
{"Bluetooth":{"name":"Nokia Asha 501","address":"88:44:F6:98:E1:7F","bond status":"none","time":"Friday, January 10, 2014 4:30:00 PM Iran Standard Time"}}
{"Bluetooth":{"name":"Nokia Asha 501","address":"88:44:F6:98:E1:7F","bond status":"none","time":"Friday, January 10, 2014 4:30:00 PM Iran Standard Time"}}
{"Bluetooth":{"name":"NO_DEVICENAME","address":"00:16:DB:A4:6D:A3","bond status":"none","time":"Friday, January 10, 2014 4:30:00 PM Iran Standard Time"}}
{"Bluetooth":{"name":"NO_DEVICENAME","address":"00:16:DB:A4:6D:A3","bond status":"none","time":"Friday, January 10, 2014 4:30:00 PM Iran Standard Time"}}
{"Bluetooth":{"name":"NO_DEVICENAME","address":"00:16:DB:A4:6D:A3","bond status":"none","time":"Friday, January 10, 2014 4:30:00 PM Iran Standard Time"}}
{"Bluetooth":{"name":"NO_DEVICENAME","address":"00:16:DB:A4:6D:A3","bond status":"none","time":"Friday, January 10, 2014 4:30:00 PM Iran Standard Time"}}
{"Bluetooth":{"name":"NO_DEVICENAME","address":"00:16:DB:A4:6D:A3","bond status":"none","time":"Friday, January 10, 2014 4:30:00 PM Iran Standard Time"}}
{"Bluetooth":{"name":"NO_DEVICENAME","address":"00:16:DB:A4:6D:A3","bond status":"none","time":"Friday, January 10, 2014 4:30:00 PM Iran Standard Time"}}
{"Bluetooth":{"name":"NO_DEVICENAME","address":"02:2B:58:69:F3:84","bond status":"none","time":"Friday, January 10, 2014 4:30:00 PM Iran Standard Time"}}
{"Bluetooth":{"name":"NO_DEVICENAME","address":"02:2B:58:69:F3:84","bond status":"none","time":"Friday, January 10, 2014 4:30:00 PM Iran Standard Time"}}
{"Bluetooth":{"name":"NO_DEVICENAME","address":"02:2B:58:69:F3:84","bond status":"none","time":"Friday, January 10, 2014 4:30:00 PM Iran Standard Time"}}
{"Bluetooth":{"name":"NO_DEVICENAME","address":"02:2B:58:69:F3:84","bond status":"none","time":"Friday, January 10, 2014 4:30:00 PM Iran Standard Time"}}
{"Bluetooth":{"name":"NO_DEVICENAME","address":"02:2B:58:69:F3:84","bond status":"none","time":"Friday, January 10, 2014 4:30:00 PM Iran Standard Time"}}
{"Bluetooth":{"name":"NO_DEVICENAME","address":"02:2B:58:69:F3:84","bond status":"none","time":"Friday, January 10, 2014 4:30:00 PM Iran Standard Time"}}
{"Bluetooth":{"name":"NO_DEVICENAME","address":"BC:F7:51:42:BD:E0","bond status":"none","time":"Friday, January 10, 2014 4:40:00 PM Iran Standard Time"}}
{"Bluetooth":{"name":"NO_DEVICENAME","address":"BC:F7:51:42:BD:E0","bond status":"none","time":"Friday, January 10, 2014 4:40:00 PM Iran Standard Time"}}
{"Bluetooth":{"name":"NO_DEVICENAME","address":"BC:F7:51:42:BD:E0","bond status":"none","time":"Friday, January 10, 2014 4:40:00 PM Iran Standard Time"}}
{"Bluetooth":{"name":"NO_DEVICENAME","address":"BC:F7:51:42:BD:E0","bond status":"none","time":"Friday, January 10, 2014 4:40:00 PM Iran Standard Time"}}
{"Bluetooth":{"name":"NO_DEVICENAME","address":"BC:F7:51:42:BD:E0","bond status":"none","time":"Friday, January 10, 2014 4:40:00 PM Iran Standard Time"}}
{"Bluetooth":{"name":"NO_DEVICENAME","address":"BC:F7:51:42:BD:E0","bond status":"none","time":"Friday, January 10, 2014 4:40:00 PM Iran Standard Time"}}
{"Bluetooth":{"name":"NO_DEVICENAME","address":"BC:F7:51:42:BD:E0","bond status":"none","time":"Friday, January 10, 2014 4:40:00 PM Iran Standard Time"}}
{"Bluetooth":{"name":"NO_DEVICENAME","address":"BC:F7:51:42:BD:E0","bond status":"none","time":"Friday, January 10, 2014 4:40:00 PM Iran Standard Time"}}
{"Bluetooth":{"name":"NO_DEVICENAME","address":"BC:F7:51:42:BD:E0","bond status":"none","time":"Friday, January 10, 2014 4:40:00 PM Iran Standard Time"}}
{"Bluetooth":{"name":"NO_DEVICENAME","address":"0C:C6:6A:41:B5:C5","bond status":"none","time":"Friday, January 10, 2014 5:21:00 PM Iran Standard Time"}}
{"Bluetooth":{"name":"NO_DEVICENAME","address":"0C:C6:6A:41:B5:C5","bond status":"none","time":"Friday, January 10, 2014 5:21:00 PM Iran Standard Time"}}
{"Bluetooth":{"name":"NO_DEVICENAME","address":"0C:C6:6A:41:B5:C5","bond status":"none","time":"Friday, January 10, 2014 5:21:00 PM Iran Standard Time"}}
{"Bluetooth":{"name":"Xperia Z1","address":"1C:7B:21:43:3E:1A","bond status":"none","time":"Friday, January 10, 2014 5:21:00 PM Iran Standard Time"}}
{"Bluetooth":{"name":"Xperia Z1","address":"1C:7B:21:43:3E:1A","bond status":"none","time":"Friday, January 10, 2014 5:21:00 PM Iran Standard Time"}}
{"Bluetooth":{"name":"Xperia Z1","address":"1C:7B:21:43:3E:1A","bond status":"none","time":"Friday, January 10, 2014 5:21:00 PM Iran Standard Time"}}
{"Bluetooth":{"name":"TVBluetooth","address":"C4:73:1E:6B:93:E2","bond status":"none","time":"Friday, January 10, 2014 5:31:00 PM Iran Standard Time"}}
{"Bluetooth":{"name":"TVBluetooth","address":"C4:73:1E:6B:93:E2","bond status":"none","time":"Friday, January 10, 2014 5:31:00 PM Iran Standard Time"}}
{"Bluetooth":{"name":"TVBluetooth","address":"C4:73:1E:6B:93:E2","bond status":"none","time":"Friday, January 10, 2014 5:31:00 PM Iran Standard Time"}}
{"Bluetooth":{"name":"TVBluetooth","address":"C4:73:1E:6B:93:E2","bond status":"none","time":"Friday, January 10, 2014 5:31:00 PM Iran Standard Time"}}
{"Bluetooth":{"name":"TVBluetooth","address":"C4:73:1E:6B:93:E2","bond status":"none","time":"Friday, January 10, 2014 5:31:00 PM Iran Standard Time"}}
{"Bluetooth":{"name":"TVBluetooth","address":"C4:73:1E:6B:93:E2","bond status":"none","time":"Friday, January 10, 2014 5:31:00 PM Iran Standard Time"}}
{"Bluetooth":{"name":" Mary","address":"8C:77:12:BF:75:F9","bond status":"none","time":"Friday, January 10, 2014 5:31:00 PM Iran Standard Time"}}
{"Bluetooth":{"name":" Mary","address":"8C:77:12:BF:75:F9","bond status":"none","time":"Friday, January 10, 2014 5:31:00 PM Iran Standard Time"}}
{"Bluetooth":{"name":" Mary","address":"8C:77:12:BF:75:F9","bond status":"none","time":"Friday, January 10, 2014 5:31:00 PM Iran Standard Time"}}
{"Bluetooth":{"name":" Mary","address":"8C:77:12:BF:75:F9","bond status":"none","time":"Friday, January 10, 2014 5:31:00 PM Iran Standard Time"}}
{"Bluetooth":{"name":" Mary","address":"8C:77:12:BF:75:F9","bond status":"none","time":"Friday, January 10, 2014 5:31:00 PM Iran Standard Time"}}
{"Bluetooth":{"name":" Mary","address":"8C:77:12:BF:75:F9","bond status":"none","time":"Friday, January 10, 2014 5:31:00 PM Iran Standard Time"}}
{"Bluetooth":{"name":"NO_DEVICENAME","address":"0C:DD:EF:95:BE:EE","bond status":"none","time":"Friday, January 10, 2014 5:31:00 PM Iran Standard Time"}}
{"Bluetooth":{"name":"NO_DEVICENAME","address":"0C:DD:EF:95:BE:EE","bond status":"none","time":"Friday, January 10, 2014 5:31:00 PM Iran Standard Time"}}
{"Bluetooth":{"name":"NO_DEVICENAME","address":"0C:DD:EF:95:BE:EE","bond status":"none","time":"Friday, January 10, 2014 5:31:00 PM Iran Standard Time"}}
{"Bluetooth":{"name":"NO_DEVICENAME","address":"0C:DD:EF:95:BE:EE","bond status":"none","time":"Friday, January 10, 2014 5:31:00 PM Iran Standard Time"}}
{"Bluetooth":{"name":"NO_DEVICENAME","address":"0C:DD:EF:95:BE:EE","bond status":"none","time":"Friday, January 10, 2014 5:31:00 PM Iran Standard Time"}}
{"Bluetooth":{"name":"NO_DEVICENAME","address":"0C:DD:EF:95:BE:EE","bond status":"none","time":"Friday, January 10, 2014 5:31:00 PM Iran Standard Time"}}
{"Location":{"Latitude":"35.7264567","Longtitude":"51.3592663","Altitude":"0.0","time":"1-10-2014 18:10:57","Accuracy":"2100.0","Provider":"network"}}
{"Application":{"ProcessName":"com.uucun4470.android.cms","Start":"1-10-2014 18:10:57","End":"1-10-2014 18:11:07"}}
{"Application":{"ProcessName":"com.mediatek.thermalmanager","Start":"1-10-2014 18:10:57","End":"1-10-2014 18:11:07"}}
{"Application":{"ProcessName":"com.viber.voip","Start":"1-10-2014 18:10:57","End":"1-10-2014 18:11:07"}}
{"Application":{"ProcessName":"agold.weatherwidget","Start":"1-10-2014 18:10:57","End":"1-10-2014 18:11:07"}}
{"Application":{"ProcessName":"com.mediatek.bluetooth","Start":"1-10-2014 18:10:57","End":"1-10-2014 18:11:07"}}
{"Application":{"ProcessName":"com.mediatek.voicecommand","Start":"1-10-2014 18:10:57","End":"1-10-2014 18:11:07"}}
{"Location":{"Latitude":"35.7299155","Longtitude":"51.3574781","Altitude":"0.0","time":"1-10-2014 18:11:17","Accuracy":"2262.0","Provider":"network"}}
{"Bluetooth":{"name":"DTVBluetooth","address":"D0:66:7B:25:3E:C0","bond status":"none","time":"Friday, January 10, 2014 6:21:00 PM Iran Standard Time"}}
{"Bluetooth":{"name":"DTVBluetooth","address":"D0:66:7B:25:3E:C0","bond status":"none","time":"Friday, January 10, 2014 6:21:00 PM Iran Standard Time"}}
{"Bluetooth":{"name":"DTVBluetooth","address":"D0:66:7B:25:3E:C0","bond status":"none","time":"Friday, January 10, 2014 6:21:00 PM Iran Standard Time"}}
{"Location":{"Latitude":"35.7296667","Longtitude":"51.3576086","Altitude":"0.0","time":"1-10-2014 18:28:35","Accuracy":"2256.0","Provider":"network"}}
{"Location":{"Latitude":"35.7294179","Longtitude":"51.357739","Altitude":"0.0","time":"1-10-2014 18:28:46","Accuracy":"2256.0","Provider":"network"}}
{"Application":{"ProcessName":"com.viber.voip","Start":"1-10-2014 18:28:37","End":"1-10-2014 18:30:27"}}
{"Application":{"ProcessName":"com.uucun4470.android.cms","Start":"1-10-2014 18:28:37","End":"1-10-2014 18:30:47"}}
{"Application":{"ProcessName":"com.mediatek.thermalmanager","Start":"1-10-2014 18:28:37","End":"1-10-2014 18:30:47"}}
{"Application":{"ProcessName":"agold.weatherwidget","Start":"1-10-2014 18:28:37","End":"1-10-2014 18:30:47"}}
{"Application":{"ProcessName":"com.android.launcher","Start":"1-10-2014 18:30:27","End":"1-10-2014 18:30:47"}}
{"Application":{"ProcessName":"com.mediatek.bluetooth","Start":"1-10-2014 18:28:37","End":"1-10-2014 18:30:47"}}
{"Application":{"ProcessName":"com.mediatek.voicecommand","Start":"1-10-2014 18:28:37","End":"1-10-2014 18:30:47"}}
{"Bluetooth":{"name":"DTVBluetooth","address":"D0:66:7B:25:3E:C0","bond status":"none","time":"Friday, January 10, 2014 6:31:00 PM Iran Standard Time"}}
{"Bluetooth":{"name":"DTVBluetooth","address":"D0:66:7B:25:3E:C0","bond status":"none","time":"Friday, January 10, 2014 6:31:00 PM Iran Standard Time"}}
{"Bluetooth":{"name":"DTVBluetooth","address":"D0:66:7B:25:3E:C0","bond status":"none","time":"Friday, January 10, 2014 6:31:00 PM Iran Standard Time"}}
{"Bluetooth":{"name":"DTVBluetooth","address":"D0:66:7B:25:3E:C0","bond status":"none","time":"Friday, January 10, 2014 6:31:00 PM Iran Standard Time"}}
{"Bluetooth":{"name":"DTVBluetooth","address":"D0:66:7B:25:3E:C0","bond status":"none","time":"Friday, January 10, 2014 6:31:00 PM Iran Standard Time"}}
{"Bluetooth":{"name":"DTVBluetooth","address":"D0:66:7B:25:3E:C0","bond status":"none","time":"Friday, January 10, 2014 6:31:00 PM Iran Standard Time"}}
{"Location":{"Latitude":"35.7293759","Longtitude":"51.3567125","Altitude":"0.0","time":"1-10-2014 19:41:33","Accuracy":"2175.0","Provider":"network"}}
{"Application":{"ProcessName":"com.android.launcher","Start":"1-10-2014 19:43:13","End":"1-10-2014 19:43:23"}}
{"Application":{"ProcessName":"com.whatsapp","Start":"1-10-2014 19:43:23","End":"1-10-2014 19:43:43"}}
{"Application":{"ProcessName":"com.google.android.partnersetup","Start":"1-10-2014 19:43:43","End":"1-10-2014 19:43:44"}}
{"Application":{"ProcessName":"com.google.android.apps.maps:LocationFriendService","Start":"1-10-2014 19:43:43","End":"1-10-2014 19:43:44"}}
{"Application":{"ProcessName":"com.google.android.googlequicksearchbox","Start":"1-10-2014 19:43:43","End":"1-10-2014 19:43:53"}}
{"Application":{"ProcessName":"com.android.gallery3d","Start":"1-10-2014 19:43:43","End":"1-10-2014 19:44:23"}}
{"Application":{"ProcessName":"com.uucun4470.android.cms","Start":"1-10-2014 19:43:13","End":"1-10-2014 19:44:44"}}
{"Application":{"ProcessName":"com.mediatek.thermalmanager","Start":"1-10-2014 19:43:13","End":"1-10-2014 19:44:44"}}
{"Application":{"ProcessName":"agold.weatherwidget","Start":"1-10-2014 19:43:13","End":"1-10-2014 19:44:44"}}
{"Application":{"ProcessName":"com.whatsapp","Start":"1-10-2014 19:44:23","End":"1-10-2014 19:44:44"}}
{"Application":{"ProcessName":"com.mediatek.bluetooth","Start":"1-10-2014 19:43:13","End":"1-10-2014 19:44:44"}}
{"Application":{"ProcessName":"com.mediatek.voicecommand","Start":"1-10-2014 19:43:13","End":"1-10-2014 19:44:44"}}
{"Bluetooth":{"name":"DTVBluetooth","address":"D0:66:7B:25:3E:C0","bond status":"none","time":"Friday, January 10, 2014 7:52:00 PM Iran Standard Time"}}
{"Bluetooth":{"name":"DTVBluetooth","address":"D0:66:7B:25:3E:C0","bond status":"none","time":"Friday, January 10, 2014 7:52:00 PM Iran Standard Time"}}
{"Bluetooth":{"name":"DTVBluetooth","address":"D0:66:7B:25:3E:C0","bond status":"none","time":"Friday, January 10, 2014 7:52:00 PM Iran Standard Time"}}
{"Location":{"Latitude":"35.7293969","Longtitude":"51.3572258","Altitude":"0.0","time":"1-10-2014 19:56:24","Accuracy":"2175.0","Provider":"network"}}
{"Application":{"ProcessName":"com.uucun4470.android.cms","Start":"1-10-2014 19:56:24","End":"1-10-2014 19:56:34"}}
{"Application":{"ProcessName":"com.mediatek.thermalmanager","Start":"1-10-2014 19:56:24","End":"1-10-2014 19:56:34"}}
{"Application":{"ProcessName":"agold.weatherwidget","Start":"1-10-2014 19:56:24","End":"1-10-2014 19:56:34"}}
{"Application":{"ProcessName":"com.whatsapp","Start":"1-10-2014 19:56:24","End":"1-10-2014 19:56:34"}}
{"Application":{"ProcessName":"com.mediatek.bluetooth","Start":"1-10-2014 19:56:24","End":"1-10-2014 19:56:34"}}
{"Application":{"ProcessName":"com.mediatek.voicecommand","Start":"1-10-2014 19:56:24","End":"1-10-2014 19:56:34"}}
{"Location":{"Latitude":"35.7294179","Longtitude":"51.357739","Altitude":"0.0","time":"1-10-2014 20:11:55","Accuracy":"2256.0","Provider":"network"}}
{"Application":{"ProcessName":"com.whatsapp","Start":"1-10-2014 20:16:15","End":"1-10-2014 20:16:15"}}
{"SMS":{"Address":"+98915314####","type":"1","date":"1-10-2014 20:03:11","body":"ANONYMIZED","Type":"1", "metadata": {"name": "Nadere"}}}
{"Application":{"ProcessName":"com.android.launcher","Start":"1-10-2014 20:16:15","End":"1-10-2014 20:16:25"}}
{"Location":{"Latitude":"35.7296667","Longtitude":"51.3576086","Altitude":"0.0","time":"1-10-2014 20:16:55","Accuracy":"2256.0","Provider":"network"}}
{"Application":{"ProcessName":"com.uucun4470.android.cms","Start":"1-10-2014 20:16:15","End":"1-10-2014 20:16:55"}}
{"Application":{"ProcessName":"com.android.mms","Start":"1-10-2014 20:16:25","End":"1-10-2014 20:16:55"}}
{"Application":{"ProcessName":"com.mediatek.thermalmanager","Start":"1-10-2014 20:16:15","End":"1-10-2014 20:16:55"}}
{"Application":{"ProcessName":"agold.weatherwidget","Start":"1-10-2014 20:16:15","End":"1-10-2014 20:16:55"}}
{"Application":{"ProcessName":"com.mediatek.bluetooth","Start":"1-10-2014 20:16:15","End":"1-10-2014 20:16:55"}}
{"Application":{"ProcessName":"com.mediatek.voicecommand","Start":"1-10-2014 20:16:15","End":"1-10-2014 20:16:55"}}
{"Location":{"Latitude":"35.7299155","Longtitude":"51.3574781","Altitude":"0.0","time":"1-10-2014 20:17:15","Accuracy":"2262.0","Provider":"network"}}
{"Bluetooth":{"name":"DTVBluetooth","address":"D0:66:7B:25:3E:C0","bond status":"none","time":"Friday, January 10, 2014 8:22:00 PM Iran Standard Time"}}
{"Bluetooth":{"name":"DTVBluetooth","address":"D0:66:7B:25:3E:C0","bond status":"none","time":"Friday, January 10, 2014 8:22:00 PM Iran Standard Time"}}
{"Bluetooth":{"name":"DTVBluetooth","address":"D0:66:7B:25:3E:C0","bond status":"none","time":"Friday, January 10, 2014 8:22:00 PM Iran Standard Time"}}
{"Bluetooth":{"name":"DTVBluetooth","address":"D0:66:7B:25:3E:C0","bond status":"none","time":"Friday, January 10, 2014 8:32:00 PM Iran Standard Time"}}
{"Bluetooth":{"name":"DTVBluetooth","address":"D0:66:7B:25:3E:C0","bond status":"none","time":"Friday, January 10, 2014 8:32:00 PM Iran Standard Time"}}
{"Bluetooth":{"name":"DTVBluetooth","address":"D0:66:7B:25:3E:C0","bond status":"none","time":"Friday, January 10, 2014 8:32:00 PM Iran Standard Time"}}
{"Bluetooth":{"name":"DTVBluetooth","address":"D0:66:7B:25:3E:C0","bond status":"none","time":"Friday, January 10, 2014 8:32:00 PM Iran Standard Time"}}
{"Bluetooth":{"name":"DTVBluetooth","address":"D0:66:7B:25:3E:C0","bond status":"none","time":"Friday, January 10, 2014 8:32:00 PM Iran Standard Time"}}
{"Bluetooth":{"name":"DTVBluetooth","address":"D0:66:7B:25:3E:C0","bond status":"none","time":"Friday, January 10, 2014 8:32:00 PM Iran Standard Time"}}
{"Location":{"Latitude":"35.7299155","Longtitude":"51.3574781","Altitude":"0.0","time":"1-10-2014 20:42:05","Accuracy":"2262.0","Provider":"network"}}
{"Location":{"Latitude":"35.7296667","Longtitude":"51.3576086","Altitude":"0.0","time":"1-10-2014 20:51:25","Accuracy":"2256.0","Provider":"network"}}
{"Application":{"ProcessName":"com.google.android.apps.maps:LocationFriendService","Start":"1-10-2014 20:51:25","End":"1-10-2014 20:51:25"}}
{"Application":{"ProcessName":"com.uucun4470.android.cms","Start":"1-10-2014 20:51:15","End":"1-10-2014 20:51:35"}}
{"Application":{"ProcessName":"com.android.mms","Start":"1-10-2014 20:51:15","End":"1-10-2014 20:51:35"}}
{"Application":{"ProcessName":"com.mediatek.thermalmanager","Start":"1-10-2014 20:51:15","End":"1-10-2014 20:51:35"}}
{"Application":{"ProcessName":"agold.weatherwidget","Start":"1-10-2014 20:51:15","End":"1-10-2014 20:51:35"}}
{"Application":{"ProcessName":"com.mediatek.bluetooth","Start":"1-10-2014 20:51:15","End":"1-10-2014 20:51:35"}}
{"Application":{"ProcessName":"com.mediatek.voicecommand","Start":"1-10-2014 20:51:15","End":"1-10-2014 20:51:35"}}
{"Location":{"Latitude":"35.7294179","Longtitude":"51.357739","Altitude":"0.0","time":"1-10-2014 20:51:45","Accuracy":"2256.0","Provider":"network"}}
{"Bluetooth":{"name":"DTVBluetooth","address":"D0:66:7B:25:3E:C0","bond status":"none","time":"Friday, January 10, 2014 8:52:00 PM Iran Standard Time"}}
{"Bluetooth":{"name":"DTVBluetooth","address":"D0:66:7B:25:3E:C0","bond status":"none","time":"Friday, January 10, 2014 8:52:00 PM Iran Standard Time"}}
{"Bluetooth":{"name":"DTVBluetooth","address":"D0:66:7B:25:3E:C0","bond status":"none","time":"Friday, January 10, 2014 8:52:00 PM Iran Standard Time"}}
{"Application":{"ProcessName":"com.uucun4470.android.cms","Start":"1-10-2014 20:52:25","End":"1-10-2014 20:52:35"}}
{"Application":{"ProcessName":"com.android.mms","Start":"1-10-2014 20:52:25","End":"1-10-2014 20:52:35"}}
{"Application":{"ProcessName":"com.mediatek.thermalmanager","Start":"1-10-2014 20:52:25","End":"1-10-2014 20:52:35"}}
{"Application":{"ProcessName":"agold.weatherwidget","Start":"1-10-2014 20:52:25","End":"1-10-2014 20:52:35"}}
{"Application":{"ProcessName":"com.mediatek.bluetooth","Start":"1-10-2014 20:52:25","End":"1-10-2014 20:52:35"}}
{"Application":{"ProcessName":"com.mediatek.voicecommand","Start":"1-10-2014 20:52:25","End":"1-10-2014 20:52:35"}}
{"Location":{"Latitude":"35.7304323","Longtitude":"51.3647658","Altitude":"0.0","time":"1-10-2014 20:53:15","Accuracy":"1805.0","Provider":"network"}}
{"Application":{"ProcessName":"com.uucun4470.android.cms","Start":"1-10-2014 20:53:05","End":"1-10-2014 20:53:15"}}
{"Application":{"ProcessName":"com.android.mms","Start":"1-10-2014 20:53:05","End":"1-10-2014 20:53:15"}}
{"Application":{"ProcessName":"com.mediatek.thermalmanager","Start":"1-10-2014 20:53:05","End":"1-10-2014 20:53:15"}}
{"Application":{"ProcessName":"agold.weatherwidget","Start":"1-10-2014 20:53:05","End":"1-10-2014 20:53:15"}}
{"Application":{"ProcessName":"com.mediatek.bluetooth","Start":"1-10-2014 20:53:05","End":"1-10-2014 20:53:15"}}
{"Application":{"ProcessName":"com.mediatek.voicecommand","Start":"1-10-2014 20:53:05","End":"1-10-2014 20:53:15"}}
{"Location":{"Latitude":"35.7314467","Longtitude":"51.3717927","Altitude":"0.0","time":"1-10-2014 21:12:16","Accuracy":"1805.0","Provider":"network"}}
{"Application":{"ProcessName":"com.uucun4470.android.cms","Start":"1-10-2014 21:14:25","End":"1-10-2014 21:14:35"}}
{"Application":{"ProcessName":"com.android.mms","Start":"1-10-2014 21:14:25","End":"1-10-2014 21:14:35"}}
{"Application":{"ProcessName":"com.mediatek.thermalmanager","Start":"1-10-2014 21:14:25","End":"1-10-2014 21:14:35"}}
{"Application":{"ProcessName":"agold.weatherwidget","Start":"1-10-2014 21:14:25","End":"1-10-2014 21:14:35"}}
{"Application":{"ProcessName":"com.mediatek.bluetooth","Start":"1-10-2014 21:14:25","End":"1-10-2014 21:14:35"}}
{"Application":{"ProcessName":"com.mediatek.voicecommand","Start":"1-10-2014 21:14:25","End":"1-10-2014 21:14:35"}}
{"Location":{"Latitude":"35.7306811","Longtitude":"51.3646354","Altitude":"0.0","time":"1-10-2014 21:14:35","Accuracy":"1805.0","Provider":"network"}}
{"Location":{"Latitude":"35.7299155","Longtitude":"51.3574781","Altitude":"0.0","time":"1-10-2014 21:14:55","Accuracy":"2262.0","Provider":"network"}}
{"Application":{"ProcessName":"com.uucun4470.android.cms","Start":"1-10-2014 21:21:06","End":"1-10-2014 21:21:26"}}
{"Application":{"ProcessName":"com.android.mms","Start":"1-10-2014 21:21:06","End":"1-10-2014 21:21:26"}}
{"Application":{"ProcessName":"com.mediatek.thermalmanager","Start":"1-10-2014 21:21:06","End":"1-10-2014 21:21:26"}}
{"Application":{"ProcessName":"agold.weatherwidget","Start":"1-10-2014 21:21:06","End":"1-10-2014 21:21:26"}}
{"Application":{"ProcessName":"com.mediatek.bluetooth","Start":"1-10-2014 21:21:06","End":"1-10-2014 21:21:26"}}
{"Application":{"ProcessName":"com.mediatek.voicecommand","Start":"1-10-2014 21:21:06","End":"1-10-2014 21:21:26"}}
{"Bluetooth":{"name":"DTVBluetooth","address":"D0:66:7B:25:3E:C0","bond status":"none","time":"Friday, January 10, 2014 9:22:00 PM Iran Standard Time"}}
{"Bluetooth":{"name":"DTVBluetooth","address":"D0:66:7B:25:3E:C0","bond status":"none","time":"Friday, January 10, 2014 9:22:00 PM Iran Standard Time"}}
{"Bluetooth":{"name":"DTVBluetooth","address":"D0:66:7B:25:3E:C0","bond status":"none","time":"Friday, January 10, 2014 9:22:00 PM Iran Standard Time"}}
{"Application":{"ProcessName":"com.uucun4470.android.cms","Start":"1-10-2014 21:24:46","End":"1-10-2014 21:24:56"}}
{"Application":{"ProcessName":"com.android.mms","Start":"1-10-2014 21:24:46","End":"1-10-2014 21:24:56"}}
{"Application":{"ProcessName":"com.mediatek.thermalmanager","Start":"1-10-2014 21:24:46","End":"1-10-2014 21:24:56"}}
{"Application":{"ProcessName":"agold.weatherwidget","Start":"1-10-2014 21:24:46","End":"1-10-2014 21:24:56"}}
{"Application":{"ProcessName":"com.mediatek.bluetooth","Start":"1-10-2014 21:24:46","End":"1-10-2014 21:24:56"}}
{"Application":{"ProcessName":"com.mediatek.voicecommand","Start":"1-10-2014 21:24:46","End":"1-10-2014 21:24:56"}}
