{"Application":{"ProcessName":"com.android.providers.telephony","Start":"1-4-2014 23:01:24","End":"1-4-2014 23:01:33"}}
{"Application":{"ProcessName":"com.htc.android.worldclock","Start":"1-4-2014 23:01:53","End":"1-4-2014 23:02:03"}}
{"Application":{"ProcessName":"com.android.htcdialer","Start":"1-4-2014 23:01:23","End":"1-4-2014 23:31:39"}}
{"Application":{"ProcessName":"com.android.nfc","Start":"1-4-2014 23:01:23","End":"1-4-2014 23:31:39"}}
{"Application":{"ProcessName":"com.lmi.vodafone.rescue","Start":"1-4-2014 23:01:23","End":"1-4-2014 23:31:39"}}
{"Application":{"ProcessName":"com.htc.bg","Start":"1-5-2014 06:00:02","End":"1-5-2014 06:00:10"}}
{"Application":{"ProcessName":"com.htc.android.worldclock","Start":"1-5-2014 06:00:00","End":"1-5-2014 06:00:10"}}
{"Application":{"ProcessName":"com.android.settings:remote","Start":"1-5-2014 06:00:02","End":"1-5-2014 06:00:10"}}
{"Application":{"ProcessName":"com.android.settings","Start":"1-5-2014 06:00:02","End":"1-5-2014 06:00:10"}}
{"Application":{"ProcessName":"com.lmi.vodafone.rescue","Start":"1-5-2014 06:00:00","End":"1-5-2014 06:00:20"}}
{"Application":{"ProcessName":"com.android.htcdialer","Start":"1-5-2014 06:00:00","End":"1-5-2014 06:00:20"}}
{"Application":{"ProcessName":"com.android.nfc","Start":"1-5-2014 06:00:00","End":"1-5-2014 06:00:20"}}
{"Application":{"ProcessName":"com.lmi.vodafone.rescue","Start":"1-5-2014 06:02:10","End":"1-5-2014 06:05:28"}}
{"Application":{"ProcessName":"com.htc.android.worldclock","Start":"1-5-2014 06:02:28","End":"1-5-2014 06:05:28"}}
{"Application":{"ProcessName":"com.android.htcdialer","Start":"1-5-2014 06:02:10","End":"1-5-2014 06:05:28"}}
{"Application":{"ProcessName":"com.android.nfc","Start":"1-5-2014 06:02:10","End":"1-5-2014 06:05:28"}}
{"Application":{"ProcessName":"com.lmi.vodafone.rescue","Start":"1-5-2014 06:30:05","End":"1-5-2014 06:30:15"}}
{"Application":{"ProcessName":"com.htc.android.worldclock","Start":"1-5-2014 06:30:05","End":"1-5-2014 06:30:15"}}
{"Application":{"ProcessName":"com.android.htcdialer","Start":"1-5-2014 06:30:05","End":"1-5-2014 06:30:15"}}
{"Application":{"ProcessName":"com.android.nfc","Start":"1-5-2014 06:30:05","End":"1-5-2014 06:30:15"}}
{"Application":{"ProcessName":"com.htc.android.worldclock","Start":"1-5-2014 06:30:18","End":"1-5-2014 06:30:38"}}
{"Application":{"ProcessName":"com.lmi.vodafone.rescue","Start":"1-5-2014 06:30:18","End":"1-5-2014 06:38:58"}}
{"Application":{"ProcessName":"com.android.htcdialer","Start":"1-5-2014 06:30:18","End":"1-5-2014 06:38:58"}}
{"Application":{"ProcessName":"com.android.nfc","Start":"1-5-2014 06:30:18","End":"1-5-2014 06:38:58"}}
{"Application":{"ProcessName":"com.android.settings:remote","Start":"1-5-2014 06:56:41","End":"1-5-2014 06:56:48"}}
{"Application":{"ProcessName":"com.android.settings","Start":"1-5-2014 06:56:41","End":"1-5-2014 06:56:48"}}
{"Application":{"ProcessName":"com.lmi.vodafone.rescue","Start":"1-5-2014 06:56:41","End":"1-5-2014 07:15:45"}}
{"Application":{"ProcessName":"com.android.htcdialer","Start":"1-5-2014 06:56:41","End":"1-5-2014 07:15:45"}}
{"Application":{"ProcessName":"com.android.nfc","Start":"1-5-2014 06:56:41","End":"1-5-2014 07:15:45"}}
{"Application":{"ProcessName":"com.lmi.vodafone.rescue","Start":"1-5-2014 07:15:45","End":"1-5-2014 07:21:43"}}
{"Application":{"ProcessName":"com.android.htcdialer","Start":"1-5-2014 07:15:45","End":"1-5-2014 07:21:43"}}
{"Application":{"ProcessName":"com.android.nfc","Start":"1-5-2014 07:15:45","End":"1-5-2014 07:21:43"}}
{"SMS":{"Address":"+98912483####","type":"1","date":"1-5-2014 07:45:26","body":"ANONYMIZED","Type":"1", "metadata": {"name": "Niloo"}}}
{"Application":{"ProcessName":"com.htc.sdm","Start":"1-5-2014 08:03:41","End":"1-5-2014 08:03:48"}}
{"Application":{"ProcessName":"com.android.providers.telephony","Start":"1-5-2014 08:03:17","End":"1-5-2014 08:04:51"}}
{"Application":{"ProcessName":"com.android.providers.telephony","Start":"1-5-2014 08:04:58","End":"1-5-2014 08:05:31"}}
{"Application":{"ProcessName":"com.android.mms","Start":"1-5-2014 08:03:09","End":"1-5-2014 08:12:58"}}
{"Application":{"ProcessName":"com.lmi.vodafone.rescue","Start":"1-5-2014 08:02:56","End":"1-5-2014 08:12:58"}}
{"Application":{"ProcessName":"com.android.htcdialer","Start":"1-5-2014 08:02:56","End":"1-5-2014 08:12:58"}}
{"Application":{"ProcessName":"com.android.nfc","Start":"1-5-2014 08:02:56","End":"1-5-2014 08:12:58"}}
{"SMS":{"Address":"+9899####","type":"1","date":"1-5-2014 08:10:42","body":"ANONYMIZED","Type":"1", "metadata": {"name": ""}}}
{"Application":{"ProcessName":"com.android.mms","Start":"1-5-2014 08:47:44","End":"1-5-2014 08:47:54"}}
{"Application":{"ProcessName":"com.android.providers.telephony","Start":"1-5-2014 08:47:48","End":"1-5-2014 08:47:54"}}
{"Application":{"ProcessName":"com.lmi.vodafone.rescue","Start":"1-5-2014 08:47:44","End":"1-5-2014 08:51:43"}}
{"Application":{"ProcessName":"com.android.htcdialer","Start":"1-5-2014 08:47:44","End":"1-5-2014 08:51:43"}}
{"Application":{"ProcessName":"com.android.nfc","Start":"1-5-2014 08:47:44","End":"1-5-2014 08:51:43"}}
{"Application":{"ProcessName":"com.viber.voip","Start":"1-5-2014 09:47:01","End":"1-5-2014 09:47:06"}}
{"Application":{"ProcessName":"com.android.providers.telephony","Start":"1-5-2014 09:47:01","End":"1-5-2014 09:47:06"}}
{"Application":{"ProcessName":"com.lmi.vodafone.rescue","Start":"1-5-2014 09:47:01","End":"1-5-2014 09:54:11"}}
{"Application":{"ProcessName":"com.android.htcdialer","Start":"1-5-2014 09:47:01","End":"1-5-2014 09:54:11"}}
{"Application":{"ProcessName":"com.android.nfc","Start":"1-5-2014 09:47:01","End":"1-5-2014 09:54:11"}}
{"Application":{"ProcessName":"com.htc.task","Start":"1-5-2014 09:54:11","End":"1-5-2014 09:54:16"}}
{"Call": {"Number":"+98912494####","Duration":"43","Time":"1-5-2014 09:54:09","Type":"1"}}
{"Call": {"Number":"+98912494####","Duration":"43","Time":"1-5-2014 09:54:09","Type":"1"}}
{"Application":{"ProcessName":"com.lmi.vodafone.rescue","Start":"1-5-2014 09:54:11","End":"1-5-2014 09:55:05"}}
{"Application":{"ProcessName":"com.android.htcdialer","Start":"1-5-2014 09:54:11","End":"1-5-2014 09:55:05"}}
{"Application":{"ProcessName":"com.android.nfc","Start":"1-5-2014 09:54:11","End":"1-5-2014 09:55:05"}}
{"SMS":{"Address":"+98300050####","type":"1","date":"1-5-2014 10:01:30","body":"ANONYMIZED","Type":"1", "metadata": {"name": ""}}}
{"Application":{"ProcessName":"com.android.mms","Start":"1-5-2014 10:04:08","End":"1-5-2014 10:04:13"}}
{"Application":{"ProcessName":"com.android.providers.telephony","Start":"1-5-2014 10:04:08","End":"1-5-2014 10:04:13"}}
{"Application":{"ProcessName":"com.lmi.vodafone.rescue","Start":"1-5-2014 10:04:03","End":"1-5-2014 10:04:13"}}
{"Application":{"ProcessName":"com.android.htcdialer","Start":"1-5-2014 10:04:03","End":"1-5-2014 10:04:13"}}
{"Application":{"ProcessName":"com.android.nfc","Start":"1-5-2014 10:04:03","End":"1-5-2014 10:04:13"}}
{"Application":{"ProcessName":"com.lmi.vodafone.rescue","Start":"1-5-2014 10:08:43","End":"1-5-2014 10:08:53"}}
{"Application":{"ProcessName":"com.android.htcdialer","Start":"1-5-2014 10:08:43","End":"1-5-2014 10:08:53"}}
{"Application":{"ProcessName":"com.android.nfc","Start":"1-5-2014 10:08:43","End":"1-5-2014 10:08:53"}}
{"Call": {"Number":"+98216660####","Duration":"6","Time":"1-5-2014 10:08:51","Type":"2"}}
{"Call": {"Number":"+98216660####","Duration":"6","Time":"1-5-2014 10:08:51","Type":"2"}}
{"Call": {"Number":"+98216660####","Duration":"0","Time":"1-5-2014 10:09:16","Type":"2"}}
{"Application":{"ProcessName":"com.lmi.vodafone.rescue","Start":"1-5-2014 10:09:14","End":"1-5-2014 10:09:20"}}
{"Application":{"ProcessName":"com.android.htcdialer","Start":"1-5-2014 10:09:14","End":"1-5-2014 10:09:20"}}
{"Application":{"ProcessName":"com.android.nfc","Start":"1-5-2014 10:09:14","End":"1-5-2014 10:09:20"}}
{"Call": {"Number":"+98216660####","Duration":"0","Time":"1-5-2014 10:09:16","Type":"2"}}
{"Call": {"Number":"+98216660####","Duration":"0","Time":"1-5-2014 10:09:29","Type":"2"}}
{"Call": {"Number":"+98216660####","Duration":"0","Time":"1-5-2014 10:09:29","Type":"2"}}
{"Application":{"ProcessName":"com.lmi.vodafone.rescue","Start":"1-5-2014 10:09:24","End":"1-5-2014 10:09:46"}}
{"Application":{"ProcessName":"com.android.htcdialer","Start":"1-5-2014 10:09:24","End":"1-5-2014 10:09:46"}}
{"Application":{"ProcessName":"com.android.nfc","Start":"1-5-2014 10:09:24","End":"1-5-2014 10:09:46"}}
{"Call": {"Number":"+98216660####","Duration":"0","Time":"1-5-2014 10:09:35","Type":"2"}}
{"Call": {"Number":"+98216660####","Duration":"0","Time":"1-5-2014 10:09:35","Type":"2"}}
{"Call": {"Number":"+98216660####","Duration":"0","Time":"1-5-2014 10:09:36","Type":"3"}}
{"Call": {"Number":"+98216660####","Duration":"0","Time":"1-5-2014 10:09:36","Type":"3"}}
{"Call": {"Number":"+98216660####","Duration":"27","Time":"1-5-2014 10:09:46","Type":"1"}}
{"Call": {"Number":"+98216660####","Duration":"27","Time":"1-5-2014 10:09:46","Type":"1"}}
{"Application":{"ProcessName":"com.lmi.vodafone.rescue","Start":"1-5-2014 10:09:51","End":"1-5-2014 10:10:23"}}
{"Application":{"ProcessName":"com.android.htcdialer","Start":"1-5-2014 10:09:51","End":"1-5-2014 10:10:23"}}
{"Application":{"ProcessName":"com.android.nfc","Start":"1-5-2014 10:09:51","End":"1-5-2014 10:10:23"}}
{"Call": {"Number":"+98216660####","Duration":"27","Time":"1-5-2014 10:09:46","Type":"1"}}
{"Application":{"ProcessName":"com.google.process.location","Start":"1-5-2014 10:46:09","End":"1-5-2014 10:46:15"}}
{"Call": {"Number":"+98912426####","Duration":"15","Time":"1-5-2014 10:46:08","Type":"1"}}
{"Call": {"Number":"+98912426####","Duration":"15","Time":"1-5-2014 10:46:08","Type":"1"}}
{"Application":{"ProcessName":"com.lmi.vodafone.rescue","Start":"1-5-2014 10:42:47","End":"1-5-2014 10:51:39"}}
{"Application":{"ProcessName":"com.android.htcdialer","Start":"1-5-2014 10:42:47","End":"1-5-2014 10:51:39"}}
{"Application":{"ProcessName":"com.android.nfc","Start":"1-5-2014 10:42:47","End":"1-5-2014 10:51:39"}}
{"Call": {"Number":"+98912503####","Duration":"0","Time":"1-5-2014 12:50:50","Type":"3"}}
{"Call": {"Number":"+98912503####","Duration":"0","Time":"1-5-2014 12:50:50","Type":"3"}}
{"Call": {"Number":"+98912494####","Duration":"0","Time":"1-5-2014 12:51:47","Type":"3"}}
{"Call": {"Number":"+98912494####","Duration":"0","Time":"1-5-2014 12:51:47","Type":"3"}}
{"Call": {"Number":"+98912494####","Duration":"0","Time":"1-5-2014 12:51:47","Type":"3"}}
{"Application":{"ProcessName":"com.lmi.vodafone.rescue","Start":"1-5-2014 12:50:54","End":"1-5-2014 12:54:06"}}
{"Application":{"ProcessName":"com.android.htcdialer","Start":"1-5-2014 12:50:54","End":"1-5-2014 12:54:06"}}
{"Application":{"ProcessName":"com.android.nfc","Start":"1-5-2014 12:50:54","End":"1-5-2014 12:54:06"}}
{"Application":{"ProcessName":"com.lmi.vodafone.rescue","Start":"1-5-2014 13:00:10","End":"1-5-2014 13:00:15"}}
{"Application":{"ProcessName":"com.android.htcdialer","Start":"1-5-2014 13:00:10","End":"1-5-2014 13:00:15"}}
{"Application":{"ProcessName":"com.android.nfc","Start":"1-5-2014 13:00:10","End":"1-5-2014 13:00:15"}}
{"Application":{"ProcessName":"com.lmi.vodafone.rescue","Start":"1-5-2014 13:04:30","End":"1-5-2014 13:04:40"}}
{"Application":{"ProcessName":"com.android.htcdialer","Start":"1-5-2014 13:04:30","End":"1-5-2014 13:04:40"}}
{"Application":{"ProcessName":"com.android.nfc","Start":"1-5-2014 13:04:30","End":"1-5-2014 13:04:40"}}
{"Call": {"Number":"+98216660####","Duration":"6","Time":"1-5-2014 13:04:37","Type":"2"}}
{"Call": {"Number":"+98216660####","Duration":"6","Time":"1-5-2014 13:04:37","Type":"2"}}
{"Application":{"ProcessName":"com.lmi.vodafone.rescue","Start":"1-5-2014 13:05:09","End":"1-5-2014 13:05:24"}}
{"Application":{"ProcessName":"com.android.htcdialer","Start":"1-5-2014 13:05:09","End":"1-5-2014 13:05:24"}}
{"Application":{"ProcessName":"com.android.nfc","Start":"1-5-2014 13:05:09","End":"1-5-2014 13:05:24"}}
{"Call": {"Number":"+98216660####","Duration":"15","Time":"1-5-2014 13:05:18","Type":"2"}}
{"Call": {"Number":"+98216660####","Duration":"15","Time":"1-5-2014 13:05:18","Type":"2"}}
{"Application":{"ProcessName":"com.lmi.vodafone.rescue","Start":"1-5-2014 13:05:53","End":"1-5-2014 13:06:03"}}
{"Application":{"ProcessName":"com.android.htcdialer","Start":"1-5-2014 13:05:53","End":"1-5-2014 13:06:03"}}
{"Application":{"ProcessName":"com.android.nfc","Start":"1-5-2014 13:05:53","End":"1-5-2014 13:06:03"}}
{"Call": {"Number":"+98216663####","Duration":"17","Time":"1-5-2014 13:05:58","Type":"2"}}
{"Call": {"Number":"+98216663####","Duration":"17","Time":"1-5-2014 13:05:58","Type":"2"}}
{"Application":{"ProcessName":"com.lmi.vodafone.rescue","Start":"1-5-2014 13:06:37","End":"1-5-2014 13:06:41"}}
{"Application":{"ProcessName":"com.android.htcdialer","Start":"1-5-2014 13:06:37","End":"1-5-2014 13:06:41"}}
{"Application":{"ProcessName":"com.android.nfc","Start":"1-5-2014 13:06:37","End":"1-5-2014 13:06:41"}}
{"Application":{"ProcessName":"com.lmi.vodafone.rescue","Start":"1-5-2014 13:24:55","End":"1-5-2014 13:25:01"}}
{"Application":{"ProcessName":"com.android.htcdialer","Start":"1-5-2014 13:24:55","End":"1-5-2014 13:25:01"}}
{"Application":{"ProcessName":"com.android.nfc","Start":"1-5-2014 13:24:55","End":"1-5-2014 13:25:01"}}
{"Application":{"ProcessName":"com.lmi.vodafone.rescue","Start":"1-5-2014 13:38:38","End":"1-5-2014 13:38:53"}}
{"Application":{"ProcessName":"com.android.htcdialer","Start":"1-5-2014 13:38:38","End":"1-5-2014 13:38:53"}}
{"Application":{"ProcessName":"com.android.nfc","Start":"1-5-2014 13:38:38","End":"1-5-2014 13:38:53"}}
{"Call": {"Number":"+98216660####","Duration":"60","Time":"1-5-2014 13:38:34","Type":"1"}}
{"Call": {"Number":"+98216660####","Duration":"60","Time":"1-5-2014 13:38:34","Type":"1"}}
{"Application":{"ProcessName":"com.lmi.vodafone.rescue","Start":"1-5-2014 13:39:54","End":"1-5-2014 13:53:47"}}
{"Application":{"ProcessName":"com.android.htcdialer","Start":"1-5-2014 13:39:54","End":"1-5-2014 13:53:47"}}
{"Application":{"ProcessName":"com.android.nfc","Start":"1-5-2014 13:39:54","End":"1-5-2014 13:53:47"}}
{"Application":{"ProcessName":"com.lmi.vodafone.rescue","Start":"1-5-2014 13:53:47","End":"1-5-2014 14:05:33"}}
{"Application":{"ProcessName":"com.android.htcdialer","Start":"1-5-2014 13:53:47","End":"1-5-2014 14:05:33"}}
{"Application":{"ProcessName":"com.android.nfc","Start":"1-5-2014 13:53:47","End":"1-5-2014 14:05:33"}}
{"Call": {"Number":"+98912419####","Duration":"55","Time":"1-5-2014 14:12:15","Type":"1"}}
{"Call": {"Number":"+98912419####","Duration":"55","Time":"1-5-2014 14:12:15","Type":"1"}}
{"Application":{"ProcessName":"com.lmi.vodafone.rescue","Start":"1-5-2014 14:13:17","End":"1-5-2014 14:28:20"}}
{"Application":{"ProcessName":"com.android.htcdialer","Start":"1-5-2014 14:13:17","End":"1-5-2014 14:28:20"}}
{"Application":{"ProcessName":"com.android.nfc","Start":"1-5-2014 14:13:17","End":"1-5-2014 14:28:20"}}
{"Call": {"Number":"+98912794####","Duration":"20","Time":"1-5-2014 15:08:57","Type":"1"}}
{"Call": {"Number":"+98912794####","Duration":"20","Time":"1-5-2014 15:08:57","Type":"1"}}
{"Application":{"ProcessName":"com.google.process.location","Start":"1-5-2014 15:09:26","End":"1-5-2014 15:15:25"}}
{"Application":{"ProcessName":"com.lmi.vodafone.rescue","Start":"1-5-2014 15:09:00","End":"1-5-2014 15:15:25"}}
{"Application":{"ProcessName":"com.android.htcdialer","Start":"1-5-2014 15:09:00","End":"1-5-2014 15:15:25"}}
{"Application":{"ProcessName":"com.android.nfc","Start":"1-5-2014 15:09:00","End":"1-5-2014 15:15:25"}}
{"Application":{"ProcessName":"com.lmi.vodafone.rescue","Start":"1-5-2014 15:15:30","End":"1-5-2014 15:15:35"}}
{"Application":{"ProcessName":"com.android.htcdialer","Start":"1-5-2014 15:15:30","End":"1-5-2014 15:15:35"}}
{"Application":{"ProcessName":"com.android.nfc","Start":"1-5-2014 15:15:30","End":"1-5-2014 15:15:35"}}
{"Call": {"Number":"+98912794####","Duration":"14","Time":"1-5-2014 15:15:25","Type":"1"}}
{"Call": {"Number":"+98912794####","Duration":"14","Time":"1-5-2014 15:15:25","Type":"1"}}
{"Application":{"ProcessName":"com.lmi.vodafone.rescue","Start":"1-5-2014 16:14:50","End":"1-5-2014 16:15:21"}}
{"Application":{"ProcessName":"com.android.htcdialer","Start":"1-5-2014 16:14:50","End":"1-5-2014 16:15:21"}}
{"Application":{"ProcessName":"com.android.nfc","Start":"1-5-2014 16:14:50","End":"1-5-2014 16:15:21"}}
{"Call": {"Number":"+98912794####","Duration":"0","Time":"1-5-2014 16:14:53","Type":"2"}}
{"Call": {"Number":"+98912794####","Duration":"0","Time":"1-5-2014 16:14:53","Type":"2"}}
{"Application":{"ProcessName":"com.lmi.vodafone.rescue","Start":"1-5-2014 16:23:32","End":"1-5-2014 16:35:34"}}
{"Application":{"ProcessName":"com.android.htcdialer","Start":"1-5-2014 16:23:32","End":"1-5-2014 16:35:34"}}
{"Application":{"ProcessName":"com.android.nfc","Start":"1-5-2014 16:23:32","End":"1-5-2014 16:35:34"}}
{"Application":{"ProcessName":"com.lmi.vodafone.rescue","Start":"1-5-2014 17:04:02","End":"1-5-2014 17:05:34"}}
{"Application":{"ProcessName":"com.android.htcdialer","Start":"1-5-2014 17:04:02","End":"1-5-2014 17:05:34"}}
{"Application":{"ProcessName":"com.android.nfc","Start":"1-5-2014 17:04:02","End":"1-5-2014 17:05:34"}}
{"Application":{"ProcessName":"com.lmi.vodafone.rescue","Start":"1-5-2014 17:07:54","End":"1-5-2014 17:12:55"}}
{"Application":{"ProcessName":"com.android.htcdialer","Start":"1-5-2014 17:07:54","End":"1-5-2014 17:12:55"}}
{"Application":{"ProcessName":"com.android.nfc","Start":"1-5-2014 17:07:54","End":"1-5-2014 17:12:55"}}
{"Application":{"ProcessName":"com.lmi.vodafone.rescue","Start":"1-5-2014 17:12:55","End":"1-5-2014 17:21:45"}}
{"Application":{"ProcessName":"com.android.htcdialer","Start":"1-5-2014 17:12:55","End":"1-5-2014 17:21:45"}}
{"Application":{"ProcessName":"com.android.nfc","Start":"1-5-2014 17:12:55","End":"1-5-2014 17:21:45"}}
{"Application":{"ProcessName":"com.lmi.vodafone.rescue","Start":"1-5-2014 17:21:45","End":"1-5-2014 17:23:15"}}
{"Application":{"ProcessName":"com.android.htcdialer","Start":"1-5-2014 17:21:45","End":"1-5-2014 17:23:15"}}
{"Application":{"ProcessName":"com.android.nfc","Start":"1-5-2014 17:21:45","End":"1-5-2014 17:23:15"}}
{"Application":{"ProcessName":"com.lmi.vodafone.rescue","Start":"1-5-2014 17:24:23","End":"1-5-2014 17:24:51"}}
{"Application":{"ProcessName":"com.android.nfc","Start":"1-5-2014 17:24:23","End":"1-5-2014 17:24:51"}}
{"Call": {"Number":"+98939375####","Duration":"26","Time":"1-5-2014 17:24:20","Type":"1"}}
{"Call": {"Number":"+98939375####","Duration":"26","Time":"1-5-2014 17:24:20","Type":"1"}}
{"Application":{"ProcessName":"com.htc.flexnet","Start":"1-5-2014 17:24:51","End":"1-5-2014 17:24:56"}}
{"Application":{"ProcessName":"com.htc.task","Start":"1-5-2014 17:24:23","End":"1-5-2014 17:24:56"}}
{"Application":{"ProcessName":"com.lmi.vodafone.rescue","Start":"1-5-2014 17:24:56","End":"1-5-2014 17:31:46"}}
{"Application":{"ProcessName":"com.android.htcdialer","Start":"1-5-2014 17:24:23","End":"1-5-2014 17:31:46"}}
{"Application":{"ProcessName":"com.android.nfc","Start":"1-5-2014 17:24:56","End":"1-5-2014 17:31:46"}}
{"Application":{"ProcessName":"com.android.settings:remote","Start":"1-5-2014 17:56:19","End":"1-5-2014 17:56:23"}}
{"Application":{"ProcessName":"com.lmi.vodafone.rescue","Start":"1-5-2014 17:56:19","End":"1-5-2014 17:56:29"}}
{"Application":{"ProcessName":"com.android.htcdialer","Start":"1-5-2014 17:56:19","End":"1-5-2014 17:56:29"}}
{"Application":{"ProcessName":"com.android.nfc","Start":"1-5-2014 17:56:19","End":"1-5-2014 17:56:29"}}
{"Call": {"Number":"+98939375####","Duration":"53","Time":"1-5-2014 17:56:24","Type":"2"}}
{"Call": {"Number":"+98939375####","Duration":"53","Time":"1-5-2014 17:56:24","Type":"2"}}
{"SMS":{"Address":"+98939375####","type":"2","date":"1-5-2014 17:58:34","body":"ANONYMIZED","Type":"2", "metadata": {"name": "Mehrafarin 2"}}}
{"Application":{"ProcessName":"com.htc.sdm","Start":"1-5-2014 17:59:51","End":"1-5-2014 17:59:57"}}
{"Application":{"ProcessName":"com.android.mms","Start":"1-5-2014 17:58:15","End":"1-5-2014 18:00:02"}}
{"Application":{"ProcessName":"com.android.providers.telephony","Start":"1-5-2014 17:58:25","End":"1-5-2014 18:00:02"}}
{"Application":{"ProcessName":"com.lmi.vodafone.rescue","Start":"1-5-2014 17:58:08","End":"1-5-2014 18:00:33"}}
{"Application":{"ProcessName":"com.android.htcdialer","Start":"1-5-2014 17:58:08","End":"1-5-2014 18:00:33"}}
{"Application":{"ProcessName":"com.android.nfc","Start":"1-5-2014 17:58:08","End":"1-5-2014 18:00:33"}}
{"Application":{"ProcessName":"com.htc.task","Start":"1-5-2014 18:29:14","End":"1-5-2014 18:29:19"}}
{"Application":{"ProcessName":"com.lmi.vodafone.rescue","Start":"1-5-2014 18:29:14","End":"1-5-2014 18:29:24"}}
{"Application":{"ProcessName":"com.android.htcdialer","Start":"1-5-2014 18:29:14","End":"1-5-2014 18:29:24"}}
{"Application":{"ProcessName":"com.android.nfc","Start":"1-5-2014 18:29:14","End":"1-5-2014 18:29:24"}}
{"Call": {"Number":"+98216660####","Duration":"15","Time":"1-5-2014 18:29:11","Type":"1"}}
{"Call": {"Number":"+98216660####","Duration":"15","Time":"1-5-2014 18:29:11","Type":"1"}}
{"Application":{"ProcessName":"com.lmi.vodafone.rescue","Start":"1-5-2014 22:20:58","End":"1-5-2014 22:21:47"}}
{"Application":{"ProcessName":"com.android.htcdialer","Start":"1-5-2014 22:20:58","End":"1-5-2014 22:21:47"}}
{"Application":{"ProcessName":"com.android.settings","Start":"1-5-2014 22:21:14","End":"1-5-2014 22:21:47"}}
{"Application":{"ProcessName":"com.android.nfc","Start":"1-5-2014 22:20:58","End":"1-5-2014 22:21:47"}}
{"Application":{"ProcessName":"com.htc.flexnet","Start":"1-5-2014 22:23:42","End":"1-5-2014 22:23:46"}}
{"Application":{"ProcessName":"com.lmi.vodafone.rescue","Start":"1-5-2014 22:23:42","End":"1-5-2014 22:23:52"}}
{"Application":{"ProcessName":"com.android.htcdialer","Start":"1-5-2014 22:23:42","End":"1-5-2014 22:23:52"}}
{"Application":{"ProcessName":"com.android.nfc","Start":"1-5-2014 22:23:42","End":"1-5-2014 22:23:52"}}
{"Application":{"ProcessName":"com.android.settings","Start":"1-5-2014 22:23:42","End":"1-5-2014 22:23:52"}}
{"WiFi":{"SSID":"paliz","BSSID":"fc:75:16:d6:4e:21","capabilities":"[WPA-PSK-TKIP+CCMP][WPA2-PSK-TKIP+CCMP][WPS][ESS]","level":"-74","frequency":"2412","time":"Sunday, January 5, 2014 10:24:03 PM Iran Standard Time"}}
{"WiFi":{"SSID":"EMADI","BSSID":"00:04:ed:ce:37:7c","capabilities":"[WPA2-PSK-TKIP+CCMP][WPS][ESS]","level":"-84","frequency":"2412","time":"Sunday, January 5, 2014 10:24:03 PM Iran Standard Time"}}
{"WiFi":{"SSID":"irancell","BSSID":"bc:76:70:ab:1f:a4","capabilities":"[WPA2-PSK-CCMP][ESS]","level":"-77","frequency":"2432","time":"Sunday, January 5, 2014 10:24:03 PM Iran Standard Time"}}
{"WiFi":{"SSID":"Eleya","BSSID":"98:42:46:06:28:84","capabilities":"[WPA2-PSK-TKIP+CCMP][ESS]","level":"-90","frequency":"2452","time":"Sunday, January 5, 2014 10:24:03 PM Iran Standard Time"}}
{"WiFi":{"SSID":"as","BSSID":"bc:f6:85:e0:84:43","capabilities":"[WPA-PSK-TKIP+CCMP][WPA2-PSK-TKIP+CCMP][WPS][ESS]","level":"-95","frequency":"2412","time":"Sunday, January 5, 2014 10:24:03 PM Iran Standard Time"}}
{"WiFi":{"SSID":"390A9A","BSSID":"00:1f:fb:39:0a:9a","capabilities":"[WEP][ESS]","level":"-92","frequency":"2427","time":"Sunday, January 5, 2014 10:24:03 PM Iran Standard Time"}}
{"WiFi":{"SSID":"paliz","BSSID":"fc:75:16:d6:4e:21","capabilities":"[WPA-PSK-TKIP+CCMP][WPA2-PSK-TKIP+CCMP][WPS][ESS]","level":"-74","frequency":"2412","time":"Sunday, January 5, 2014 10:24:04 PM Iran Standard Time"}}
{"WiFi":{"SSID":"EMADI","BSSID":"00:04:ed:ce:37:7c","capabilities":"[WPA2-PSK-TKIP+CCMP][WPS][ESS]","level":"-84","frequency":"2412","time":"Sunday, January 5, 2014 10:24:04 PM Iran Standard Time"}}
{"WiFi":{"SSID":"irancell","BSSID":"bc:76:70:ab:1f:a4","capabilities":"[WPA2-PSK-CCMP][ESS]","level":"-77","frequency":"2432","time":"Sunday, January 5, 2014 10:24:04 PM Iran Standard Time"}}
{"WiFi":{"SSID":"Eleya","BSSID":"98:42:46:06:28:84","capabilities":"[WPA2-PSK-TKIP+CCMP][ESS]","level":"-90","frequency":"2452","time":"Sunday, January 5, 2014 10:24:04 PM Iran Standard Time"}}
{"WiFi":{"SSID":"as","BSSID":"bc:f6:85:e0:84:43","capabilities":"[WPA-PSK-TKIP+CCMP][WPA2-PSK-TKIP+CCMP][WPS][ESS]","level":"-95","frequency":"2412","time":"Sunday, January 5, 2014 10:24:04 PM Iran Standard Time"}}
{"WiFi":{"SSID":"390A9A","BSSID":"00:1f:fb:39:0a:9a","capabilities":"[WEP][ESS]","level":"-92","frequency":"2427","time":"Sunday, January 5, 2014 10:24:04 PM Iran Standard Time"}}
{"Application":{"ProcessName":"com.android.settings","Start":"1-5-2014 22:23:57","End":"1-5-2014 22:24:12"}}
{"WiFi":{"SSID":"paliz","BSSID":"fc:75:16:d6:4e:21","capabilities":"[WPA-PSK-TKIP+CCMP][WPA2-PSK-TKIP+CCMP][WPS][ESS]","level":"-74","frequency":"2412","time":"Sunday, January 5, 2014 10:25:03 PM Iran Standard Time"}}
{"WiFi":{"SSID":"EMADI","BSSID":"00:04:ed:ce:37:7c","capabilities":"[WPA2-PSK-TKIP+CCMP][WPS][ESS]","level":"-84","frequency":"2412","time":"Sunday, January 5, 2014 10:25:03 PM Iran Standard Time"}}
{"WiFi":{"SSID":"irancell","BSSID":"bc:76:70:ab:1f:a4","capabilities":"[WPA2-PSK-CCMP][ESS]","level":"-77","frequency":"2432","time":"Sunday, January 5, 2014 10:25:03 PM Iran Standard Time"}}
{"WiFi":{"SSID":"Eleya","BSSID":"98:42:46:06:28:84","capabilities":"[WPA2-PSK-TKIP+CCMP][ESS]","level":"-90","frequency":"2452","time":"Sunday, January 5, 2014 10:25:03 PM Iran Standard Time"}}
{"WiFi":{"SSID":"as","BSSID":"bc:f6:85:e0:84:43","capabilities":"[WPA-PSK-TKIP+CCMP][WPA2-PSK-TKIP+CCMP][WPS][ESS]","level":"-95","frequency":"2412","time":"Sunday, January 5, 2014 10:25:03 PM Iran Standard Time"}}
{"WiFi":{"SSID":"390A9A","BSSID":"00:1f:fb:39:0a:9a","capabilities":"[WEP][ESS]","level":"-92","frequency":"2427","time":"Sunday, January 5, 2014 10:25:03 PM Iran Standard Time"}}
{"WiFi":{"SSID":"paliz","BSSID":"fc:75:16:d6:4e:21","capabilities":"[WPA-PSK-TKIP+CCMP][WPA2-PSK-TKIP+CCMP][WPS][ESS]","level":"-74","frequency":"2412","time":"Sunday, January 5, 2014 10:25:04 PM Iran Standard Time"}}
{"WiFi":{"SSID":"EMADI","BSSID":"00:04:ed:ce:37:7c","capabilities":"[WPA2-PSK-TKIP+CCMP][WPS][ESS]","level":"-84","frequency":"2412","time":"Sunday, January 5, 2014 10:25:04 PM Iran Standard Time"}}
{"WiFi":{"SSID":"irancell","BSSID":"bc:76:70:ab:1f:a4","capabilities":"[WPA2-PSK-CCMP][ESS]","level":"-77","frequency":"2432","time":"Sunday, January 5, 2014 10:25:04 PM Iran Standard Time"}}
{"WiFi":{"SSID":"Eleya","BSSID":"98:42:46:06:28:84","capabilities":"[WPA2-PSK-TKIP+CCMP][ESS]","level":"-90","frequency":"2452","time":"Sunday, January 5, 2014 10:25:04 PM Iran Standard Time"}}
{"WiFi":{"SSID":"as","BSSID":"bc:f6:85:e0:84:43","capabilities":"[WPA-PSK-TKIP+CCMP][WPA2-PSK-TKIP+CCMP][WPS][ESS]","level":"-95","frequency":"2412","time":"Sunday, January 5, 2014 10:25:04 PM Iran Standard Time"}}
{"WiFi":{"SSID":"390A9A","BSSID":"00:1f:fb:39:0a:9a","capabilities":"[WEP][ESS]","level":"-92","frequency":"2427","time":"Sunday, January 5, 2014 10:25:04 PM Iran Standard Time"}}
{"WiFi":{"SSID":"paliz","BSSID":"fc:75:16:d6:4e:21","capabilities":"[WPA-PSK-TKIP+CCMP][WPA2-PSK-TKIP+CCMP][WPS][ESS]","level":"-74","frequency":"2412","time":"Sunday, January 5, 2014 10:26:03 PM Iran Standard Time"}}
{"WiFi":{"SSID":"EMADI","BSSID":"00:04:ed:ce:37:7c","capabilities":"[WPA2-PSK-TKIP+CCMP][WPS][ESS]","level":"-84","frequency":"2412","time":"Sunday, January 5, 2014 10:26:03 PM Iran Standard Time"}}
{"WiFi":{"SSID":"irancell","BSSID":"bc:76:70:ab:1f:a4","capabilities":"[WPA2-PSK-CCMP][ESS]","level":"-77","frequency":"2432","time":"Sunday, January 5, 2014 10:26:03 PM Iran Standard Time"}}
{"WiFi":{"SSID":"Eleya","BSSID":"98:42:46:06:28:84","capabilities":"[WPA2-PSK-TKIP+CCMP][ESS]","level":"-90","frequency":"2452","time":"Sunday, January 5, 2014 10:26:03 PM Iran Standard Time"}}
{"WiFi":{"SSID":"as","BSSID":"bc:f6:85:e0:84:43","capabilities":"[WPA-PSK-TKIP+CCMP][WPA2-PSK-TKIP+CCMP][WPS][ESS]","level":"-95","frequency":"2412","time":"Sunday, January 5, 2014 10:26:03 PM Iran Standard Time"}}
{"WiFi":{"SSID":"390A9A","BSSID":"00:1f:fb:39:0a:9a","capabilities":"[WEP][ESS]","level":"-92","frequency":"2427","time":"Sunday, January 5, 2014 10:26:03 PM Iran Standard Time"}}
{"WiFi":{"SSID":"paliz","BSSID":"fc:75:16:d6:4e:21","capabilities":"[WPA-PSK-TKIP+CCMP][WPA2-PSK-TKIP+CCMP][WPS][ESS]","level":"-74","frequency":"2412","time":"Sunday, January 5, 2014 10:26:04 PM Iran Standard Time"}}
{"WiFi":{"SSID":"EMADI","BSSID":"00:04:ed:ce:37:7c","capabilities":"[WPA2-PSK-TKIP+CCMP][WPS][ESS]","level":"-84","frequency":"2412","time":"Sunday, January 5, 2014 10:26:04 PM Iran Standard Time"}}
{"WiFi":{"SSID":"irancell","BSSID":"bc:76:70:ab:1f:a4","capabilities":"[WPA2-PSK-CCMP][ESS]","level":"-77","frequency":"2432","time":"Sunday, January 5, 2014 10:26:04 PM Iran Standard Time"}}
{"WiFi":{"SSID":"Eleya","BSSID":"98:42:46:06:28:84","capabilities":"[WPA2-PSK-TKIP+CCMP][ESS]","level":"-90","frequency":"2452","time":"Sunday, January 5, 2014 10:26:04 PM Iran Standard Time"}}
{"WiFi":{"SSID":"as","BSSID":"bc:f6:85:e0:84:43","capabilities":"[WPA-PSK-TKIP+CCMP][WPA2-PSK-TKIP+CCMP][WPS][ESS]","level":"-95","frequency":"2412","time":"Sunday, January 5, 2014 10:26:04 PM Iran Standard Time"}}
{"WiFi":{"SSID":"390A9A","BSSID":"00:1f:fb:39:0a:9a","capabilities":"[WEP][ESS]","level":"-92","frequency":"2427","time":"Sunday, January 5, 2014 10:26:04 PM Iran Standard Time"}}
{"Application":{"ProcessName":"com.instagram.android","Start":"1-5-2014 22:24:47","End":"1-5-2014 22:27:03"}}
{"WiFi":{"SSID":"paliz","BSSID":"fc:75:16:d6:4e:21","capabilities":"[WPA-PSK-TKIP+CCMP][WPA2-PSK-TKIP+CCMP][WPS][ESS]","level":"-74","frequency":"2412","time":"Sunday, January 5, 2014 10:27:03 PM Iran Standard Time"}}
{"WiFi":{"SSID":"EMADI","BSSID":"00:04:ed:ce:37:7c","capabilities":"[WPA2-PSK-TKIP+CCMP][WPS][ESS]","level":"-84","frequency":"2412","time":"Sunday, January 5, 2014 10:27:03 PM Iran Standard Time"}}
{"WiFi":{"SSID":"irancell","BSSID":"bc:76:70:ab:1f:a4","capabilities":"[WPA2-PSK-CCMP][ESS]","level":"-77","frequency":"2432","time":"Sunday, January 5, 2014 10:27:03 PM Iran Standard Time"}}
{"WiFi":{"SSID":"Eleya","BSSID":"98:42:46:06:28:84","capabilities":"[WPA2-PSK-TKIP+CCMP][ESS]","level":"-90","frequency":"2452","time":"Sunday, January 5, 2014 10:27:03 PM Iran Standard Time"}}
{"WiFi":{"SSID":"as","BSSID":"bc:f6:85:e0:84:43","capabilities":"[WPA-PSK-TKIP+CCMP][WPA2-PSK-TKIP+CCMP][WPS][ESS]","level":"-95","frequency":"2412","time":"Sunday, January 5, 2014 10:27:03 PM Iran Standard Time"}}
{"WiFi":{"SSID":"390A9A","BSSID":"00:1f:fb:39:0a:9a","capabilities":"[WEP][ESS]","level":"-92","frequency":"2427","time":"Sunday, January 5, 2014 10:27:03 PM Iran Standard Time"}}
{"WiFi":{"SSID":"paliz","BSSID":"fc:75:16:d6:4e:21","capabilities":"[WPA-PSK-TKIP+CCMP][WPA2-PSK-TKIP+CCMP][WPS][ESS]","level":"-74","frequency":"2412","time":"Sunday, January 5, 2014 10:27:06 PM Iran Standard Time"}}
{"WiFi":{"SSID":"EMADI","BSSID":"00:04:ed:ce:37:7c","capabilities":"[WPA2-PSK-TKIP+CCMP][WPS][ESS]","level":"-84","frequency":"2412","time":"Sunday, January 5, 2014 10:27:06 PM Iran Standard Time"}}
{"WiFi":{"SSID":"irancell","BSSID":"bc:76:70:ab:1f:a4","capabilities":"[WPA2-PSK-CCMP][ESS]","level":"-77","frequency":"2432","time":"Sunday, January 5, 2014 10:27:06 PM Iran Standard Time"}}
{"WiFi":{"SSID":"Eleya","BSSID":"98:42:46:06:28:84","capabilities":"[WPA2-PSK-TKIP+CCMP][ESS]","level":"-90","frequency":"2452","time":"Sunday, January 5, 2014 10:27:06 PM Iran Standard Time"}}
{"WiFi":{"SSID":"as","BSSID":"bc:f6:85:e0:84:43","capabilities":"[WPA-PSK-TKIP+CCMP][WPA2-PSK-TKIP+CCMP][WPS][ESS]","level":"-95","frequency":"2412","time":"Sunday, January 5, 2014 10:27:06 PM Iran Standard Time"}}
{"WiFi":{"SSID":"390A9A","BSSID":"00:1f:fb:39:0a:9a","capabilities":"[WEP][ESS]","level":"-92","frequency":"2427","time":"Sunday, January 5, 2014 10:27:06 PM Iran Standard Time"}}
{"WiFi":{"SSID":"paliz","BSSID":"fc:75:16:d6:4e:21","capabilities":"[WPA-PSK-TKIP+CCMP][WPA2-PSK-TKIP+CCMP][WPS][ESS]","level":"-74","frequency":"2412","time":"Sunday, January 5, 2014 10:28:05 PM Iran Standard Time"}}
{"WiFi":{"SSID":"EMADI","BSSID":"00:04:ed:ce:37:7c","capabilities":"[WPA2-PSK-TKIP+CCMP][WPS][ESS]","level":"-84","frequency":"2412","time":"Sunday, January 5, 2014 10:28:05 PM Iran Standard Time"}}
{"WiFi":{"SSID":"irancell","BSSID":"bc:76:70:ab:1f:a4","capabilities":"[WPA2-PSK-CCMP][ESS]","level":"-77","frequency":"2432","time":"Sunday, January 5, 2014 10:28:05 PM Iran Standard Time"}}
{"WiFi":{"SSID":"Eleya","BSSID":"98:42:46:06:28:84","capabilities":"[WPA2-PSK-TKIP+CCMP][ESS]","level":"-90","frequency":"2452","time":"Sunday, January 5, 2014 10:28:05 PM Iran Standard Time"}}
{"WiFi":{"SSID":"as","BSSID":"bc:f6:85:e0:84:43","capabilities":"[WPA-PSK-TKIP+CCMP][WPA2-PSK-TKIP+CCMP][WPS][ESS]","level":"-95","frequency":"2412","time":"Sunday, January 5, 2014 10:28:05 PM Iran Standard Time"}}
{"WiFi":{"SSID":"390A9A","BSSID":"00:1f:fb:39:0a:9a","capabilities":"[WEP][ESS]","level":"-92","frequency":"2427","time":"Sunday, January 5, 2014 10:28:05 PM Iran Standard Time"}}
{"WiFi":{"SSID":"paliz","BSSID":"fc:75:16:d6:4e:21","capabilities":"[WPA-PSK-TKIP+CCMP][WPA2-PSK-TKIP+CCMP][WPS][ESS]","level":"-74","frequency":"2412","time":"Sunday, January 5, 2014 10:28:08 PM Iran Standard Time"}}
{"WiFi":{"SSID":"EMADI","BSSID":"00:04:ed:ce:37:7c","capabilities":"[WPA2-PSK-TKIP+CCMP][WPS][ESS]","level":"-84","frequency":"2412","time":"Sunday, January 5, 2014 10:28:08 PM Iran Standard Time"}}
{"WiFi":{"SSID":"irancell","BSSID":"bc:76:70:ab:1f:a4","capabilities":"[WPA2-PSK-CCMP][ESS]","level":"-77","frequency":"2432","time":"Sunday, January 5, 2014 10:28:08 PM Iran Standard Time"}}
{"WiFi":{"SSID":"Eleya","BSSID":"98:42:46:06:28:84","capabilities":"[WPA2-PSK-TKIP+CCMP][ESS]","level":"-90","frequency":"2452","time":"Sunday, January 5, 2014 10:28:08 PM Iran Standard Time"}}
{"WiFi":{"SSID":"as","BSSID":"bc:f6:85:e0:84:43","capabilities":"[WPA-PSK-TKIP+CCMP][WPA2-PSK-TKIP+CCMP][WPS][ESS]","level":"-95","frequency":"2412","time":"Sunday, January 5, 2014 10:28:08 PM Iran Standard Time"}}
{"WiFi":{"SSID":"390A9A","BSSID":"00:1f:fb:39:0a:9a","capabilities":"[WEP][ESS]","level":"-92","frequency":"2427","time":"Sunday, January 5, 2014 10:28:08 PM Iran Standard Time"}}
{"WiFi":{"SSID":"paliz","BSSID":"fc:75:16:d6:4e:21","capabilities":"[WPA-PSK-TKIP+CCMP][WPA2-PSK-TKIP+CCMP][WPS][ESS]","level":"-74","frequency":"2412","time":"Sunday, January 5, 2014 10:29:34 PM Iran Standard Time"}}
{"WiFi":{"SSID":"EMADI","BSSID":"00:04:ed:ce:37:7c","capabilities":"[WPA2-PSK-TKIP+CCMP][WPS][ESS]","level":"-84","frequency":"2412","time":"Sunday, January 5, 2014 10:29:34 PM Iran Standard Time"}}
{"WiFi":{"SSID":"irancell","BSSID":"bc:76:70:ab:1f:a4","capabilities":"[WPA2-PSK-CCMP][ESS]","level":"-77","frequency":"2432","time":"Sunday, January 5, 2014 10:29:34 PM Iran Standard Time"}}
{"WiFi":{"SSID":"Eleya","BSSID":"98:42:46:06:28:84","capabilities":"[WPA2-PSK-TKIP+CCMP][ESS]","level":"-90","frequency":"2452","time":"Sunday, January 5, 2014 10:29:34 PM Iran Standard Time"}}
{"WiFi":{"SSID":"as","BSSID":"bc:f6:85:e0:84:43","capabilities":"[WPA-PSK-TKIP+CCMP][WPA2-PSK-TKIP+CCMP][WPS][ESS]","level":"-95","frequency":"2412","time":"Sunday, January 5, 2014 10:29:34 PM Iran Standard Time"}}
{"WiFi":{"SSID":"390A9A","BSSID":"00:1f:fb:39:0a:9a","capabilities":"[WEP][ESS]","level":"-92","frequency":"2427","time":"Sunday, January 5, 2014 10:29:34 PM Iran Standard Time"}}
{"WiFi":{"SSID":"paliz","BSSID":"fc:75:16:d6:4e:21","capabilities":"[WPA-PSK-TKIP+CCMP][WPA2-PSK-TKIP+CCMP][WPS][ESS]","level":"-74","frequency":"2412","time":"Sunday, January 5, 2014 10:29:36 PM Iran Standard Time"}}
{"WiFi":{"SSID":"EMADI","BSSID":"00:04:ed:ce:37:7c","capabilities":"[WPA2-PSK-TKIP+CCMP][WPS][ESS]","level":"-84","frequency":"2412","time":"Sunday, January 5, 2014 10:29:36 PM Iran Standard Time"}}
{"WiFi":{"SSID":"irancell","BSSID":"bc:76:70:ab:1f:a4","capabilities":"[WPA2-PSK-CCMP][ESS]","level":"-77","frequency":"2432","time":"Sunday, January 5, 2014 10:29:36 PM Iran Standard Time"}}
{"WiFi":{"SSID":"Eleya","BSSID":"98:42:46:06:28:84","capabilities":"[WPA2-PSK-TKIP+CCMP][ESS]","level":"-90","frequency":"2452","time":"Sunday, January 5, 2014 10:29:36 PM Iran Standard Time"}}
{"WiFi":{"SSID":"as","BSSID":"bc:f6:85:e0:84:43","capabilities":"[WPA-PSK-TKIP+CCMP][WPA2-PSK-TKIP+CCMP][WPS][ESS]","level":"-95","frequency":"2412","time":"Sunday, January 5, 2014 10:29:36 PM Iran Standard Time"}}
{"WiFi":{"SSID":"390A9A","BSSID":"00:1f:fb:39:0a:9a","capabilities":"[WEP][ESS]","level":"-92","frequency":"2427","time":"Sunday, January 5, 2014 10:29:36 PM Iran Standard Time"}}
{"Application":{"ProcessName":"com.android.providers.telephony","Start":"1-5-2014 22:29:36","End":"1-5-2014 22:29:43"}}
{"WiFi":{"SSID":"paliz","BSSID":"fc:75:16:d6:4e:21","capabilities":"[WPA-PSK-TKIP+CCMP][WPA2-PSK-TKIP+CCMP][WPS][ESS]","level":"-74","frequency":"2412","time":"Sunday, January 5, 2014 10:30:34 PM Iran Standard Time"}}
{"WiFi":{"SSID":"EMADI","BSSID":"00:04:ed:ce:37:7c","capabilities":"[WPA2-PSK-TKIP+CCMP][WPS][ESS]","level":"-84","frequency":"2412","time":"Sunday, January 5, 2014 10:30:34 PM Iran Standard Time"}}
{"WiFi":{"SSID":"irancell","BSSID":"bc:76:70:ab:1f:a4","capabilities":"[WPA2-PSK-CCMP][ESS]","level":"-77","frequency":"2432","time":"Sunday, January 5, 2014 10:30:34 PM Iran Standard Time"}}
{"WiFi":{"SSID":"Eleya","BSSID":"98:42:46:06:28:84","capabilities":"[WPA2-PSK-TKIP+CCMP][ESS]","level":"-90","frequency":"2452","time":"Sunday, January 5, 2014 10:30:34 PM Iran Standard Time"}}
{"WiFi":{"SSID":"as","BSSID":"bc:f6:85:e0:84:43","capabilities":"[WPA-PSK-TKIP+CCMP][WPA2-PSK-TKIP+CCMP][WPS][ESS]","level":"-95","frequency":"2412","time":"Sunday, January 5, 2014 10:30:34 PM Iran Standard Time"}}
{"WiFi":{"SSID":"390A9A","BSSID":"00:1f:fb:39:0a:9a","capabilities":"[WEP][ESS]","level":"-92","frequency":"2427","time":"Sunday, January 5, 2014 10:30:34 PM Iran Standard Time"}}
{"Application":{"ProcessName":"com.vodafone.shop","Start":"1-5-2014 22:30:28","End":"1-5-2014 22:30:35"}}
{"WiFi":{"SSID":"paliz","BSSID":"fc:75:16:d6:4e:21","capabilities":"[WPA-PSK-TKIP+CCMP][WPA2-PSK-TKIP+CCMP][WPS][ESS]","level":"-74","frequency":"2412","time":"Sunday, January 5, 2014 10:30:36 PM Iran Standard Time"}}
{"WiFi":{"SSID":"EMADI","BSSID":"00:04:ed:ce:37:7c","capabilities":"[WPA2-PSK-TKIP+CCMP][WPS][ESS]","level":"-84","frequency":"2412","time":"Sunday, January 5, 2014 10:30:36 PM Iran Standard Time"}}
{"WiFi":{"SSID":"irancell","BSSID":"bc:76:70:ab:1f:a4","capabilities":"[WPA2-PSK-CCMP][ESS]","level":"-77","frequency":"2432","time":"Sunday, January 5, 2014 10:30:36 PM Iran Standard Time"}}
{"WiFi":{"SSID":"Eleya","BSSID":"98:42:46:06:28:84","capabilities":"[WPA2-PSK-TKIP+CCMP][ESS]","level":"-90","frequency":"2452","time":"Sunday, January 5, 2014 10:30:36 PM Iran Standard Time"}}
{"WiFi":{"SSID":"as","BSSID":"bc:f6:85:e0:84:43","capabilities":"[WPA-PSK-TKIP+CCMP][WPA2-PSK-TKIP+CCMP][WPS][ESS]","level":"-95","frequency":"2412","time":"Sunday, January 5, 2014 10:30:36 PM Iran Standard Time"}}
{"WiFi":{"SSID":"390A9A","BSSID":"00:1f:fb:39:0a:9a","capabilities":"[WEP][ESS]","level":"-92","frequency":"2427","time":"Sunday, January 5, 2014 10:30:36 PM Iran Standard Time"}}
{"Application":{"ProcessName":"com.viber.voip","Start":"1-5-2014 22:29:33","End":"1-5-2014 22:30:38"}}
{"Application":{"ProcessName":"com.google.process.location","Start":"1-5-2014 22:30:38","End":"1-5-2014 22:30:45"}}
{"Application":{"ProcessName":"com.instagram.android","Start":"1-5-2014 22:30:38","End":"1-5-2014 22:30:45"}}
{"Application":{"ProcessName":"com.viber.voip","Start":"1-5-2014 22:30:49","End":"1-5-2014 22:31:05"}}
{"WiFi":{"SSID":"paliz","BSSID":"fc:75:16:d6:4e:21","capabilities":"[WPA-PSK-TKIP+CCMP][WPA2-PSK-TKIP+CCMP][WPS][ESS]","level":"-74","frequency":"2412","time":"Sunday, January 5, 2014 10:31:34 PM Iran Standard Time"}}
{"WiFi":{"SSID":"EMADI","BSSID":"00:04:ed:ce:37:7c","capabilities":"[WPA2-PSK-TKIP+CCMP][WPS][ESS]","level":"-84","frequency":"2412","time":"Sunday, January 5, 2014 10:31:34 PM Iran Standard Time"}}
{"WiFi":{"SSID":"irancell","BSSID":"bc:76:70:ab:1f:a4","capabilities":"[WPA2-PSK-CCMP][ESS]","level":"-77","frequency":"2432","time":"Sunday, January 5, 2014 10:31:34 PM Iran Standard Time"}}
{"WiFi":{"SSID":"Eleya","BSSID":"98:42:46:06:28:84","capabilities":"[WPA2-PSK-TKIP+CCMP][ESS]","level":"-90","frequency":"2452","time":"Sunday, January 5, 2014 10:31:34 PM Iran Standard Time"}}
{"WiFi":{"SSID":"as","BSSID":"bc:f6:85:e0:84:43","capabilities":"[WPA-PSK-TKIP+CCMP][WPA2-PSK-TKIP+CCMP][WPS][ESS]","level":"-95","frequency":"2412","time":"Sunday, January 5, 2014 10:31:34 PM Iran Standard Time"}}
{"WiFi":{"SSID":"390A9A","BSSID":"00:1f:fb:39:0a:9a","capabilities":"[WEP][ESS]","level":"-92","frequency":"2427","time":"Sunday, January 5, 2014 10:31:34 PM Iran Standard Time"}}
{"WiFi":{"SSID":"paliz","BSSID":"fc:75:16:d6:4e:21","capabilities":"[WPA-PSK-TKIP+CCMP][WPA2-PSK-TKIP+CCMP][WPS][ESS]","level":"-74","frequency":"2412","time":"Sunday, January 5, 2014 10:31:37 PM Iran Standard Time"}}
{"WiFi":{"SSID":"EMADI","BSSID":"00:04:ed:ce:37:7c","capabilities":"[WPA2-PSK-TKIP+CCMP][WPS][ESS]","level":"-84","frequency":"2412","time":"Sunday, January 5, 2014 10:31:37 PM Iran Standard Time"}}
{"WiFi":{"SSID":"irancell","BSSID":"bc:76:70:ab:1f:a4","capabilities":"[WPA2-PSK-CCMP][ESS]","level":"-77","frequency":"2432","time":"Sunday, January 5, 2014 10:31:37 PM Iran Standard Time"}}
{"WiFi":{"SSID":"Eleya","BSSID":"98:42:46:06:28:84","capabilities":"[WPA2-PSK-TKIP+CCMP][ESS]","level":"-90","frequency":"2452","time":"Sunday, January 5, 2014 10:31:37 PM Iran Standard Time"}}
{"WiFi":{"SSID":"as","BSSID":"bc:f6:85:e0:84:43","capabilities":"[WPA-PSK-TKIP+CCMP][WPA2-PSK-TKIP+CCMP][WPS][ESS]","level":"-95","frequency":"2412","time":"Sunday, January 5, 2014 10:31:37 PM Iran Standard Time"}}
{"WiFi":{"SSID":"390A9A","BSSID":"00:1f:fb:39:0a:9a","capabilities":"[WEP][ESS]","level":"-92","frequency":"2427","time":"Sunday, January 5, 2014 10:31:37 PM Iran Standard Time"}}
{"WiFi":{"SSID":"paliz","BSSID":"fc:75:16:d6:4e:21","capabilities":"[WPA-PSK-TKIP+CCMP][WPA2-PSK-TKIP+CCMP][WPS][ESS]","level":"-74","frequency":"2412","time":"Sunday, January 5, 2014 10:32:34 PM Iran Standard Time"}}
{"WiFi":{"SSID":"EMADI","BSSID":"00:04:ed:ce:37:7c","capabilities":"[WPA2-PSK-TKIP+CCMP][WPS][ESS]","level":"-84","frequency":"2412","time":"Sunday, January 5, 2014 10:32:34 PM Iran Standard Time"}}
{"WiFi":{"SSID":"irancell","BSSID":"bc:76:70:ab:1f:a4","capabilities":"[WPA2-PSK-CCMP][ESS]","level":"-77","frequency":"2432","time":"Sunday, January 5, 2014 10:32:34 PM Iran Standard Time"}}
{"WiFi":{"SSID":"Eleya","BSSID":"98:42:46:06:28:84","capabilities":"[WPA2-PSK-TKIP+CCMP][ESS]","level":"-90","frequency":"2452","time":"Sunday, January 5, 2014 10:32:34 PM Iran Standard Time"}}
{"WiFi":{"SSID":"as","BSSID":"bc:f6:85:e0:84:43","capabilities":"[WPA-PSK-TKIP+CCMP][WPA2-PSK-TKIP+CCMP][WPS][ESS]","level":"-95","frequency":"2412","time":"Sunday, January 5, 2014 10:32:34 PM Iran Standard Time"}}
{"WiFi":{"SSID":"390A9A","BSSID":"00:1f:fb:39:0a:9a","capabilities":"[WEP][ESS]","level":"-92","frequency":"2427","time":"Sunday, January 5, 2014 10:32:34 PM Iran Standard Time"}}
{"WiFi":{"SSID":"paliz","BSSID":"fc:75:16:d6:4e:21","capabilities":"[WPA-PSK-TKIP+CCMP][WPA2-PSK-TKIP+CCMP][WPS][ESS]","level":"-74","frequency":"2412","time":"Sunday, January 5, 2014 10:32:37 PM Iran Standard Time"}}
{"WiFi":{"SSID":"EMADI","BSSID":"00:04:ed:ce:37:7c","capabilities":"[WPA2-PSK-TKIP+CCMP][WPS][ESS]","level":"-84","frequency":"2412","time":"Sunday, January 5, 2014 10:32:37 PM Iran Standard Time"}}
{"WiFi":{"SSID":"irancell","BSSID":"bc:76:70:ab:1f:a4","capabilities":"[WPA2-PSK-CCMP][ESS]","level":"-77","frequency":"2432","time":"Sunday, January 5, 2014 10:32:37 PM Iran Standard Time"}}
{"WiFi":{"SSID":"Eleya","BSSID":"98:42:46:06:28:84","capabilities":"[WPA2-PSK-TKIP+CCMP][ESS]","level":"-90","frequency":"2452","time":"Sunday, January 5, 2014 10:32:37 PM Iran Standard Time"}}
{"WiFi":{"SSID":"as","BSSID":"bc:f6:85:e0:84:43","capabilities":"[WPA-PSK-TKIP+CCMP][WPA2-PSK-TKIP+CCMP][WPS][ESS]","level":"-95","frequency":"2412","time":"Sunday, January 5, 2014 10:32:37 PM Iran Standard Time"}}
{"WiFi":{"SSID":"390A9A","BSSID":"00:1f:fb:39:0a:9a","capabilities":"[WEP][ESS]","level":"-92","frequency":"2427","time":"Sunday, January 5, 2014 10:32:37 PM Iran Standard Time"}}
{"WiFi":{"SSID":"paliz","BSSID":"fc:75:16:d6:4e:21","capabilities":"[WPA-PSK-TKIP+CCMP][WPA2-PSK-TKIP+CCMP][WPS][ESS]","level":"-74","frequency":"2412","time":"Sunday, January 5, 2014 10:33:34 PM Iran Standard Time"}}
{"WiFi":{"SSID":"EMADI","BSSID":"00:04:ed:ce:37:7c","capabilities":"[WPA2-PSK-TKIP+CCMP][WPS][ESS]","level":"-84","frequency":"2412","time":"Sunday, January 5, 2014 10:33:34 PM Iran Standard Time"}}
{"WiFi":{"SSID":"irancell","BSSID":"bc:76:70:ab:1f:a4","capabilities":"[WPA2-PSK-CCMP][ESS]","level":"-77","frequency":"2432","time":"Sunday, January 5, 2014 10:33:34 PM Iran Standard Time"}}
{"WiFi":{"SSID":"Eleya","BSSID":"98:42:46:06:28:84","capabilities":"[WPA2-PSK-TKIP+CCMP][ESS]","level":"-90","frequency":"2452","time":"Sunday, January 5, 2014 10:33:34 PM Iran Standard Time"}}
{"WiFi":{"SSID":"as","BSSID":"bc:f6:85:e0:84:43","capabilities":"[WPA-PSK-TKIP+CCMP][WPA2-PSK-TKIP+CCMP][WPS][ESS]","level":"-95","frequency":"2412","time":"Sunday, January 5, 2014 10:33:34 PM Iran Standard Time"}}
{"WiFi":{"SSID":"390A9A","BSSID":"00:1f:fb:39:0a:9a","capabilities":"[WEP][ESS]","level":"-92","frequency":"2427","time":"Sunday, January 5, 2014 10:33:34 PM Iran Standard Time"}}
{"WiFi":{"SSID":"paliz","BSSID":"fc:75:16:d6:4e:21","capabilities":"[WPA-PSK-TKIP+CCMP][WPA2-PSK-TKIP+CCMP][WPS][ESS]","level":"-74","frequency":"2412","time":"Sunday, January 5, 2014 10:33:37 PM Iran Standard Time"}}
{"WiFi":{"SSID":"EMADI","BSSID":"00:04:ed:ce:37:7c","capabilities":"[WPA2-PSK-TKIP+CCMP][WPS][ESS]","level":"-84","frequency":"2412","time":"Sunday, January 5, 2014 10:33:37 PM Iran Standard Time"}}
{"WiFi":{"SSID":"irancell","BSSID":"bc:76:70:ab:1f:a4","capabilities":"[WPA2-PSK-CCMP][ESS]","level":"-77","frequency":"2432","time":"Sunday, January 5, 2014 10:33:37 PM Iran Standard Time"}}
{"WiFi":{"SSID":"Eleya","BSSID":"98:42:46:06:28:84","capabilities":"[WPA2-PSK-TKIP+CCMP][ESS]","level":"-90","frequency":"2452","time":"Sunday, January 5, 2014 10:33:37 PM Iran Standard Time"}}
{"WiFi":{"SSID":"as","BSSID":"bc:f6:85:e0:84:43","capabilities":"[WPA-PSK-TKIP+CCMP][WPA2-PSK-TKIP+CCMP][WPS][ESS]","level":"-95","frequency":"2412","time":"Sunday, January 5, 2014 10:33:37 PM Iran Standard Time"}}
{"WiFi":{"SSID":"390A9A","BSSID":"00:1f:fb:39:0a:9a","capabilities":"[WEP][ESS]","level":"-92","frequency":"2427","time":"Sunday, January 5, 2014 10:33:37 PM Iran Standard Time"}}
{"Application":{"ProcessName":"com.viber.voip","Start":"1-5-2014 22:32:20","End":"1-5-2014 22:34:17"}}
{"WiFi":{"SSID":"paliz","BSSID":"fc:75:16:d6:4e:21","capabilities":"[WPA-PSK-TKIP+CCMP][WPA2-PSK-TKIP+CCMP][WPS][ESS]","level":"-74","frequency":"2412","time":"Sunday, January 5, 2014 10:34:34 PM Iran Standard Time"}}
{"WiFi":{"SSID":"EMADI","BSSID":"00:04:ed:ce:37:7c","capabilities":"[WPA2-PSK-TKIP+CCMP][WPS][ESS]","level":"-84","frequency":"2412","time":"Sunday, January 5, 2014 10:34:34 PM Iran Standard Time"}}
{"WiFi":{"SSID":"irancell","BSSID":"bc:76:70:ab:1f:a4","capabilities":"[WPA2-PSK-CCMP][ESS]","level":"-77","frequency":"2432","time":"Sunday, January 5, 2014 10:34:34 PM Iran Standard Time"}}
{"WiFi":{"SSID":"Eleya","BSSID":"98:42:46:06:28:84","capabilities":"[WPA2-PSK-TKIP+CCMP][ESS]","level":"-90","frequency":"2452","time":"Sunday, January 5, 2014 10:34:34 PM Iran Standard Time"}}
{"WiFi":{"SSID":"as","BSSID":"bc:f6:85:e0:84:43","capabilities":"[WPA-PSK-TKIP+CCMP][WPA2-PSK-TKIP+CCMP][WPS][ESS]","level":"-95","frequency":"2412","time":"Sunday, January 5, 2014 10:34:34 PM Iran Standard Time"}}
{"WiFi":{"SSID":"390A9A","BSSID":"00:1f:fb:39:0a:9a","capabilities":"[WEP][ESS]","level":"-92","frequency":"2427","time":"Sunday, January 5, 2014 10:34:34 PM Iran Standard Time"}}
{"Application":{"ProcessName":"com.lmi.vodafone.rescue","Start":"1-5-2014 22:29:33","End":"1-5-2014 22:34:37"}}
{"Application":{"ProcessName":"com.android.htcdialer","Start":"1-5-2014 22:29:33","End":"1-5-2014 22:34:37"}}
{"Application":{"ProcessName":"com.android.nfc","Start":"1-5-2014 22:29:33","End":"1-5-2014 22:34:37"}}
{"WiFi":{"SSID":"paliz","BSSID":"fc:75:16:d6:4e:21","capabilities":"[WPA-PSK-TKIP+CCMP][WPA2-PSK-TKIP+CCMP][WPS][ESS]","level":"-74","frequency":"2412","time":"Sunday, January 5, 2014 10:34:37 PM Iran Standard Time"}}
{"WiFi":{"SSID":"EMADI","BSSID":"00:04:ed:ce:37:7c","capabilities":"[WPA2-PSK-TKIP+CCMP][WPS][ESS]","level":"-84","frequency":"2412","time":"Sunday, January 5, 2014 10:34:37 PM Iran Standard Time"}}
{"WiFi":{"SSID":"irancell","BSSID":"bc:76:70:ab:1f:a4","capabilities":"[WPA2-PSK-CCMP][ESS]","level":"-77","frequency":"2432","time":"Sunday, January 5, 2014 10:34:37 PM Iran Standard Time"}}
{"WiFi":{"SSID":"Eleya","BSSID":"98:42:46:06:28:84","capabilities":"[WPA2-PSK-TKIP+CCMP][ESS]","level":"-90","frequency":"2452","time":"Sunday, January 5, 2014 10:34:37 PM Iran Standard Time"}}
{"WiFi":{"SSID":"as","BSSID":"bc:f6:85:e0:84:43","capabilities":"[WPA-PSK-TKIP+CCMP][WPA2-PSK-TKIP+CCMP][WPS][ESS]","level":"-95","frequency":"2412","time":"Sunday, January 5, 2014 10:34:37 PM Iran Standard Time"}}
{"WiFi":{"SSID":"390A9A","BSSID":"00:1f:fb:39:0a:9a","capabilities":"[WEP][ESS]","level":"-92","frequency":"2427","time":"Sunday, January 5, 2014 10:34:37 PM Iran Standard Time"}}
{"WiFi":{"SSID":"paliz","BSSID":"fc:75:16:d6:4e:21","capabilities":"[WPA-PSK-TKIP+CCMP][WPA2-PSK-TKIP+CCMP][WPS][ESS]","level":"-74","frequency":"2412","time":"Sunday, January 5, 2014 10:35:34 PM Iran Standard Time"}}
{"WiFi":{"SSID":"EMADI","BSSID":"00:04:ed:ce:37:7c","capabilities":"[WPA2-PSK-TKIP+CCMP][WPS][ESS]","level":"-84","frequency":"2412","time":"Sunday, January 5, 2014 10:35:34 PM Iran Standard Time"}}
{"WiFi":{"SSID":"irancell","BSSID":"bc:76:70:ab:1f:a4","capabilities":"[WPA2-PSK-CCMP][ESS]","level":"-77","frequency":"2432","time":"Sunday, January 5, 2014 10:35:34 PM Iran Standard Time"}}
{"WiFi":{"SSID":"Eleya","BSSID":"98:42:46:06:28:84","capabilities":"[WPA2-PSK-TKIP+CCMP][ESS]","level":"-90","frequency":"2452","time":"Sunday, January 5, 2014 10:35:34 PM Iran Standard Time"}}
{"WiFi":{"SSID":"as","BSSID":"bc:f6:85:e0:84:43","capabilities":"[WPA-PSK-TKIP+CCMP][WPA2-PSK-TKIP+CCMP][WPS][ESS]","level":"-95","frequency":"2412","time":"Sunday, January 5, 2014 10:35:34 PM Iran Standard Time"}}
{"WiFi":{"SSID":"390A9A","BSSID":"00:1f:fb:39:0a:9a","capabilities":"[WEP][ESS]","level":"-92","frequency":"2427","time":"Sunday, January 5, 2014 10:35:34 PM Iran Standard Time"}}
{"WiFi":{"SSID":"paliz","BSSID":"fc:75:16:d6:4e:21","capabilities":"[WPA-PSK-TKIP+CCMP][WPA2-PSK-TKIP+CCMP][WPS][ESS]","level":"-74","frequency":"2412","time":"Sunday, January 5, 2014 10:35:37 PM Iran Standard Time"}}
{"WiFi":{"SSID":"EMADI","BSSID":"00:04:ed:ce:37:7c","capabilities":"[WPA2-PSK-TKIP+CCMP][WPS][ESS]","level":"-84","frequency":"2412","time":"Sunday, January 5, 2014 10:35:37 PM Iran Standard Time"}}
{"WiFi":{"SSID":"irancell","BSSID":"bc:76:70:ab:1f:a4","capabilities":"[WPA2-PSK-CCMP][ESS]","level":"-77","frequency":"2432","time":"Sunday, January 5, 2014 10:35:37 PM Iran Standard Time"}}
{"WiFi":{"SSID":"Eleya","BSSID":"98:42:46:06:28:84","capabilities":"[WPA2-PSK-TKIP+CCMP][ESS]","level":"-90","frequency":"2452","time":"Sunday, January 5, 2014 10:35:37 PM Iran Standard Time"}}
{"WiFi":{"SSID":"as","BSSID":"bc:f6:85:e0:84:43","capabilities":"[WPA-PSK-TKIP+CCMP][WPA2-PSK-TKIP+CCMP][WPS][ESS]","level":"-95","frequency":"2412","time":"Sunday, January 5, 2014 10:35:37 PM Iran Standard Time"}}
{"WiFi":{"SSID":"390A9A","BSSID":"00:1f:fb:39:0a:9a","capabilities":"[WEP][ESS]","level":"-92","frequency":"2427","time":"Sunday, January 5, 2014 10:35:37 PM Iran Standard Time"}}
{"Application":{"ProcessName":"com.google.android.googlequicksearchbox","Start":"1-5-2014 22:36:28","End":"1-5-2014 22:36:32"}}
{"WiFi":{"SSID":"paliz","BSSID":"fc:75:16:d6:4e:21","capabilities":"[WPA-PSK-TKIP+CCMP][WPA2-PSK-TKIP+CCMP][WPS][ESS]","level":"-74","frequency":"2412","time":"Sunday, January 5, 2014 10:36:34 PM Iran Standard Time"}}
{"WiFi":{"SSID":"EMADI","BSSID":"00:04:ed:ce:37:7c","capabilities":"[WPA2-PSK-TKIP+CCMP][WPS][ESS]","level":"-84","frequency":"2412","time":"Sunday, January 5, 2014 10:36:34 PM Iran Standard Time"}}
{"WiFi":{"SSID":"irancell","BSSID":"bc:76:70:ab:1f:a4","capabilities":"[WPA2-PSK-CCMP][ESS]","level":"-77","frequency":"2432","time":"Sunday, January 5, 2014 10:36:34 PM Iran Standard Time"}}
{"WiFi":{"SSID":"Eleya","BSSID":"98:42:46:06:28:84","capabilities":"[WPA2-PSK-TKIP+CCMP][ESS]","level":"-90","frequency":"2452","time":"Sunday, January 5, 2014 10:36:34 PM Iran Standard Time"}}
{"WiFi":{"SSID":"as","BSSID":"bc:f6:85:e0:84:43","capabilities":"[WPA-PSK-TKIP+CCMP][WPA2-PSK-TKIP+CCMP][WPS][ESS]","level":"-95","frequency":"2412","time":"Sunday, January 5, 2014 10:36:34 PM Iran Standard Time"}}
{"WiFi":{"SSID":"390A9A","BSSID":"00:1f:fb:39:0a:9a","capabilities":"[WEP][ESS]","level":"-92","frequency":"2427","time":"Sunday, January 5, 2014 10:36:34 PM Iran Standard Time"}}
{"WiFi":{"SSID":"paliz","BSSID":"fc:75:16:d6:4e:21","capabilities":"[WPA-PSK-TKIP+CCMP][WPA2-PSK-TKIP+CCMP][WPS][ESS]","level":"-74","frequency":"2412","time":"Sunday, January 5, 2014 10:36:38 PM Iran Standard Time"}}
{"WiFi":{"SSID":"EMADI","BSSID":"00:04:ed:ce:37:7c","capabilities":"[WPA2-PSK-TKIP+CCMP][WPS][ESS]","level":"-84","frequency":"2412","time":"Sunday, January 5, 2014 10:36:38 PM Iran Standard Time"}}
{"WiFi":{"SSID":"irancell","BSSID":"bc:76:70:ab:1f:a4","capabilities":"[WPA2-PSK-CCMP][ESS]","level":"-77","frequency":"2432","time":"Sunday, January 5, 2014 10:36:38 PM Iran Standard Time"}}
{"WiFi":{"SSID":"Eleya","BSSID":"98:42:46:06:28:84","capabilities":"[WPA2-PSK-TKIP+CCMP][ESS]","level":"-90","frequency":"2452","time":"Sunday, January 5, 2014 10:36:38 PM Iran Standard Time"}}
{"WiFi":{"SSID":"as","BSSID":"bc:f6:85:e0:84:43","capabilities":"[WPA-PSK-TKIP+CCMP][WPA2-PSK-TKIP+CCMP][WPS][ESS]","level":"-95","frequency":"2412","time":"Sunday, January 5, 2014 10:36:38 PM Iran Standard Time"}}
{"WiFi":{"SSID":"390A9A","BSSID":"00:1f:fb:39:0a:9a","capabilities":"[WEP][ESS]","level":"-92","frequency":"2427","time":"Sunday, January 5, 2014 10:36:38 PM Iran Standard Time"}}
{"Application":{"ProcessName":"com.android.browser","Start":"1-5-2014 22:36:22","End":"1-5-2014 22:37:09"}}
{"Application":{"ProcessName":"com.lmi.vodafone.rescue","Start":"1-5-2014 22:34:37","End":"1-5-2014 22:37:19"}}
{"Application":{"ProcessName":"com.android.htcdialer","Start":"1-5-2014 22:34:37","End":"1-5-2014 22:37:19"}}
{"Application":{"ProcessName":"com.android.nfc","Start":"1-5-2014 22:34:37","End":"1-5-2014 22:37:19"}}
{"WiFi":{"SSID":"paliz","BSSID":"fc:75:16:d6:4e:21","capabilities":"[WPA-PSK-TKIP+CCMP][WPA2-PSK-TKIP+CCMP][WPS][ESS]","level":"-74","frequency":"2412","time":"Sunday, January 5, 2014 10:44:26 PM Iran Standard Time"}}
{"WiFi":{"SSID":"EMADI","BSSID":"00:04:ed:ce:37:7c","capabilities":"[WPA2-PSK-TKIP+CCMP][WPS][ESS]","level":"-84","frequency":"2412","time":"Sunday, January 5, 2014 10:44:26 PM Iran Standard Time"}}
{"WiFi":{"SSID":"irancell","BSSID":"bc:76:70:ab:1f:a4","capabilities":"[WPA2-PSK-CCMP][ESS]","level":"-77","frequency":"2432","time":"Sunday, January 5, 2014 10:44:26 PM Iran Standard Time"}}
{"WiFi":{"SSID":"Eleya","BSSID":"98:42:46:06:28:84","capabilities":"[WPA2-PSK-TKIP+CCMP][ESS]","level":"-90","frequency":"2452","time":"Sunday, January 5, 2014 10:44:26 PM Iran Standard Time"}}
{"WiFi":{"SSID":"as","BSSID":"bc:f6:85:e0:84:43","capabilities":"[WPA-PSK-TKIP+CCMP][WPA2-PSK-TKIP+CCMP][WPS][ESS]","level":"-95","frequency":"2412","time":"Sunday, January 5, 2014 10:44:26 PM Iran Standard Time"}}
{"WiFi":{"SSID":"390A9A","BSSID":"00:1f:fb:39:0a:9a","capabilities":"[WEP][ESS]","level":"-92","frequency":"2427","time":"Sunday, January 5, 2014 10:44:26 PM Iran Standard Time"}}
{"WiFi":{"SSID":"paliz","BSSID":"fc:75:16:d6:4e:21","capabilities":"[WPA-PSK-TKIP+CCMP][WPA2-PSK-TKIP+CCMP][WPS][ESS]","level":"-74","frequency":"2412","time":"Sunday, January 5, 2014 10:48:24 PM Iran Standard Time"}}
{"WiFi":{"SSID":"EMADI","BSSID":"00:04:ed:ce:37:7c","capabilities":"[WPA2-PSK-TKIP+CCMP][WPS][ESS]","level":"-84","frequency":"2412","time":"Sunday, January 5, 2014 10:48:24 PM Iran Standard Time"}}
{"WiFi":{"SSID":"irancell","BSSID":"bc:76:70:ab:1f:a4","capabilities":"[WPA2-PSK-CCMP][ESS]","level":"-77","frequency":"2432","time":"Sunday, January 5, 2014 10:48:24 PM Iran Standard Time"}}
{"WiFi":{"SSID":"Eleya","BSSID":"98:42:46:06:28:84","capabilities":"[WPA2-PSK-TKIP+CCMP][ESS]","level":"-90","frequency":"2452","time":"Sunday, January 5, 2014 10:48:24 PM Iran Standard Time"}}
{"WiFi":{"SSID":"as","BSSID":"bc:f6:85:e0:84:43","capabilities":"[WPA-PSK-TKIP+CCMP][WPA2-PSK-TKIP+CCMP][WPS][ESS]","level":"-95","frequency":"2412","time":"Sunday, January 5, 2014 10:48:24 PM Iran Standard Time"}}
{"WiFi":{"SSID":"390A9A","BSSID":"00:1f:fb:39:0a:9a","capabilities":"[WEP][ESS]","level":"-92","frequency":"2427","time":"Sunday, January 5, 2014 10:48:24 PM Iran Standard Time"}}
{"Application":{"ProcessName":"com.viber.voip","Start":"1-5-2014 22:53:10","End":"1-5-2014 22:53:21"}}
{"Application":{"ProcessName":"com.lmi.vodafone.rescue","Start":"1-5-2014 22:52:30","End":"1-5-2014 22:53:21"}}
{"Application":{"ProcessName":"com.android.htcdialer","Start":"1-5-2014 22:52:30","End":"1-5-2014 22:53:21"}}
{"Application":{"ProcessName":"com.android.nfc","Start":"1-5-2014 22:52:30","End":"1-5-2014 22:53:21"}}
{"WiFi":{"SSID":"paliz","BSSID":"fc:75:16:d6:4e:21","capabilities":"[WPA-PSK-TKIP+CCMP][WPA2-PSK-TKIP+CCMP][WPS][ESS]","level":"-74","frequency":"2412","time":"Sunday, January 5, 2014 10:53:21 PM Iran Standard Time"}}
{"WiFi":{"SSID":"EMADI","BSSID":"00:04:ed:ce:37:7c","capabilities":"[WPA2-PSK-TKIP+CCMP][WPS][ESS]","level":"-84","frequency":"2412","time":"Sunday, January 5, 2014 10:53:21 PM Iran Standard Time"}}
{"WiFi":{"SSID":"irancell","BSSID":"bc:76:70:ab:1f:a4","capabilities":"[WPA2-PSK-CCMP][ESS]","level":"-77","frequency":"2432","time":"Sunday, January 5, 2014 10:53:21 PM Iran Standard Time"}}
{"WiFi":{"SSID":"Eleya","BSSID":"98:42:46:06:28:84","capabilities":"[WPA2-PSK-TKIP+CCMP][ESS]","level":"-90","frequency":"2452","time":"Sunday, January 5, 2014 10:53:21 PM Iran Standard Time"}}
{"WiFi":{"SSID":"as","BSSID":"bc:f6:85:e0:84:43","capabilities":"[WPA-PSK-TKIP+CCMP][WPA2-PSK-TKIP+CCMP][WPS][ESS]","level":"-95","frequency":"2412","time":"Sunday, January 5, 2014 10:53:21 PM Iran Standard Time"}}
{"WiFi":{"SSID":"390A9A","BSSID":"00:1f:fb:39:0a:9a","capabilities":"[WEP][ESS]","level":"-92","frequency":"2427","time":"Sunday, January 5, 2014 10:53:21 PM Iran Standard Time"}}
{"WiFi":{"SSID":"paliz","BSSID":"fc:75:16:d6:4e:21","capabilities":"[WPA-PSK-TKIP+CCMP][WPA2-PSK-TKIP+CCMP][WPS][ESS]","level":"-74","frequency":"2412","time":"Sunday, January 5, 2014 10:53:51 PM Iran Standard Time"}}
{"WiFi":{"SSID":"EMADI","BSSID":"00:04:ed:ce:37:7c","capabilities":"[WPA2-PSK-TKIP+CCMP][WPS][ESS]","level":"-84","frequency":"2412","time":"Sunday, January 5, 2014 10:53:51 PM Iran Standard Time"}}
{"WiFi":{"SSID":"irancell","BSSID":"bc:76:70:ab:1f:a4","capabilities":"[WPA2-PSK-CCMP][ESS]","level":"-77","frequency":"2432","time":"Sunday, January 5, 2014 10:53:51 PM Iran Standard Time"}}
{"WiFi":{"SSID":"Eleya","BSSID":"98:42:46:06:28:84","capabilities":"[WPA2-PSK-TKIP+CCMP][ESS]","level":"-90","frequency":"2452","time":"Sunday, January 5, 2014 10:53:51 PM Iran Standard Time"}}
{"WiFi":{"SSID":"as","BSSID":"bc:f6:85:e0:84:43","capabilities":"[WPA-PSK-TKIP+CCMP][WPA2-PSK-TKIP+CCMP][WPS][ESS]","level":"-95","frequency":"2412","time":"Sunday, January 5, 2014 10:53:51 PM Iran Standard Time"}}
{"WiFi":{"SSID":"390A9A","BSSID":"00:1f:fb:39:0a:9a","capabilities":"[WEP][ESS]","level":"-92","frequency":"2427","time":"Sunday, January 5, 2014 10:53:51 PM Iran Standard Time"}}
{"WiFi":{"SSID":"paliz","BSSID":"fc:75:16:d6:4e:21","capabilities":"[WPA-PSK-TKIP+CCMP][WPA2-PSK-TKIP+CCMP][WPS][ESS]","level":"-74","frequency":"2412","time":"Sunday, January 5, 2014 11:03:41 PM Iran Standard Time"}}
{"WiFi":{"SSID":"EMADI","BSSID":"00:04:ed:ce:37:7c","capabilities":"[WPA2-PSK-TKIP+CCMP][WPS][ESS]","level":"-84","frequency":"2412","time":"Sunday, January 5, 2014 11:03:41 PM Iran Standard Time"}}
{"WiFi":{"SSID":"irancell","BSSID":"bc:76:70:ab:1f:a4","capabilities":"[WPA2-PSK-CCMP][ESS]","level":"-77","frequency":"2432","time":"Sunday, January 5, 2014 11:03:41 PM Iran Standard Time"}}
{"WiFi":{"SSID":"Eleya","BSSID":"98:42:46:06:28:84","capabilities":"[WPA2-PSK-TKIP+CCMP][ESS]","level":"-90","frequency":"2452","time":"Sunday, January 5, 2014 11:03:41 PM Iran Standard Time"}}
{"WiFi":{"SSID":"as","BSSID":"bc:f6:85:e0:84:43","capabilities":"[WPA-PSK-TKIP+CCMP][WPA2-PSK-TKIP+CCMP][WPS][ESS]","level":"-95","frequency":"2412","time":"Sunday, January 5, 2014 11:03:41 PM Iran Standard Time"}}
{"WiFi":{"SSID":"390A9A","BSSID":"00:1f:fb:39:0a:9a","capabilities":"[WEP][ESS]","level":"-92","frequency":"2427","time":"Sunday, January 5, 2014 11:03:41 PM Iran Standard Time"}}
{"Application":{"ProcessName":"com.viber.voip","Start":"1-5-2014 23:03:01","End":"1-5-2014 23:03:42"}}
{"WiFi":{"SSID":"paliz","BSSID":"fc:75:16:d6:4e:21","capabilities":"[WPA-PSK-TKIP+CCMP][WPA2-PSK-TKIP+CCMP][WPS][ESS]","level":"-74","frequency":"2412","time":"Sunday, January 5, 2014 11:03:44 PM Iran Standard Time"}}
{"WiFi":{"SSID":"EMADI","BSSID":"00:04:ed:ce:37:7c","capabilities":"[WPA2-PSK-TKIP+CCMP][WPS][ESS]","level":"-84","frequency":"2412","time":"Sunday, January 5, 2014 11:03:44 PM Iran Standard Time"}}
{"WiFi":{"SSID":"irancell","BSSID":"bc:76:70:ab:1f:a4","capabilities":"[WPA2-PSK-CCMP][ESS]","level":"-77","frequency":"2432","time":"Sunday, January 5, 2014 11:03:44 PM Iran Standard Time"}}
{"WiFi":{"SSID":"Eleya","BSSID":"98:42:46:06:28:84","capabilities":"[WPA2-PSK-TKIP+CCMP][ESS]","level":"-90","frequency":"2452","time":"Sunday, January 5, 2014 11:03:44 PM Iran Standard Time"}}
{"WiFi":{"SSID":"as","BSSID":"bc:f6:85:e0:84:43","capabilities":"[WPA-PSK-TKIP+CCMP][WPA2-PSK-TKIP+CCMP][WPS][ESS]","level":"-95","frequency":"2412","time":"Sunday, January 5, 2014 11:03:44 PM Iran Standard Time"}}
{"WiFi":{"SSID":"390A9A","BSSID":"00:1f:fb:39:0a:9a","capabilities":"[WEP][ESS]","level":"-92","frequency":"2427","time":"Sunday, January 5, 2014 11:03:44 PM Iran Standard Time"}}
{"WiFi":{"SSID":"paliz","BSSID":"fc:75:16:d6:4e:21","capabilities":"[WPA-PSK-TKIP+CCMP][WPA2-PSK-TKIP+CCMP][WPS][ESS]","level":"-74","frequency":"2412","time":"Sunday, January 5, 2014 11:04:41 PM Iran Standard Time"}}
{"WiFi":{"SSID":"EMADI","BSSID":"00:04:ed:ce:37:7c","capabilities":"[WPA2-PSK-TKIP+CCMP][WPS][ESS]","level":"-84","frequency":"2412","time":"Sunday, January 5, 2014 11:04:41 PM Iran Standard Time"}}
{"WiFi":{"SSID":"irancell","BSSID":"bc:76:70:ab:1f:a4","capabilities":"[WPA2-PSK-CCMP][ESS]","level":"-77","frequency":"2432","time":"Sunday, January 5, 2014 11:04:41 PM Iran Standard Time"}}
{"WiFi":{"SSID":"Eleya","BSSID":"98:42:46:06:28:84","capabilities":"[WPA2-PSK-TKIP+CCMP][ESS]","level":"-90","frequency":"2452","time":"Sunday, January 5, 2014 11:04:41 PM Iran Standard Time"}}
{"WiFi":{"SSID":"as","BSSID":"bc:f6:85:e0:84:43","capabilities":"[WPA-PSK-TKIP+CCMP][WPA2-PSK-TKIP+CCMP][WPS][ESS]","level":"-95","frequency":"2412","time":"Sunday, January 5, 2014 11:04:41 PM Iran Standard Time"}}
{"WiFi":{"SSID":"390A9A","BSSID":"00:1f:fb:39:0a:9a","capabilities":"[WEP][ESS]","level":"-92","frequency":"2427","time":"Sunday, January 5, 2014 11:04:41 PM Iran Standard Time"}}
{"WiFi":{"SSID":"paliz","BSSID":"fc:75:16:d6:4e:21","capabilities":"[WPA-PSK-TKIP+CCMP][WPA2-PSK-TKIP+CCMP][WPS][ESS]","level":"-74","frequency":"2412","time":"Sunday, January 5, 2014 11:04:44 PM Iran Standard Time"}}
{"WiFi":{"SSID":"EMADI","BSSID":"00:04:ed:ce:37:7c","capabilities":"[WPA2-PSK-TKIP+CCMP][WPS][ESS]","level":"-84","frequency":"2412","time":"Sunday, January 5, 2014 11:04:44 PM Iran Standard Time"}}
{"WiFi":{"SSID":"irancell","BSSID":"bc:76:70:ab:1f:a4","capabilities":"[WPA2-PSK-CCMP][ESS]","level":"-77","frequency":"2432","time":"Sunday, January 5, 2014 11:04:44 PM Iran Standard Time"}}
{"WiFi":{"SSID":"Eleya","BSSID":"98:42:46:06:28:84","capabilities":"[WPA2-PSK-TKIP+CCMP][ESS]","level":"-90","frequency":"2452","time":"Sunday, January 5, 2014 11:04:44 PM Iran Standard Time"}}
{"WiFi":{"SSID":"as","BSSID":"bc:f6:85:e0:84:43","capabilities":"[WPA-PSK-TKIP+CCMP][WPA2-PSK-TKIP+CCMP][WPS][ESS]","level":"-95","frequency":"2412","time":"Sunday, January 5, 2014 11:04:44 PM Iran Standard Time"}}
{"WiFi":{"SSID":"390A9A","BSSID":"00:1f:fb:39:0a:9a","capabilities":"[WEP][ESS]","level":"-92","frequency":"2427","time":"Sunday, January 5, 2014 11:04:44 PM Iran Standard Time"}}
{"WiFi":{"SSID":"paliz","BSSID":"fc:75:16:d6:4e:21","capabilities":"[WPA-PSK-TKIP+CCMP][WPA2-PSK-TKIP+CCMP][WPS][ESS]","level":"-74","frequency":"2412","time":"Sunday, January 5, 2014 11:05:41 PM Iran Standard Time"}}
{"WiFi":{"SSID":"EMADI","BSSID":"00:04:ed:ce:37:7c","capabilities":"[WPA2-PSK-TKIP+CCMP][WPS][ESS]","level":"-84","frequency":"2412","time":"Sunday, January 5, 2014 11:05:41 PM Iran Standard Time"}}
{"WiFi":{"SSID":"irancell","BSSID":"bc:76:70:ab:1f:a4","capabilities":"[WPA2-PSK-CCMP][ESS]","level":"-77","frequency":"2432","time":"Sunday, January 5, 2014 11:05:41 PM Iran Standard Time"}}
{"WiFi":{"SSID":"Eleya","BSSID":"98:42:46:06:28:84","capabilities":"[WPA2-PSK-TKIP+CCMP][ESS]","level":"-90","frequency":"2452","time":"Sunday, January 5, 2014 11:05:41 PM Iran Standard Time"}}
{"WiFi":{"SSID":"as","BSSID":"bc:f6:85:e0:84:43","capabilities":"[WPA-PSK-TKIP+CCMP][WPA2-PSK-TKIP+CCMP][WPS][ESS]","level":"-95","frequency":"2412","time":"Sunday, January 5, 2014 11:05:41 PM Iran Standard Time"}}
{"WiFi":{"SSID":"390A9A","BSSID":"00:1f:fb:39:0a:9a","capabilities":"[WEP][ESS]","level":"-92","frequency":"2427","time":"Sunday, January 5, 2014 11:05:41 PM Iran Standard Time"}}
{"WiFi":{"SSID":"paliz","BSSID":"fc:75:16:d6:4e:21","capabilities":"[WPA-PSK-TKIP+CCMP][WPA2-PSK-TKIP+CCMP][WPS][ESS]","level":"-74","frequency":"2412","time":"Sunday, January 5, 2014 11:05:44 PM Iran Standard Time"}}
{"WiFi":{"SSID":"EMADI","BSSID":"00:04:ed:ce:37:7c","capabilities":"[WPA2-PSK-TKIP+CCMP][WPS][ESS]","level":"-84","frequency":"2412","time":"Sunday, January 5, 2014 11:05:44 PM Iran Standard Time"}}
{"WiFi":{"SSID":"irancell","BSSID":"bc:76:70:ab:1f:a4","capabilities":"[WPA2-PSK-CCMP][ESS]","level":"-77","frequency":"2432","time":"Sunday, January 5, 2014 11:05:44 PM Iran Standard Time"}}
{"WiFi":{"SSID":"Eleya","BSSID":"98:42:46:06:28:84","capabilities":"[WPA2-PSK-TKIP+CCMP][ESS]","level":"-90","frequency":"2452","time":"Sunday, January 5, 2014 11:05:44 PM Iran Standard Time"}}
{"WiFi":{"SSID":"as","BSSID":"bc:f6:85:e0:84:43","capabilities":"[WPA-PSK-TKIP+CCMP][WPA2-PSK-TKIP+CCMP][WPS][ESS]","level":"-95","frequency":"2412","time":"Sunday, January 5, 2014 11:05:44 PM Iran Standard Time"}}
{"WiFi":{"SSID":"390A9A","BSSID":"00:1f:fb:39:0a:9a","capabilities":"[WEP][ESS]","level":"-92","frequency":"2427","time":"Sunday, January 5, 2014 11:05:44 PM Iran Standard Time"}}
{"WiFi":{"SSID":"paliz","BSSID":"fc:75:16:d6:4e:21","capabilities":"[WPA-PSK-TKIP+CCMP][WPA2-PSK-TKIP+CCMP][WPS][ESS]","level":"-74","frequency":"2412","time":"Sunday, January 5, 2014 11:06:41 PM Iran Standard Time"}}
{"WiFi":{"SSID":"EMADI","BSSID":"00:04:ed:ce:37:7c","capabilities":"[WPA2-PSK-TKIP+CCMP][WPS][ESS]","level":"-84","frequency":"2412","time":"Sunday, January 5, 2014 11:06:41 PM Iran Standard Time"}}
{"WiFi":{"SSID":"irancell","BSSID":"bc:76:70:ab:1f:a4","capabilities":"[WPA2-PSK-CCMP][ESS]","level":"-77","frequency":"2432","time":"Sunday, January 5, 2014 11:06:41 PM Iran Standard Time"}}
{"WiFi":{"SSID":"Eleya","BSSID":"98:42:46:06:28:84","capabilities":"[WPA2-PSK-TKIP+CCMP][ESS]","level":"-90","frequency":"2452","time":"Sunday, January 5, 2014 11:06:41 PM Iran Standard Time"}}
{"WiFi":{"SSID":"as","BSSID":"bc:f6:85:e0:84:43","capabilities":"[WPA-PSK-TKIP+CCMP][WPA2-PSK-TKIP+CCMP][WPS][ESS]","level":"-95","frequency":"2412","time":"Sunday, January 5, 2014 11:06:41 PM Iran Standard Time"}}
{"WiFi":{"SSID":"390A9A","BSSID":"00:1f:fb:39:0a:9a","capabilities":"[WEP][ESS]","level":"-92","frequency":"2427","time":"Sunday, January 5, 2014 11:06:41 PM Iran Standard Time"}}
{"WiFi":{"SSID":"paliz","BSSID":"fc:75:16:d6:4e:21","capabilities":"[WPA-PSK-TKIP+CCMP][WPA2-PSK-TKIP+CCMP][WPS][ESS]","level":"-74","frequency":"2412","time":"Sunday, January 5, 2014 11:06:44 PM Iran Standard Time"}}
{"WiFi":{"SSID":"EMADI","BSSID":"00:04:ed:ce:37:7c","capabilities":"[WPA2-PSK-TKIP+CCMP][WPS][ESS]","level":"-84","frequency":"2412","time":"Sunday, January 5, 2014 11:06:44 PM Iran Standard Time"}}
{"WiFi":{"SSID":"irancell","BSSID":"bc:76:70:ab:1f:a4","capabilities":"[WPA2-PSK-CCMP][ESS]","level":"-77","frequency":"2432","time":"Sunday, January 5, 2014 11:06:44 PM Iran Standard Time"}}
{"WiFi":{"SSID":"Eleya","BSSID":"98:42:46:06:28:84","capabilities":"[WPA2-PSK-TKIP+CCMP][ESS]","level":"-90","frequency":"2452","time":"Sunday, January 5, 2014 11:06:44 PM Iran Standard Time"}}
{"WiFi":{"SSID":"as","BSSID":"bc:f6:85:e0:84:43","capabilities":"[WPA-PSK-TKIP+CCMP][WPA2-PSK-TKIP+CCMP][WPS][ESS]","level":"-95","frequency":"2412","time":"Sunday, January 5, 2014 11:06:44 PM Iran Standard Time"}}
{"WiFi":{"SSID":"390A9A","BSSID":"00:1f:fb:39:0a:9a","capabilities":"[WEP][ESS]","level":"-92","frequency":"2427","time":"Sunday, January 5, 2014 11:06:44 PM Iran Standard Time"}}
{"WiFi":{"SSID":"paliz","BSSID":"fc:75:16:d6:4e:21","capabilities":"[WPA-PSK-TKIP+CCMP][WPA2-PSK-TKIP+CCMP][WPS][ESS]","level":"-74","frequency":"2412","time":"Sunday, January 5, 2014 11:07:41 PM Iran Standard Time"}}
{"WiFi":{"SSID":"EMADI","BSSID":"00:04:ed:ce:37:7c","capabilities":"[WPA2-PSK-TKIP+CCMP][WPS][ESS]","level":"-84","frequency":"2412","time":"Sunday, January 5, 2014 11:07:41 PM Iran Standard Time"}}
{"WiFi":{"SSID":"irancell","BSSID":"bc:76:70:ab:1f:a4","capabilities":"[WPA2-PSK-CCMP][ESS]","level":"-77","frequency":"2432","time":"Sunday, January 5, 2014 11:07:41 PM Iran Standard Time"}}
{"WiFi":{"SSID":"Eleya","BSSID":"98:42:46:06:28:84","capabilities":"[WPA2-PSK-TKIP+CCMP][ESS]","level":"-90","frequency":"2452","time":"Sunday, January 5, 2014 11:07:41 PM Iran Standard Time"}}
{"WiFi":{"SSID":"as","BSSID":"bc:f6:85:e0:84:43","capabilities":"[WPA-PSK-TKIP+CCMP][WPA2-PSK-TKIP+CCMP][WPS][ESS]","level":"-95","frequency":"2412","time":"Sunday, January 5, 2014 11:07:41 PM Iran Standard Time"}}
{"WiFi":{"SSID":"390A9A","BSSID":"00:1f:fb:39:0a:9a","capabilities":"[WEP][ESS]","level":"-92","frequency":"2427","time":"Sunday, January 5, 2014 11:07:41 PM Iran Standard Time"}}
{"WiFi":{"SSID":"paliz","BSSID":"fc:75:16:d6:4e:21","capabilities":"[WPA-PSK-TKIP+CCMP][WPA2-PSK-TKIP+CCMP][WPS][ESS]","level":"-74","frequency":"2412","time":"Sunday, January 5, 2014 11:07:44 PM Iran Standard Time"}}
{"WiFi":{"SSID":"EMADI","BSSID":"00:04:ed:ce:37:7c","capabilities":"[WPA2-PSK-TKIP+CCMP][WPS][ESS]","level":"-84","frequency":"2412","time":"Sunday, January 5, 2014 11:07:44 PM Iran Standard Time"}}
{"WiFi":{"SSID":"irancell","BSSID":"bc:76:70:ab:1f:a4","capabilities":"[WPA2-PSK-CCMP][ESS]","level":"-77","frequency":"2432","time":"Sunday, January 5, 2014 11:07:44 PM Iran Standard Time"}}
{"WiFi":{"SSID":"Eleya","BSSID":"98:42:46:06:28:84","capabilities":"[WPA2-PSK-TKIP+CCMP][ESS]","level":"-90","frequency":"2452","time":"Sunday, January 5, 2014 11:07:44 PM Iran Standard Time"}}
{"WiFi":{"SSID":"as","BSSID":"bc:f6:85:e0:84:43","capabilities":"[WPA-PSK-TKIP+CCMP][WPA2-PSK-TKIP+CCMP][WPS][ESS]","level":"-95","frequency":"2412","time":"Sunday, January 5, 2014 11:07:44 PM Iran Standard Time"}}
{"WiFi":{"SSID":"390A9A","BSSID":"00:1f:fb:39:0a:9a","capabilities":"[WEP][ESS]","level":"-92","frequency":"2427","time":"Sunday, January 5, 2014 11:07:44 PM Iran Standard Time"}}
{"Application":{"ProcessName":"com.lmi.vodafone.rescue","Start":"1-5-2014 23:02:51","End":"1-5-2014 23:07:53"}}
{"Application":{"ProcessName":"com.android.htcdialer","Start":"1-5-2014 23:02:51","End":"1-5-2014 23:07:53"}}
{"Application":{"ProcessName":"com.android.nfc","Start":"1-5-2014 23:02:51","End":"1-5-2014 23:07:53"}}
{"Application":{"ProcessName":"com.instagram.android","Start":"1-5-2014 23:03:42","End":"1-5-2014 23:08:03"}}
{"WiFi":{"SSID":"paliz","BSSID":"fc:75:16:d6:4e:21","capabilities":"[WPA-PSK-TKIP+CCMP][WPA2-PSK-TKIP+CCMP][WPS][ESS]","level":"-74","frequency":"2412","time":"Sunday, January 5, 2014 11:08:41 PM Iran Standard Time"}}
{"WiFi":{"SSID":"EMADI","BSSID":"00:04:ed:ce:37:7c","capabilities":"[WPA2-PSK-TKIP+CCMP][WPS][ESS]","level":"-84","frequency":"2412","time":"Sunday, January 5, 2014 11:08:41 PM Iran Standard Time"}}
{"WiFi":{"SSID":"irancell","BSSID":"bc:76:70:ab:1f:a4","capabilities":"[WPA2-PSK-CCMP][ESS]","level":"-77","frequency":"2432","time":"Sunday, January 5, 2014 11:08:41 PM Iran Standard Time"}}
{"WiFi":{"SSID":"Eleya","BSSID":"98:42:46:06:28:84","capabilities":"[WPA2-PSK-TKIP+CCMP][ESS]","level":"-90","frequency":"2452","time":"Sunday, January 5, 2014 11:08:41 PM Iran Standard Time"}}
{"WiFi":{"SSID":"as","BSSID":"bc:f6:85:e0:84:43","capabilities":"[WPA-PSK-TKIP+CCMP][WPA2-PSK-TKIP+CCMP][WPS][ESS]","level":"-95","frequency":"2412","time":"Sunday, January 5, 2014 11:08:41 PM Iran Standard Time"}}
{"WiFi":{"SSID":"390A9A","BSSID":"00:1f:fb:39:0a:9a","capabilities":"[WEP][ESS]","level":"-92","frequency":"2427","time":"Sunday, January 5, 2014 11:08:41 PM Iran Standard Time"}}
{"WiFi":{"SSID":"paliz","BSSID":"fc:75:16:d6:4e:21","capabilities":"[WPA-PSK-TKIP+CCMP][WPA2-PSK-TKIP+CCMP][WPS][ESS]","level":"-74","frequency":"2412","time":"Sunday, January 5, 2014 11:08:45 PM Iran Standard Time"}}
{"WiFi":{"SSID":"EMADI","BSSID":"00:04:ed:ce:37:7c","capabilities":"[WPA2-PSK-TKIP+CCMP][WPS][ESS]","level":"-84","frequency":"2412","time":"Sunday, January 5, 2014 11:08:45 PM Iran Standard Time"}}
{"WiFi":{"SSID":"irancell","BSSID":"bc:76:70:ab:1f:a4","capabilities":"[WPA2-PSK-CCMP][ESS]","level":"-77","frequency":"2432","time":"Sunday, January 5, 2014 11:08:45 PM Iran Standard Time"}}
{"WiFi":{"SSID":"Eleya","BSSID":"98:42:46:06:28:84","capabilities":"[WPA2-PSK-TKIP+CCMP][ESS]","level":"-90","frequency":"2452","time":"Sunday, January 5, 2014 11:08:45 PM Iran Standard Time"}}
{"WiFi":{"SSID":"as","BSSID":"bc:f6:85:e0:84:43","capabilities":"[WPA-PSK-TKIP+CCMP][WPA2-PSK-TKIP+CCMP][WPS][ESS]","level":"-95","frequency":"2412","time":"Sunday, January 5, 2014 11:08:45 PM Iran Standard Time"}}
{"WiFi":{"SSID":"390A9A","BSSID":"00:1f:fb:39:0a:9a","capabilities":"[WEP][ESS]","level":"-92","frequency":"2427","time":"Sunday, January 5, 2014 11:08:45 PM Iran Standard Time"}}
{"WiFi":{"SSID":"paliz","BSSID":"fc:75:16:d6:4e:21","capabilities":"[WPA-PSK-TKIP+CCMP][WPA2-PSK-TKIP+CCMP][WPS][ESS]","level":"-74","frequency":"2412","time":"Sunday, January 5, 2014 11:09:42 PM Iran Standard Time"}}
{"WiFi":{"SSID":"EMADI","BSSID":"00:04:ed:ce:37:7c","capabilities":"[WPA2-PSK-TKIP+CCMP][WPS][ESS]","level":"-84","frequency":"2412","time":"Sunday, January 5, 2014 11:09:42 PM Iran Standard Time"}}
{"WiFi":{"SSID":"irancell","BSSID":"bc:76:70:ab:1f:a4","capabilities":"[WPA2-PSK-CCMP][ESS]","level":"-77","frequency":"2432","time":"Sunday, January 5, 2014 11:09:42 PM Iran Standard Time"}}
{"WiFi":{"SSID":"Eleya","BSSID":"98:42:46:06:28:84","capabilities":"[WPA2-PSK-TKIP+CCMP][ESS]","level":"-90","frequency":"2452","time":"Sunday, January 5, 2014 11:09:42 PM Iran Standard Time"}}
{"WiFi":{"SSID":"as","BSSID":"bc:f6:85:e0:84:43","capabilities":"[WPA-PSK-TKIP+CCMP][WPA2-PSK-TKIP+CCMP][WPS][ESS]","level":"-95","frequency":"2412","time":"Sunday, January 5, 2014 11:09:42 PM Iran Standard Time"}}
{"WiFi":{"SSID":"390A9A","BSSID":"00:1f:fb:39:0a:9a","capabilities":"[WEP][ESS]","level":"-92","frequency":"2427","time":"Sunday, January 5, 2014 11:09:42 PM Iran Standard Time"}}
{"Application":{"ProcessName":"com.viber.voip","Start":"1-5-2014 23:08:13","End":"1-5-2014 23:09:44"}}
{"WiFi":{"SSID":"paliz","BSSID":"fc:75:16:d6:4e:21","capabilities":"[WPA-PSK-TKIP+CCMP][WPA2-PSK-TKIP+CCMP][WPS][ESS]","level":"-74","frequency":"2412","time":"Sunday, January 5, 2014 11:09:45 PM Iran Standard Time"}}
{"WiFi":{"SSID":"EMADI","BSSID":"00:04:ed:ce:37:7c","capabilities":"[WPA2-PSK-TKIP+CCMP][WPS][ESS]","level":"-84","frequency":"2412","time":"Sunday, January 5, 2014 11:09:45 PM Iran Standard Time"}}
{"WiFi":{"SSID":"irancell","BSSID":"bc:76:70:ab:1f:a4","capabilities":"[WPA2-PSK-CCMP][ESS]","level":"-77","frequency":"2432","time":"Sunday, January 5, 2014 11:09:45 PM Iran Standard Time"}}
{"WiFi":{"SSID":"Eleya","BSSID":"98:42:46:06:28:84","capabilities":"[WPA2-PSK-TKIP+CCMP][ESS]","level":"-90","frequency":"2452","time":"Sunday, January 5, 2014 11:09:45 PM Iran Standard Time"}}
{"WiFi":{"SSID":"as","BSSID":"bc:f6:85:e0:84:43","capabilities":"[WPA-PSK-TKIP+CCMP][WPA2-PSK-TKIP+CCMP][WPS][ESS]","level":"-95","frequency":"2412","time":"Sunday, January 5, 2014 11:09:45 PM Iran Standard Time"}}
{"WiFi":{"SSID":"390A9A","BSSID":"00:1f:fb:39:0a:9a","capabilities":"[WEP][ESS]","level":"-92","frequency":"2427","time":"Sunday, January 5, 2014 11:09:45 PM Iran Standard Time"}}
{"Application":{"ProcessName":"com.lmi.vodafone.rescue","Start":"1-5-2014 23:07:53","End":"1-5-2014 23:12:54"}}
{"Application":{"ProcessName":"com.android.htcdialer","Start":"1-5-2014 23:07:53","End":"1-5-2014 23:12:54"}}
{"Application":{"ProcessName":"com.android.nfc","Start":"1-5-2014 23:07:53","End":"1-5-2014 23:12:54"}}
