{"Application":{"ProcessName":"com.android.settings:remote","Start":"12-9-2013 23:32:55","End":"12-9-2013 23:32:59"}}
{"Application":{"ProcessName":"com.viber.voip","Start":"12-9-2013 23:33:05","End":"12-9-2013 23:33:09"}}
{"Application":{"ProcessName":"com.htc.flexnet","Start":"12-9-2013 23:33:15","End":"12-9-2013 23:33:17"}}
{"Application":{"ProcessName":"com.lmi.vodafone.rescue","Start":"12-9-2013 23:32:55","End":"12-9-2013 23:34:08"}}
{"Application":{"ProcessName":"com.htc.android.worldclock","Start":"12-9-2013 23:33:48","End":"12-9-2013 23:34:08"}}
{"Application":{"ProcessName":"com.android.htcdialer","Start":"12-9-2013 23:32:55","End":"12-9-2013 23:34:08"}}
{"Application":{"ProcessName":"com.android.nfc","Start":"12-9-2013 23:32:55","End":"12-9-2013 23:34:08"}}
{"Application":{"ProcessName":"com.htc.bg","Start":"12-10-2013 07:30:01","End":"12-10-2013 07:30:02"}}
{"Application":{"ProcessName":"com.lmi.vodafone.rescue","Start":"12-10-2013 07:30:01","End":"12-10-2013 07:45:30"}}
{"Application":{"ProcessName":"com.htc.android.worldclock","Start":"12-10-2013 07:30:01","End":"12-10-2013 07:45:30"}}
{"Application":{"ProcessName":"com.android.htcdialer","Start":"12-10-2013 07:30:01","End":"12-10-2013 07:45:30"}}
{"Application":{"ProcessName":"com.android.nfc","Start":"12-10-2013 07:30:01","End":"12-10-2013 07:45:30"}}
{"Application":{"ProcessName":"com.htc.android.worldclock","Start":"12-10-2013 09:31:47","End":"12-10-2013 09:31:57"}}
{"Application":{"ProcessName":"com.android.mms","Start":"12-10-2013 09:31:57","End":"12-10-2013 09:39:57"}}
{"Application":{"ProcessName":"com.lmi.vodafone.rescue","Start":"12-10-2013 09:31:47","End":"12-10-2013 09:39:57"}}
{"Application":{"ProcessName":"com.android.htcdialer","Start":"12-10-2013 09:31:47","End":"12-10-2013 09:39:57"}}
{"Application":{"ProcessName":"com.android.nfc","Start":"12-10-2013 09:31:47","End":"12-10-2013 09:39:57"}}
{"Application":{"ProcessName":"com.android.mms","Start":"12-10-2013 09:39:57","End":"12-10-2013 09:40:48"}}
{"Application":{"ProcessName":"com.android.providers.telephony","Start":"12-10-2013 09:40:07","End":"12-10-2013 09:40:48"}}
{"Application":{"ProcessName":"com.lmi.vodafone.rescue","Start":"12-10-2013 09:39:57","End":"12-10-2013 09:40:48"}}
{"Application":{"ProcessName":"com.android.htcdialer","Start":"12-10-2013 09:39:57","End":"12-10-2013 09:40:48"}}
{"Application":{"ProcessName":"com.android.nfc","Start":"12-10-2013 09:39:57","End":"12-10-2013 09:40:48"}}
{"SMS":{"Address":"0912494####","type":"2","date":"12-10-2013 09:40:46","body":"ANONYMIZED","Type":"2", "metadata": {"name": "Maryam Oliyaei"}}}
{"Application":{"ProcessName":"com.android.settings:remote","Start":"12-10-2013 09:42:27","End":"12-10-2013 09:42:27"}}
{"Application":{"ProcessName":"com.android.settings","Start":"12-10-2013 09:42:27","End":"12-10-2013 09:42:27"}}
{"Application":{"ProcessName":"com.android.mms","Start":"12-10-2013 09:42:26","End":"12-10-2013 09:42:37"}}
{"Application":{"ProcessName":"com.android.providers.telephony","Start":"12-10-2013 09:42:26","End":"12-10-2013 09:42:37"}}
{"Application":{"ProcessName":"com.lmi.vodafone.rescue","Start":"12-10-2013 09:42:26","End":"12-10-2013 09:42:37"}}
{"Application":{"ProcessName":"com.android.htcdialer","Start":"12-10-2013 09:42:26","End":"12-10-2013 09:42:37"}}
{"Application":{"ProcessName":"com.android.nfc","Start":"12-10-2013 09:42:26","End":"12-10-2013 09:42:37"}}
{"Application":{"ProcessName":"com.htc.musicenhancer:enhancerprovider","Start":"12-10-2013 09:53:30","End":"12-10-2013 09:57:52"}}
{"Application":{"ProcessName":"com.htc.music","Start":"12-10-2013 09:53:21","End":"12-10-2013 09:57:52"}}
{"Application":{"ProcessName":"com.lmi.vodafone.rescue","Start":"12-10-2013 09:53:20","End":"12-10-2013 09:57:52"}}
{"Application":{"ProcessName":"com.android.htcdialer","Start":"12-10-2013 09:53:20","End":"12-10-2013 09:57:52"}}
{"Application":{"ProcessName":"com.android.nfc","Start":"12-10-2013 09:53:20","End":"12-10-2013 09:57:52"}}
{"SMS":{"Address":"+98912494####","type":"1","date":"12-10-2013 09:59:20","body":"ANONYMIZED","Type":"1", "metadata": {"name": "Maryam Oliyaei"}}}
{"SMS":{"Address":"+981000909230####","type":"1","date":"12-10-2013 10:00:20","body":"ANONYMIZED","Type":"1", "metadata": {"name": ""}}}
{"Application":{"ProcessName":"com.htc.lockscreen","Start":"12-10-2013 10:04:03","End":"12-10-2013 10:04:03"}}
{"Application":{"ProcessName":"com.htc.bgp","Start":"12-10-2013 10:04:03","End":"12-10-2013 10:04:04"}}
{"Application":{"ProcessName":"com.android.mms","Start":"12-10-2013 10:04:13","End":"12-10-2013 10:04:23"}}
{"Application":{"ProcessName":"com.android.providers.telephony","Start":"12-10-2013 10:04:13","End":"12-10-2013 10:04:23"}}
{"Application":{"ProcessName":"com.lmi.vodafone.rescue","Start":"12-10-2013 10:04:03","End":"12-10-2013 10:04:23"}}
{"Application":{"ProcessName":"com.android.htcdialer","Start":"12-10-2013 10:04:03","End":"12-10-2013 10:04:23"}}
{"Application":{"ProcessName":"com.android.nfc","Start":"12-10-2013 10:04:03","End":"12-10-2013 10:04:23"}}
{"Application":{"ProcessName":"com.android.providers.telephony","Start":"12-10-2013 10:11:33","End":"12-10-2013 10:11:43"}}
{"Application":{"ProcessName":"com.htc.musicenhancer:enhancerprovider","Start":"12-10-2013 10:11:22","End":"12-10-2013 10:17:53"}}
{"Application":{"ProcessName":"com.lmi.vodafone.rescue","Start":"12-10-2013 10:11:12","End":"12-10-2013 10:17:53"}}
{"Application":{"ProcessName":"com.android.htcdialer","Start":"12-10-2013 10:11:12","End":"12-10-2013 10:17:53"}}
{"Application":{"ProcessName":"com.htc.music","Start":"12-10-2013 10:11:22","End":"12-10-2013 10:17:53"}}
{"Application":{"ProcessName":"com.android.nfc","Start":"12-10-2013 10:11:12","End":"12-10-2013 10:17:53"}}
{"Application":{"ProcessName":"com.htc.flexnet","Start":"12-10-2013 10:17:53","End":"12-10-2013 10:18:03"}}
{"Application":{"ProcessName":"com.htc.musicenhancer:enhancerprovider","Start":"12-10-2013 10:18:03","End":"12-10-2013 10:18:13"}}
{"Application":{"ProcessName":"com.htc.music","Start":"12-10-2013 10:18:03","End":"12-10-2013 10:18:13"}}
{"Application":{"ProcessName":"com.vodafone.android.app.music","Start":"12-10-2013 10:18:13","End":"12-10-2013 10:18:13"}}
{"Application":{"ProcessName":"com.htc.musicenhancer:enhancerprovider","Start":"12-10-2013 10:18:13","End":"12-10-2013 10:19:13"}}
{"Application":{"ProcessName":"com.lmi.vodafone.rescue","Start":"12-10-2013 10:17:53","End":"12-10-2013 10:19:13"}}
{"Application":{"ProcessName":"com.android.htcdialer","Start":"12-10-2013 10:17:53","End":"12-10-2013 10:19:13"}}
{"Application":{"ProcessName":"com.htc.music","Start":"12-10-2013 10:18:13","End":"12-10-2013 10:19:13"}}
{"Application":{"ProcessName":"com.android.nfc","Start":"12-10-2013 10:17:53","End":"12-10-2013 10:19:13"}}
{"Application":{"ProcessName":"com.lmi.vodafone.rescue","Start":"12-10-2013 10:21:32","End":"12-10-2013 10:21:42"}}
{"Application":{"ProcessName":"com.android.htcdialer","Start":"12-10-2013 10:21:32","End":"12-10-2013 10:21:42"}}
{"Application":{"ProcessName":"com.android.nfc","Start":"12-10-2013 10:21:32","End":"12-10-2013 10:21:42"}}
{"Application":{"ProcessName":"com.htc.flexnet","Start":"12-10-2013 10:22:03","End":"12-10-2013 10:22:03"}}
{"Call": {"Number":"+98216660####","Duration":"12","Time":"12-10-2013 10:21:36","Type":"2"}}
{"Call": {"Number":"+98216660####","Duration":"12","Time":"12-10-2013 10:21:36","Type":"2"}}
{"Call": {"Number":"+98216660####","Duration":"12","Time":"12-10-2013 10:21:36","Type":"2"}}
{"Call": {"Number":"+98216660####","Duration":"12","Time":"12-10-2013 10:21:36","Type":"2"}}
{"Call": {"Number":"+98216660####","Duration":"12","Time":"12-10-2013 10:21:36","Type":"2"}}
{"Call": {"Number":"+98216660####","Duration":"12","Time":"12-10-2013 10:21:36","Type":"2"}}
{"Application":{"ProcessName":"com.lmi.vodafone.rescue","Start":"12-10-2013 10:22:03","End":"12-10-2013 10:28:07"}}
{"Application":{"ProcessName":"com.android.htcdialer","Start":"12-10-2013 10:22:03","End":"12-10-2013 10:28:07"}}
{"Application":{"ProcessName":"com.android.nfc","Start":"12-10-2013 10:22:03","End":"12-10-2013 10:28:07"}}
{"Application":{"ProcessName":"com.lmi.vodafone.rescue","Start":"12-10-2013 10:28:07","End":"12-10-2013 10:30:28"}}
{"Application":{"ProcessName":"com.android.htcdialer","Start":"12-10-2013 10:28:07","End":"12-10-2013 10:30:28"}}
{"Application":{"ProcessName":"com.android.nfc","Start":"12-10-2013 10:28:07","End":"12-10-2013 10:30:28"}}
{"Call": {"Number":"+98912794####","Duration":"17","Time":"12-10-2013 10:30:21","Type":"2"}}
{"Call": {"Number":"+98912794####","Duration":"17","Time":"12-10-2013 10:30:21","Type":"2"}}
{"Call": {"Number":"+98216663####","Duration":"14","Time":"12-10-2013 11:04:24","Type":"1"}}
{"Call": {"Number":"+98216663####","Duration":"14","Time":"12-10-2013 11:04:24","Type":"1"}}
{"Application":{"ProcessName":"com.lmi.vodafone.rescue","Start":"12-10-2013 11:04:34","End":"12-10-2013 11:05:14"}}
{"Application":{"ProcessName":"com.android.htcdialer","Start":"12-10-2013 11:04:34","End":"12-10-2013 11:05:14"}}
{"Application":{"ProcessName":"com.android.nfc","Start":"12-10-2013 11:04:34","End":"12-10-2013 11:05:14"}}
{"SMS":{"Address":"0912494####","type":"2","date":"12-10-2013 10:04:22","body":"ANONYMIZED","Type":"2", "metadata": {"name": "Maryam Oliyaei"}}}
{"Application":{"ProcessName":"com.lmi.vodafone.rescue","Start":"12-10-2013 11:50:58","End":"12-10-2013 12:12:25"}}
{"Application":{"ProcessName":"com.android.htcdialer","Start":"12-10-2013 11:50:58","End":"12-10-2013 12:12:25"}}
{"Application":{"ProcessName":"com.android.nfc","Start":"12-10-2013 11:50:58","End":"12-10-2013 12:12:25"}}
{"SMS":{"Address":"+98912357####","type":"1","date":"12-10-2013 12:08:40","body":"ANONYMIZED","Type":"1", "metadata": {"name": "Negar Sorati"}}}
{"Application":{"ProcessName":"com.android.mms","Start":"12-10-2013 12:12:48","End":"12-10-2013 12:13:18"}}
{"Application":{"ProcessName":"com.android.providers.telephony","Start":"12-10-2013 12:12:58","End":"12-10-2013 12:13:18"}}
{"Application":{"ProcessName":"com.lmi.vodafone.rescue","Start":"12-10-2013 12:12:38","End":"12-10-2013 12:13:18"}}
{"Application":{"ProcessName":"com.android.htcdialer","Start":"12-10-2013 12:12:38","End":"12-10-2013 12:13:18"}}
{"Application":{"ProcessName":"com.android.nfc","Start":"12-10-2013 12:12:38","End":"12-10-2013 12:13:18"}}
{"SMS":{"Address":"+98912357####","type":"2","date":"12-10-2013 12:13:18","body":"ANONYMIZED","Type":"2", "metadata": {"name": "Negar Sorati"}}}
{"SMS":{"Address":"+98912357####","type":"2","date":"12-10-2013 12:14:44","body":"ANONYMIZED","Type":"2", "metadata": {"name": "Negar Sorati"}}}
{"Application":{"ProcessName":"com.android.mms","Start":"12-10-2013 12:14:31","End":"12-10-2013 12:15:11"}}
{"Application":{"ProcessName":"com.android.providers.telephony","Start":"12-10-2013 12:14:31","End":"12-10-2013 12:15:11"}}
{"Application":{"ProcessName":"com.lmi.vodafone.rescue","Start":"12-10-2013 12:14:31","End":"12-10-2013 12:29:24"}}
{"Application":{"ProcessName":"com.android.htcdialer","Start":"12-10-2013 12:14:31","End":"12-10-2013 12:29:24"}}
{"Application":{"ProcessName":"com.android.nfc","Start":"12-10-2013 12:14:31","End":"12-10-2013 12:29:24"}}
{"SMS":{"Address":"+98912503####","type":"1","date":"12-10-2013 12:49:00","body":"ANONYMIZED","Type":"1", "metadata": {"name": "Sajede Asgaripour"}}}
{"Application":{"ProcessName":"com.lmi.vodafone.rescue","Start":"12-10-2013 12:46:48","End":"12-10-2013 12:52:43"}}
{"Application":{"ProcessName":"com.android.htcdialer","Start":"12-10-2013 12:46:48","End":"12-10-2013 12:52:43"}}
{"Application":{"ProcessName":"com.android.nfc","Start":"12-10-2013 12:46:48","End":"12-10-2013 12:52:43"}}
{"Call": {"Number":"+98912503####","Duration":"47","Time":"12-10-2013 12:56:29","Type":"1"}}
{"Call": {"Number":"+98912503####","Duration":"47","Time":"12-10-2013 12:56:29","Type":"1"}}
{"Application":{"ProcessName":"com.htc.musicenhancer:enhancerprovider","Start":"12-10-2013 12:59:03","End":"12-10-2013 13:00:52"}}
{"Application":{"ProcessName":"com.htc.music","Start":"12-10-2013 12:59:03","End":"12-10-2013 13:00:52"}}
{"Call": {"Number":"+98216660####","Duration":"53","Time":"12-10-2013 12:59:54","Type":"1"}}
{"Call": {"Number":"+98216660####","Duration":"53","Time":"12-10-2013 12:59:54","Type":"1"}}
{"Application":{"ProcessName":"com.android.providers.telephony","Start":"12-10-2013 13:00:52","End":"12-10-2013 13:01:02"}}
{"Application":{"ProcessName":"com.lmi.vodafone.rescue","Start":"12-10-2013 12:56:34","End":"12-10-2013 13:01:42"}}
{"Application":{"ProcessName":"com.android.htcdialer","Start":"12-10-2013 12:56:34","End":"12-10-2013 13:01:42"}}
{"Application":{"ProcessName":"com.android.nfc","Start":"12-10-2013 12:56:34","End":"12-10-2013 13:01:42"}}
{"Application":{"ProcessName":"com.htc.musicenhancer:enhancerprovider","Start":"12-10-2013 13:01:02","End":"12-10-2013 13:06:02"}}
{"Application":{"ProcessName":"com.htc.music","Start":"12-10-2013 13:01:02","End":"12-10-2013 13:06:02"}}
{"Application":{"ProcessName":"com.lmi.vodafone.rescue","Start":"12-10-2013 13:01:42","End":"12-10-2013 13:06:43"}}
{"Application":{"ProcessName":"com.android.htcdialer","Start":"12-10-2013 13:01:42","End":"12-10-2013 13:06:43"}}
{"Application":{"ProcessName":"com.android.nfc","Start":"12-10-2013 13:01:42","End":"12-10-2013 13:06:43"}}
{"Application":{"ProcessName":"com.htc.musicenhancer:enhancerprovider","Start":"12-10-2013 13:06:02","End":"12-10-2013 13:11:03"}}
{"Application":{"ProcessName":"com.htc.music","Start":"12-10-2013 13:06:02","End":"12-10-2013 13:11:03"}}
{"Application":{"ProcessName":"com.htc.musicenhancer:enhancerprovider","Start":"12-10-2013 13:11:03","End":"12-10-2013 13:16:03"}}
{"Application":{"ProcessName":"com.lmi.vodafone.rescue","Start":"12-10-2013 13:06:43","End":"12-10-2013 13:16:03"}}
{"Application":{"ProcessName":"com.android.htcdialer","Start":"12-10-2013 13:06:43","End":"12-10-2013 13:16:03"}}
{"Application":{"ProcessName":"com.htc.music","Start":"12-10-2013 13:11:03","End":"12-10-2013 13:16:03"}}
{"Application":{"ProcessName":"com.android.nfc","Start":"12-10-2013 13:06:43","End":"12-10-2013 13:16:03"}}
{"Application":{"ProcessName":"com.htc.musicenhancer:enhancerprovider","Start":"12-10-2013 13:16:03","End":"12-10-2013 13:16:13"}}
{"Application":{"ProcessName":"com.lmi.vodafone.rescue","Start":"12-10-2013 13:16:03","End":"12-10-2013 13:16:13"}}
{"Application":{"ProcessName":"com.android.htcdialer","Start":"12-10-2013 13:16:03","End":"12-10-2013 13:16:13"}}
{"Application":{"ProcessName":"com.htc.music","Start":"12-10-2013 13:16:03","End":"12-10-2013 13:16:13"}}
{"Application":{"ProcessName":"com.android.nfc","Start":"12-10-2013 13:16:03","End":"12-10-2013 13:16:13"}}
{"Application":{"ProcessName":"com.android.htcdialer","Start":"12-10-2013 13:17:43","End":"12-10-2013 13:17:44"}}
{"Call": {"Number":"+98216663####","Duration":"74","Time":"12-10-2013 13:16:12","Type":"2"}}
{"Call": {"Number":"+98216663####","Duration":"74","Time":"12-10-2013 13:16:12","Type":"2"}}
{"Application":{"ProcessName":"com.htc.task","Start":"12-10-2013 13:17:44","End":"12-10-2013 13:17:54"}}
{"Application":{"ProcessName":"com.android.htcdialer","Start":"12-10-2013 13:51:25","End":"12-10-2013 13:51:35"}}
{"Application":{"ProcessName":"com.android.nfc","Start":"12-10-2013 13:51:25","End":"12-10-2013 13:51:35"}}
{"Application":{"ProcessName":"com.lmi.vodafone.rescue","Start":"12-10-2013 13:51:25","End":"12-10-2013 13:51:35"}}
{"Call": {"Number":"+98216660####","Duration":"0","Time":"12-10-2013 13:51:26","Type":"2"}}
{"Call": {"Number":"+98216660####","Duration":"0","Time":"12-10-2013 13:51:26","Type":"2"}}
{"Call": {"Number":"+98216660####","Duration":"0","Time":"12-10-2013 13:51:26","Type":"2"}}
{"Call": {"Number":"+98216660####","Duration":"0","Time":"12-10-2013 13:51:26","Type":"2"}}
{"Call": {"Number":"+98216660####","Duration":"0","Time":"12-10-2013 13:51:26","Type":"2"}}
{"Call": {"Number":"+98216660####","Duration":"0","Time":"12-10-2013 13:51:26","Type":"2"}}
{"Application":{"ProcessName":"com.android.htcdialer","Start":"12-10-2013 13:53:37","End":"12-10-2013 14:05:38"}}
{"Application":{"ProcessName":"com.android.nfc","Start":"12-10-2013 13:53:37","End":"12-10-2013 14:05:38"}}
{"Application":{"ProcessName":"com.lmi.vodafone.rescue","Start":"12-10-2013 13:53:37","End":"12-10-2013 14:05:38"}}
{"Application":{"ProcessName":"com.android.providers.telephony","Start":"12-10-2013 14:05:38","End":"12-10-2013 14:05:39"}}
{"Application":{"ProcessName":"com.android.htcdialer","Start":"12-10-2013 14:05:38","End":"12-10-2013 14:05:50"}}
{"Application":{"ProcessName":"com.android.nfc","Start":"12-10-2013 14:05:38","End":"12-10-2013 14:05:50"}}
{"Application":{"ProcessName":"com.lmi.vodafone.rescue","Start":"12-10-2013 14:05:38","End":"12-10-2013 14:05:50"}}
{"SMS":{"Address":"+98912503####","type":"1","date":"12-10-2013 12:49:00","body":"ANONYMIZED","Type":"1", "metadata": {"name": "Sajede Asgaripour"}}}
{"SMS":{"Address":"+98912494####","type":"1","date":"12-10-2013 14:03:01","body":"ANONYMIZED","Type":"1", "metadata": {"name": "Maryam Oliyaei"}}}
{"Application":{"ProcessName":"com.htc.task","Start":"12-10-2013 14:07:20","End":"12-10-2013 14:07:20"}}
{"Call": {"Number":"+98216660####","Duration":"83","Time":"12-10-2013 14:05:45","Type":"2"}}
{"Call": {"Number":"+98216660####","Duration":"83","Time":"12-10-2013 14:05:45","Type":"2"}}
{"Call": {"Number":"+98216660####","Duration":"83","Time":"12-10-2013 14:05:45","Type":"2"}}
{"Call": {"Number":"+98216660####","Duration":"83","Time":"12-10-2013 14:05:45","Type":"2"}}
{"Call": {"Number":"+98216660####","Duration":"83","Time":"12-10-2013 14:05:45","Type":"2"}}
{"Call": {"Number":"+98216660####","Duration":"83","Time":"12-10-2013 14:05:45","Type":"2"}}
{"SMS":{"Address":"+98912494####","type":"1","date":"12-10-2013 14:03:59","body":"ANONYMIZED","Type":"1", "metadata": {"name": "Maryam Oliyaei"}}}
{"Application":{"ProcessName":"com.android.providers.telephony","Start":"12-10-2013 14:07:33","End":"12-10-2013 14:07:54"}}
{"SMS":{"Address":"0912494####","type":"2","date":"12-10-2013 14:08:38","body":"ANONYMIZED","Type":"2", "metadata": {"name": "Maryam Oliyaei"}}}
{"Application":{"ProcessName":"com.android.mms","Start":"12-10-2013 14:07:33","End":"12-10-2013 14:08:45"}}
{"Application":{"ProcessName":"com.android.providers.telephony","Start":"12-10-2013 14:08:04","End":"12-10-2013 14:08:45"}}
{"Application":{"ProcessName":"com.htc.musicenhancer:enhancerprovider","Start":"12-10-2013 14:08:55","End":"12-10-2013 14:09:35"}}
{"Application":{"ProcessName":"com.lmi.vodafone.rescue","Start":"12-10-2013 14:07:20","End":"12-10-2013 14:09:35"}}
{"Application":{"ProcessName":"com.android.htcdialer","Start":"12-10-2013 14:07:20","End":"12-10-2013 14:09:35"}}
{"Application":{"ProcessName":"com.htc.music","Start":"12-10-2013 14:08:55","End":"12-10-2013 14:09:35"}}
{"Application":{"ProcessName":"com.android.nfc","Start":"12-10-2013 14:07:20","End":"12-10-2013 14:09:35"}}
{"Application":{"ProcessName":"com.htc.musicenhancer:enhancerprovider","Start":"12-10-2013 14:12:15","End":"12-10-2013 14:12:26"}}
{"Application":{"ProcessName":"com.lmi.vodafone.rescue","Start":"12-10-2013 14:12:15","End":"12-10-2013 14:12:26"}}
{"Application":{"ProcessName":"com.android.htcdialer","Start":"12-10-2013 14:12:15","End":"12-10-2013 14:12:26"}}
{"Application":{"ProcessName":"com.android.nfc","Start":"12-10-2013 14:12:15","End":"12-10-2013 14:12:26"}}
{"Application":{"ProcessName":"com.htc.music","Start":"12-10-2013 14:12:15","End":"12-10-2013 14:12:26"}}
{"Application":{"ProcessName":"com.htc.musicenhancer:enhancerprovider","Start":"12-10-2013 14:12:56","End":"12-10-2013 14:13:26"}}
{"Application":{"ProcessName":"com.lmi.vodafone.rescue","Start":"12-10-2013 14:12:56","End":"12-10-2013 14:13:26"}}
{"Application":{"ProcessName":"com.android.htcdialer","Start":"12-10-2013 14:12:56","End":"12-10-2013 14:13:26"}}
{"Application":{"ProcessName":"com.android.nfc","Start":"12-10-2013 14:12:56","End":"12-10-2013 14:13:26"}}
{"Application":{"ProcessName":"com.htc.music","Start":"12-10-2013 14:12:56","End":"12-10-2013 14:13:26"}}
{"Application":{"ProcessName":"com.htc.musicenhancer:enhancerprovider","Start":"12-10-2013 14:18:18","End":"12-10-2013 14:18:39"}}
{"Application":{"ProcessName":"com.lmi.vodafone.rescue","Start":"12-10-2013 14:18:18","End":"12-10-2013 14:18:39"}}
{"Application":{"ProcessName":"com.android.htcdialer","Start":"12-10-2013 14:18:18","End":"12-10-2013 14:18:39"}}
{"Application":{"ProcessName":"com.android.nfc","Start":"12-10-2013 14:18:18","End":"12-10-2013 14:18:39"}}
{"Application":{"ProcessName":"com.htc.music","Start":"12-10-2013 14:18:18","End":"12-10-2013 14:18:39"}}
{"Application":{"ProcessName":"com.htc.lockscreen","Start":"12-10-2013 14:22:50","End":"12-10-2013 14:22:50"}}
{"Application":{"ProcessName":"com.htc.musicenhancer:enhancerprovider","Start":"12-10-2013 14:22:39","End":"12-10-2013 14:23:11"}}
{"Application":{"ProcessName":"com.htc.music","Start":"12-10-2013 14:22:39","End":"12-10-2013 14:23:11"}}
{"Application":{"ProcessName":"com.lmi.vodafone.rescue","Start":"12-10-2013 14:22:39","End":"12-10-2013 14:30:49"}}
{"Application":{"ProcessName":"com.android.htcdialer","Start":"12-10-2013 14:22:39","End":"12-10-2013 14:30:49"}}
{"Application":{"ProcessName":"com.android.nfc","Start":"12-10-2013 14:22:39","End":"12-10-2013 14:30:49"}}
{"Application":{"ProcessName":"com.lmi.vodafone.rescue","Start":"12-10-2013 14:30:49","End":"12-10-2013 15:00:13"}}
{"Application":{"ProcessName":"com.android.htcdialer","Start":"12-10-2013 14:30:49","End":"12-10-2013 15:00:13"}}
{"Application":{"ProcessName":"com.android.nfc","Start":"12-10-2013 14:30:49","End":"12-10-2013 15:00:13"}}
{"Application":{"ProcessName":"com.htc.musicenhancer:enhancerprovider","Start":"12-10-2013 15:00:33","End":"12-10-2013 15:02:33"}}
{"Application":{"ProcessName":"com.htc.music","Start":"12-10-2013 15:00:33","End":"12-10-2013 15:02:33"}}
{"Call": {"Number":"+98937994####","Duration":"8","Time":"12-10-2013 15:02:28","Type":"1"}}
{"Call": {"Number":"+98937994####","Duration":"8","Time":"12-10-2013 15:02:28","Type":"1"}}
{"Application":{"ProcessName":"com.htc.musicenhancer:enhancerprovider","Start":"12-10-2013 15:03:03","End":"12-10-2013 15:03:53"}}
{"Application":{"ProcessName":"com.lmi.vodafone.rescue","Start":"12-10-2013 15:00:13","End":"12-10-2013 15:03:53"}}
{"Application":{"ProcessName":"com.android.htcdialer","Start":"12-10-2013 15:00:13","End":"12-10-2013 15:03:53"}}
{"Application":{"ProcessName":"com.htc.music","Start":"12-10-2013 15:03:03","End":"12-10-2013 15:03:53"}}
{"Application":{"ProcessName":"com.android.nfc","Start":"12-10-2013 15:00:13","End":"12-10-2013 15:03:53"}}
{"Application":{"ProcessName":"com.htc.musicenhancer:enhancerprovider","Start":"12-10-2013 15:07:22","End":"12-10-2013 15:07:42"}}
{"Application":{"ProcessName":"com.lmi.vodafone.rescue","Start":"12-10-2013 15:07:22","End":"12-10-2013 15:07:42"}}
{"Application":{"ProcessName":"com.android.htcdialer","Start":"12-10-2013 15:07:22","End":"12-10-2013 15:07:42"}}
{"Application":{"ProcessName":"com.android.nfc","Start":"12-10-2013 15:07:22","End":"12-10-2013 15:07:42"}}
{"Application":{"ProcessName":"com.htc.music","Start":"12-10-2013 15:07:22","End":"12-10-2013 15:07:42"}}
{"SMS":{"Address":"+98912503####","type":"2","date":"12-10-2013 15:23:57","body":"ANONYMIZED","Type":"2", "metadata": {"name": "Sajede Asgaripour"}}}
{"Application":{"ProcessName":"com.android.mms","Start":"12-10-2013 15:23:40","End":"12-10-2013 15:24:14"}}
{"Application":{"ProcessName":"com.android.providers.telephony","Start":"12-10-2013 15:23:50","End":"12-10-2013 15:24:14"}}
{"Application":{"ProcessName":"com.htc.musicenhancer:enhancerprovider","Start":"12-10-2013 15:24:54","End":"12-10-2013 15:25:14"}}
{"Application":{"ProcessName":"com.lmi.vodafone.rescue","Start":"12-10-2013 15:23:30","End":"12-10-2013 15:25:14"}}
{"Application":{"ProcessName":"com.android.htcdialer","Start":"12-10-2013 15:23:30","End":"12-10-2013 15:25:14"}}
{"Application":{"ProcessName":"com.htc.music","Start":"12-10-2013 15:24:54","End":"12-10-2013 15:25:14"}}
{"Application":{"ProcessName":"com.android.nfc","Start":"12-10-2013 15:23:30","End":"12-10-2013 15:25:14"}}
{"Application":{"ProcessName":"com.android.mms","Start":"12-10-2013 15:25:44","End":"12-10-2013 15:26:25"}}
{"Application":{"ProcessName":"com.android.providers.telephony","Start":"12-10-2013 15:25:44","End":"12-10-2013 15:26:25"}}
{"Application":{"ProcessName":"com.android.updater","Start":"12-10-2013 15:29:05","End":"12-10-2013 15:29:15"}}
{"Application":{"ProcessName":"com.htc.musicenhancer:enhancerprovider","Start":"12-10-2013 15:29:05","End":"12-10-2013 15:29:55"}}
{"Application":{"ProcessName":"com.lmi.vodafone.rescue","Start":"12-10-2013 15:25:34","End":"12-10-2013 15:29:55"}}
{"Application":{"ProcessName":"com.android.htcdialer","Start":"12-10-2013 15:25:34","End":"12-10-2013 15:29:55"}}
{"Application":{"ProcessName":"com.htc.music","Start":"12-10-2013 15:29:05","End":"12-10-2013 15:29:55"}}
{"Application":{"ProcessName":"com.android.nfc","Start":"12-10-2013 15:25:34","End":"12-10-2013 15:29:55"}}
{"Application":{"ProcessName":"com.htc.musicenhancer:enhancerprovider","Start":"12-10-2013 15:30:56","End":"12-10-2013 15:35:56"}}
{"Application":{"ProcessName":"com.lmi.vodafone.rescue","Start":"12-10-2013 15:30:56","End":"12-10-2013 15:35:56"}}
{"Application":{"ProcessName":"com.android.htcdialer","Start":"12-10-2013 15:30:56","End":"12-10-2013 15:35:56"}}
{"Application":{"ProcessName":"com.android.nfc","Start":"12-10-2013 15:30:56","End":"12-10-2013 15:35:56"}}
{"Application":{"ProcessName":"com.htc.music","Start":"12-10-2013 15:30:56","End":"12-10-2013 15:35:56"}}
{"Application":{"ProcessName":"com.htc.musicenhancer:enhancerprovider","Start":"12-10-2013 15:35:56","End":"12-10-2013 15:40:57"}}
{"Application":{"ProcessName":"com.lmi.vodafone.rescue","Start":"12-10-2013 15:35:56","End":"12-10-2013 15:40:57"}}
{"Application":{"ProcessName":"com.android.htcdialer","Start":"12-10-2013 15:35:56","End":"12-10-2013 15:40:57"}}
{"Application":{"ProcessName":"com.android.nfc","Start":"12-10-2013 15:35:56","End":"12-10-2013 15:40:57"}}
{"Application":{"ProcessName":"com.htc.music","Start":"12-10-2013 15:35:56","End":"12-10-2013 15:40:57"}}
{"Application":{"ProcessName":"com.htc.musicenhancer:enhancerprovider","Start":"12-10-2013 15:40:57","End":"12-10-2013 16:13:59"}}
{"Application":{"ProcessName":"com.lmi.vodafone.rescue","Start":"12-10-2013 15:40:57","End":"12-10-2013 16:13:59"}}
{"Application":{"ProcessName":"com.android.htcdialer","Start":"12-10-2013 15:40:57","End":"12-10-2013 16:13:59"}}
{"Application":{"ProcessName":"com.android.nfc","Start":"12-10-2013 15:40:57","End":"12-10-2013 16:13:59"}}
{"Application":{"ProcessName":"com.htc.music","Start":"12-10-2013 15:40:57","End":"12-10-2013 16:13:59"}}
{"Application":{"ProcessName":"com.farsitel.bazaar","Start":"12-10-2013 17:04:26","End":"12-10-2013 17:04:26"}}
{"Application":{"ProcessName":"com.lmi.vodafone.rescue","Start":"12-10-2013 17:04:26","End":"12-10-2013 17:04:36"}}
{"Application":{"ProcessName":"com.htc.task","Start":"12-10-2013 17:04:28","End":"12-10-2013 17:04:36"}}
{"Application":{"ProcessName":"com.android.htcdialer","Start":"12-10-2013 17:04:26","End":"12-10-2013 17:04:36"}}
{"Application":{"ProcessName":"com.android.nfc","Start":"12-10-2013 17:04:26","End":"12-10-2013 17:04:36"}}
{"Application":{"ProcessName":"com.lmi.vodafone.rescue","Start":"12-10-2013 17:07:04","End":"12-10-2013 17:07:05"}}
{"Application":{"ProcessName":"com.android.htcdialer","Start":"12-10-2013 17:07:04","End":"12-10-2013 17:07:05"}}
{"Application":{"ProcessName":"com.android.nfc","Start":"12-10-2013 17:07:04","End":"12-10-2013 17:07:05"}}
{"Call": {"Number":"+98912494####","Duration":"351","Time":"12-10-2013 17:04:24","Type":"1"}}
{"Call": {"Number":"+98912494####","Duration":"351","Time":"12-10-2013 17:04:24","Type":"1"}}
{"Application":{"ProcessName":"com.htc.musicenhancer:enhancerprovider","Start":"12-10-2013 17:10:26","End":"12-10-2013 17:12:37"}}
{"Application":{"ProcessName":"com.lmi.vodafone.rescue","Start":"12-10-2013 17:10:26","End":"12-10-2013 17:12:37"}}
{"Application":{"ProcessName":"com.android.htcdialer","Start":"12-10-2013 17:10:26","End":"12-10-2013 17:12:37"}}
{"Application":{"ProcessName":"com.android.nfc","Start":"12-10-2013 17:10:26","End":"12-10-2013 17:12:37"}}
{"Application":{"ProcessName":"com.htc.music","Start":"12-10-2013 17:10:26","End":"12-10-2013 17:12:37"}}
{"Application":{"ProcessName":"com.htc.musicenhancer:enhancerprovider","Start":"12-10-2013 17:53:36","End":"12-10-2013 17:59:28"}}
{"Application":{"ProcessName":"com.lmi.vodafone.rescue","Start":"12-10-2013 17:53:36","End":"12-10-2013 17:59:28"}}
{"Application":{"ProcessName":"com.android.htcdialer","Start":"12-10-2013 17:53:36","End":"12-10-2013 17:59:28"}}
{"Application":{"ProcessName":"com.android.nfc","Start":"12-10-2013 17:53:36","End":"12-10-2013 17:59:28"}}
{"Application":{"ProcessName":"com.htc.music","Start":"12-10-2013 17:53:36","End":"12-10-2013 17:59:28"}}
{"Application":{"ProcessName":"com.lmi.vodafone.rescue","Start":"12-10-2013 18:01:28","End":"12-10-2013 18:01:31"}}
{"Application":{"ProcessName":"com.android.htcdialer","Start":"12-10-2013 18:01:28","End":"12-10-2013 18:01:31"}}
{"Application":{"ProcessName":"com.android.nfc","Start":"12-10-2013 18:01:28","End":"12-10-2013 18:01:31"}}
{"Call": {"Number":"+98919503####","Duration":"106","Time":"12-10-2013 18:01:22","Type":"1"}}
{"Call": {"Number":"+98919503####","Duration":"106","Time":"12-10-2013 18:01:22","Type":"1"}}
{"Application":{"ProcessName":"com.htc.musicenhancer:enhancerprovider","Start":"12-10-2013 18:03:23","End":"12-10-2013 18:03:59"}}
{"Application":{"ProcessName":"com.lmi.vodafone.rescue","Start":"12-10-2013 18:03:20","End":"12-10-2013 18:03:59"}}
{"Application":{"ProcessName":"com.android.htcdialer","Start":"12-10-2013 18:03:20","End":"12-10-2013 18:03:59"}}
{"Application":{"ProcessName":"com.htc.music","Start":"12-10-2013 18:03:23","End":"12-10-2013 18:03:59"}}
{"Application":{"ProcessName":"com.android.nfc","Start":"12-10-2013 18:03:20","End":"12-10-2013 18:03:59"}}
{"Application":{"ProcessName":"com.android.providers.telephony","Start":"12-10-2013 19:54:02","End":"12-10-2013 19:54:09"}}
{"Application":{"ProcessName":"com.htc.musicenhancer:enhancerprovider","Start":"12-10-2013 19:53:59","End":"12-10-2013 19:55:42"}}
{"Application":{"ProcessName":"com.htc.music","Start":"12-10-2013 19:53:59","End":"12-10-2013 19:55:42"}}
{"Application":{"ProcessName":"com.lmi.vodafone.rescue","Start":"12-10-2013 19:53:59","End":"12-10-2013 19:59:03"}}
{"Application":{"ProcessName":"com.android.htcdialer","Start":"12-10-2013 19:53:59","End":"12-10-2013 19:59:03"}}
{"Application":{"ProcessName":"com.android.nfc","Start":"12-10-2013 19:53:59","End":"12-10-2013 19:59:03"}}
{"Application":{"ProcessName":"com.android.mms","Start":"12-10-2013 20:12:23","End":"12-10-2013 20:17:23"}}
{"Application":{"ProcessName":"com.android.providers.telephony","Start":"12-10-2013 20:12:23","End":"12-10-2013 20:17:23"}}
{"Application":{"ProcessName":"com.lmi.vodafone.rescue","Start":"12-10-2013 20:12:23","End":"12-10-2013 20:17:23"}}
{"Application":{"ProcessName":"com.android.htcdialer","Start":"12-10-2013 20:12:23","End":"12-10-2013 20:17:23"}}
{"Application":{"ProcessName":"com.android.nfc","Start":"12-10-2013 20:12:23","End":"12-10-2013 20:17:23"}}
{"Application":{"ProcessName":"com.android.mms","Start":"12-10-2013 20:17:23","End":"12-10-2013 20:20:24"}}
{"Application":{"ProcessName":"com.android.providers.telephony","Start":"12-10-2013 20:17:23","End":"12-10-2013 20:20:24"}}
{"Application":{"ProcessName":"com.lmi.vodafone.rescue","Start":"12-10-2013 20:17:23","End":"12-10-2013 20:20:34"}}
{"Application":{"ProcessName":"com.android.htcdialer","Start":"12-10-2013 20:17:23","End":"12-10-2013 20:20:34"}}
{"Application":{"ProcessName":"com.android.nfc","Start":"12-10-2013 20:17:23","End":"12-10-2013 20:20:34"}}
{"Application":{"ProcessName":"com.lmi.vodafone.rescue","Start":"12-10-2013 20:21:05","End":"12-10-2013 20:21:36"}}
{"Application":{"ProcessName":"com.htc.task","Start":"12-10-2013 20:21:06","End":"12-10-2013 20:21:36"}}
{"Application":{"ProcessName":"com.android.htcdialer","Start":"12-10-2013 20:21:05","End":"12-10-2013 20:21:36"}}
{"Application":{"ProcessName":"com.android.nfc","Start":"12-10-2013 20:21:05","End":"12-10-2013 20:21:36"}}
{"Call": {"Number":"+98939375####","Duration":"26","Time":"12-10-2013 20:20:27","Type":"2"}}
{"Call": {"Number":"+98939375####","Duration":"26","Time":"12-10-2013 20:20:27","Type":"2"}}
{"Application":{"ProcessName":"com.lmi.vodafone.rescue","Start":"12-10-2013 20:21:46","End":"12-10-2013 20:26:46"}}
{"Application":{"ProcessName":"com.android.htcdialer","Start":"12-10-2013 20:21:46","End":"12-10-2013 20:26:46"}}
{"Application":{"ProcessName":"com.android.nfc","Start":"12-10-2013 20:21:46","End":"12-10-2013 20:26:46"}}
{"Application":{"ProcessName":"com.lmi.vodafone.rescue","Start":"12-10-2013 20:26:46","End":"12-10-2013 20:31:47"}}
{"Application":{"ProcessName":"com.android.htcdialer","Start":"12-10-2013 20:26:46","End":"12-10-2013 20:31:47"}}
{"Application":{"ProcessName":"com.android.nfc","Start":"12-10-2013 20:26:46","End":"12-10-2013 20:31:47"}}
{"Application":{"ProcessName":"com.lmi.vodafone.rescue","Start":"12-10-2013 20:31:47","End":"12-10-2013 20:41:10"}}
{"Application":{"ProcessName":"com.android.htcdialer","Start":"12-10-2013 20:31:47","End":"12-10-2013 20:41:10"}}
{"Application":{"ProcessName":"com.android.nfc","Start":"12-10-2013 20:31:47","End":"12-10-2013 20:41:10"}}
{"Application":{"ProcessName":"com.lmi.vodafone.rescue","Start":"12-10-2013 20:41:10","End":"12-10-2013 20:54:01"}}
{"Application":{"ProcessName":"com.android.htcdialer","Start":"12-10-2013 20:41:10","End":"12-10-2013 20:54:01"}}
{"Application":{"ProcessName":"com.android.nfc","Start":"12-10-2013 20:41:10","End":"12-10-2013 20:54:01"}}
{"SMS":{"Address":"+98912426####","type":"1","date":"12-10-2013 21:00:19","body":"ANONYMIZED","Type":"1", "metadata": {"name": "Sepide Zarei"}}}
{"SMS":{"Address":"+98912426####","type":"1","date":"12-10-2013 21:15:24","body":"ANONYMIZED","Type":"1", "metadata": {"name": "Sepide Zarei"}}}
{"Application":{"ProcessName":"com.android.mms","Start":"12-10-2013 22:00:28","End":"12-10-2013 22:01:40"}}
{"Application":{"ProcessName":"com.android.providers.telephony","Start":"12-10-2013 22:00:39","End":"12-10-2013 22:01:40"}}
{"Application":{"ProcessName":"com.lmi.vodafone.rescue","Start":"12-10-2013 22:00:25","End":"12-10-2013 22:01:40"}}
{"Application":{"ProcessName":"com.android.htcdialer","Start":"12-10-2013 22:00:25","End":"12-10-2013 22:01:40"}}
{"Application":{"ProcessName":"com.android.nfc","Start":"12-10-2013 22:00:25","End":"12-10-2013 22:01:40"}}
{"SMS":{"Address":"0912426####","type":"2","date":"12-10-2013 22:01:38","body":"ANONYMIZED","Type":"2", "metadata": {"name": "Sepide Zarei"}}}
{"SMS":{"Address":"+98912426####","type":"1","date":"12-10-2013 22:04:34","body":"ANONYMIZED","Type":"1", "metadata": {"name": "Sepide Zarei"}}}
{"Application":{"ProcessName":"com.android.mms","Start":"12-10-2013 22:31:30","End":"12-10-2013 22:31:40"}}
{"Application":{"ProcessName":"com.android.providers.telephony","Start":"12-10-2013 22:31:36","End":"12-10-2013 22:31:40"}}
{"Application":{"ProcessName":"com.lmi.vodafone.rescue","Start":"12-10-2013 22:31:30","End":"12-10-2013 22:31:40"}}
{"Application":{"ProcessName":"com.android.htcdialer","Start":"12-10-2013 22:31:30","End":"12-10-2013 22:31:40"}}
{"Application":{"ProcessName":"com.android.nfc","Start":"12-10-2013 22:31:30","End":"12-10-2013 22:31:40"}}
{"SMS":{"Address":"0912426####","type":"2","date":"12-10-2013 22:31:40","body":"ANONYMIZED","Type":"2", "metadata": {"name": "Sepide Zarei"}}}
{"Application":{"ProcessName":"com.android.mms","Start":"12-10-2013 22:58:12","End":"12-10-2013 22:58:22"}}
{"Application":{"ProcessName":"com.android.providers.telephony","Start":"12-10-2013 22:58:12","End":"12-10-2013 22:58:22"}}
{"Application":{"ProcessName":"com.htc.music:mediaplaybackservice","Start":"12-10-2013 22:58:32","End":"12-10-2013 22:58:33"}}
{"Application":{"ProcessName":"com.farsitel.bazaar","Start":"12-10-2013 22:58:33","End":"12-10-2013 22:58:44"}}
{"Application":{"ProcessName":"com.htc.musicenhancer:enhancerprovider","Start":"12-10-2013 22:58:33","End":"12-10-2013 22:59:04"}}
{"Application":{"ProcessName":"com.htc.music","Start":"12-10-2013 22:58:32","End":"12-10-2013 22:59:04"}}
{"Application":{"ProcessName":"com.android.settings","Start":"12-10-2013 22:59:04","End":"12-10-2013 22:59:14"}}
{"Application":{"ProcessName":"com.htc.musicenhancer:enhancerprovider","Start":"12-10-2013 22:59:14","End":"12-10-2013 22:59:34"}}
{"Application":{"ProcessName":"com.htc.music","Start":"12-10-2013 22:59:14","End":"12-10-2013 22:59:34"}}
{"Application":{"ProcessName":"com.android.settings","Start":"12-10-2013 22:59:34","End":"12-10-2013 22:59:44"}}
{"Application":{"ProcessName":"com.htc.musicenhancer:enhancerprovider","Start":"12-10-2013 22:59:44","End":"12-10-2013 23:00:04"}}
{"Application":{"ProcessName":"com.htc.music","Start":"12-10-2013 22:59:44","End":"12-10-2013 23:00:04"}}
{"Application":{"ProcessName":"com.android.settings","Start":"12-10-2013 23:00:04","End":"12-10-2013 23:00:14"}}
{"Application":{"ProcessName":"com.htc.musicenhancer:enhancerprovider","Start":"12-10-2013 23:00:14","End":"12-10-2013 23:00:24"}}
{"Application":{"ProcessName":"com.htc.music","Start":"12-10-2013 23:00:14","End":"12-10-2013 23:00:24"}}
{"Application":{"ProcessName":"com.android.settings","Start":"12-10-2013 23:00:24","End":"12-10-2013 23:00:34"}}
{"Application":{"ProcessName":"com.htc.musicenhancer:enhancerprovider","Start":"12-10-2013 23:00:34","End":"12-10-2013 23:00:54"}}
{"Application":{"ProcessName":"com.htc.music","Start":"12-10-2013 23:00:34","End":"12-10-2013 23:00:54"}}
{"Application":{"ProcessName":"com.htc.musicenhancer:enhancerprovider","Start":"12-10-2013 23:01:04","End":"12-10-2013 23:01:05"}}
{"Application":{"ProcessName":"com.htc.music","Start":"12-10-2013 23:01:04","End":"12-10-2013 23:01:05"}}
{"Application":{"ProcessName":"com.android.settings","Start":"12-10-2013 23:01:05","End":"12-10-2013 23:01:15"}}
