{"Application":{"ProcessName":"com.sec.android.app.twlauncher","Start":"11-26-2013 23:48:11","End":"11-26-2013 23:48:15"}}
{"Application":{"ProcessName":"com.sec.android.app.twlauncher","Start":"11-27-2013 00:15:58","End":"11-27-2013 00:16:08"}}
{"Application":{"ProcessName":"com.android.deskclock","Start":"11-27-2013 00:19:22","End":"11-27-2013 00:19:42"}}
{"Application":{"ProcessName":"com.android.deskclock","Start":"11-27-2013 08:08:03","End":"11-27-2013 08:08:13"}}
{"Application":{"ProcessName":"com.sec.android.app.twlauncher","Start":"11-27-2013 08:08:13","End":"11-27-2013 08:08:23"}}
{"Application":{"ProcessName":"com.sec.android.app.twlauncher","Start":"11-27-2013 09:00:37","End":"11-27-2013 09:00:47"}}
{"SMS":{"Address":"900096####","type":"1","date":"11-26-2013 16:05:07","body":"ANONYMIZED","Type":"1", "metadata": {"name": ""}}}
{"SMS":{"Address":"+98937798####","type":"1","date":"11-27-2013 09:02:24","body":"ANONYMIZED","Type":"1", "metadata": {"name": ""}}}
{"Application":{"ProcessName":"com.sec.android.app.twlauncher","Start":"11-27-2013 09:02:29","End":"11-27-2013 09:03:06"}}
{"Application":{"ProcessName":"com.android.mms","Start":"11-27-2013 09:03:06","End":"11-27-2013 09:05:46"}}
{"SMS":{"Address":"+98937798####","type":"2","date":"11-27-2013 09:13:42","body":"ANONYMIZED","Type":"2", "metadata": {"name": ""}}}
{"Application":{"ProcessName":"com.android.mms","Start":"11-27-2013 09:13:21","End":"11-27-2013 09:14:01"}}
{"Application":{"ProcessName":"com.android.settings","Start":"11-27-2013 09:14:01","End":"11-27-2013 09:14:11"}}
{"Application":{"ProcessName":"com.sec.android.app.twlauncher","Start":"11-27-2013 09:14:11","End":"11-27-2013 09:14:47"}}
{"SMS":{"Address":"+98937798####","type":"1","date":"11-27-2013 09:16:24","body":"ANONYMIZED","Type":"1", "metadata": {"name": ""}}}
{"Application":{"ProcessName":"com.sec.android.app.twlauncher","Start":"11-27-2013 09:16:25","End":"11-27-2013 09:16:45"}}
{"Application":{"ProcessName":"com.sec.android.provider.badge","Start":"11-27-2013 09:17:05","End":"11-27-2013 09:17:15"}}
{"SMS":{"Address":"+98937798####","type":"2","date":"11-27-2013 09:17:36","body":"ANONYMIZED","Type":"2", "metadata": {"name": ""}}}
{"Application":{"ProcessName":"com.android.mms","Start":"11-27-2013 09:16:45","End":"11-27-2013 09:17:45"}}
{"Application":{"ProcessName":"com.sec.android.app.controlpanel","Start":"11-27-2013 09:17:45","End":"11-27-2013 09:17:55"}}
{"SMS":{"Address":"+98937798####","type":"1","date":"11-27-2013 09:25:06","body":"ANONYMIZED","Type":"1", "metadata": {"name": ""}}}
{"Application":{"ProcessName":"com.sec.android.app.twlauncher","Start":"11-27-2013 09:25:07","End":"11-27-2013 09:25:29"}}
{"Application":{"ProcessName":"com.sec.android.app.twlauncher","Start":"11-27-2013 09:25:46","End":"11-27-2013 09:25:56"}}
{"SMS":{"Address":"+98937798####","type":"2","date":"11-27-2013 09:26:50","body":"ANONYMIZED","Type":"2", "metadata": {"name": ""}}}
{"Application":{"ProcessName":"com.android.mms","Start":"11-27-2013 09:25:56","End":"11-27-2013 09:26:56"}}
{"Application":{"ProcessName":"com.sec.android.app.controlpanel","Start":"11-27-2013 09:26:56","End":"11-27-2013 09:27:06"}}
{"SMS":{"Address":"+98937798####","type":"1","date":"11-27-2013 09:28:31","body":"ANONYMIZED","Type":"1", "metadata": {"name": ""}}}
{"SMS":{"Address":"+98937798####","type":"2","date":"11-27-2013 09:31:54","body":"ANONYMIZED","Type":"2", "metadata": {"name": ""}}}
{"Application":{"ProcessName":"com.android.mms","Start":"11-27-2013 09:31:44","End":"11-27-2013 09:32:44"}}
{"Application":{"ProcessName":"com.sec.android.app.twlauncher","Start":"11-27-2013 09:44:26","End":"11-27-2013 09:44:38"}}
{"Application":{"ProcessName":"com.sec.android.app.twlauncher","Start":"11-27-2013 09:51:59","End":"11-27-2013 09:52:09"}}
{"Application":{"ProcessName":"com.sec.android.app.twlauncher","Start":"11-27-2013 09:58:45","End":"11-27-2013 09:58:55"}}
{"SMS":{"Address":"+98919116####","type":"2","date":"11-27-2013 09:59:12","body":"ANONYMIZED","Type":"2", "metadata": {"name": "Nasrin"}}}
{"Application":{"ProcessName":"com.android.mms","Start":"11-27-2013 09:58:55","End":"11-27-2013 09:59:35"}}
{"Application":{"ProcessName":"com.sec.android.app.controlpanel","Start":"11-27-2013 09:59:35","End":"11-27-2013 10:00:17"}}
{"SMS":{"Address":"+98919116####","type":"1","date":"11-27-2013 10:00:27","body":"ANONYMIZED","Type":"1", "metadata": {"name": "Nasrin"}}}
{"Application":{"ProcessName":"com.sec.android.app.twlauncher","Start":"11-27-2013 10:00:35","End":"11-27-2013 10:00:45"}}
{"SMS":{"Address":"+98919116####","type":"2","date":"11-27-2013 10:00:57","body":"ANONYMIZED","Type":"2", "metadata": {"name": "Nasrin"}}}
{"Application":{"ProcessName":"com.android.mms","Start":"11-27-2013 10:00:45","End":"11-27-2013 10:01:05"}}
{"Application":{"ProcessName":"com.sec.android.app.twlauncher","Start":"11-27-2013 10:01:05","End":"11-27-2013 10:01:15"}}
{"Application":{"ProcessName":"com.android.mms","Start":"11-27-2013 10:01:15","End":"11-27-2013 10:02:05"}}
{"Application":{"ProcessName":"com.sec.android.app.twlauncher","Start":"11-27-2013 10:02:05","End":"11-27-2013 10:02:42"}}
{"SMS":{"Address":"+98937798####","type":"2","date":"11-27-2013 13:23:58","body":"ANONYMIZED","Type":"2", "metadata": {"name": ""}}}
{"Application":{"ProcessName":"com.android.mms","Start":"11-27-2013 13:24:10","End":"11-27-2013 13:24:20"}}
{"Application":{"ProcessName":"com.sec.android.app.twlauncher","Start":"11-27-2013 13:26:45","End":"11-27-2013 13:26:55"}}
{"Application":{"ProcessName":"com.sec.android.app.camera","Start":"11-27-2013 13:26:55","End":"11-27-2013 13:31:55"}}
{"Application":{"ProcessName":"com.sec.android.app.camera","Start":"11-27-2013 13:31:55","End":"11-27-2013 13:35:25"}}
{"Application":{"ProcessName":"com.sec.android.app.twlauncher","Start":"11-27-2013 13:35:25","End":"11-27-2013 13:35:55"}}
{"Application":{"ProcessName":"com.sec.android.app.twlauncher","Start":"11-27-2013 13:36:13","End":"11-27-2013 13:36:43"}}
{"Application":{"ProcessName":"com.sec.android.app.camera","Start":"11-27-2013 13:37:03","End":"11-27-2013 13:41:23"}}
{"Application":{"ProcessName":"com.sec.android.app.controlpanel","Start":"11-27-2013 13:41:23","End":"11-27-2013 13:41:42"}}
{"Application":{"ProcessName":"com.sec.android.app.twlauncher","Start":"11-27-2013 13:41:42","End":"11-27-2013 13:42:12"}}
{"Application":{"ProcessName":"com.cooliris.media","Start":"11-27-2013 13:48:12","End":"11-27-2013 13:49:42"}}
{"Application":{"ProcessName":"com.sec.android.app.twlauncher","Start":"11-27-2013 13:50:22","End":"11-27-2013 13:50:32"}}
{"Application":{"ProcessName":"com.android.mms","Start":"11-27-2013 13:50:32","End":"11-27-2013 13:50:52"}}
{"SMS":{"Address":"0936563####","type":"2","date":"11-27-2013 13:50:47","body":"ANONYMIZED","Type":"2", "metadata": {"name": "Mina"}}}
{"Application":{"ProcessName":"com.sec.android.app.controlpanel","Start":"11-27-2013 13:50:52","End":"11-27-2013 13:51:02"}}
{"Application":{"ProcessName":"com.cooliris.media","Start":"11-27-2013 13:51:02","End":"11-27-2013 13:51:32"}}
{"Application":{"ProcessName":"com.cooliris.media","Start":"11-27-2013 13:53:53","End":"11-27-2013 13:55:13"}}
{"SMS":{"Address":"+98936563####","type":"1","date":"11-27-2013 13:56:40","body":"ANONYMIZED","Type":"1", "metadata": {"name": "Mina"}}}
{"Application":{"ProcessName":"com.cooliris.media","Start":"11-27-2013 13:56:03","End":"11-27-2013 13:56:53"}}
{"Application":{"ProcessName":"com.sec.android.app.twlauncher","Start":"11-27-2013 13:56:53","End":"11-27-2013 13:57:03"}}
{"SMS":{"Address":"0936563####","type":"2","date":"11-27-2013 13:58:03","body":"ANONYMIZED","Type":"2", "metadata": {"name": "Mina"}}}
{"SMS":{"Address":"+98938494####","type":"2","date":"11-27-2013 15:05:25","body":"ANONYMIZED","Type":"2"}}
{"Application":{"ProcessName":"com.sec.android.provider.logsprovider","Start":"11-27-2013 15:05:48","End":"11-27-2013 15:06:08"}}
{"Application":{"ProcessName":"com.android.mms","Start":"11-27-2013 15:05:48","End":"11-27-2013 15:06:18"}}
{"Application":{"ProcessName":"com.sec.android.app.twlauncher","Start":"11-27-2013 16:13:01","End":"11-27-2013 16:13:21"}}
{"Application":{"ProcessName":"com.cooliris.media","Start":"11-27-2013 16:13:21","End":"11-27-2013 16:14:54"}}
{"Application":{"ProcessName":"com.cooliris.media","Start":"11-27-2013 16:15:44","End":"11-27-2013 16:16:47"}}
{"Application":{"ProcessName":"com.cooliris.media","Start":"11-27-2013 16:17:01","End":"11-27-2013 16:18:40"}}
{"Application":{"ProcessName":"com.cooliris.media","Start":"11-27-2013 16:19:04","End":"11-27-2013 16:21:05"}}
{"Application":{"ProcessName":"com.cooliris.media","Start":"11-27-2013 16:21:27","End":"11-27-2013 16:22:45"}}
{"Application":{"ProcessName":"com.cooliris.media","Start":"11-27-2013 16:23:05","End":"11-27-2013 16:26:48"}}
{"Application":{"ProcessName":"com.cooliris.media","Start":"11-27-2013 16:27:01","End":"11-27-2013 16:28:33"}}
{"Application":{"ProcessName":"com.cooliris.media","Start":"11-27-2013 16:28:43","End":"11-27-2013 16:28:53"}}
{"Application":{"ProcessName":"com.sec.android.app.twlauncher","Start":"11-27-2013 17:38:11","End":"11-27-2013 17:38:29"}}
{"SMS":{"Address":"0936563####","type":"2","date":"11-27-2013 17:40:31","body":"ANONYMIZED","Type":"2", "metadata": {"name": "Mina"}}}
{"Application":{"ProcessName":"com.android.mms","Start":"11-27-2013 17:40:06","End":"11-27-2013 17:41:12"}}
{"Application":{"ProcessName":"com.sec.android.app.twlauncher","Start":"11-27-2013 17:45:36","End":"11-27-2013 17:45:46"}}
{"Application":{"ProcessName":"com.sec.android.app.twlauncher","Start":"11-27-2013 17:45:56","End":"11-27-2013 17:46:29"}}
{"Application":{"ProcessName":"com.sec.android.app.twlauncher","Start":"11-27-2013 17:49:18","End":"11-27-2013 17:49:28"}}
{"Application":{"ProcessName":"com.sec.android.app.twlauncher","Start":"11-27-2013 17:50:18","End":"11-27-2013 17:50:29"}}
{"Application":{"ProcessName":"com.sec.android.app.twlauncher","Start":"11-27-2013 18:09:18","End":"11-27-2013 18:09:28"}}
{"Application":{"ProcessName":"com.sec.android.app.twlauncher","Start":"11-27-2013 19:13:46","End":"11-27-2013 19:14:05"}}
{"SMS":{"Address":"+98936563####","type":"1","date":"11-27-2013 19:18:26","body":"ANONYMIZED","Type":"1", "metadata": {"name": "Mina"}}}
{"SMS":{"Address":"0936563####","type":"2","date":"11-27-2013 19:19:21","body":"ANONYMIZED","Type":"2", "metadata": {"name": "Mina"}}}
{"Application":{"ProcessName":"com.android.mms","Start":"11-27-2013 19:18:43","End":"11-27-2013 19:19:33"}}
{"Application":{"ProcessName":"com.sec.android.app.twlauncher","Start":"11-27-2013 19:19:33","End":"11-27-2013 19:20:51"}}
{"Application":{"ProcessName":"com.sec.android.app.twlauncher","Start":"11-27-2013 19:31:04","End":"11-27-2013 19:31:24"}}
{"SMS":{"Address":"+98936563####","type":"1","date":"11-27-2013 19:32:50","body":"ANONYMIZED","Type":"1", "metadata": {"name": "Mina"}}}
{"Application":{"ProcessName":"com.sec.android.app.twlauncher","Start":"11-27-2013 19:32:53","End":"11-27-2013 19:33:25"}}
{"WiFi":{"SSID":"Parsa","BSSID":"90:f6:52:b0:8c:d2","capabilities":"[WPA-PSK-TKIP+CCMP][WPA2-PSK-TKIP+CCMP][WPS]","level":"-34","frequency":"2457","time":"Wednesday, November 27, 2013 8:09:36 PM Azerbaijan Time"}}
{"WiFi":{"SSID":"kambizghaznavi","BSSID":"ac:e8:7b:1f:f7:75","capabilities":"[WPA2-PSK-CCMP]","level":"-84","frequency":"2432","time":"Wednesday, November 27, 2013 8:09:36 PM Azerbaijan Time"}}
{"Location":{"Latitude":"35.7240318","Longtitude":"51.320438949999996","Altitude":"0.0","time":"11-27-2013 20:09:37","Accuracy":"46.0","Provider":"network"}}
{"Application":{"ProcessName":"com.sec.android.app.twlauncher","Start":"11-27-2013 20:09:28","End":"11-27-2013 20:09:38"}}
{"Application":{"ProcessName":"com.google.android.apps.uploader","Start":"11-27-2013 20:09:28","End":"11-27-2013 20:09:38"}}
{"Location":{"Latitude":"35.7240318","Longtitude":"51.320438949999996","Altitude":"0.0","time":"11-27-2013 20:29:26","Accuracy":"46.0","Provider":"network"}}
{"Application":{"ProcessName":"com.sec.android.app.twlauncher","Start":"11-27-2013 20:44:35","End":"11-27-2013 20:44:57"}}
{"Application":{"ProcessName":"com.sec.android.app.twlauncher","Start":"11-27-2013 21:06:48","End":"11-27-2013 21:07:02"}}
{"Application":{"ProcessName":"com.sec.android.app.twlauncher","Start":"11-27-2013 21:33:40","End":"11-27-2013 21:33:50"}}
{"Application":{"ProcessName":"com.sec.android.app.twlauncher","Start":"11-27-2013 22:45:52","End":"11-27-2013 22:46:14"}}
{"SMS":{"Address":"+98936563####","type":"1","date":"11-27-2013 19:32:50","body":"ANONYMIZED","Type":"1"}}
{"SMS":{"Address":"+98936563####","type":"1","date":"11-27-2013 23:19:19","body":"ANONYMIZED","Type":"1"}}
{"Application":{"ProcessName":"com.sec.android.app.twlauncher","Start":"11-27-2013 23:19:22","End":"11-27-2013 23:19:42"}}
{"Call": {"Number":"+98936563####","Duration":"13","Time":"11-27-2013 23:31:47","Type":"1"}}
{"SMS":{"Address":"+98936563####","type":"2","date":"11-27-2013 23:33:07","body":"ANONYMIZED","Type":"2"}}
{"Application":{"ProcessName":"com.android.mms","Start":"11-27-2013 23:32:17","End":"11-27-2013 23:33:37"}}
{"Application":{"ProcessName":"com.android.deskclock","Start":"11-27-2013 23:33:37","End":"11-27-2013 23:33:47"}}
