{"WiFi":{"SSID":"Parsa","BSSID":"90:f6:52:b0:8c:d2","capabilities":"[WPA-PSK-TKIP+CCMP][WPA2-PSK-TKIP+CCMP][WPS]","level":"-32","frequency":"2457","time":"Friday, November 22, 2013 11:53:45 PM Azerbaijan Time"}}
{"WiFi":{"SSID":"hedieh","BSSID":"00:0d:f0:a7:19:fb","capabilities":"[WPA-PSK-TKIP]","level":"-71","frequency":"2422","time":"Friday, November 22, 2013 11:53:45 PM Azerbaijan Time"}}
{"WiFi":{"SSID":"kambizghaznavi","BSSID":"ac:e8:7b:1f:f7:75","capabilities":"[WPA2-PSK-CCMP]","level":"-83","frequency":"2432","time":"Friday, November 22, 2013 11:53:45 PM Azerbaijan Time"}}
{"WiFi":{"SSID":"amo.myna","BSSID":"28:3c:e4:35:11:ef","capabilities":"[WPA-PSK-TKIP+CCMP][WPA2-PSK-TKIP+CCMP]","level":"-86","frequency":"2442","time":"Friday, November 22, 2013 11:53:45 PM Azerbaijan Time"}}
{"WiFi":{"SSID":"mobinnet9ee3","BSSID":"00:0d:f0:a6:b6:e7","capabilities":"[WPA2-PSK-TKIP]","level":"-94","frequency":"2412","time":"Friday, November 22, 2013 11:53:45 PM Azerbaijan Time"}}
{"WiFi":{"SSID":"Afshin","BSSID":"28:10:7b:3e:9c:40","capabilities":"[WEP]","level":"-87","frequency":"2412","time":"Friday, November 22, 2013 11:53:45 PM Azerbaijan Time"}}
{"WiFi":{"SSID":"Parsa","BSSID":"90:f6:52:b0:8c:d2","capabilities":"[WPA-PSK-TKIP+CCMP][WPA2-PSK-TKIP+CCMP][WPS]","level":"-36","frequency":"2457","time":"Friday, November 22, 2013 11:56:12 PM Azerbaijan Time"}}
{"WiFi":{"SSID":"hedieh","BSSID":"00:0d:f0:a7:19:fb","capabilities":"[WPA-PSK-TKIP]","level":"-76","frequency":"2422","time":"Friday, November 22, 2013 11:56:12 PM Azerbaijan Time"}}
{"WiFi":{"SSID":"amo.myna","BSSID":"28:3c:e4:35:11:ef","capabilities":"[WPA-PSK-TKIP+CCMP][WPA2-PSK-TKIP+CCMP]","level":"-88","frequency":"2442","time":"Friday, November 22, 2013 11:56:12 PM Azerbaijan Time"}}
{"WiFi":{"SSID":"Danger","BSSID":"f8:d1:11:82:42:09","capabilities":"[WPA-PSK-TKIP+CCMP]","level":"-91","frequency":"2447","time":"Friday, November 22, 2013 11:56:12 PM Azerbaijan Time"}}
{"WiFi":{"SSID":"Afshin","BSSID":"28:10:7b:3e:9c:40","capabilities":"[WEP]","level":"-92","frequency":"2412","time":"Friday, November 22, 2013 11:56:12 PM Azerbaijan Time"}}
{"WiFi":{"SSID":"Parsa","BSSID":"90:f6:52:b0:8c:d2","capabilities":"[WPA-PSK-TKIP+CCMP][WPA2-PSK-TKIP+CCMP][WPS]","level":"-40","frequency":"2457","time":"Friday, November 22, 2013 11:59:07 PM Azerbaijan Time"}}
{"WiFi":{"SSID":"hedieh","BSSID":"00:0d:f0:a7:19:fb","capabilities":"[WPA-PSK-TKIP]","level":"-74","frequency":"2422","time":"Friday, November 22, 2013 11:59:07 PM Azerbaijan Time"}}
{"WiFi":{"SSID":"amo.myna","BSSID":"28:3c:e4:35:11:ef","capabilities":"[WPA-PSK-TKIP+CCMP][WPA2-PSK-TKIP+CCMP]","level":"-86","frequency":"2442","time":"Friday, November 22, 2013 11:59:07 PM Azerbaijan Time"}}
{"WiFi":{"SSID":"Danger","BSSID":"f8:d1:11:82:42:09","capabilities":"[WPA-PSK-TKIP+CCMP]","level":"-93","frequency":"2447","time":"Friday, November 22, 2013 11:59:07 PM Azerbaijan Time"}}
{"WiFi":{"SSID":"Afshin","BSSID":"28:10:7b:3e:9c:40","capabilities":"[WEP]","level":"-93","frequency":"2412","time":"Friday, November 22, 2013 11:59:07 PM Azerbaijan Time"}}
{"WiFi":{"SSID":"Parsa","BSSID":"90:f6:52:b0:8c:d2","capabilities":"[WPA-PSK-TKIP+CCMP][WPA2-PSK-TKIP+CCMP][WPS]","level":"-34","frequency":"2457","time":"Saturday, November 23, 2013 12:01:29 AM Azerbaijan Time"}}
{"WiFi":{"SSID":"hedieh","BSSID":"00:0d:f0:a7:19:fb","capabilities":"[WPA-PSK-TKIP]","level":"-72","frequency":"2422","time":"Saturday, November 23, 2013 12:01:29 AM Azerbaijan Time"}}
{"WiFi":{"SSID":"kambizghaznavi","BSSID":"ac:e8:7b:1f:f7:75","capabilities":"[WPA2-PSK-CCMP]","level":"-85","frequency":"2432","time":"Saturday, November 23, 2013 12:01:29 AM Azerbaijan Time"}}
{"WiFi":{"SSID":"amo.myna","BSSID":"28:3c:e4:35:11:ef","capabilities":"[WPA-PSK-TKIP+CCMP][WPA2-PSK-TKIP+CCMP]","level":"-87","frequency":"2442","time":"Saturday, November 23, 2013 12:01:29 AM Azerbaijan Time"}}
{"WiFi":{"SSID":"Afshin","BSSID":"28:10:7b:3e:9c:40","capabilities":"[WEP]","level":"-90","frequency":"2412","time":"Saturday, November 23, 2013 12:01:29 AM Azerbaijan Time"}}
{"WiFi":{"SSID":"Parsa","BSSID":"90:f6:52:b0:8c:d2","capabilities":"[WPA-PSK-TKIP+CCMP][WPA2-PSK-TKIP+CCMP][WPS]","level":"-33","frequency":"2457","time":"Saturday, November 23, 2013 12:04:28 AM Azerbaijan Time"}}
{"WiFi":{"SSID":"hedieh","BSSID":"00:0d:f0:a7:19:fb","capabilities":"[WPA-PSK-TKIP]","level":"-73","frequency":"2422","time":"Saturday, November 23, 2013 12:04:28 AM Azerbaijan Time"}}
{"WiFi":{"SSID":"kambizghaznavi","BSSID":"ac:e8:7b:1f:f7:75","capabilities":"[WPA2-PSK-CCMP]","level":"-82","frequency":"2432","time":"Saturday, November 23, 2013 12:04:28 AM Azerbaijan Time"}}
{"WiFi":{"SSID":"Afshin","BSSID":"28:10:7b:3e:9c:40","capabilities":"[WEP]","level":"-76","frequency":"2412","time":"Saturday, November 23, 2013 12:04:28 AM Azerbaijan Time"}}
{"WiFi":{"SSID":"hesam","BSSID":"f4:3e:61:25:dd:45","capabilities":"[WEP]","level":"-90","frequency":"2462","time":"Saturday, November 23, 2013 12:04:28 AM Azerbaijan Time"}}
{"WiFi":{"SSID":"hedieh","BSSID":"00:0d:f0:a7:19:fb","capabilities":"[WPA-PSK-TKIP]","level":"-72","frequency":"2422","time":"Saturday, November 23, 2013 12:07:23 AM Azerbaijan Time"}}
{"WiFi":{"SSID":"kambizghaznavi","BSSID":"ac:e8:7b:1f:f7:75","capabilities":"[WPA2-PSK-CCMP]","level":"-82","frequency":"2432","time":"Saturday, November 23, 2013 12:07:23 AM Azerbaijan Time"}}
{"WiFi":{"SSID":"amo.myna","BSSID":"28:3c:e4:35:11:ef","capabilities":"[WPA-PSK-TKIP+CCMP][WPA2-PSK-TKIP+CCMP]","level":"-83","frequency":"2442","time":"Saturday, November 23, 2013 12:07:23 AM Azerbaijan Time"}}
{"WiFi":{"SSID":"Afshin","BSSID":"28:10:7b:3e:9c:40","capabilities":"[WEP]","level":"-89","frequency":"2412","time":"Saturday, November 23, 2013 12:07:23 AM Azerbaijan Time"}}
{"WiFi":{"SSID":"hedieh","BSSID":"00:0d:f0:a7:19:fb","capabilities":"[WPA-PSK-TKIP]","level":"-72","frequency":"2422","time":"Saturday, November 23, 2013 12:09:40 AM Azerbaijan Time"}}
{"WiFi":{"SSID":"kambizghaznavi","BSSID":"ac:e8:7b:1f:f7:75","capabilities":"[WPA2-PSK-CCMP]","level":"-84","frequency":"2432","time":"Saturday, November 23, 2013 12:09:40 AM Azerbaijan Time"}}
{"WiFi":{"SSID":"amo.myna","BSSID":"28:3c:e4:35:11:ef","capabilities":"[WPA-PSK-TKIP+CCMP][WPA2-PSK-TKIP+CCMP]","level":"-84","frequency":"2442","time":"Saturday, November 23, 2013 12:09:40 AM Azerbaijan Time"}}
{"WiFi":{"SSID":"Danger","BSSID":"f8:d1:11:82:42:09","capabilities":"[WPA-PSK-TKIP+CCMP]","level":"-90","frequency":"2447","time":"Saturday, November 23, 2013 12:09:40 AM Azerbaijan Time"}}
{"WiFi":{"SSID":"Afshin","BSSID":"28:10:7b:3e:9c:40","capabilities":"[WEP]","level":"-87","frequency":"2412","time":"Saturday, November 23, 2013 12:09:40 AM Azerbaijan Time"}}
{"WiFi":{"SSID":"hedieh","BSSID":"00:0d:f0:a7:19:fb","capabilities":"[WPA-PSK-TKIP]","level":"-72","frequency":"2422","time":"Saturday, November 23, 2013 12:12:42 AM Azerbaijan Time"}}
{"WiFi":{"SSID":"amo.myna","BSSID":"28:3c:e4:35:11:ef","capabilities":"[WPA-PSK-TKIP+CCMP][WPA2-PSK-TKIP+CCMP]","level":"-85","frequency":"2442","time":"Saturday, November 23, 2013 12:12:42 AM Azerbaijan Time"}}
{"WiFi":{"SSID":"Danger","BSSID":"f8:d1:11:82:42:09","capabilities":"[WPA-PSK-TKIP+CCMP]","level":"-95","frequency":"2447","time":"Saturday, November 23, 2013 12:12:42 AM Azerbaijan Time"}}
{"WiFi":{"SSID":"Afshin","BSSID":"28:10:7b:3e:9c:40","capabilities":"[WEP]","level":"-90","frequency":"2412","time":"Saturday, November 23, 2013 12:12:42 AM Azerbaijan Time"}}
{"WiFi":{"SSID":"hedieh","BSSID":"00:0d:f0:a7:19:fb","capabilities":"[WPA-PSK-TKIP]","level":"-79","frequency":"2422","time":"Saturday, November 23, 2013 12:15:34 AM Azerbaijan Time"}}
{"WiFi":{"SSID":"kambizghaznavi","BSSID":"ac:e8:7b:1f:f7:75","capabilities":"[WPA2-PSK-CCMP]","level":"-82","frequency":"2432","time":"Saturday, November 23, 2013 12:15:34 AM Azerbaijan Time"}}
{"WiFi":{"SSID":"MRFO2013","BSSID":"94:0c:6d:ee:40:e6","capabilities":"[WPA2-PSK-TKIP]","level":"-86","frequency":"2412","time":"Saturday, November 23, 2013 12:15:34 AM Azerbaijan Time"}}
{"WiFi":{"SSID":"amo.myna","BSSID":"28:3c:e4:35:11:ef","capabilities":"[WPA-PSK-TKIP+CCMP][WPA2-PSK-TKIP+CCMP]","level":"-89","frequency":"2442","time":"Saturday, November 23, 2013 12:15:34 AM Azerbaijan Time"}}
{"WiFi":{"SSID":"hesam","BSSID":"f4:3e:61:25:dd:45","capabilities":"[WEP]","level":"-86","frequency":"2462","time":"Saturday, November 23, 2013 12:15:34 AM Azerbaijan Time"}}
{"WiFi":{"SSID":"Afshin","BSSID":"28:10:7b:3e:9c:40","capabilities":"[WEP]","level":"-94","frequency":"2412","time":"Saturday, November 23, 2013 12:15:34 AM Azerbaijan Time"}}
{"WiFi":{"SSID":"hedieh","BSSID":"00:0d:f0:a7:19:fb","capabilities":"[WPA-PSK-TKIP]","level":"-81","frequency":"2422","time":"Saturday, November 23, 2013 12:18:01 AM Azerbaijan Time"}}
{"WiFi":{"SSID":"kambizghaznavi","BSSID":"ac:e8:7b:1f:f7:75","capabilities":"[WPA2-PSK-CCMP]","level":"-83","frequency":"2432","time":"Saturday, November 23, 2013 12:18:01 AM Azerbaijan Time"}}
{"WiFi":{"SSID":"MRFO2013","BSSID":"94:0c:6d:ee:40:e6","capabilities":"[WPA2-PSK-TKIP]","level":"-89","frequency":"2412","time":"Saturday, November 23, 2013 12:18:01 AM Azerbaijan Time"}}
{"WiFi":{"SSID":"mobinnet9ee3","BSSID":"00:0d:f0:a6:b6:e7","capabilities":"[WPA2-PSK-TKIP]","level":"-91","frequency":"2412","time":"Saturday, November 23, 2013 12:18:01 AM Azerbaijan Time"}}
{"WiFi":{"SSID":"hedieh","BSSID":"00:0d:f0:a7:19:fb","capabilities":"[WPA-PSK-TKIP]","level":"-80","frequency":"2422","time":"Saturday, November 23, 2013 12:20:19 AM Azerbaijan Time"}}
{"WiFi":{"SSID":"kambizghaznavi","BSSID":"ac:e8:7b:1f:f7:75","capabilities":"[WPA2-PSK-CCMP]","level":"-82","frequency":"2432","time":"Saturday, November 23, 2013 12:20:19 AM Azerbaijan Time"}}
{"WiFi":{"SSID":"mobinnet9ee3","BSSID":"00:0d:f0:a6:b6:e7","capabilities":"[WPA2-PSK-TKIP]","level":"-92","frequency":"2412","time":"Saturday, November 23, 2013 12:20:19 AM Azerbaijan Time"}}
{"WiFi":{"SSID":"Afshin","BSSID":"28:10:7b:3e:9c:40","capabilities":"[WEP]","level":"-90","frequency":"2412","time":"Saturday, November 23, 2013 12:20:19 AM Azerbaijan Time"}}
{"WiFi":{"SSID":"hedieh","BSSID":"00:0d:f0:a7:19:fb","capabilities":"[WPA-PSK-TKIP]","level":"-75","frequency":"2422","time":"Saturday, November 23, 2013 12:23:17 AM Azerbaijan Time"}}
{"WiFi":{"SSID":"kambizghaznavi","BSSID":"ac:e8:7b:1f:f7:75","capabilities":"[WPA2-PSK-CCMP]","level":"-84","frequency":"2432","time":"Saturday, November 23, 2013 12:23:17 AM Azerbaijan Time"}}
{"WiFi":{"SSID":"mobinnet9ee3","BSSID":"00:0d:f0:a6:b6:e7","capabilities":"[WPA2-PSK-TKIP]","level":"-89","frequency":"2412","time":"Saturday, November 23, 2013 12:23:17 AM Azerbaijan Time"}}
{"WiFi":{"SSID":"hedieh","BSSID":"00:0d:f0:a7:19:fb","capabilities":"[WPA-PSK-TKIP]","level":"-77","frequency":"2422","time":"Saturday, November 23, 2013 12:26:14 AM Azerbaijan Time"}}
{"WiFi":{"SSID":"kambizghaznavi","BSSID":"ac:e8:7b:1f:f7:75","capabilities":"[WPA2-PSK-CCMP]","level":"-83","frequency":"2432","time":"Saturday, November 23, 2013 12:26:14 AM Azerbaijan Time"}}
{"WiFi":{"SSID":"amo.myna","BSSID":"28:3c:e4:35:11:ef","capabilities":"[WPA-PSK-TKIP+CCMP][WPA2-PSK-TKIP+CCMP]","level":"-87","frequency":"2442","time":"Saturday, November 23, 2013 12:26:14 AM Azerbaijan Time"}}
{"WiFi":{"SSID":"MRFO2013","BSSID":"94:0c:6d:ee:40:e6","capabilities":"[WPA2-PSK-TKIP]","level":"-90","frequency":"2412","time":"Saturday, November 23, 2013 12:26:14 AM Azerbaijan Time"}}
{"WiFi":{"SSID":"Afshin","BSSID":"28:10:7b:3e:9c:40","capabilities":"[WEP]","level":"-91","frequency":"2412","time":"Saturday, November 23, 2013 12:26:14 AM Azerbaijan Time"}}
{"WiFi":{"SSID":"hedieh","BSSID":"00:0d:f0:a7:19:fb","capabilities":"[WPA-PSK-TKIP]","level":"-83","frequency":"2422","time":"Saturday, November 23, 2013 12:28:45 AM Azerbaijan Time"}}
{"WiFi":{"SSID":"amo.myna","BSSID":"28:3c:e4:35:11:ef","capabilities":"[WPA-PSK-TKIP+CCMP][WPA2-PSK-TKIP+CCMP]","level":"-85","frequency":"2442","time":"Saturday, November 23, 2013 12:28:45 AM Azerbaijan Time"}}
{"WiFi":{"SSID":"kambizghaznavi","BSSID":"ac:e8:7b:1f:f7:75","capabilities":"[WPA2-PSK-CCMP]","level":"-89","frequency":"2432","time":"Saturday, November 23, 2013 12:28:45 AM Azerbaijan Time"}}
{"WiFi":{"SSID":"ITM","BSSID":"f4:ec:38:d5:dd:ec","capabilities":"[WEP]","level":"-93","frequency":"2447","time":"Saturday, November 23, 2013 12:28:45 AM Azerbaijan Time"}}
{"WiFi":{"SSID":"Afshin","BSSID":"28:10:7b:3e:9c:40","capabilities":"[WEP]","level":"-95","frequency":"2412","time":"Saturday, November 23, 2013 12:28:45 AM Azerbaijan Time"}}
{"Application":{"ProcessName":"com.whatsapp","Start":"11-23-2013 00:28:46","End":"11-23-2013 00:29:07"}}
{"WiFi":{"SSID":"hedieh","BSSID":"00:0d:f0:a7:19:fb","capabilities":"[WPA-PSK-TKIP]","level":"-74","frequency":"2422","time":"Saturday, November 23, 2013 12:31:33 AM Azerbaijan Time"}}
{"WiFi":{"SSID":"amo.myna","BSSID":"28:3c:e4:35:11:ef","capabilities":"[WPA-PSK-TKIP+CCMP][WPA2-PSK-TKIP+CCMP]","level":"-88","frequency":"2442","time":"Saturday, November 23, 2013 12:31:33 AM Azerbaijan Time"}}
{"WiFi":{"SSID":"Danger","BSSID":"f8:d1:11:82:42:09","capabilities":"[WPA-PSK-TKIP+CCMP]","level":"-92","frequency":"2447","time":"Saturday, November 23, 2013 12:31:33 AM Azerbaijan Time"}}
{"WiFi":{"SSID":"TP-LINK_783C59","BSSID":"f8:1a:67:78:3c:59","capabilities":"[WPA-PSK-CCMP][WPA2-PSK-CCMP][WPS]","level":"-92","frequency":"2462","time":"Saturday, November 23, 2013 12:31:33 AM Azerbaijan Time"}}
{"WiFi":{"SSID":"mobinnet9ee3","BSSID":"00:0d:f0:a6:b6:e7","capabilities":"[WPA2-PSK-TKIP]","level":"-93","frequency":"2412","time":"Saturday, November 23, 2013 12:31:33 AM Azerbaijan Time"}}
{"WiFi":{"SSID":"hedieh","BSSID":"00:0d:f0:a7:19:fb","capabilities":"[WPA-PSK-TKIP]","level":"-76","frequency":"2422","time":"Saturday, November 23, 2013 12:34:28 AM Azerbaijan Time"}}
{"WiFi":{"SSID":"amo.myna","BSSID":"28:3c:e4:35:11:ef","capabilities":"[WPA-PSK-TKIP+CCMP][WPA2-PSK-TKIP+CCMP]","level":"-89","frequency":"2442","time":"Saturday, November 23, 2013 12:34:28 AM Azerbaijan Time"}}
{"WiFi":{"SSID":"mobinnet9ee3","BSSID":"00:0d:f0:a6:b6:e7","capabilities":"[WPA2-PSK-TKIP]","level":"-91","frequency":"2412","time":"Saturday, November 23, 2013 12:34:28 AM Azerbaijan Time"}}
{"WiFi":{"SSID":"TP-LINK_783C59","BSSID":"f8:1a:67:78:3c:59","capabilities":"[WPA-PSK-CCMP][WPA2-PSK-CCMP][WPS]","level":"-93","frequency":"2462","time":"Saturday, November 23, 2013 12:34:28 AM Azerbaijan Time"}}
{"WiFi":{"SSID":"hedieh","BSSID":"00:0d:f0:a7:19:fb","capabilities":"[WPA-PSK-TKIP]","level":"-74","frequency":"2422","time":"Saturday, November 23, 2013 12:37:16 AM Azerbaijan Time"}}
{"WiFi":{"SSID":"kambizghaznavi","BSSID":"ac:e8:7b:1f:f7:75","capabilities":"[WPA2-PSK-CCMP]","level":"-79","frequency":"2432","time":"Saturday, November 23, 2013 12:37:16 AM Azerbaijan Time"}}
{"WiFi":{"SSID":"MRFO2013","BSSID":"94:0c:6d:ee:40:e6","capabilities":"[WPA2-PSK-TKIP]","level":"-88","frequency":"2412","time":"Saturday, November 23, 2013 12:37:16 AM Azerbaijan Time"}}
{"WiFi":{"SSID":"TP-LINK_783C59","BSSID":"f8:1a:67:78:3c:59","capabilities":"[WPA-PSK-CCMP][WPA2-PSK-CCMP][WPS]","level":"-88","frequency":"2462","time":"Saturday, November 23, 2013 12:37:16 AM Azerbaijan Time"}}
{"WiFi":{"SSID":"amo.myna","BSSID":"28:3c:e4:35:11:ef","capabilities":"[WPA-PSK-TKIP+CCMP][WPA2-PSK-TKIP+CCMP]","level":"-89","frequency":"2442","time":"Saturday, November 23, 2013 12:37:16 AM Azerbaijan Time"}}
{"WiFi":{"SSID":"Danger","BSSID":"f8:d1:11:82:42:09","capabilities":"[WPA-PSK-TKIP+CCMP]","level":"-92","frequency":"2447","time":"Saturday, November 23, 2013 12:37:16 AM Azerbaijan Time"}}
{"WiFi":{"SSID":"hedieh","BSSID":"00:0d:f0:a7:19:fb","capabilities":"[WPA-PSK-TKIP]","level":"-74","frequency":"2422","time":"Saturday, November 23, 2013 12:39:40 AM Azerbaijan Time"}}
{"WiFi":{"SSID":"kambizghaznavi","BSSID":"ac:e8:7b:1f:f7:75","capabilities":"[WPA2-PSK-CCMP]","level":"-80","frequency":"2432","time":"Saturday, November 23, 2013 12:39:40 AM Azerbaijan Time"}}
{"WiFi":{"SSID":"MRFO2013","BSSID":"94:0c:6d:ee:40:e6","capabilities":"[WPA2-PSK-TKIP]","level":"-87","frequency":"2412","time":"Saturday, November 23, 2013 12:39:40 AM Azerbaijan Time"}}
{"WiFi":{"SSID":"mobinnet9ee3","BSSID":"00:0d:f0:a6:b6:e7","capabilities":"[WPA2-PSK-TKIP]","level":"-92","frequency":"2412","time":"Saturday, November 23, 2013 12:39:40 AM Azerbaijan Time"}}
{"WiFi":{"SSID":"Afshin","BSSID":"28:10:7b:3e:9c:40","capabilities":"[WEP]","level":"-93","frequency":"2412","time":"Saturday, November 23, 2013 12:39:40 AM Azerbaijan Time"}}
{"WiFi":{"SSID":"hedieh","BSSID":"00:0d:f0:a7:19:fb","capabilities":"[WPA-PSK-TKIP]","level":"-75","frequency":"2422","time":"Saturday, November 23, 2013 12:42:08 AM Azerbaijan Time"}}
{"WiFi":{"SSID":"amo.myna","BSSID":"28:3c:e4:35:11:ef","capabilities":"[WPA-PSK-TKIP+CCMP][WPA2-PSK-TKIP+CCMP]","level":"-87","frequency":"2442","time":"Saturday, November 23, 2013 12:42:08 AM Azerbaijan Time"}}
{"WiFi":{"SSID":"hesam","BSSID":"f4:3e:61:25:dd:45","capabilities":"[WEP]","level":"-89","frequency":"2462","time":"Saturday, November 23, 2013 12:42:08 AM Azerbaijan Time"}}
{"WiFi":{"SSID":"ITM","BSSID":"f4:ec:38:d5:dd:ec","capabilities":"[WEP]","level":"-91","frequency":"2447","time":"Saturday, November 23, 2013 12:42:08 AM Azerbaijan Time"}}
{"WiFi":{"SSID":"hedieh","BSSID":"00:0d:f0:a7:19:fb","capabilities":"[WPA-PSK-TKIP]","level":"-75","frequency":"2422","time":"Saturday, November 23, 2013 12:45:02 AM Azerbaijan Time"}}
{"WiFi":{"SSID":"hesam","BSSID":"f4:3e:61:25:dd:45","capabilities":"[WEP]","level":"-84","frequency":"2462","time":"Saturday, November 23, 2013 12:45:02 AM Azerbaijan Time"}}
{"WiFi":{"SSID":"Afshin","BSSID":"28:10:7b:3e:9c:40","capabilities":"[WEP]","level":"-88","frequency":"2412","time":"Saturday, November 23, 2013 12:45:02 AM Azerbaijan Time"}}
{"WiFi":{"SSID":"ITM","BSSID":"f4:ec:38:d5:dd:ec","capabilities":"[WEP]","level":"-89","frequency":"2447","time":"Saturday, November 23, 2013 12:45:02 AM Azerbaijan Time"}}
{"WiFi":{"SSID":"hedieh","BSSID":"00:0d:f0:a7:19:fb","capabilities":"[WPA-PSK-TKIP]","level":"-75","frequency":"2422","time":"Saturday, November 23, 2013 12:47:44 AM Azerbaijan Time"}}
{"WiFi":{"SSID":"amo.myna","BSSID":"28:3c:e4:35:11:ef","capabilities":"[WPA-PSK-TKIP+CCMP][WPA2-PSK-TKIP+CCMP]","level":"-86","frequency":"2442","time":"Saturday, November 23, 2013 12:47:44 AM Azerbaijan Time"}}
{"WiFi":{"SSID":"Danger","BSSID":"f8:d1:11:82:42:09","capabilities":"[WPA-PSK-TKIP+CCMP]","level":"-91","frequency":"2447","time":"Saturday, November 23, 2013 12:47:44 AM Azerbaijan Time"}}
{"WiFi":{"SSID":"hesam","BSSID":"f4:3e:61:25:dd:45","capabilities":"[WEP]","level":"-86","frequency":"2462","time":"Saturday, November 23, 2013 12:47:44 AM Azerbaijan Time"}}
{"WiFi":{"SSID":"Afshin","BSSID":"28:10:7b:3e:9c:40","capabilities":"[WEP]","level":"-89","frequency":"2412","time":"Saturday, November 23, 2013 12:47:44 AM Azerbaijan Time"}}
{"WiFi":{"SSID":"hedieh","BSSID":"00:0d:f0:a7:19:fb","capabilities":"[WPA-PSK-TKIP]","level":"-75","frequency":"2422","time":"Saturday, November 23, 2013 12:49:40 AM Azerbaijan Time"}}
{"WiFi":{"SSID":"kambizghaznavi","BSSID":"ac:e8:7b:1f:f7:75","capabilities":"[WPA2-PSK-CCMP]","level":"-86","frequency":"2432","time":"Saturday, November 23, 2013 12:49:40 AM Azerbaijan Time"}}
{"WiFi":{"SSID":"net@","BSSID":"40:4d:8e:d0:2a:40","capabilities":"[WPA2-PSK-CCMP][WPS]","level":"-95","frequency":"2447","time":"Saturday, November 23, 2013 12:49:40 AM Azerbaijan Time"}}
{"WiFi":{"SSID":"hesam","BSSID":"f4:3e:61:25:dd:45","capabilities":"[WEP]","level":"-86","frequency":"2462","time":"Saturday, November 23, 2013 12:49:40 AM Azerbaijan Time"}}
{"WiFi":{"SSID":"Afshin","BSSID":"28:10:7b:3e:9c:40","capabilities":"[WEP]","level":"-88","frequency":"2412","time":"Saturday, November 23, 2013 12:49:40 AM Azerbaijan Time"}}
{"WiFi":{"SSID":"ITM","BSSID":"f4:ec:38:d5:dd:ec","capabilities":"[WEP]","level":"-94","frequency":"2447","time":"Saturday, November 23, 2013 12:49:40 AM Azerbaijan Time"}}
{"WiFi":{"SSID":"amo.myna","BSSID":"28:3c:e4:35:11:ef","capabilities":"[WPA-PSK-TKIP+CCMP][WPA2-PSK-TKIP+CCMP]","level":"-87","frequency":"2442","time":"Saturday, November 23, 2013 12:52:38 AM Azerbaijan Time"}}
{"WiFi":{"SSID":"kambizghaznavi","BSSID":"ac:e8:7b:1f:f7:75","capabilities":"[WPA2-PSK-CCMP]","level":"-90","frequency":"2432","time":"Saturday, November 23, 2013 12:52:38 AM Azerbaijan Time"}}
{"WiFi":{"SSID":"Danger","BSSID":"f8:d1:11:82:42:09","capabilities":"[WPA-PSK-TKIP+CCMP]","level":"-90","frequency":"2447","time":"Saturday, November 23, 2013 12:52:38 AM Azerbaijan Time"}}
{"WiFi":{"SSID":"hedieh","BSSID":"00:0d:f0:a7:19:fb","capabilities":"[WPA-PSK-TKIP]","level":"-81","frequency":"2422","time":"Saturday, November 23, 2013 12:55:34 AM Azerbaijan Time"}}
{"WiFi":{"SSID":"kambizghaznavi","BSSID":"ac:e8:7b:1f:f7:75","capabilities":"[WPA2-PSK-CCMP]","level":"-86","frequency":"2432","time":"Saturday, November 23, 2013 12:55:34 AM Azerbaijan Time"}}
{"WiFi":{"SSID":"hedieh","BSSID":"00:0d:f0:a7:19:fb","capabilities":"[WPA-PSK-TKIP]","level":"-78","frequency":"2422","time":"Saturday, November 23, 2013 12:57:58 AM Azerbaijan Time"}}
{"WiFi":{"SSID":"kambizghaznavi","BSSID":"ac:e8:7b:1f:f7:75","capabilities":"[WPA2-PSK-CCMP]","level":"-83","frequency":"2432","time":"Saturday, November 23, 2013 12:57:58 AM Azerbaijan Time"}}
{"WiFi":{"SSID":"Danger","BSSID":"f8:d1:11:82:42:09","capabilities":"[WPA-PSK-TKIP+CCMP]","level":"-95","frequency":"2447","time":"Saturday, November 23, 2013 12:57:58 AM Azerbaijan Time"}}
{"WiFi":{"SSID":"hesam","BSSID":"f4:3e:61:25:dd:45","capabilities":"[WEP]","level":"-93","frequency":"2462","time":"Saturday, November 23, 2013 12:57:58 AM Azerbaijan Time"}}
{"WiFi":{"SSID":"hedieh","BSSID":"00:0d:f0:a7:19:fb","capabilities":"[WPA-PSK-TKIP]","level":"-79","frequency":"2422","time":"Saturday, November 23, 2013 1:00:48 AM Azerbaijan Time"}}
{"WiFi":{"SSID":"kambizghaznavi","BSSID":"ac:e8:7b:1f:f7:75","capabilities":"[WPA2-PSK-CCMP]","level":"-85","frequency":"2432","time":"Saturday, November 23, 2013 1:00:48 AM Azerbaijan Time"}}
{"WiFi":{"SSID":"Danger","BSSID":"f8:d1:11:82:42:09","capabilities":"[WPA-PSK-TKIP+CCMP]","level":"-93","frequency":"2447","time":"Saturday, November 23, 2013 1:00:48 AM Azerbaijan Time"}}
{"WiFi":{"SSID":"amo.myna","BSSID":"28:3c:e4:35:11:ef","capabilities":"[WPA-PSK-TKIP+CCMP][WPA2-PSK-TKIP+CCMP]","level":"-95","frequency":"2442","time":"Saturday, November 23, 2013 1:00:48 AM Azerbaijan Time"}}
{"Application":{"ProcessName":"com.whatsapp","Start":"11-23-2013 01:00:51","End":"11-23-2013 01:01:13"}}
{"WiFi":{"SSID":"Parsa","BSSID":"90:f6:52:b0:8c:d2","capabilities":"[WPA-PSK-TKIP+CCMP][WPA2-PSK-TKIP+CCMP][WPS]","level":"-32","frequency":"2417","time":"Saturday, November 23, 2013 1:05:48 AM Azerbaijan Time"}}
{"WiFi":{"SSID":"hedieh","BSSID":"00:0d:f0:a7:19:fb","capabilities":"[WPA-PSK-TKIP]","level":"-86","frequency":"2422","time":"Saturday, November 23, 2013 1:05:48 AM Azerbaijan Time"}}
{"WiFi":{"SSID":"kambizghaznavi","BSSID":"ac:e8:7b:1f:f7:75","capabilities":"[WPA2-PSK-CCMP]","level":"-87","frequency":"2432","time":"Saturday, November 23, 2013 1:05:48 AM Azerbaijan Time"}}
{"WiFi":{"SSID":"amo.myna","BSSID":"28:3c:e4:35:11:ef","capabilities":"[WPA-PSK-TKIP+CCMP][WPA2-PSK-TKIP+CCMP]","level":"-88","frequency":"2442","time":"Saturday, November 23, 2013 1:05:48 AM Azerbaijan Time"}}
{"WiFi":{"SSID":"MRFO2013","BSSID":"94:0c:6d:ee:40:e6","capabilities":"[WPA2-PSK-TKIP]","level":"-91","frequency":"2412","time":"Saturday, November 23, 2013 1:05:48 AM Azerbaijan Time"}}
{"WiFi":{"SSID":"hesam","BSSID":"f4:3e:61:25:dd:45","capabilities":"[WEP]","level":"-89","frequency":"2462","time":"Saturday, November 23, 2013 1:05:48 AM Azerbaijan Time"}}
{"WiFi":{"SSID":"Afshin","BSSID":"28:10:7b:3e:9c:40","capabilities":"[WEP]","level":"-92","frequency":"2412","time":"Saturday, November 23, 2013 1:05:48 AM Azerbaijan Time"}}
{"WiFi":{"SSID":"Parsa","BSSID":"90:f6:52:b0:8c:d2","capabilities":"[WPA-PSK-TKIP+CCMP][WPA2-PSK-TKIP+CCMP][WPS]","level":"-33","frequency":"2417","time":"Saturday, November 23, 2013 1:08:36 AM Azerbaijan Time"}}
{"WiFi":{"SSID":"amo.myna","BSSID":"28:3c:e4:35:11:ef","capabilities":"[WPA-PSK-TKIP+CCMP][WPA2-PSK-TKIP+CCMP]","level":"-85","frequency":"2442","time":"Saturday, November 23, 2013 1:08:36 AM Azerbaijan Time"}}
{"WiFi":{"SSID":"kambizghaznavi","BSSID":"ac:e8:7b:1f:f7:75","capabilities":"[WPA2-PSK-CCMP]","level":"-87","frequency":"2432","time":"Saturday, November 23, 2013 1:08:36 AM Azerbaijan Time"}}
{"WiFi":{"SSID":"hedieh","BSSID":"00:0d:f0:a7:19:fb","capabilities":"[WPA-PSK-TKIP]","level":"-90","frequency":"2422","time":"Saturday, November 23, 2013 1:08:36 AM Azerbaijan Time"}}
{"WiFi":{"SSID":"TP-LINK_783C59","BSSID":"f8:1a:67:78:3c:59","capabilities":"[WPA-PSK-CCMP][WPA2-PSK-CCMP][WPS]","level":"-91","frequency":"2462","time":"Saturday, November 23, 2013 1:08:36 AM Azerbaijan Time"}}
{"WiFi":{"SSID":"Afshin","BSSID":"28:10:7b:3e:9c:40","capabilities":"[WEP]","level":"-88","frequency":"2412","time":"Saturday, November 23, 2013 1:08:36 AM Azerbaijan Time"}}
{"WiFi":{"SSID":"Parsa","BSSID":"90:f6:52:b0:8c:d2","capabilities":"[WPA-PSK-TKIP+CCMP][WPA2-PSK-TKIP+CCMP][WPS]","level":"-36","frequency":"2417","time":"Saturday, November 23, 2013 1:10:55 AM Azerbaijan Time"}}
{"WiFi":{"SSID":"hedieh","BSSID":"00:0d:f0:a7:19:fb","capabilities":"[WPA-PSK-TKIP]","level":"-84","frequency":"2422","time":"Saturday, November 23, 2013 1:10:55 AM Azerbaijan Time"}}
{"WiFi":{"SSID":"kambizghaznavi","BSSID":"ac:e8:7b:1f:f7:75","capabilities":"[WPA2-PSK-CCMP]","level":"-84","frequency":"2432","time":"Saturday, November 23, 2013 1:10:55 AM Azerbaijan Time"}}
{"WiFi":{"SSID":"MRFO2013","BSSID":"94:0c:6d:ee:40:e6","capabilities":"[WPA2-PSK-TKIP]","level":"-90","frequency":"2412","time":"Saturday, November 23, 2013 1:10:55 AM Azerbaijan Time"}}
{"WiFi":{"SSID":"Danger","BSSID":"f8:d1:11:82:42:09","capabilities":"[WPA-PSK-TKIP+CCMP]","level":"-93","frequency":"2447","time":"Saturday, November 23, 2013 1:10:55 AM Azerbaijan Time"}}
{"WiFi":{"SSID":"Afshin","BSSID":"28:10:7b:3e:9c:40","capabilities":"[WEP]","level":"-91","frequency":"2412","time":"Saturday, November 23, 2013 1:10:55 AM Azerbaijan Time"}}
{"WiFi":{"SSID":"hedieh","BSSID":"00:0d:f0:a7:19:fb","capabilities":"[WPA-PSK-TKIP]","level":"-83","frequency":"2422","time":"Saturday, November 23, 2013 1:13:51 AM Azerbaijan Time"}}
{"WiFi":{"SSID":"amo.myna","BSSID":"28:3c:e4:35:11:ef","capabilities":"[WPA-PSK-TKIP+CCMP][WPA2-PSK-TKIP+CCMP]","level":"-90","frequency":"2442","time":"Saturday, November 23, 2013 1:13:51 AM Azerbaijan Time"}}
{"WiFi":{"SSID":"Danger","BSSID":"f8:d1:11:82:42:09","capabilities":"[WPA-PSK-TKIP+CCMP]","level":"-94","frequency":"2447","time":"Saturday, November 23, 2013 1:13:51 AM Azerbaijan Time"}}
{"WiFi":{"SSID":"Afshin","BSSID":"28:10:7b:3e:9c:40","capabilities":"[WEP]","level":"-93","frequency":"2412","time":"Saturday, November 23, 2013 1:13:51 AM Azerbaijan Time"}}
{"WiFi":{"SSID":"Parsa","BSSID":"90:f6:52:b0:8c:d2","capabilities":"[WPA-PSK-TKIP+CCMP][WPA2-PSK-TKIP+CCMP][WPS]","level":"-34","frequency":"2417","time":"Saturday, November 23, 2013 1:16:46 AM Azerbaijan Time"}}
{"WiFi":{"SSID":"kambizghaznavi","BSSID":"ac:e8:7b:1f:f7:75","capabilities":"[WPA2-PSK-CCMP]","level":"-82","frequency":"2432","time":"Saturday, November 23, 2013 1:16:46 AM Azerbaijan Time"}}
{"WiFi":{"SSID":"hedieh","BSSID":"00:0d:f0:a7:19:fb","capabilities":"[WPA-PSK-TKIP]","level":"-83","frequency":"2422","time":"Saturday, November 23, 2013 1:16:46 AM Azerbaijan Time"}}
{"WiFi":{"SSID":"MRFO2013","BSSID":"94:0c:6d:ee:40:e6","capabilities":"[WPA2-PSK-TKIP]","level":"-91","frequency":"2412","time":"Saturday, November 23, 2013 1:16:46 AM Azerbaijan Time"}}
{"WiFi":{"SSID":"Danger","BSSID":"f8:d1:11:82:42:09","capabilities":"[WPA-PSK-TKIP+CCMP]","level":"-93","frequency":"2447","time":"Saturday, November 23, 2013 1:16:46 AM Azerbaijan Time"}}
{"WiFi":{"SSID":"Afshin","BSSID":"28:10:7b:3e:9c:40","capabilities":"[WEP]","level":"-90","frequency":"2412","time":"Saturday, November 23, 2013 1:16:46 AM Azerbaijan Time"}}
{"WiFi":{"SSID":"Parsa","BSSID":"90:f6:52:b0:8c:d2","capabilities":"[WPA-PSK-TKIP+CCMP][WPA2-PSK-TKIP+CCMP][WPS]","level":"-35","frequency":"2417","time":"Saturday, November 23, 2013 1:19:11 AM Azerbaijan Time"}}
{"WiFi":{"SSID":"kambizghaznavi","BSSID":"ac:e8:7b:1f:f7:75","capabilities":"[WPA2-PSK-CCMP]","level":"-85","frequency":"2432","time":"Saturday, November 23, 2013 1:19:11 AM Azerbaijan Time"}}
{"WiFi":{"SSID":"hedieh","BSSID":"00:0d:f0:a7:19:fb","capabilities":"[WPA-PSK-TKIP]","level":"-88","frequency":"2422","time":"Saturday, November 23, 2013 1:19:11 AM Azerbaijan Time"}}
{"WiFi":{"SSID":"Afshin","BSSID":"28:10:7b:3e:9c:40","capabilities":"[WEP]","level":"-88","frequency":"2412","time":"Saturday, November 23, 2013 1:19:11 AM Azerbaijan Time"}}
{"WiFi":{"SSID":"Parsa","BSSID":"90:f6:52:b0:8c:d2","capabilities":"[WPA-PSK-TKIP+CCMP][WPA2-PSK-TKIP+CCMP][WPS]","level":"-34","frequency":"2417","time":"Saturday, November 23, 2013 1:22:05 AM Azerbaijan Time"}}
{"WiFi":{"SSID":"hedieh","BSSID":"00:0d:f0:a7:19:fb","capabilities":"[WPA-PSK-TKIP]","level":"-80","frequency":"2422","time":"Saturday, November 23, 2013 1:22:05 AM Azerbaijan Time"}}
{"WiFi":{"SSID":"kambizghaznavi","BSSID":"ac:e8:7b:1f:f7:75","capabilities":"[WPA2-PSK-CCMP]","level":"-86","frequency":"2432","time":"Saturday, November 23, 2013 1:22:05 AM Azerbaijan Time"}}
{"WiFi":{"SSID":"amo.myna","BSSID":"28:3c:e4:35:11:ef","capabilities":"[WPA-PSK-TKIP+CCMP][WPA2-PSK-TKIP+CCMP]","level":"-90","frequency":"2442","time":"Saturday, November 23, 2013 1:22:05 AM Azerbaijan Time"}}
{"WiFi":{"SSID":"Parsa","BSSID":"90:f6:52:b0:8c:d2","capabilities":"[WPA-PSK-TKIP+CCMP][WPA2-PSK-TKIP+CCMP][WPS]","level":"-35","frequency":"2417","time":"Saturday, November 23, 2013 1:24:39 AM Azerbaijan Time"}}
{"WiFi":{"SSID":"hedieh","BSSID":"00:0d:f0:a7:19:fb","capabilities":"[WPA-PSK-TKIP]","level":"-80","frequency":"2422","time":"Saturday, November 23, 2013 1:24:39 AM Azerbaijan Time"}}
{"WiFi":{"SSID":"amo.myna","BSSID":"28:3c:e4:35:11:ef","capabilities":"[WPA-PSK-TKIP+CCMP][WPA2-PSK-TKIP+CCMP]","level":"-87","frequency":"2442","time":"Saturday, November 23, 2013 1:24:39 AM Azerbaijan Time"}}
{"WiFi":{"SSID":"Parsa","BSSID":"90:f6:52:b0:8c:d2","capabilities":"[WPA-PSK-TKIP+CCMP][WPA2-PSK-TKIP+CCMP][WPS]","level":"-34","frequency":"2417","time":"Saturday, November 23, 2013 1:27:28 AM Azerbaijan Time"}}
{"WiFi":{"SSID":"hedieh","BSSID":"00:0d:f0:a7:19:fb","capabilities":"[WPA-PSK-TKIP]","level":"-82","frequency":"2422","time":"Saturday, November 23, 2013 1:27:28 AM Azerbaijan Time"}}
{"WiFi":{"SSID":"kambizghaznavi","BSSID":"ac:e8:7b:1f:f7:75","capabilities":"[WPA2-PSK-CCMP]","level":"-82","frequency":"2432","time":"Saturday, November 23, 2013 1:27:28 AM Azerbaijan Time"}}
{"WiFi":{"SSID":"amo.myna","BSSID":"28:3c:e4:35:11:ef","capabilities":"[WPA-PSK-TKIP+CCMP][WPA2-PSK-TKIP+CCMP]","level":"-91","frequency":"2442","time":"Saturday, November 23, 2013 1:27:28 AM Azerbaijan Time"}}
{"WiFi":{"SSID":"hesam","BSSID":"f4:3e:61:25:dd:45","capabilities":"[WEP]","level":"-94","frequency":"2462","time":"Saturday, November 23, 2013 1:27:28 AM Azerbaijan Time"}}
{"WiFi":{"SSID":"hedieh","BSSID":"00:0d:f0:a7:19:fb","capabilities":"[WPA-PSK-TKIP]","level":"-80","frequency":"2422","time":"Saturday, November 23, 2013 1:29:43 AM Azerbaijan Time"}}
{"WiFi":{"SSID":"amo.myna","BSSID":"28:3c:e4:35:11:ef","capabilities":"[WPA-PSK-TKIP+CCMP][WPA2-PSK-TKIP+CCMP]","level":"-89","frequency":"2442","time":"Saturday, November 23, 2013 1:29:43 AM Azerbaijan Time"}}
{"WiFi":{"SSID":"hesam","BSSID":"f4:3e:61:25:dd:45","capabilities":"[WEP]","level":"-93","frequency":"2462","time":"Saturday, November 23, 2013 1:29:43 AM Azerbaijan Time"}}
{"WiFi":{"SSID":"ITM","BSSID":"f4:ec:38:d5:dd:ec","capabilities":"[WEP]","level":"-95","frequency":"2447","time":"Saturday, November 23, 2013 1:29:43 AM Azerbaijan Time"}}
{"WiFi":{"SSID":"Parsa","BSSID":"90:f6:52:b0:8c:d2","capabilities":"[WPA-PSK-TKIP+CCMP][WPA2-PSK-TKIP+CCMP][WPS]","level":"-33","frequency":"2417","time":"Saturday, November 23, 2013 1:32:43 AM Azerbaijan Time"}}
{"WiFi":{"SSID":"hedieh","BSSID":"00:0d:f0:a7:19:fb","capabilities":"[WPA-PSK-TKIP]","level":"-78","frequency":"2422","time":"Saturday, November 23, 2013 1:32:43 AM Azerbaijan Time"}}
{"WiFi":{"SSID":"kambizghaznavi","BSSID":"ac:e8:7b:1f:f7:75","capabilities":"[WPA2-PSK-CCMP]","level":"-87","frequency":"2432","time":"Saturday, November 23, 2013 1:32:43 AM Azerbaijan Time"}}
{"WiFi":{"SSID":"amo.myna","BSSID":"28:3c:e4:35:11:ef","capabilities":"[WPA-PSK-TKIP+CCMP][WPA2-PSK-TKIP+CCMP]","level":"-88","frequency":"2442","time":"Saturday, November 23, 2013 1:32:43 AM Azerbaijan Time"}}
{"WiFi":{"SSID":"Afshin","BSSID":"28:10:7b:3e:9c:40","capabilities":"[WEP]","level":"-91","frequency":"2412","time":"Saturday, November 23, 2013 1:32:43 AM Azerbaijan Time"}}
{"WiFi":{"SSID":"Parsa","BSSID":"90:f6:52:b0:8c:d2","capabilities":"[WPA-PSK-TKIP+CCMP][WPA2-PSK-TKIP+CCMP][WPS]","level":"-36","frequency":"2417","time":"Saturday, November 23, 2013 1:35:40 AM Azerbaijan Time"}}
{"WiFi":{"SSID":"hedieh","BSSID":"00:0d:f0:a7:19:fb","capabilities":"[WPA-PSK-TKIP]","level":"-80","frequency":"2422","time":"Saturday, November 23, 2013 1:35:40 AM Azerbaijan Time"}}
{"WiFi":{"SSID":"amo.myna","BSSID":"28:3c:e4:35:11:ef","capabilities":"[WPA-PSK-TKIP+CCMP][WPA2-PSK-TKIP+CCMP]","level":"-87","frequency":"2442","time":"Saturday, November 23, 2013 1:35:40 AM Azerbaijan Time"}}
{"WiFi":{"SSID":"kambizghaznavi","BSSID":"ac:e8:7b:1f:f7:75","capabilities":"[WPA2-PSK-CCMP]","level":"-90","frequency":"2432","time":"Saturday, November 23, 2013 1:35:40 AM Azerbaijan Time"}}
{"WiFi":{"SSID":"Afshin","BSSID":"28:10:7b:3e:9c:40","capabilities":"[WEP]","level":"-93","frequency":"2412","time":"Saturday, November 23, 2013 1:35:40 AM Azerbaijan Time"}}
{"WiFi":{"SSID":"Parsa","BSSID":"90:f6:52:b0:8c:d2","capabilities":"[WPA-PSK-TKIP+CCMP][WPA2-PSK-TKIP+CCMP][WPS]","level":"-32","frequency":"2417","time":"Saturday, November 23, 2013 1:38:37 AM Azerbaijan Time"}}
{"WiFi":{"SSID":"hedieh","BSSID":"00:0d:f0:a7:19:fb","capabilities":"[WPA-PSK-TKIP]","level":"-88","frequency":"2422","time":"Saturday, November 23, 2013 1:38:37 AM Azerbaijan Time"}}
{"WiFi":{"SSID":"amo.myna","BSSID":"28:3c:e4:35:11:ef","capabilities":"[WPA-PSK-TKIP+CCMP][WPA2-PSK-TKIP+CCMP]","level":"-88","frequency":"2442","time":"Saturday, November 23, 2013 1:38:37 AM Azerbaijan Time"}}
{"WiFi":{"SSID":"Danger","BSSID":"f8:d1:11:82:42:09","capabilities":"[WPA-PSK-TKIP+CCMP]","level":"-95","frequency":"2447","time":"Saturday, November 23, 2013 1:38:37 AM Azerbaijan Time"}}
{"WiFi":{"SSID":"hesam","BSSID":"f4:3e:61:25:dd:45","capabilities":"[WEP]","level":"-93","frequency":"2462","time":"Saturday, November 23, 2013 1:38:37 AM Azerbaijan Time"}}
{"WiFi":{"SSID":"Parsa","BSSID":"90:f6:52:b0:8c:d2","capabilities":"[WPA-PSK-TKIP+CCMP][WPA2-PSK-TKIP+CCMP][WPS]","level":"-35","frequency":"2417","time":"Saturday, November 23, 2013 1:40:19 AM Azerbaijan Time"}}
{"WiFi":{"SSID":"amo.myna","BSSID":"28:3c:e4:35:11:ef","capabilities":"[WPA-PSK-TKIP+CCMP][WPA2-PSK-TKIP+CCMP]","level":"-85","frequency":"2442","time":"Saturday, November 23, 2013 1:40:19 AM Azerbaijan Time"}}
{"WiFi":{"SSID":"hesam","BSSID":"f4:3e:61:25:dd:45","capabilities":"[WEP]","level":"-93","frequency":"2462","time":"Saturday, November 23, 2013 1:40:19 AM Azerbaijan Time"}}
{"WiFi":{"SSID":"Parsa","BSSID":"90:f6:52:b0:8c:d2","capabilities":"[WPA-PSK-TKIP+CCMP][WPA2-PSK-TKIP+CCMP][WPS]","level":"-32","frequency":"2417","time":"Saturday, November 23, 2013 1:43:16 AM Azerbaijan Time"}}
{"WiFi":{"SSID":"amo.myna","BSSID":"28:3c:e4:35:11:ef","capabilities":"[WPA-PSK-TKIP+CCMP][WPA2-PSK-TKIP+CCMP]","level":"-85","frequency":"2442","time":"Saturday, November 23, 2013 1:43:16 AM Azerbaijan Time"}}
{"WiFi":{"SSID":"kambizghaznavi","BSSID":"ac:e8:7b:1f:f7:75","capabilities":"[WPA2-PSK-CCMP]","level":"-87","frequency":"2432","time":"Saturday, November 23, 2013 1:43:16 AM Azerbaijan Time"}}
{"WiFi":{"SSID":"hesam","BSSID":"f4:3e:61:25:dd:45","capabilities":"[WEP]","level":"-86","frequency":"2462","time":"Saturday, November 23, 2013 1:43:16 AM Azerbaijan Time"}}
{"WiFi":{"SSID":"Afshin","BSSID":"28:10:7b:3e:9c:40","capabilities":"[WEP]","level":"-91","frequency":"2412","time":"Saturday, November 23, 2013 1:43:16 AM Azerbaijan Time"}}
{"WiFi":{"SSID":"Parsa","BSSID":"90:f6:52:b0:8c:d2","capabilities":"[WPA-PSK-TKIP+CCMP][WPA2-PSK-TKIP+CCMP][WPS]","level":"-32","frequency":"2417","time":"Saturday, November 23, 2013 1:46:16 AM Azerbaijan Time"}}
{"WiFi":{"SSID":"amo.myna","BSSID":"28:3c:e4:35:11:ef","capabilities":"[WPA-PSK-TKIP+CCMP][WPA2-PSK-TKIP+CCMP]","level":"-86","frequency":"2442","time":"Saturday, November 23, 2013 1:46:16 AM Azerbaijan Time"}}
{"WiFi":{"SSID":"hedieh","BSSID":"00:0d:f0:a7:19:fb","capabilities":"[WPA-PSK-TKIP]","level":"-87","frequency":"2422","time":"Saturday, November 23, 2013 1:46:16 AM Azerbaijan Time"}}
{"WiFi":{"SSID":"kambizghaznavi","BSSID":"ac:e8:7b:1f:f7:75","capabilities":"[WPA2-PSK-CCMP]","level":"-87","frequency":"2432","time":"Saturday, November 23, 2013 1:46:16 AM Azerbaijan Time"}}
{"WiFi":{"SSID":"Afshin","BSSID":"28:10:7b:3e:9c:40","capabilities":"[WEP]","level":"-90","frequency":"2412","time":"Saturday, November 23, 2013 1:46:16 AM Azerbaijan Time"}}
{"WiFi":{"SSID":"Parsa","BSSID":"90:f6:52:b0:8c:d2","capabilities":"[WPA-PSK-TKIP+CCMP][WPA2-PSK-TKIP+CCMP][WPS]","level":"-31","frequency":"2417","time":"Saturday, November 23, 2013 1:49:11 AM Azerbaijan Time"}}
{"WiFi":{"SSID":"amo.myna","BSSID":"28:3c:e4:35:11:ef","capabilities":"[WPA-PSK-TKIP+CCMP][WPA2-PSK-TKIP+CCMP]","level":"-85","frequency":"2442","time":"Saturday, November 23, 2013 1:49:11 AM Azerbaijan Time"}}
{"WiFi":{"SSID":"kambizghaznavi","BSSID":"ac:e8:7b:1f:f7:75","capabilities":"[WPA2-PSK-CCMP]","level":"-88","frequency":"2432","time":"Saturday, November 23, 2013 1:49:11 AM Azerbaijan Time"}}
{"WiFi":{"SSID":"hesam","BSSID":"f4:3e:61:25:dd:45","capabilities":"[WEP]","level":"-86","frequency":"2462","time":"Saturday, November 23, 2013 1:49:11 AM Azerbaijan Time"}}
{"WiFi":{"SSID":"Afshin","BSSID":"28:10:7b:3e:9c:40","capabilities":"[WEP]","level":"-95","frequency":"2412","time":"Saturday, November 23, 2013 1:49:11 AM Azerbaijan Time"}}
{"WiFi":{"SSID":"Parsa","BSSID":"90:f6:52:b0:8c:d2","capabilities":"[WPA-PSK-TKIP+CCMP][WPA2-PSK-TKIP+CCMP][WPS]","level":"-32","frequency":"2417","time":"Saturday, November 23, 2013 1:52:09 AM Azerbaijan Time"}}
{"WiFi":{"SSID":"kambizghaznavi","BSSID":"ac:e8:7b:1f:f7:75","capabilities":"[WPA2-PSK-CCMP]","level":"-86","frequency":"2432","time":"Saturday, November 23, 2013 1:52:09 AM Azerbaijan Time"}}
{"WiFi":{"SSID":"hedieh","BSSID":"00:0d:f0:a7:19:fb","capabilities":"[WPA-PSK-TKIP]","level":"-89","frequency":"2422","time":"Saturday, November 23, 2013 1:52:09 AM Azerbaijan Time"}}
{"WiFi":{"SSID":"MRFO2013","BSSID":"94:0c:6d:ee:40:e6","capabilities":"[WPA2-PSK-TKIP]","level":"-93","frequency":"2412","time":"Saturday, November 23, 2013 1:52:09 AM Azerbaijan Time"}}
{"WiFi":{"SSID":"hesam","BSSID":"f4:3e:61:25:dd:45","capabilities":"[WEP]","level":"-89","frequency":"2462","time":"Saturday, November 23, 2013 1:52:09 AM Azerbaijan Time"}}
{"WiFi":{"SSID":"Afshin","BSSID":"28:10:7b:3e:9c:40","capabilities":"[WEP]","level":"-91","frequency":"2412","time":"Saturday, November 23, 2013 1:52:09 AM Azerbaijan Time"}}
{"WiFi":{"SSID":"Parsa","BSSID":"90:f6:52:b0:8c:d2","capabilities":"[WPA-PSK-TKIP+CCMP][WPA2-PSK-TKIP+CCMP][WPS]","level":"-31","frequency":"2417","time":"Saturday, November 23, 2013 1:54:37 AM Azerbaijan Time"}}
{"WiFi":{"SSID":"amo.myna","BSSID":"28:3c:e4:35:11:ef","capabilities":"[WPA-PSK-TKIP+CCMP][WPA2-PSK-TKIP+CCMP]","level":"-85","frequency":"2442","time":"Saturday, November 23, 2013 1:54:37 AM Azerbaijan Time"}}
{"WiFi":{"SSID":"hedieh","BSSID":"00:0d:f0:a7:19:fb","capabilities":"[WPA-PSK-TKIP]","level":"-89","frequency":"2422","time":"Saturday, November 23, 2013 1:54:37 AM Azerbaijan Time"}}
{"WiFi":{"SSID":"kambizghaznavi","BSSID":"ac:e8:7b:1f:f7:75","capabilities":"[WPA2-PSK-CCMP]","level":"-89","frequency":"2432","time":"Saturday, November 23, 2013 1:54:37 AM Azerbaijan Time"}}
{"WiFi":{"SSID":"mobinnet9ee3","BSSID":"00:0d:f0:a6:b6:e7","capabilities":"[WPA2-PSK-TKIP]","level":"-95","frequency":"2412","time":"Saturday, November 23, 2013 1:54:37 AM Azerbaijan Time"}}
{"WiFi":{"SSID":"Afshin","BSSID":"28:10:7b:3e:9c:40","capabilities":"[WEP]","level":"-91","frequency":"2412","time":"Saturday, November 23, 2013 1:54:37 AM Azerbaijan Time"}}
{"WiFi":{"SSID":"ITM","BSSID":"f4:ec:38:d5:dd:ec","capabilities":"[WEP]","level":"-95","frequency":"2447","time":"Saturday, November 23, 2013 1:54:37 AM Azerbaijan Time"}}
{"WiFi":{"SSID":"Parsa","BSSID":"90:f6:52:b0:8c:d2","capabilities":"[WPA-PSK-TKIP+CCMP][WPA2-PSK-TKIP+CCMP][WPS]","level":"-31","frequency":"2417","time":"Saturday, November 23, 2013 1:57:30 AM Azerbaijan Time"}}
{"WiFi":{"SSID":"amo.myna","BSSID":"28:3c:e4:35:11:ef","capabilities":"[WPA-PSK-TKIP+CCMP][WPA2-PSK-TKIP+CCMP]","level":"-86","frequency":"2442","time":"Saturday, November 23, 2013 1:57:30 AM Azerbaijan Time"}}
{"WiFi":{"SSID":"kambizghaznavi","BSSID":"ac:e8:7b:1f:f7:75","capabilities":"[WPA2-PSK-CCMP]","level":"-89","frequency":"2432","time":"Saturday, November 23, 2013 1:57:30 AM Azerbaijan Time"}}
{"WiFi":{"SSID":"Afshin","BSSID":"28:10:7b:3e:9c:40","capabilities":"[WEP]","level":"-93","frequency":"2412","time":"Saturday, November 23, 2013 1:57:30 AM Azerbaijan Time"}}
{"WiFi":{"SSID":"amo.myna","BSSID":"28:3c:e4:35:11:ef","capabilities":"[WPA-PSK-TKIP+CCMP][WPA2-PSK-TKIP+CCMP]","level":"-88","frequency":"2442","time":"Saturday, November 23, 2013 1:59:47 AM Azerbaijan Time"}}
{"Application":{"ProcessName":"com.sec.android.app.twlauncher","Start":"11-23-2013 02:00:22","End":"11-23-2013 02:00:32"}}
{"Location":{"Latitude":"35.723956466666664","Longtitude":"51.320252966666665","Altitude":"0.0","time":"11-23-2013 14:28:20","Accuracy":"55.0","Provider":"network"}}
{"Application":{"ProcessName":"com.sec.android.app.twlauncher","Start":"11-23-2013 14:45:07","End":"11-23-2013 14:45:17"}}
{"SMS":{"Address":"+98937798####","type":"2","date":"11-23-2013 14:45:30","body":"ANONYMIZED","Type":"2"}}
{"Application":{"ProcessName":"com.android.mms","Start":"11-23-2013 14:45:17","End":"11-23-2013 14:45:37"}}
{"Application":{"ProcessName":"com.sec.android.app.controlpanel","Start":"11-23-2013 14:45:37","End":"11-23-2013 14:45:47"}}
{"Application":{"ProcessName":"com.sec.android.app.twlauncher","Start":"11-23-2013 14:45:47","End":"11-23-2013 14:46:27"}}
{"Application":{"ProcessName":"com.sec.android.app.twlauncher","Start":"11-23-2013 15:55:51","End":"11-23-2013 15:56:01"}}
{"SMS":{"Address":"+98939048####","type":"1","date":"11-23-2013 16:47:01","body":"ANONYMIZED","Type":"1"}}
{"Application":{"ProcessName":"com.sec.android.app.twlauncher","Start":"11-23-2013 16:47:04","End":"11-23-2013 16:47:24"}}
{"Application":{"ProcessName":"com.android.mms","Start":"11-23-2013 16:47:24","End":"11-23-2013 16:47:44"}}
{"Application":{"ProcessName":"com.sec.android.inputmethod.axt9","Start":"11-23-2013 16:47:44","End":"11-23-2013 16:47:54"}}
{"SMS":{"Address":"+98939048####","type":"2","date":"11-23-2013 16:48:53","body":"ANONYMIZED","Type":"2"}}
{"Application":{"ProcessName":"com.android.mms","Start":"11-23-2013 16:47:54","End":"11-23-2013 16:49:14"}}
{"Application":{"ProcessName":"com.sec.android.provider.logsprovider","Start":"11-23-2013 16:49:14","End":"11-23-2013 16:49:24"}}
{"Application":{"ProcessName":"com.sec.android.app.myfiles","Start":"11-23-2013 16:49:24","End":"11-23-2013 16:49:34"}}
{"Application":{"ProcessName":"com.qo.android.samsung.am3:MX","Start":"11-23-2013 16:49:34","End":"11-23-2013 16:49:44"}}
{"Application":{"ProcessName":"com.qo.android.samsung.am3","Start":"11-23-2013 16:49:44","End":"11-23-2013 16:50:44"}}
{"Application":{"ProcessName":"com.qo.android.samsung.am3:Quickword","Start":"11-23-2013 16:49:44","End":"11-23-2013 16:50:44"}}
{"SMS":{"Address":"+98939048####","type":"1","date":"11-23-2013 16:51:48","body":"ANONYMIZED","Type":"1"}}
{"Application":{"ProcessName":"com.sec.android.app.twlauncher","Start":"11-23-2013 16:53:14","End":"11-23-2013 16:53:25"}}
{"Application":{"ProcessName":"com.android.mms","Start":"11-23-2013 16:53:25","End":"11-23-2013 16:53:35"}}
{"Application":{"ProcessName":"com.sec.android.app.controlpanel","Start":"11-23-2013 16:53:35","End":"11-23-2013 16:53:45"}}
{"Application":{"ProcessName":"com.sec.android.app.twlauncher","Start":"11-23-2013 17:02:55","End":"11-23-2013 17:03:25"}}
{"Application":{"ProcessName":"com.sec.android.app.twlauncher","Start":"11-23-2013 17:36:07","End":"11-23-2013 17:36:41"}}
{"Application":{"ProcessName":"com.sec.android.app.twlauncher","Start":"11-23-2013 17:38:59","End":"11-23-2013 17:39:09"}}
{"Application":{"ProcessName":"com.sec.android.provider.logsprovider","Start":"11-23-2013 17:50:38","End":"11-23-2013 17:50:48"}}
{"Application":{"ProcessName":"com.android.mms","Start":"11-23-2013 17:50:38","End":"11-23-2013 17:51:48"}}
{"Application":{"ProcessName":"com.sec.android.app.twlauncher","Start":"11-23-2013 17:51:48","End":"11-23-2013 17:52:32"}}
{"Application":{"ProcessName":"com.sec.android.app.twlauncher","Start":"11-23-2013 18:21:56","End":"11-23-2013 18:22:18"}}
{"Application":{"ProcessName":"com.sec.android.app.twlauncher","Start":"11-23-2013 18:31:04","End":"11-23-2013 18:31:52"}}
{"Application":{"ProcessName":"com.cooliris.media","Start":"11-23-2013 19:05:29","End":"11-23-2013 19:06:12"}}
{"Application":{"ProcessName":"com.sec.android.app.twlauncher","Start":"11-23-2013 19:40:51","End":"11-23-2013 19:41:01"}}
{"Application":{"ProcessName":"com.sec.android.provider.logsprovider","Start":"11-23-2013 19:41:01","End":"11-23-2013 19:41:11"}}
{"Application":{"ProcessName":"com.sec.android.app.twlauncher","Start":"11-23-2013 19:41:11","End":"11-23-2013 19:42:37"}}
{"SMS":{"Address":"+98938494####","type":"1","date":"11-23-2013 20:14:08","body":"ANONYMIZED","Type":"1"}}
{"Application":{"ProcessName":"com.sec.android.app.twlauncher","Start":"11-23-2013 20:14:16","End":"11-23-2013 20:14:26"}}
{"SMS":{"Address":"+98938494####","type":"2","date":"11-23-2013 20:15:20","body":"ANONYMIZED","Type":"2"}}
{"Application":{"ProcessName":"com.sec.android.provider.logsprovider","Start":"11-23-2013 20:15:27","End":"11-23-2013 20:15:37"}}
{"Application":{"ProcessName":"com.android.mms","Start":"11-23-2013 20:14:26","End":"11-23-2013 20:16:09"}}
{"Application":{"ProcessName":"com.android.mms","Start":"11-23-2013 20:18:20","End":"11-23-2013 20:18:30"}}
{"Application":{"ProcessName":"com.sec.android.app.twlauncher","Start":"11-23-2013 20:23:56","End":"11-23-2013 20:24:25"}}
{"Application":{"ProcessName":"com.sec.android.app.twlauncher","Start":"11-23-2013 22:10:28","End":"11-23-2013 22:10:48"}}
