{"Location":{"Latitude":"35.8117084","Longtitude":"51.4159033","Altitude":"0.0","time":"12-25-2013 00:00:04","Accuracy":"90.0","Provider":"network"}}
{"Location":{"Latitude":"35.8116304","Longtitude":"51.4158854","Altitude":"0.0","time":"12-25-2013 00:00:47","Accuracy":"82.0","Provider":"network"}}
{"Location":{"Latitude":"35.8116028","Longtitude":"51.41576","Altitude":"0.0","time":"12-25-2013 00:03:02","Accuracy":"36.0","Provider":"network"}}
{"Location":{"Latitude":"35.811623","Longtitude":"51.4157789","Altitude":"0.0","time":"12-25-2013 00:06:03","Accuracy":"55.0","Provider":"network"}}
{"Location":{"Latitude":"35.8115663","Longtitude":"51.4157796","Altitude":"0.0","time":"12-25-2013 00:06:48","Accuracy":"75.0","Provider":"network"}}
{"Location":{"Latitude":"35.8115348","Longtitude":"51.4157351","Altitude":"0.0","time":"12-25-2013 00:07:33","Accuracy":"72.0","Provider":"network"}}
{"Location":{"Latitude":"35.8114513","Longtitude":"51.4157254","Altitude":"0.0","time":"12-25-2013 00:08:18","Accuracy":"64.0","Provider":"network"}}
{"Location":{"Latitude":"35.8115151","Longtitude":"51.4156848","Altitude":"0.0","time":"12-25-2013 00:09:03","Accuracy":"70.0","Provider":"network"}}
{"Location":{"Latitude":"35.8117105","Longtitude":"51.4157659","Altitude":"0.0","time":"12-25-2013 00:09:48","Accuracy":"104.0","Provider":"network"}}
{"Location":{"Latitude":"35.8117201","Longtitude":"51.4158408","Altitude":"0.0","time":"12-25-2013 00:10:33","Accuracy":"99.0","Provider":"network"}}
{"Location":{"Latitude":"35.8085228","Longtitude":"51.4138175","Altitude":"0.0","time":"12-25-2013 00:12:30","Accuracy":"1062.0","Provider":"network"}}
{"Location":{"Latitude":"35.8116892","Longtitude":"51.4158167","Altitude":"0.0","time":"12-25-2013 00:12:53","Accuracy":"51.0","Provider":"network"}}
{"Call": {"Number":"+98912443####","Duration":"44","Time":"12-24-2013 11:47:50","Type":"2"}}
{"Call": {"Number":"+98912443####","Duration":"44","Time":"12-24-2013 11:47:50","Type":"2"}}
{"Location":{"Latitude":"35.8117692","Longtitude":"51.4157514","Altitude":"0.0","time":"12-25-2013 00:13:39","Accuracy":"52.0","Provider":"network"}}
{"Location":{"Latitude":"35.8116043","Longtitude":"51.41569","Altitude":"0.0","time":"12-25-2013 00:14:23","Accuracy":"78.0","Provider":"network"}}
{"Location":{"Latitude":"35.8117066","Longtitude":"51.4157497","Altitude":"0.0","time":"12-25-2013 00:15:10","Accuracy":"105.0","Provider":"network"}}
{"Location":{"Latitude":"35.8117808","Longtitude":"51.415748","Altitude":"0.0","time":"12-25-2013 00:15:55","Accuracy":"104.0","Provider":"network"}}
{"Location":{"Latitude":"35.8118194","Longtitude":"51.4158227","Altitude":"0.0","time":"12-25-2013 00:16:40","Accuracy":"98.0","Provider":"network"}}
{"Location":{"Latitude":"35.8117564","Longtitude":"51.4158713","Altitude":"0.0","time":"12-25-2013 00:17:25","Accuracy":"44.0","Provider":"network"}}
{"Location":{"Latitude":"35.811803","Longtitude":"51.415879","Altitude":"0.0","time":"12-25-2013 00:18:10","Accuracy":"94.0","Provider":"network"}}
{"Location":{"Latitude":"35.8118318","Longtitude":"51.4158966","Altitude":"0.0","time":"12-25-2013 00:18:55","Accuracy":"92.0","Provider":"network"}}
{"Location":{"Latitude":"35.8117937","Longtitude":"51.4157881","Altitude":"0.0","time":"12-25-2013 00:19:40","Accuracy":"56.0","Provider":"network"}}
{"Location":{"Latitude":"35.8120396","Longtitude":"51.4158828","Altitude":"0.0","time":"12-25-2013 00:19:55","Accuracy":"150.0","Provider":"network"}}
{"Location":{"Latitude":"35.8117973","Longtitude":"51.4157821","Altitude":"0.0","time":"12-25-2013 00:19:56","Accuracy":"64.0","Provider":"network"}}
{"Location":{"Latitude":"35.8119239","Longtitude":"51.4158117","Altitude":"0.0","time":"12-25-2013 00:21:25","Accuracy":"52.0","Provider":"network"}}
{"Location":{"Latitude":"35.8117668","Longtitude":"51.4158202","Altitude":"0.0","time":"12-25-2013 00:21:32","Accuracy":"94.0","Provider":"network"}}
{"Location":{"Latitude":"35.8118443","Longtitude":"51.4158646","Altitude":"0.0","time":"12-25-2013 00:21:34","Accuracy":"102.0","Provider":"network"}}
{"Location":{"Latitude":"35.8117393","Longtitude":"51.4158166","Altitude":"0.0","time":"12-25-2013 00:22:20","Accuracy":"91.0","Provider":"network"}}
{"Location":{"Latitude":"35.8118331","Longtitude":"51.4158307","Altitude":"0.0","time":"12-25-2013 00:23:05","Accuracy":"62.0","Provider":"network"}}
{"Location":{"Latitude":"35.8116495","Longtitude":"51.415782","Altitude":"0.0","time":"12-25-2013 00:23:51","Accuracy":"32.0","Provider":"network"}}
{"Location":{"Latitude":"35.8118167","Longtitude":"51.415877","Altitude":"0.0","time":"12-25-2013 00:24:36","Accuracy":"62.0","Provider":"network"}}
{"Location":{"Latitude":"35.8117872","Longtitude":"51.4158494","Altitude":"0.0","time":"12-25-2013 00:25:21","Accuracy":"66.0","Provider":"network"}}
{"Location":{"Latitude":"35.8117844","Longtitude":"51.415761","Altitude":"0.0","time":"12-25-2013 00:25:59","Accuracy":"68.0","Provider":"network"}}
{"Location":{"Latitude":"35.811783","Longtitude":"51.4157061","Altitude":"0.0","time":"12-25-2013 00:26:00","Accuracy":"37.0","Provider":"network"}}
{"Location":{"Latitude":"35.8115245","Longtitude":"51.4157164","Altitude":"0.0","time":"12-25-2013 00:26:45","Accuracy":"71.0","Provider":"network"}}
{"Location":{"Latitude":"35.811658","Longtitude":"51.4158204","Altitude":"0.0","time":"12-25-2013 00:27:30","Accuracy":"84.0","Provider":"network"}}
{"Location":{"Latitude":"35.8118447","Longtitude":"51.415843","Altitude":"0.0","time":"12-25-2013 00:28:16","Accuracy":"61.0","Provider":"network"}}
{"Location":{"Latitude":"35.8117768","Longtitude":"51.4157758","Altitude":"0.0","time":"12-25-2013 00:29:01","Accuracy":"69.0","Provider":"network"}}
{"Location":{"Latitude":"35.811784","Longtitude":"51.4157842","Altitude":"0.0","time":"12-25-2013 00:29:46","Accuracy":"68.0","Provider":"network"}}
{"Location":{"Latitude":"35.8116653","Longtitude":"51.4157162","Altitude":"0.0","time":"12-25-2013 00:30:31","Accuracy":"51.0","Provider":"network"}}
{"Location":{"Latitude":"35.8117411","Longtitude":"51.415725","Altitude":"0.0","time":"12-25-2013 00:31:16","Accuracy":"73.0","Provider":"network"}}
{"Location":{"Latitude":"35.8117493","Longtitude":"51.4157354","Altitude":"0.0","time":"12-25-2013 00:32:01","Accuracy":"72.0","Provider":"network"}}
{"Location":{"Latitude":"35.8116557","Longtitude":"51.4156771","Altitude":"0.0","time":"12-25-2013 00:32:46","Accuracy":"59.0","Provider":"network"}}
{"Location":{"Latitude":"35.8117759","Longtitude":"51.4157474","Altitude":"0.0","time":"12-25-2013 00:33:31","Accuracy":"70.0","Provider":"network"}}
{"Location":{"Latitude":"35.8117952","Longtitude":"51.4157573","Altitude":"0.0","time":"12-25-2013 00:34:16","Accuracy":"68.0","Provider":"network"}}
{"Location":{"Latitude":"35.8116577","Longtitude":"51.415732","Altitude":"0.0","time":"12-25-2013 00:35:01","Accuracy":"50.0","Provider":"network"}}
{"Location":{"Latitude":"35.8118352","Longtitude":"51.4158527","Altitude":"0.0","time":"12-25-2013 00:35:47","Accuracy":"61.0","Provider":"network"}}
{"Location":{"Latitude":"35.8117885","Longtitude":"51.4158154","Altitude":"0.0","time":"12-25-2013 00:36:32","Accuracy":"66.0","Provider":"network"}}
{"Location":{"Latitude":"35.8118304","Longtitude":"51.4158252","Altitude":"0.0","time":"12-25-2013 00:37:17","Accuracy":"63.0","Provider":"network"}}
{"Location":{"Latitude":"35.8118246","Longtitude":"51.4158013","Altitude":"0.0","time":"12-25-2013 00:38:02","Accuracy":"64.0","Provider":"network"}}
{"Location":{"Latitude":"35.8118388","Longtitude":"51.4158002","Altitude":"0.0","time":"12-25-2013 00:38:47","Accuracy":"63.0","Provider":"network"}}
{"Location":{"Latitude":"35.8118148","Longtitude":"51.4157989","Altitude":"0.0","time":"12-25-2013 00:39:32","Accuracy":"65.0","Provider":"network"}}
{"Location":{"Latitude":"35.8118315","Longtitude":"51.4158228","Altitude":"0.0","time":"12-25-2013 00:40:17","Accuracy":"63.0","Provider":"network"}}
{"Location":{"Latitude":"35.8118565","Longtitude":"51.415859","Altitude":"0.0","time":"12-25-2013 00:41:02","Accuracy":"59.0","Provider":"network"}}
{"Location":{"Latitude":"35.8118425","Longtitude":"51.4158537","Altitude":"0.0","time":"12-25-2013 00:41:47","Accuracy":"61.0","Provider":"network"}}
{"Location":{"Latitude":"35.8118179","Longtitude":"51.4158438","Altitude":"0.0","time":"12-25-2013 00:42:33","Accuracy":"63.0","Provider":"network"}}
{"Location":{"Latitude":"35.8118606","Longtitude":"51.41586","Altitude":"0.0","time":"12-25-2013 00:43:18","Accuracy":"59.0","Provider":"network"}}
{"Location":{"Latitude":"35.8118566","Longtitude":"51.4158444","Altitude":"0.0","time":"12-25-2013 00:44:03","Accuracy":"60.0","Provider":"network"}}
{"Location":{"Latitude":"35.8118569","Longtitude":"51.4158756","Altitude":"0.0","time":"12-25-2013 00:44:48","Accuracy":"59.0","Provider":"network"}}
{"Location":{"Latitude":"35.81183","Longtitude":"51.4159471","Altitude":"0.0","time":"12-25-2013 00:45:33","Accuracy":"60.0","Provider":"network"}}
{"Location":{"Latitude":"35.8118183","Longtitude":"51.4159037","Altitude":"0.0","time":"12-25-2013 00:46:18","Accuracy":"62.0","Provider":"network"}}
{"Location":{"Latitude":"35.8118155","Longtitude":"51.4158902","Altitude":"0.0","time":"12-25-2013 00:47:03","Accuracy":"62.0","Provider":"network"}}
{"Location":{"Latitude":"35.8118338","Longtitude":"51.4158822","Altitude":"0.0","time":"12-25-2013 00:47:48","Accuracy":"61.0","Provider":"network"}}
{"Location":{"Latitude":"35.8118468","Longtitude":"51.4158774","Altitude":"0.0","time":"12-25-2013 00:48:33","Accuracy":"60.0","Provider":"network"}}
{"Location":{"Latitude":"35.8118234","Longtitude":"51.4158417","Altitude":"0.0","time":"12-25-2013 00:49:18","Accuracy":"63.0","Provider":"network"}}
{"Location":{"Latitude":"35.8118134","Longtitude":"51.4158489","Altitude":"0.0","time":"12-25-2013 00:50:03","Accuracy":"63.0","Provider":"network"}}
{"Location":{"Latitude":"35.8118507","Longtitude":"51.4158944","Altitude":"0.0","time":"12-25-2013 00:50:48","Accuracy":"59.0","Provider":"network"}}
{"Location":{"Latitude":"35.8118493","Longtitude":"51.415859","Altitude":"0.0","time":"12-25-2013 00:51:34","Accuracy":"60.0","Provider":"network"}}
{"Location":{"Latitude":"35.8117129","Longtitude":"51.4158419","Altitude":"0.0","time":"12-25-2013 00:52:18","Accuracy":"67.0","Provider":"network"}}
{"Location":{"Latitude":"35.8117858","Longtitude":"51.4159102","Altitude":"0.0","time":"12-25-2013 00:53:03","Accuracy":"64.0","Provider":"network"}}
{"Location":{"Latitude":"35.8118171","Longtitude":"51.4158519","Altitude":"0.0","time":"12-25-2013 00:53:48","Accuracy":"63.0","Provider":"network"}}
{"Location":{"Latitude":"35.8117481","Longtitude":"51.4158538","Altitude":"0.0","time":"12-25-2013 00:54:33","Accuracy":"46.0","Provider":"network"}}
{"Location":{"Latitude":"35.8117628","Longtitude":"51.4159647","Altitude":"0.0","time":"12-25-2013 00:55:19","Accuracy":"65.0","Provider":"network"}}
{"Location":{"Latitude":"35.8118391","Longtitude":"51.4158475","Altitude":"0.0","time":"12-25-2013 00:56:04","Accuracy":"61.0","Provider":"network"}}
{"Location":{"Latitude":"35.8118485","Longtitude":"51.4158161","Altitude":"0.0","time":"12-25-2013 00:56:49","Accuracy":"61.0","Provider":"network"}}
{"Location":{"Latitude":"35.811801","Longtitude":"51.4159366","Altitude":"0.0","time":"12-25-2013 00:57:34","Accuracy":"62.0","Provider":"network"}}
{"Location":{"Latitude":"35.811814","Longtitude":"51.4159625","Altitude":"0.0","time":"12-25-2013 00:58:19","Accuracy":"61.0","Provider":"network"}}
{"Location":{"Latitude":"35.8117969","Longtitude":"51.4158393","Altitude":"0.0","time":"12-25-2013 00:59:04","Accuracy":"65.0","Provider":"network"}}
{"Location":{"Latitude":"35.8118092","Longtitude":"51.4157954","Altitude":"0.0","time":"12-25-2013 00:59:49","Accuracy":"65.0","Provider":"network"}}
{"Location":{"Latitude":"35.8118448","Longtitude":"51.4158157","Altitude":"0.0","time":"12-25-2013 01:00:34","Accuracy":"62.0","Provider":"network"}}
{"Location":{"Latitude":"35.8117867","Longtitude":"51.4159094","Altitude":"0.0","time":"12-25-2013 01:01:19","Accuracy":"64.0","Provider":"network"}}
{"Location":{"Latitude":"35.8117312","Longtitude":"51.4159483","Altitude":"0.0","time":"12-25-2013 01:02:04","Accuracy":"68.0","Provider":"network"}}
{"Location":{"Latitude":"35.8117762","Longtitude":"51.4159163","Altitude":"0.0","time":"12-25-2013 01:02:49","Accuracy":"65.0","Provider":"network"}}
