{"Call": {"Number":"0212243####","Duration":"110","Time":"1-2-2014 12:51:16","Type":"2"}}
{"Call": {"Number":"0212243####","Duration":"110","Time":"1-2-2014 12:51:16","Type":"2"}}
{"Call": {"Number":"0212243####","Duration":"110","Time":"1-2-2014 12:51:16","Type":"2"}}
{"Call": {"Number":"0212243####","Duration":"110","Time":"1-2-2014 12:51:16","Type":"2"}}
{"Call": {"Number":"0212243####","Duration":"110","Time":"1-2-2014 12:51:16","Type":"2"}}
{"Call": {"Number":"0212243####","Duration":"110","Time":"1-2-2014 12:51:16","Type":"2"}}
{"Call": {"Number":"+98912798####","Duration":"0","Time":"1-2-2014 13:20:53","Type":"3"}}
{"Call": {"Number":"+98912798####","Duration":"0","Time":"1-2-2014 13:20:53","Type":"3"}}
{"Call": {"Number":"+98912798####","Duration":"0","Time":"1-2-2014 13:20:53","Type":"3"}}
{"Call": {"Number":"+98912798####","Duration":"0","Time":"1-2-2014 13:20:53","Type":"3"}}
{"Call": {"Number":"+98912798####","Duration":"0","Time":"1-2-2014 13:20:53","Type":"3"}}
{"Call": {"Number":"+98912798####","Duration":"0","Time":"1-2-2014 13:20:53","Type":"3"}}
{"Call": {"Number":"+98912798####","Duration":"0","Time":"1-2-2014 13:26:58","Type":"3"}}
{"Call": {"Number":"+98912798####","Duration":"0","Time":"1-2-2014 13:26:58","Type":"3"}}
{"Call": {"Number":"+98912798####","Duration":"0","Time":"1-2-2014 13:26:58","Type":"3"}}
{"Call": {"Number":"+98912798####","Duration":"0","Time":"1-2-2014 13:26:58","Type":"3"}}
{"Call": {"Number":"+98912798####","Duration":"0","Time":"1-2-2014 13:26:58","Type":"3"}}
{"Call": {"Number":"+98912798####","Duration":"0","Time":"1-2-2014 13:26:58","Type":"3"}}
{"Call": {"Number":"+98912798####","Duration":"0","Time":"1-2-2014 13:26:58","Type":"3"}}
{"Call": {"Number":"+98912798####","Duration":"0","Time":"1-2-2014 13:26:58","Type":"3"}}
{"Call": {"Number":"+98912798####","Duration":"0","Time":"1-2-2014 13:26:58","Type":"3"}}
{"Call": {"Number":"+98912827####","Duration":"0","Time":"1-2-2014 21:15:46","Type":"2"}}
{"Call": {"Number":"+98912827####","Duration":"0","Time":"1-2-2014 21:15:46","Type":"2"}}
{"Call": {"Number":"+98912827####","Duration":"0","Time":"1-2-2014 21:15:46","Type":"2"}}
{"Call": {"Number":"+98912827####","Duration":"0","Time":"1-2-2014 21:15:46","Type":"2"}}
{"Call": {"Number":"+98912827####","Duration":"0","Time":"1-2-2014 21:15:46","Type":"2"}}
{"Call": {"Number":"+98912827####","Duration":"0","Time":"1-2-2014 21:15:46","Type":"2"}}
{"Call": {"Number":"+98912827####","Duration":"30","Time":"1-2-2014 21:16:32","Type":"1"}}
{"Call": {"Number":"+98912827####","Duration":"30","Time":"1-2-2014 21:16:32","Type":"1"}}
{"Call": {"Number":"+98912827####","Duration":"30","Time":"1-2-2014 21:16:32","Type":"1"}}
{"Call": {"Number":"+98912827####","Duration":"30","Time":"1-2-2014 21:16:32","Type":"1"}}
{"Call": {"Number":"+98912827####","Duration":"30","Time":"1-2-2014 21:16:32","Type":"1"}}
{"Call": {"Number":"+98912827####","Duration":"30","Time":"1-2-2014 21:16:32","Type":"1"}}
{"Call": {"Number":"+98212218####","Duration":"0","Time":"1-2-2014 23:08:27","Type":"3"}}
{"Call": {"Number":"+98212218####","Duration":"0","Time":"1-2-2014 23:08:27","Type":"3"}}
{"Call": {"Number":"+98212218####","Duration":"0","Time":"1-2-2014 23:08:27","Type":"3"}}
{"Call": {"Number":"+98212218####","Duration":"0","Time":"1-2-2014 23:08:27","Type":"3"}}
{"Call": {"Number":"+98212218####","Duration":"0","Time":"1-2-2014 23:08:27","Type":"3"}}
{"Call": {"Number":"+98212218####","Duration":"0","Time":"1-2-2014 23:08:27","Type":"3"}}
{"Call": {"Number":"+98212218####","Duration":"0","Time":"1-2-2014 23:14:17","Type":"3"}}
{"Call": {"Number":"+98212218####","Duration":"0","Time":"1-2-2014 23:14:17","Type":"3"}}
{"Call": {"Number":"+98212218####","Duration":"0","Time":"1-2-2014 23:14:17","Type":"3"}}
{"Call": {"Number":"+98212218####","Duration":"0","Time":"1-2-2014 23:14:17","Type":"3"}}
{"Call": {"Number":"+98212218####","Duration":"0","Time":"1-2-2014 23:14:17","Type":"3"}}
{"Call": {"Number":"+98212218####","Duration":"0","Time":"1-2-2014 23:14:17","Type":"3"}}
{"Call": {"Number":"+98912798####","Duration":"0","Time":"1-2-2014 23:22:47","Type":"3"}}
{"Call": {"Number":"+98912798####","Duration":"0","Time":"1-2-2014 23:22:47","Type":"3"}}
{"Call": {"Number":"+98912798####","Duration":"0","Time":"1-2-2014 23:22:47","Type":"3"}}
{"Call": {"Number":"+98912798####","Duration":"0","Time":"1-2-2014 23:22:47","Type":"3"}}
{"Call": {"Number":"+98912798####","Duration":"0","Time":"1-2-2014 23:22:47","Type":"3"}}
{"Call": {"Number":"+98912798####","Duration":"0","Time":"1-2-2014 23:22:47","Type":"3"}}
{"SMS":{"Address":"+98912798####","type":"1","date":"1-2-2014 23:25:33","body":"ANONYMIZED","Type":"1", "metadata": {"name": "Mom"}}}
{"Call": {"Number":"+98212218####","Duration":"0","Time":"1-2-2014 23:27:52","Type":"3"}}
{"Call": {"Number":"+98212218####","Duration":"0","Time":"1-2-2014 23:27:52","Type":"3"}}
{"Call": {"Number":"+98212218####","Duration":"0","Time":"1-2-2014 23:27:52","Type":"3"}}
{"Call": {"Number":"+98212218####","Duration":"0","Time":"1-2-2014 23:27:52","Type":"3"}}
{"Call": {"Number":"+98212218####","Duration":"0","Time":"1-2-2014 23:27:52","Type":"3"}}
{"Call": {"Number":"+98212218####","Duration":"0","Time":"1-2-2014 23:27:52","Type":"3"}}
{"Call": {"Number":"+98212218####","Duration":"0","Time":"1-2-2014 23:27:52","Type":"3"}}
{"Call": {"Number":"+98212218####","Duration":"0","Time":"1-2-2014 23:27:52","Type":"3"}}
{"Call": {"Number":"+98212218####","Duration":"0","Time":"1-2-2014 23:27:52","Type":"3"}}
{"Call": {"Number":"+98212218####","Duration":"13","Time":"1-2-2014 23:55:59","Type":"2"}}
{"Call": {"Number":"+98212218####","Duration":"13","Time":"1-2-2014 23:55:59","Type":"2"}}
{"Call": {"Number":"+98212218####","Duration":"13","Time":"1-2-2014 23:55:59","Type":"2"}}
{"Call": {"Number":"+98212218####","Duration":"13","Time":"1-2-2014 23:55:59","Type":"2"}}
{"Call": {"Number":"+98212218####","Duration":"13","Time":"1-2-2014 23:55:59","Type":"2"}}
{"Call": {"Number":"+98212218####","Duration":"13","Time":"1-2-2014 23:55:59","Type":"2"}}
