{"Call": {"Number":"+98936415####","Duration":"16","Time":"11-11-2013 16:46:48","Type":"2"}}
{"Call": {"Number":"+98936415####","Duration":"16","Time":"11-11-2013 16:46:48","Type":"2"}}
{"Call": {"Number":"+98936415####","Duration":"16","Time":"11-11-2013 16:46:48","Type":"2"}}
{"Call": {"Number":"+98936415####","Duration":"16","Time":"11-11-2013 16:46:48","Type":"2"}}
{"Call": {"Number":"+98936415####","Duration":"16","Time":"11-11-2013 16:46:48","Type":"2"}}
{"Call": {"Number":"+98936415####","Duration":"16","Time":"11-11-2013 16:46:48","Type":"2"}}
{"Call": {"Number":"+98912340####","Duration":"12","Time":"11-11-2013 16:47:04","Type":"1"}}
{"Call": {"Number":"+98912340####","Duration":"12","Time":"11-11-2013 16:47:04","Type":"1"}}
{"Call": {"Number":"+98912340####","Duration":"12","Time":"11-11-2013 16:47:04","Type":"1"}}
{"Call": {"Number":"+98912340####","Duration":"12","Time":"11-11-2013 16:47:04","Type":"1"}}
{"Call": {"Number":"+98912340####","Duration":"12","Time":"11-11-2013 16:47:04","Type":"1"}}
{"Call": {"Number":"+98912340####","Duration":"12","Time":"11-11-2013 16:47:04","Type":"1"}}
{"Call": {"Number":"+98935390####","Duration":"64","Time":"11-11-2013 16:50:37","Type":"2"}}
{"Call": {"Number":"+98935390####","Duration":"64","Time":"11-11-2013 16:50:37","Type":"2"}}
{"Call": {"Number":"+98935390####","Duration":"64","Time":"11-11-2013 16:50:37","Type":"2"}}
{"Call": {"Number":"+98935390####","Duration":"64","Time":"11-11-2013 16:50:37","Type":"2"}}
{"Call": {"Number":"+98935390####","Duration":"64","Time":"11-11-2013 16:50:37","Type":"2"}}
{"Call": {"Number":"+98935390####","Duration":"64","Time":"11-11-2013 16:50:37","Type":"2"}}
{"Call": {"Number":"+98935390####","Duration":"118","Time":"11-11-2013 16:51:54","Type":"2"}}
{"Call": {"Number":"+98935390####","Duration":"118","Time":"11-11-2013 16:51:54","Type":"2"}}
{"Call": {"Number":"+98935390####","Duration":"118","Time":"11-11-2013 16:51:54","Type":"2"}}
{"Call": {"Number":"+98935390####","Duration":"118","Time":"11-11-2013 16:51:54","Type":"2"}}
{"Call": {"Number":"+98935390####","Duration":"118","Time":"11-11-2013 16:51:54","Type":"2"}}
{"Call": {"Number":"+98935390####","Duration":"118","Time":"11-11-2013 16:51:54","Type":"2"}}
{"Call": {"Number":"+98912219####","Duration":"21","Time":"11-11-2013 16:55:23","Type":"2"}}
{"Call": {"Number":"+98912219####","Duration":"21","Time":"11-11-2013 16:55:23","Type":"2"}}
{"Call": {"Number":"+98912219####","Duration":"21","Time":"11-11-2013 16:55:23","Type":"2"}}
{"Call": {"Number":"+98912219####","Duration":"21","Time":"11-11-2013 16:55:23","Type":"2"}}
{"Call": {"Number":"+98912219####","Duration":"21","Time":"11-11-2013 16:55:23","Type":"2"}}
{"Call": {"Number":"+98912219####","Duration":"21","Time":"11-11-2013 16:55:23","Type":"2"}}
{"Call": {"Number":"+98935390####","Duration":"0","Time":"11-11-2013 16:56:31","Type":"3"}}
{"Call": {"Number":"+98935390####","Duration":"0","Time":"11-11-2013 16:56:31","Type":"3"}}
{"Call": {"Number":"+98935390####","Duration":"0","Time":"11-11-2013 16:56:31","Type":"3"}}
{"Call": {"Number":"+98935390####","Duration":"0","Time":"11-11-2013 16:56:31","Type":"3"}}
{"Call": {"Number":"+98935390####","Duration":"0","Time":"11-11-2013 16:56:31","Type":"3"}}
{"Call": {"Number":"+98935390####","Duration":"0","Time":"11-11-2013 16:56:31","Type":"3"}}
{"Call": {"Number":"+98935390####","Duration":"0","Time":"11-11-2013 16:56:31","Type":"3"}}
{"Call": {"Number":"+98935390####","Duration":"0","Time":"11-11-2013 16:56:31","Type":"3"}}
{"Call": {"Number":"+98935390####","Duration":"0","Time":"11-11-2013 16:56:31","Type":"3"}}
{"Call": {"Number":"+98935390####","Duration":"52","Time":"11-11-2013 16:59:02","Type":"2"}}
{"Call": {"Number":"+98935390####","Duration":"52","Time":"11-11-2013 16:59:02","Type":"2"}}
{"Call": {"Number":"+98935390####","Duration":"52","Time":"11-11-2013 16:59:02","Type":"2"}}
{"Call": {"Number":"+98935390####","Duration":"52","Time":"11-11-2013 16:59:02","Type":"2"}}
{"Call": {"Number":"+98935390####","Duration":"52","Time":"11-11-2013 16:59:02","Type":"2"}}
{"Call": {"Number":"+98935390####","Duration":"52","Time":"11-11-2013 16:59:02","Type":"2"}}
{"SMS":{"Address":"0912380####","type":"2","date":"11-11-2013 17:23:27","body":"ANONYMIZED","Type":"2", "metadata": {"name": "Haghighat"}}}
{"SMS":{"Address":"+98912380####","type":"1","date":"11-11-2013 17:23:53","body":"ANONYMIZED","Type":"1", "metadata": {"name": "Haghighat"}}}
{"SMS":{"Address":"+98912380####","type":"2","date":"11-11-2013 17:25:07","body":"ANONYMIZED","Type":"2", "metadata": {"name": "Haghighat"}}}
{"Call": {"Number":"+98212218####","Duration":"32","Time":"11-11-2013 18:01:58","Type":"2"}}
{"Call": {"Number":"+98212218####","Duration":"32","Time":"11-11-2013 18:01:58","Type":"2"}}
{"Call": {"Number":"+98212218####","Duration":"32","Time":"11-11-2013 18:01:58","Type":"2"}}
{"Call": {"Number":"+98212218####","Duration":"32","Time":"11-11-2013 18:01:58","Type":"2"}}
{"Call": {"Number":"+98212218####","Duration":"32","Time":"11-11-2013 18:01:58","Type":"2"}}
{"Call": {"Number":"+98212218####","Duration":"32","Time":"11-11-2013 18:01:58","Type":"2"}}
{"Call": {"Number":"+98212218####","Duration":"14","Time":"11-11-2013 19:09:50","Type":"1"}}
{"Call": {"Number":"+98212218####","Duration":"14","Time":"11-11-2013 19:09:50","Type":"1"}}
{"Call": {"Number":"+98212218####","Duration":"14","Time":"11-11-2013 19:09:50","Type":"1"}}
{"Call": {"Number":"+98212218####","Duration":"14","Time":"11-11-2013 19:09:50","Type":"1"}}
{"Call": {"Number":"+98212218####","Duration":"14","Time":"11-11-2013 19:09:50","Type":"1"}}
{"Call": {"Number":"+98212218####","Duration":"14","Time":"11-11-2013 19:09:50","Type":"1"}}
{"Call": {"Number":"+98212218####","Duration":"10","Time":"11-11-2013 20:04:04","Type":"1"}}
{"Call": {"Number":"+98212218####","Duration":"10","Time":"11-11-2013 20:04:04","Type":"1"}}
{"Call": {"Number":"+98212218####","Duration":"10","Time":"11-11-2013 20:04:04","Type":"1"}}
{"Call": {"Number":"+98212218####","Duration":"10","Time":"11-11-2013 20:04:04","Type":"1"}}
{"Call": {"Number":"+98212218####","Duration":"10","Time":"11-11-2013 20:04:04","Type":"1"}}
{"Call": {"Number":"+98212218####","Duration":"10","Time":"11-11-2013 20:04:04","Type":"1"}}
