{"SMS":{"Address":"+98912518####","type":"2","date":"12-14-2013 11:14:28","body":"ANONYMIZED","Type":"2", "metadata": {"name": "Sheida"}}}
{"Call": {"Number":"+98912827####","Duration":"25","Time":"12-14-2013 11:23:44","Type":"1"}}
{"Call": {"Number":"+98912827####","Duration":"25","Time":"12-14-2013 11:23:44","Type":"1"}}
{"Call": {"Number":"+98912827####","Duration":"25","Time":"12-14-2013 11:23:44","Type":"1"}}
{"Call": {"Number":"+98912827####","Duration":"25","Time":"12-14-2013 11:23:44","Type":"1"}}
{"Call": {"Number":"+98912827####","Duration":"22","Time":"12-14-2013 11:31:44","Type":"2"}}
{"Call": {"Number":"+98912827####","Duration":"22","Time":"12-14-2013 11:31:44","Type":"2"}}
{"Call": {"Number":"+98912827####","Duration":"22","Time":"12-14-2013 11:31:44","Type":"2"}}
{"Call": {"Number":"+98912827####","Duration":"22","Time":"12-14-2013 11:31:44","Type":"2"}}
{"Call": {"Number":"+98912771####","Duration":"42","Time":"12-14-2013 11:33:22","Type":"2"}}
{"Call": {"Number":"+98912771####","Duration":"42","Time":"12-14-2013 11:33:22","Type":"2"}}
{"Call": {"Number":"+98912771####","Duration":"42","Time":"12-14-2013 11:33:22","Type":"2"}}
{"Call": {"Number":"+98912771####","Duration":"42","Time":"12-14-2013 11:33:22","Type":"2"}}
{"Call": {"Number":"+98912827####","Duration":"23","Time":"12-14-2013 11:34:48","Type":"1"}}
{"Call": {"Number":"+98912827####","Duration":"23","Time":"12-14-2013 11:34:48","Type":"1"}}
{"Call": {"Number":"+98912827####","Duration":"23","Time":"12-14-2013 11:34:48","Type":"1"}}
{"Call": {"Number":"+98912827####","Duration":"23","Time":"12-14-2013 11:34:48","Type":"1"}}
{"Call": {"Number":"+98212218####","Duration":"39","Time":"12-14-2013 11:35:34","Type":"2"}}
{"Call": {"Number":"+98212218####","Duration":"39","Time":"12-14-2013 11:35:34","Type":"2"}}
{"Call": {"Number":"+98212218####","Duration":"39","Time":"12-14-2013 11:35:34","Type":"2"}}
{"Call": {"Number":"+98212218####","Duration":"39","Time":"12-14-2013 11:35:34","Type":"2"}}
{"SMS":{"Address":"0919835####","type":"2","date":"12-14-2013 12:50:39","body":"ANONYMIZED","Type":"2", "metadata": {"name": "Mehri"}}}
{"Call": {"Number":"+98919835####","Duration":"13","Time":"12-14-2013 13:24:17","Type":"2"}}
{"Call": {"Number":"+98919835####","Duration":"13","Time":"12-14-2013 13:24:17","Type":"2"}}
{"Call": {"Number":"+98919835####","Duration":"13","Time":"12-14-2013 13:24:17","Type":"2"}}
{"Call": {"Number":"+98919835####","Duration":"13","Time":"12-14-2013 13:24:17","Type":"2"}}
{"Call": {"Number":"+98912771####","Duration":"17","Time":"12-14-2013 13:27:26","Type":"2"}}
{"Call": {"Number":"+98912771####","Duration":"17","Time":"12-14-2013 13:27:26","Type":"2"}}
{"Call": {"Number":"+98912771####","Duration":"17","Time":"12-14-2013 13:27:26","Type":"2"}}
{"Call": {"Number":"+98912771####","Duration":"17","Time":"12-14-2013 13:27:26","Type":"2"}}
{"Call": {"Number":"+98919835####","Duration":"63","Time":"12-14-2013 13:33:51","Type":"2"}}
{"Call": {"Number":"+98919835####","Duration":"63","Time":"12-14-2013 13:33:51","Type":"2"}}
{"Call": {"Number":"+98919835####","Duration":"63","Time":"12-14-2013 13:33:51","Type":"2"}}
{"Call": {"Number":"+98919835####","Duration":"63","Time":"12-14-2013 13:33:51","Type":"2"}}
{"Call": {"Number":"+98912771####","Duration":"20","Time":"12-14-2013 13:38:20","Type":"2"}}
{"Call": {"Number":"+98912771####","Duration":"20","Time":"12-14-2013 13:38:20","Type":"2"}}
{"Call": {"Number":"+98912771####","Duration":"20","Time":"12-14-2013 13:38:20","Type":"2"}}
{"Call": {"Number":"+98912771####","Duration":"20","Time":"12-14-2013 13:38:20","Type":"2"}}
{"Call": {"Number":"+98912771####","Duration":"20","Time":"12-14-2013 13:38:20","Type":"2"}}
{"Call": {"Number":"+98912771####","Duration":"20","Time":"12-14-2013 13:38:20","Type":"2"}}
{"Call": {"Number":"+98912771####","Duration":"0","Time":"12-14-2013 13:44:33","Type":"2"}}
{"Call": {"Number":"+98912771####","Duration":"0","Time":"12-14-2013 13:44:33","Type":"2"}}
{"Call": {"Number":"+98912771####","Duration":"0","Time":"12-14-2013 13:44:33","Type":"2"}}
{"Call": {"Number":"+98912771####","Duration":"0","Time":"12-14-2013 13:44:33","Type":"2"}}
{"SMS":{"Address":"+98912827####","type":"2","date":"12-14-2013 15:08:32","body":"ANONYMIZED","Type":"2", "metadata": {"name": "Setareh"}}}
{"SMS":{"Address":"+98912827####","type":"1","date":"12-14-2013 15:14:21","body":"ANONYMIZED","Type":"1", "metadata": {"name": "Setareh"}}}
{"SMS":{"Address":"+98912827####","type":"2","date":"12-14-2013 15:18:42","body":"ANONYMIZED","Type":"2", "metadata": {"name": "Setareh"}}}
{"Call": {"Number":"####","Duration":"19","Time":"12-14-2013 15:22:56","Type":"2"}}
{"Call": {"Number":"####","Duration":"19","Time":"12-14-2013 15:22:56","Type":"2"}}
{"Call": {"Number":"####","Duration":"19","Time":"12-14-2013 15:22:56","Type":"2"}}
{"Call": {"Number":"####","Duration":"19","Time":"12-14-2013 15:22:56","Type":"2"}}
{"Call": {"Number":"####","Duration":"8","Time":"12-14-2013 15:23:28","Type":"2"}}
{"Call": {"Number":"####","Duration":"8","Time":"12-14-2013 15:23:28","Type":"2"}}
{"Call": {"Number":"####","Duration":"8","Time":"12-14-2013 15:23:28","Type":"2"}}
{"Call": {"Number":"####","Duration":"8","Time":"12-14-2013 15:23:28","Type":"2"}}
{"Call": {"Number":"####","Duration":"0","Time":"12-14-2013 15:23:58","Type":"2"}}
{"Call": {"Number":"####","Duration":"0","Time":"12-14-2013 15:23:58","Type":"2"}}
{"Call": {"Number":"####","Duration":"0","Time":"12-14-2013 15:23:58","Type":"2"}}
{"Call": {"Number":"####","Duration":"0","Time":"12-14-2013 15:23:58","Type":"2"}}
{"Call": {"Number":"####","Duration":"20","Time":"12-14-2013 15:24:20","Type":"2"}}
{"Call": {"Number":"####","Duration":"20","Time":"12-14-2013 15:24:20","Type":"2"}}
{"Call": {"Number":"####","Duration":"20","Time":"12-14-2013 15:24:20","Type":"2"}}
{"Call": {"Number":"####","Duration":"20","Time":"12-14-2013 15:24:20","Type":"2"}}
{"SMS":{"Address":"+98912827####","type":"1","date":"12-14-2013 15:45:43","body":"ANONYMIZED","Type":"1", "metadata": {"name": "Setareh"}}}
{"SMS":{"Address":"+98912827####","type":"1","date":"12-14-2013 15:45:50","body":"ANONYMIZED","Type":"1", "metadata": {"name": "Setareh"}}}
