{"Location":{"Latitude":"35.7824511","Longtitude":"51.3496858","Altitude":"0.0","time":"1-11-2014 23:38:47","Accuracy":"277.15","Provider":"fused","Speed":"0.0"}}
{"Location":{"Latitude":"35.7824511","Longtitude":"51.3496858","Altitude":"0.0","time":"1-11-2014 23:39:48","Accuracy":"277.15","Provider":"fused","Speed":"0.0"}}
{"Location":{"Latitude":"35.7824511","Longtitude":"51.3496858","Altitude":"0.0","time":"1-11-2014 23:41:48","Accuracy":"277.15","Provider":"fused","Speed":"0.0"}}
{"Location":{"Latitude":"35.7824511","Longtitude":"51.3496858","Altitude":"0.0","time":"1-11-2014 23:42:48","Accuracy":"277.15","Provider":"fused","Speed":"0.0"}}
{"Location":{"Latitude":"35.7824511","Longtitude":"51.3496858","Altitude":"0.0","time":"1-11-2014 23:43:48","Accuracy":"277.15","Provider":"fused","Speed":"0.0"}}
{"Location":{"Latitude":"35.7824511","Longtitude":"51.3496858","Altitude":"0.0","time":"1-11-2014 23:45:48","Accuracy":"277.15","Provider":"fused","Speed":"0.0"}}
{"Location":{"Latitude":"35.7824511","Longtitude":"51.3496858","Altitude":"0.0","time":"1-11-2014 23:46:48","Accuracy":"277.15","Provider":"fused","Speed":"0.0"}}
{"Location":{"Latitude":"35.7824511","Longtitude":"51.3496858","Altitude":"0.0","time":"1-11-2014 23:47:49","Accuracy":"277.15","Provider":"fused","Speed":"0.0"}}
{"Location":{"Latitude":"35.7824511","Longtitude":"51.3496858","Altitude":"0.0","time":"1-11-2014 23:48:49","Accuracy":"277.15","Provider":"fused","Speed":"0.0"}}
{"Location":{"Latitude":"35.7824511","Longtitude":"51.3496858","Altitude":"0.0","time":"1-11-2014 23:49:49","Accuracy":"277.15","Provider":"fused","Speed":"0.0"}}
{"Location":{"Latitude":"35.7824511","Longtitude":"51.3496858","Altitude":"0.0","time":"1-11-2014 23:51:50","Accuracy":"277.15","Provider":"fused","Speed":"0.0"}}
{"Location":{"Latitude":"35.7824511","Longtitude":"51.3496858","Altitude":"0.0","time":"1-11-2014 23:52:50","Accuracy":"277.15","Provider":"fused","Speed":"0.0"}}
{"Location":{"Latitude":"35.7824511","Longtitude":"51.3496858","Altitude":"0.0","time":"1-11-2014 23:54:50","Accuracy":"277.15","Provider":"fused","Speed":"0.0"}}
{"Location":{"Latitude":"35.7824511","Longtitude":"51.3496858","Altitude":"0.0","time":"1-11-2014 23:55:50","Accuracy":"277.15","Provider":"fused","Speed":"0.0"}}
{"Location":{"Latitude":"35.7824511","Longtitude":"51.3496858","Altitude":"0.0","time":"1-11-2014 23:56:50","Accuracy":"277.15","Provider":"fused","Speed":"0.0"}}
{"Location":{"Latitude":"35.7824511","Longtitude":"51.3496858","Altitude":"0.0","time":"1-11-2014 23:57:50","Accuracy":"277.15","Provider":"fused","Speed":"0.0"}}
{"Location":{"Latitude":"35.7824511","Longtitude":"51.3496858","Altitude":"0.0","time":"1-11-2014 23:58:51","Accuracy":"277.15","Provider":"fused","Speed":"0.0"}}
{"Location":{"Latitude":"35.7824511","Longtitude":"51.3496858","Altitude":"0.0","time":"1-11-2014 23:59:51","Accuracy":"277.15","Provider":"fused","Speed":"0.0"}}
{"Location":{"Latitude":"35.7824511","Longtitude":"51.3496858","Altitude":"0.0","time":"1-12-2014 00:00:51","Accuracy":"277.15","Provider":"fused","Speed":"0.0"}}
{"Location":{"Latitude":"35.7824511","Longtitude":"51.3496858","Altitude":"0.0","time":"1-12-2014 00:02:51","Accuracy":"277.15","Provider":"fused","Speed":"0.0"}}
{"Location":{"Latitude":"35.7824511","Longtitude":"51.3496858","Altitude":"0.0","time":"1-12-2014 00:03:51","Accuracy":"277.15","Provider":"fused","Speed":"0.0"}}
{"Location":{"Latitude":"35.7824511","Longtitude":"51.3496858","Altitude":"0.0","time":"1-12-2014 00:04:51","Accuracy":"277.15","Provider":"fused","Speed":"0.0"}}
{"Location":{"Latitude":"35.7824511","Longtitude":"51.3496858","Altitude":"0.0","time":"1-12-2014 00:05:51","Accuracy":"277.15","Provider":"fused","Speed":"0.0"}}
{"Location":{"Latitude":"35.7824511","Longtitude":"51.3496858","Altitude":"0.0","time":"1-12-2014 00:07:51","Accuracy":"277.15","Provider":"fused","Speed":"0.0"}}
{"Location":{"Latitude":"35.7824511","Longtitude":"51.3496858","Altitude":"0.0","time":"1-12-2014 00:08:52","Accuracy":"277.15","Provider":"fused","Speed":"0.0"}}
{"Location":{"Latitude":"35.7824511","Longtitude":"51.3496858","Altitude":"0.0","time":"1-12-2014 00:09:52","Accuracy":"277.15","Provider":"fused","Speed":"0.0"}}
{"Location":{"Latitude":"35.7824511","Longtitude":"51.3496858","Altitude":"0.0","time":"1-12-2014 00:10:52","Accuracy":"277.15","Provider":"fused","Speed":"0.0"}}
{"Location":{"Latitude":"35.7824511","Longtitude":"51.3496858","Altitude":"0.0","time":"1-12-2014 00:11:52","Accuracy":"277.15","Provider":"fused","Speed":"0.0"}}
{"Location":{"Latitude":"35.7824511","Longtitude":"51.3496858","Altitude":"0.0","time":"1-12-2014 00:12:52","Accuracy":"277.15","Provider":"fused","Speed":"0.0"}}
{"Location":{"Latitude":"35.7824511","Longtitude":"51.3496858","Altitude":"0.0","time":"1-12-2014 00:14:52","Accuracy":"277.15","Provider":"fused","Speed":"0.0"}}
{"Location":{"Latitude":"35.7824511","Longtitude":"51.3496858","Altitude":"0.0","time":"1-12-2014 00:15:53","Accuracy":"277.15","Provider":"fused","Speed":"0.0"}}
{"Location":{"Latitude":"35.7824511","Longtitude":"51.3496858","Altitude":"0.0","time":"1-12-2014 00:17:53","Accuracy":"277.15","Provider":"fused","Speed":"0.0"}}
{"Location":{"Latitude":"35.7824511","Longtitude":"51.3496858","Altitude":"0.0","time":"1-12-2014 00:18:53","Accuracy":"277.15","Provider":"fused","Speed":"0.0"}}
{"Location":{"Latitude":"35.7824511","Longtitude":"51.3496858","Altitude":"0.0","time":"1-12-2014 00:19:53","Accuracy":"277.15","Provider":"fused","Speed":"0.0"}}
{"Location":{"Latitude":"35.7824511","Longtitude":"51.3496858","Altitude":"0.0","time":"1-12-2014 00:20:53","Accuracy":"277.15","Provider":"fused","Speed":"0.0"}}
{"Location":{"Latitude":"35.7824511","Longtitude":"51.3496858","Altitude":"0.0","time":"1-12-2014 00:21:53","Accuracy":"277.15","Provider":"fused","Speed":"0.0"}}
{"Location":{"Latitude":"35.7824511","Longtitude":"51.3496858","Altitude":"0.0","time":"1-12-2014 00:22:54","Accuracy":"277.15","Provider":"fused","Speed":"0.0"}}
{"Location":{"Latitude":"35.7824511","Longtitude":"51.3496858","Altitude":"0.0","time":"1-12-2014 00:24:54","Accuracy":"277.15","Provider":"fused","Speed":"0.0"}}
{"Location":{"Latitude":"35.7824511","Longtitude":"51.3496858","Altitude":"0.0","time":"1-12-2014 00:25:54","Accuracy":"277.15","Provider":"fused","Speed":"0.0"}}
{"Location":{"Latitude":"35.7824511","Longtitude":"51.3496858","Altitude":"0.0","time":"1-12-2014 00:26:54","Accuracy":"277.15","Provider":"fused","Speed":"0.0"}}
{"Location":{"Latitude":"35.7824511","Longtitude":"51.3496858","Altitude":"0.0","time":"1-12-2014 00:27:54","Accuracy":"277.15","Provider":"fused","Speed":"0.0"}}
{"Location":{"Latitude":"35.7824511","Longtitude":"51.3496858","Altitude":"0.0","time":"1-12-2014 00:28:55","Accuracy":"277.15","Provider":"fused","Speed":"0.0"}}
{"Location":{"Latitude":"35.7824511","Longtitude":"51.3496858","Altitude":"0.0","time":"1-12-2014 00:29:55","Accuracy":"277.15","Provider":"fused","Speed":"0.0"}}
{"Location":{"Latitude":"35.7824511","Longtitude":"51.3496858","Altitude":"0.0","time":"1-12-2014 00:30:55","Accuracy":"277.15","Provider":"fused","Speed":"0.0"}}
{"Location":{"Latitude":"35.7824511","Longtitude":"51.3496858","Altitude":"0.0","time":"1-12-2014 00:31:55","Accuracy":"277.15","Provider":"fused","Speed":"0.0"}}
{"Location":{"Latitude":"35.7824511","Longtitude":"51.3496858","Altitude":"0.0","time":"1-12-2014 00:33:55","Accuracy":"277.15","Provider":"fused","Speed":"0.0"}}
{"Location":{"Latitude":"35.7824511","Longtitude":"51.3496858","Altitude":"0.0","time":"1-12-2014 00:34:55","Accuracy":"277.15","Provider":"fused","Speed":"0.0"}}
{"Location":{"Latitude":"35.7824511","Longtitude":"51.3496858","Altitude":"0.0","time":"1-12-2014 00:35:56","Accuracy":"277.15","Provider":"fused","Speed":"0.0"}}
{"Location":{"Latitude":"35.7824511","Longtitude":"51.3496858","Altitude":"0.0","time":"1-12-2014 00:36:56","Accuracy":"277.15","Provider":"fused","Speed":"0.0"}}
{"Location":{"Latitude":"35.7824511","Longtitude":"51.3496858","Altitude":"0.0","time":"1-12-2014 00:38:57","Accuracy":"277.15","Provider":"fused","Speed":"0.0"}}
{"Application":{"ProcessName":"com.lmi.vodafone.rescue","Start":"1-12-2014 07:00:09","End":"1-12-2014 07:00:39"}}
{"Application":{"ProcessName":"com.htc.android.worldclock","Start":"1-12-2014 07:00:19","End":"1-12-2014 07:00:39"}}
{"Application":{"ProcessName":"com.android.htcdialer","Start":"1-12-2014 07:00:09","End":"1-12-2014 07:00:39"}}
{"Application":{"ProcessName":"com.android.nfc","Start":"1-12-2014 07:00:09","End":"1-12-2014 07:00:39"}}
{"Application":{"ProcessName":"com.htc.lockscreen","Start":"1-12-2014 07:33:13","End":"1-12-2014 07:33:13"}}
{"Application":{"ProcessName":"com.htc.HtcBeatsNotify","Start":"1-12-2014 07:33:24","End":"1-12-2014 07:33:27"}}
{"Application":{"ProcessName":"com.htc.musicenhancer:enhancerprovider","Start":"1-12-2014 07:33:24","End":"1-12-2014 07:33:48"}}
{"Application":{"ProcessName":"com.htc.bgp","Start":"1-12-2014 07:33:38","End":"1-12-2014 07:33:48"}}
{"Application":{"ProcessName":"com.htc.music","Start":"1-12-2014 07:33:13","End":"1-12-2014 07:33:48"}}
{"Application":{"ProcessName":"com.lmi.vodafone.rescue","Start":"1-12-2014 07:33:13","End":"1-12-2014 07:35:09"}}
{"Application":{"ProcessName":"com.android.htcdialer","Start":"1-12-2014 07:33:13","End":"1-12-2014 07:35:09"}}
{"Application":{"ProcessName":"com.android.nfc","Start":"1-12-2014 07:33:13","End":"1-12-2014 07:35:09"}}
{"Application":{"ProcessName":"com.htc.album","Start":"1-12-2014 07:33:48","End":"1-12-2014 07:35:09"}}
{"Application":{"ProcessName":"com.htc.musicenhancer:enhancerprovider","Start":"1-12-2014 08:00:56","End":"1-12-2014 08:01:07"}}
{"Application":{"ProcessName":"com.htc.music","Start":"1-12-2014 08:00:56","End":"1-12-2014 08:01:07"}}
{"Application":{"ProcessName":"com.android.settings","Start":"1-12-2014 08:01:08","End":"1-12-2014 08:01:27"}}
{"Application":{"ProcessName":"com.android.settings:remote","Start":"1-12-2014 08:01:17","End":"1-12-2014 08:01:27"}}
{"Application":{"ProcessName":"com.htc.lockscreen","Start":"1-12-2014 08:01:47","End":"1-12-2014 08:01:48"}}
{"Application":{"ProcessName":"com.htc.musicenhancer:enhancerprovider","Start":"1-12-2014 08:01:27","End":"1-12-2014 08:01:58"}}
{"Application":{"ProcessName":"com.htc.music","Start":"1-12-2014 08:01:27","End":"1-12-2014 08:01:58"}}
{"Application":{"ProcessName":"com.lmi.vodafone.rescue","Start":"1-12-2014 08:00:36","End":"1-12-2014 08:05:18"}}
{"Application":{"ProcessName":"com.android.htcdialer","Start":"1-12-2014 08:00:36","End":"1-12-2014 08:05:18"}}
{"Application":{"ProcessName":"com.android.nfc","Start":"1-12-2014 08:00:36","End":"1-12-2014 08:05:18"}}
{"Application":{"ProcessName":"com.htc.album","Start":"1-12-2014 08:02:08","End":"1-12-2014 08:05:18"}}
{"Application":{"ProcessName":"com.htc.flexnet","Start":"1-12-2014 08:17:12","End":"1-12-2014 08:17:31"}}
{"Application":{"ProcessName":"com.lmi.vodafone.rescue","Start":"1-12-2014 08:17:12","End":"1-12-2014 08:17:31"}}
{"Application":{"ProcessName":"com.android.htcdialer","Start":"1-12-2014 08:17:12","End":"1-12-2014 08:17:31"}}
{"Application":{"ProcessName":"com.android.nfc","Start":"1-12-2014 08:17:12","End":"1-12-2014 08:17:31"}}
{"Application":{"ProcessName":"com.android.updater","Start":"1-12-2014 08:30:02","End":"1-12-2014 08:30:12"}}
{"Application":{"ProcessName":"com.htc.musicenhancer:enhancerprovider","Start":"1-12-2014 08:30:02","End":"1-12-2014 08:30:24"}}
{"Application":{"ProcessName":"com.google.android.apps.maps:LocationFriendService","Start":"1-12-2014 08:30:12","End":"1-12-2014 08:30:24"}}
{"Application":{"ProcessName":"com.lmi.vodafone.rescue","Start":"1-12-2014 08:29:51","End":"1-12-2014 08:30:24"}}
{"Application":{"ProcessName":"com.android.htcdialer","Start":"1-12-2014 08:29:51","End":"1-12-2014 08:30:24"}}
{"Application":{"ProcessName":"com.android.nfc","Start":"1-12-2014 08:29:51","End":"1-12-2014 08:30:24"}}
{"Application":{"ProcessName":"com.htc.music","Start":"1-12-2014 08:30:02","End":"1-12-2014 08:30:24"}}
{"Application":{"ProcessName":"com.htc.musicenhancer:enhancerprovider","Start":"1-12-2014 08:32:01","End":"1-12-2014 08:32:31"}}
{"Application":{"ProcessName":"com.htc.music","Start":"1-12-2014 08:32:01","End":"1-12-2014 08:32:31"}}
{"Application":{"ProcessName":"com.android.settings","Start":"1-12-2014 08:32:41","End":"1-12-2014 08:32:51"}}
{"Application":{"ProcessName":"com.htc.musicenhancer:enhancerprovider","Start":"1-12-2014 08:33:02","End":"1-12-2014 08:33:22"}}
{"Application":{"ProcessName":"com.lmi.vodafone.rescue","Start":"1-12-2014 08:32:01","End":"1-12-2014 08:33:22"}}
{"Application":{"ProcessName":"com.android.htcdialer","Start":"1-12-2014 08:32:01","End":"1-12-2014 08:33:22"}}
{"Application":{"ProcessName":"com.android.nfc","Start":"1-12-2014 08:32:01","End":"1-12-2014 08:33:22"}}
{"Application":{"ProcessName":"com.htc.music","Start":"1-12-2014 08:33:02","End":"1-12-2014 08:33:22"}}
{"Application":{"ProcessName":"com.htc.musicenhancer:enhancerprovider","Start":"1-12-2014 08:35:23","End":"1-12-2014 08:36:03"}}
{"Application":{"ProcessName":"com.lmi.vodafone.rescue","Start":"1-12-2014 08:35:23","End":"1-12-2014 08:36:03"}}
{"Application":{"ProcessName":"com.android.htcdialer","Start":"1-12-2014 08:35:23","End":"1-12-2014 08:36:03"}}
{"Application":{"ProcessName":"com.android.nfc","Start":"1-12-2014 08:35:23","End":"1-12-2014 08:36:03"}}
{"Application":{"ProcessName":"com.htc.music","Start":"1-12-2014 08:35:23","End":"1-12-2014 08:36:03"}}
{"Application":{"ProcessName":"com.htc.bgp","Start":"1-12-2014 08:38:43","End":"1-12-2014 08:38:54"}}
{"Application":{"ProcessName":"com.htc.musicenhancer:enhancerprovider","Start":"1-12-2014 08:38:43","End":"1-12-2014 08:40:14"}}
{"Application":{"ProcessName":"com.lmi.vodafone.rescue","Start":"1-12-2014 08:38:43","End":"1-12-2014 08:40:14"}}
{"Application":{"ProcessName":"com.android.htcdialer","Start":"1-12-2014 08:38:43","End":"1-12-2014 08:40:14"}}
{"Application":{"ProcessName":"com.android.nfc","Start":"1-12-2014 08:38:43","End":"1-12-2014 08:40:14"}}
{"Application":{"ProcessName":"com.htc.music","Start":"1-12-2014 08:38:43","End":"1-12-2014 08:40:14"}}
{"Application":{"ProcessName":"com.htc.music:mediaplaybackservice","Start":"1-12-2014 09:30:33","End":"1-12-2014 09:30:34"}}
{"Application":{"ProcessName":"com.htc.flexnet","Start":"1-12-2014 09:30:34","End":"1-12-2014 09:30:44"}}
{"Application":{"ProcessName":"com.htc.musicenhancer:enhancerprovider","Start":"1-12-2014 09:30:33","End":"1-12-2014 09:30:54"}}
{"Application":{"ProcessName":"com.htc.music","Start":"1-12-2014 09:30:33","End":"1-12-2014 09:30:54"}}
{"Application":{"ProcessName":"com.htc.bgp","Start":"1-12-2014 09:30:54","End":"1-12-2014 09:31:04"}}
{"Application":{"ProcessName":"com.android.vending","Start":"1-12-2014 09:31:04","End":"1-12-2014 09:31:04"}}
{"Application":{"ProcessName":"com.htc.calendar","Start":"1-12-2014 09:31:04","End":"1-12-2014 09:31:14"}}
{"Application":{"ProcessName":"com.google.android.gms","Start":"1-12-2014 09:31:04","End":"1-12-2014 09:31:14"}}
{"WiFi":{"SSID":"Golbarg","BSSID":"f4:ec:38:d5:d7:67","capabilities":"[WPA-PSK-TKIP+CCMP][WPA2-PSK-TKIP+CCMP][ESS]","level":"-83","frequency":"2462","time":"Sunday, January 12, 2014 9:31:19 AM Iran Standard Time"}}
{"WiFi":{"SSID":"vetmedia","BSSID":"00:26:5a:cc:4b:35","capabilities":"[WPS][WEP][ESS]","level":"-81","frequency":"2447","time":"Sunday, January 12, 2014 9:31:19 AM Iran Standard Time"}}
{"WiFi":{"SSID":"ali","BSSID":"84:c9:b2:36:d5:9d","capabilities":"[WPS][WEP][ESS]","level":"-89","frequency":"2412","time":"Sunday, January 12, 2014 9:31:19 AM Iran Standard Time"}}
{"WiFi":{"SSID":"Golbarg","BSSID":"f4:ec:38:d5:d7:67","capabilities":"[WPA-PSK-TKIP+CCMP][WPA2-PSK-TKIP+CCMP][ESS]","level":"-83","frequency":"2462","time":"Sunday, January 12, 2014 9:31:20 AM Iran Standard Time"}}
{"WiFi":{"SSID":"vetmedia","BSSID":"00:26:5a:cc:4b:35","capabilities":"[WPS][WEP][ESS]","level":"-81","frequency":"2447","time":"Sunday, January 12, 2014 9:31:20 AM Iran Standard Time"}}
{"WiFi":{"SSID":"ali","BSSID":"84:c9:b2:36:d5:9d","capabilities":"[WPS][WEP][ESS]","level":"-89","frequency":"2412","time":"Sunday, January 12, 2014 9:31:20 AM Iran Standard Time"}}
{"Application":{"ProcessName":"com.lmi.vodafone.rescue","Start":"1-12-2014 09:30:33","End":"1-12-2014 09:31:34"}}
{"Application":{"ProcessName":"com.android.htcdialer","Start":"1-12-2014 09:30:33","End":"1-12-2014 09:31:34"}}
{"Application":{"ProcessName":"com.android.settings","Start":"1-12-2014 09:30:54","End":"1-12-2014 09:31:34"}}
{"Application":{"ProcessName":"com.android.nfc","Start":"1-12-2014 09:30:33","End":"1-12-2014 09:31:34"}}
{"Application":{"ProcessName":"com.htc.calendar","Start":"1-12-2014 09:36:55","End":"1-12-2014 09:36:55"}}
{"Application":{"ProcessName":"com.android.settings","Start":"1-12-2014 09:36:55","End":"1-12-2014 09:37:25"}}
{"Application":{"ProcessName":"com.htc.lockscreen","Start":"1-12-2014 09:37:25","End":"1-12-2014 09:37:26"}}
{"Application":{"ProcessName":"com.htc.bgp","Start":"1-12-2014 09:37:26","End":"1-12-2014 09:37:38"}}
{"Application":{"ProcessName":"com.htc.music:mediaplaybackservice","Start":"1-12-2014 09:37:25","End":"1-12-2014 09:37:38"}}
{"Application":{"ProcessName":"com.htc.musicenhancer:enhancerprovider","Start":"1-12-2014 09:37:38","End":"1-12-2014 09:38:19"}}
{"Application":{"ProcessName":"com.htc.HtcBeatsNotify","Start":"1-12-2014 09:38:12","End":"1-12-2014 09:38:19"}}
{"Application":{"ProcessName":"com.htc.music","Start":"1-12-2014 09:37:25","End":"1-12-2014 09:38:19"}}
{"Application":{"ProcessName":"com.htc.album","Start":"1-12-2014 09:38:22","End":"1-12-2014 09:41:50"}}
{"Application":{"ProcessName":"com.rebelvox.voxer","Start":"1-12-2014 09:41:53","End":"1-12-2014 09:42:00"}}
{"Application":{"ProcessName":"com.lmi.vodafone.rescue","Start":"1-12-2014 09:36:55","End":"1-12-2014 09:42:00"}}
{"Application":{"ProcessName":"com.android.htcdialer","Start":"1-12-2014 09:36:55","End":"1-12-2014 09:42:00"}}
{"Application":{"ProcessName":"com.android.nfc","Start":"1-12-2014 09:36:55","End":"1-12-2014 09:42:00"}}
{"Application":{"ProcessName":"com.tencent.mm","Start":"1-12-2014 09:42:00","End":"1-12-2014 09:42:04"}}
{"Application":{"ProcessName":"com.htc.musicenhancer:enhancerprovider","Start":"1-12-2014 09:41:50","End":"1-12-2014 09:42:34"}}
{"Application":{"ProcessName":"com.htc.music","Start":"1-12-2014 09:41:50","End":"1-12-2014 09:42:34"}}
{"Application":{"ProcessName":"com.htc.calendar","Start":"1-12-2014 09:42:44","End":"1-12-2014 09:42:51"}}
{"Application":{"ProcessName":"com.htc.album","Start":"1-12-2014 09:42:41","End":"1-12-2014 09:45:12"}}
{"Application":{"ProcessName":"com.htc.musicenhancer:enhancerprovider","Start":"1-12-2014 09:45:16","End":"1-12-2014 09:45:46"}}
{"Application":{"ProcessName":"com.htc.music","Start":"1-12-2014 09:45:16","End":"1-12-2014 09:45:46"}}
{"Application":{"ProcessName":"com.lmi.vodafone.rescue","Start":"1-12-2014 09:42:00","End":"1-12-2014 09:47:03"}}
{"Application":{"ProcessName":"com.android.htcdialer","Start":"1-12-2014 09:42:00","End":"1-12-2014 09:47:03"}}
{"Application":{"ProcessName":"com.android.nfc","Start":"1-12-2014 09:42:00","End":"1-12-2014 09:47:03"}}
{"Application":{"ProcessName":"com.htc.album","Start":"1-12-2014 09:45:53","End":"1-12-2014 09:49:23"}}
{"Application":{"ProcessName":"com.android.settings","Start":"1-12-2014 09:49:27","End":"1-12-2014 09:49:43"}}
{"Application":{"ProcessName":"com.htc.weather.bg","Start":"1-12-2014 09:49:47","End":"1-12-2014 09:49:54"}}
{"Application":{"ProcessName":"com.htc.bg","Start":"1-12-2014 09:49:47","End":"1-12-2014 09:49:54"}}
{"Application":{"ProcessName":"com.google.android.apps.plus","Start":"1-12-2014 09:50:04","End":"1-12-2014 09:50:08"}}
{"Application":{"ProcessName":"com.tencent.mm","Start":"1-12-2014 09:50:04","End":"1-12-2014 09:50:14"}}
{"WiFi":{"SSID":"ASUS","BSSID":"bc:ae:c5:a5:b4:c0","capabilities":"[WPA2-PSK-CCMP][ESS]","level":"-71","frequency":"2452","time":"Sunday, January 12, 2014 9:50:20 AM Iran Standard Time"}}
{"WiFi":{"SSID":"Golbarg","BSSID":"f4:ec:38:d5:d7:67","capabilities":"[WPA-PSK-TKIP+CCMP][WPA2-PSK-TKIP+CCMP][ESS]","level":"-82","frequency":"2462","time":"Sunday, January 12, 2014 9:50:20 AM Iran Standard Time"}}
{"WiFi":{"SSID":"TP-LINK_37CCF7","BSSID":"10:fe:ed:37:cc:f7","capabilities":"[WPA-PSK-TKIP+CCMP][WPS][ESS]","level":"-90","frequency":"2417","time":"Sunday, January 12, 2014 9:50:20 AM Iran Standard Time"}}
{"WiFi":{"SSID":"Pashmak","BSSID":"00:0d:f0:a6:91:bf","capabilities":"[WPA2-PSK-CCMP][ESS]","level":"-95","frequency":"2422","time":"Sunday, January 12, 2014 9:50:20 AM Iran Standard Time"}}
{"WiFi":{"SSID":"vetmedia","BSSID":"00:26:5a:cc:4b:35","capabilities":"[WPS][WEP][ESS]","level":"-78","frequency":"2447","time":"Sunday, January 12, 2014 9:50:20 AM Iran Standard Time"}}
{"WiFi":{"SSID":"ASUS","BSSID":"bc:ae:c5:a5:b4:c0","capabilities":"[WPA2-PSK-CCMP][ESS]","level":"-71","frequency":"2452","time":"Sunday, January 12, 2014 9:50:21 AM Iran Standard Time"}}
{"WiFi":{"SSID":"Golbarg","BSSID":"f4:ec:38:d5:d7:67","capabilities":"[WPA-PSK-TKIP+CCMP][WPA2-PSK-TKIP+CCMP][ESS]","level":"-82","frequency":"2462","time":"Sunday, January 12, 2014 9:50:21 AM Iran Standard Time"}}
{"WiFi":{"SSID":"TP-LINK_37CCF7","BSSID":"10:fe:ed:37:cc:f7","capabilities":"[WPA-PSK-TKIP+CCMP][WPS][ESS]","level":"-90","frequency":"2417","time":"Sunday, January 12, 2014 9:50:21 AM Iran Standard Time"}}
{"WiFi":{"SSID":"Pashmak","BSSID":"00:0d:f0:a6:91:bf","capabilities":"[WPA2-PSK-CCMP][ESS]","level":"-95","frequency":"2422","time":"Sunday, January 12, 2014 9:50:21 AM Iran Standard Time"}}
{"WiFi":{"SSID":"vetmedia","BSSID":"00:26:5a:cc:4b:35","capabilities":"[WPS][WEP][ESS]","level":"-78","frequency":"2447","time":"Sunday, January 12, 2014 9:50:21 AM Iran Standard Time"}}
{"Application":{"ProcessName":"com.google.android.apps.plus","Start":"1-12-2014 09:50:25","End":"1-12-2014 09:50:29"}}
{"Application":{"ProcessName":"com.google.android.apps.plus","Start":"1-12-2014 09:50:59","End":"1-12-2014 09:51:05"}}
{"WiFi":{"SSID":"ASUS","BSSID":"bc:ae:c5:a5:b4:c0","capabilities":"[WPA2-PSK-CCMP][ESS]","level":"-71","frequency":"2452","time":"Sunday, January 12, 2014 9:51:20 AM Iran Standard Time"}}
{"WiFi":{"SSID":"Golbarg","BSSID":"f4:ec:38:d5:d7:67","capabilities":"[WPA-PSK-TKIP+CCMP][WPA2-PSK-TKIP+CCMP][ESS]","level":"-82","frequency":"2462","time":"Sunday, January 12, 2014 9:51:20 AM Iran Standard Time"}}
{"WiFi":{"SSID":"TP-LINK_37CCF7","BSSID":"10:fe:ed:37:cc:f7","capabilities":"[WPA-PSK-TKIP+CCMP][WPS][ESS]","level":"-90","frequency":"2417","time":"Sunday, January 12, 2014 9:51:20 AM Iran Standard Time"}}
{"WiFi":{"SSID":"Pashmak","BSSID":"00:0d:f0:a6:91:bf","capabilities":"[WPA2-PSK-CCMP][ESS]","level":"-95","frequency":"2422","time":"Sunday, January 12, 2014 9:51:20 AM Iran Standard Time"}}
{"WiFi":{"SSID":"vetmedia","BSSID":"00:26:5a:cc:4b:35","capabilities":"[WPS][WEP][ESS]","level":"-78","frequency":"2447","time":"Sunday, January 12, 2014 9:51:20 AM Iran Standard Time"}}
{"WiFi":{"SSID":"ASUS","BSSID":"bc:ae:c5:a5:b4:c0","capabilities":"[WPA2-PSK-CCMP][ESS]","level":"-71","frequency":"2452","time":"Sunday, January 12, 2014 9:51:21 AM Iran Standard Time"}}
{"WiFi":{"SSID":"Golbarg","BSSID":"f4:ec:38:d5:d7:67","capabilities":"[WPA-PSK-TKIP+CCMP][WPA2-PSK-TKIP+CCMP][ESS]","level":"-82","frequency":"2462","time":"Sunday, January 12, 2014 9:51:21 AM Iran Standard Time"}}
{"WiFi":{"SSID":"TP-LINK_37CCF7","BSSID":"10:fe:ed:37:cc:f7","capabilities":"[WPA-PSK-TKIP+CCMP][WPS][ESS]","level":"-90","frequency":"2417","time":"Sunday, January 12, 2014 9:51:21 AM Iran Standard Time"}}
{"WiFi":{"SSID":"Pashmak","BSSID":"00:0d:f0:a6:91:bf","capabilities":"[WPA2-PSK-CCMP][ESS]","level":"-95","frequency":"2422","time":"Sunday, January 12, 2014 9:51:21 AM Iran Standard Time"}}
{"WiFi":{"SSID":"vetmedia","BSSID":"00:26:5a:cc:4b:35","capabilities":"[WPS][WEP][ESS]","level":"-78","frequency":"2447","time":"Sunday, January 12, 2014 9:51:21 AM Iran Standard Time"}}
{"Application":{"ProcessName":"com.google.android.apps.plus","Start":"1-12-2014 09:51:19","End":"1-12-2014 09:51:25"}}
{"Application":{"ProcessName":"info.androidz.horoscope","Start":"1-12-2014 09:49:47","End":"1-12-2014 09:51:29"}}
{"Application":{"ProcessName":"com.lmi.vodafone.rescue","Start":"1-12-2014 09:47:03","End":"1-12-2014 09:51:35"}}
{"Application":{"ProcessName":"com.android.htcdialer","Start":"1-12-2014 09:47:03","End":"1-12-2014 09:51:35"}}
{"Application":{"ProcessName":"com.android.nfc","Start":"1-12-2014 09:47:03","End":"1-12-2014 09:51:35"}}
{"Application":{"ProcessName":"com.lmi.vodafone.rescue","Start":"1-12-2014 10:22:42","End":"1-12-2014 10:22:49"}}
{"Application":{"ProcessName":"com.android.htcdialer","Start":"1-12-2014 10:22:42","End":"1-12-2014 10:22:49"}}
{"Application":{"ProcessName":"com.android.nfc","Start":"1-12-2014 10:22:42","End":"1-12-2014 10:22:49"}}
{"Application":{"ProcessName":"com.lmi.vodafone.rescue","Start":"1-12-2014 10:23:39","End":"1-12-2014 10:23:42"}}
{"Application":{"ProcessName":"com.android.htcdialer","Start":"1-12-2014 10:23:39","End":"1-12-2014 10:23:42"}}
{"Application":{"ProcessName":"com.android.nfc","Start":"1-12-2014 10:23:39","End":"1-12-2014 10:23:42"}}
{"Application":{"ProcessName":"com.lmi.vodafone.rescue","Start":"1-12-2014 10:34:51","End":"1-12-2014 10:39:51"}}
{"Application":{"ProcessName":"com.android.htcdialer","Start":"1-12-2014 10:34:51","End":"1-12-2014 10:39:51"}}
{"Application":{"ProcessName":"com.android.nfc","Start":"1-12-2014 10:34:51","End":"1-12-2014 10:39:51"}}
{"Application":{"ProcessName":"com.lmi.vodafone.rescue","Start":"1-12-2014 10:39:51","End":"1-12-2014 10:44:52"}}
{"Application":{"ProcessName":"com.android.htcdialer","Start":"1-12-2014 10:39:51","End":"1-12-2014 10:44:52"}}
{"Application":{"ProcessName":"com.android.nfc","Start":"1-12-2014 10:39:51","End":"1-12-2014 10:44:52"}}
{"Application":{"ProcessName":"com.lmi.vodafone.rescue","Start":"1-12-2014 10:44:52","End":"1-12-2014 10:44:54"}}
{"Application":{"ProcessName":"com.android.htcdialer","Start":"1-12-2014 10:44:52","End":"1-12-2014 10:44:54"}}
{"Application":{"ProcessName":"com.android.nfc","Start":"1-12-2014 10:44:52","End":"1-12-2014 10:44:54"}}
{"Application":{"ProcessName":"com.lmi.vodafone.rescue","Start":"1-12-2014 10:45:02","End":"1-12-2014 10:50:02"}}
{"Application":{"ProcessName":"com.android.htcdialer","Start":"1-12-2014 10:45:02","End":"1-12-2014 10:50:02"}}
{"Application":{"ProcessName":"com.android.nfc","Start":"1-12-2014 10:45:02","End":"1-12-2014 10:50:02"}}
{"Application":{"ProcessName":"com.lmi.vodafone.rescue","Start":"1-12-2014 10:50:02","End":"1-12-2014 10:55:02"}}
{"Application":{"ProcessName":"com.android.htcdialer","Start":"1-12-2014 10:50:02","End":"1-12-2014 10:55:02"}}
{"Application":{"ProcessName":"com.android.nfc","Start":"1-12-2014 10:50:02","End":"1-12-2014 10:55:02"}}
{"Application":{"ProcessName":"com.lmi.vodafone.rescue","Start":"1-12-2014 10:55:02","End":"1-12-2014 10:58:23"}}
{"Application":{"ProcessName":"com.android.htcdialer","Start":"1-12-2014 10:55:02","End":"1-12-2014 10:58:23"}}
{"Application":{"ProcessName":"com.android.nfc","Start":"1-12-2014 10:55:02","End":"1-12-2014 10:58:23"}}
{"Application":{"ProcessName":"com.lmi.vodafone.rescue","Start":"1-12-2014 11:03:44","End":"1-12-2014 11:08:44"}}
{"Application":{"ProcessName":"com.android.htcdialer","Start":"1-12-2014 11:03:44","End":"1-12-2014 11:08:44"}}
{"Application":{"ProcessName":"com.android.nfc","Start":"1-12-2014 11:03:44","End":"1-12-2014 11:08:44"}}
{"Application":{"ProcessName":"com.lmi.vodafone.rescue","Start":"1-12-2014 11:08:44","End":"1-12-2014 11:13:44"}}
{"Application":{"ProcessName":"com.android.htcdialer","Start":"1-12-2014 11:08:44","End":"1-12-2014 11:13:44"}}
{"Application":{"ProcessName":"com.android.nfc","Start":"1-12-2014 11:08:44","End":"1-12-2014 11:13:44"}}
{"Application":{"ProcessName":"com.lmi.vodafone.rescue","Start":"1-12-2014 11:13:44","End":"1-12-2014 11:18:45"}}
{"Application":{"ProcessName":"com.android.htcdialer","Start":"1-12-2014 11:13:44","End":"1-12-2014 11:18:45"}}
{"Application":{"ProcessName":"com.android.nfc","Start":"1-12-2014 11:13:44","End":"1-12-2014 11:18:45"}}
{"Application":{"ProcessName":"com.lmi.vodafone.rescue","Start":"1-12-2014 11:18:45","End":"1-12-2014 11:23:45"}}
{"Application":{"ProcessName":"com.android.htcdialer","Start":"1-12-2014 11:18:45","End":"1-12-2014 11:23:45"}}
{"Application":{"ProcessName":"com.android.nfc","Start":"1-12-2014 11:18:45","End":"1-12-2014 11:23:45"}}
{"Application":{"ProcessName":"com.lmi.vodafone.rescue","Start":"1-12-2014 11:23:45","End":"1-12-2014 11:28:46"}}
{"Application":{"ProcessName":"com.android.htcdialer","Start":"1-12-2014 11:23:45","End":"1-12-2014 11:28:46"}}
{"Application":{"ProcessName":"com.android.nfc","Start":"1-12-2014 11:23:45","End":"1-12-2014 11:28:46"}}
{"Application":{"ProcessName":"com.lmi.vodafone.rescue","Start":"1-12-2014 11:28:46","End":"1-12-2014 11:33:46"}}
{"Application":{"ProcessName":"com.android.htcdialer","Start":"1-12-2014 11:28:46","End":"1-12-2014 11:33:46"}}
{"Application":{"ProcessName":"com.android.nfc","Start":"1-12-2014 11:28:46","End":"1-12-2014 11:33:46"}}
{"Application":{"ProcessName":"com.lmi.vodafone.rescue","Start":"1-12-2014 11:33:46","End":"1-12-2014 11:38:46"}}
{"Application":{"ProcessName":"com.android.htcdialer","Start":"1-12-2014 11:33:46","End":"1-12-2014 11:38:46"}}
{"Application":{"ProcessName":"com.android.nfc","Start":"1-12-2014 11:33:46","End":"1-12-2014 11:38:46"}}
{"Application":{"ProcessName":"com.lmi.vodafone.rescue","Start":"1-12-2014 11:38:46","End":"1-12-2014 11:43:46"}}
{"Application":{"ProcessName":"com.android.htcdialer","Start":"1-12-2014 11:38:46","End":"1-12-2014 11:43:46"}}
{"Application":{"ProcessName":"com.android.nfc","Start":"1-12-2014 11:38:46","End":"1-12-2014 11:43:46"}}
{"Application":{"ProcessName":"com.lmi.vodafone.rescue","Start":"1-12-2014 11:43:47","End":"1-12-2014 11:48:47"}}
{"Application":{"ProcessName":"com.android.htcdialer","Start":"1-12-2014 11:43:47","End":"1-12-2014 11:48:47"}}
{"Application":{"ProcessName":"com.android.nfc","Start":"1-12-2014 11:43:47","End":"1-12-2014 11:48:47"}}
{"Application":{"ProcessName":"com.lmi.vodafone.rescue","Start":"1-12-2014 11:48:47","End":"1-12-2014 11:52:17"}}
{"Application":{"ProcessName":"com.android.htcdialer","Start":"1-12-2014 11:48:47","End":"1-12-2014 11:52:17"}}
{"Application":{"ProcessName":"com.android.nfc","Start":"1-12-2014 11:48:47","End":"1-12-2014 11:52:17"}}
{"Application":{"ProcessName":"com.google.android.apps.maps:LocationFriendService","Start":"1-12-2014 11:52:37","End":"1-12-2014 11:52:40"}}
{"Application":{"ProcessName":"com.lmi.vodafone.rescue","Start":"1-12-2014 11:52:37","End":"1-12-2014 11:53:51"}}
{"Application":{"ProcessName":"com.android.htcdialer","Start":"1-12-2014 11:52:37","End":"1-12-2014 11:53:51"}}
{"Application":{"ProcessName":"com.android.nfc","Start":"1-12-2014 11:52:37","End":"1-12-2014 11:53:51"}}
{"Application":{"ProcessName":"com.htc.calendar","Start":"1-12-2014 11:52:40","End":"1-12-2014 11:53:51"}}
{"Application":{"ProcessName":"com.lmi.vodafone.rescue","Start":"1-12-2014 12:07:24","End":"1-12-2014 12:07:34"}}
{"Application":{"ProcessName":"com.android.htcdialer","Start":"1-12-2014 12:07:24","End":"1-12-2014 12:07:34"}}
{"Application":{"ProcessName":"com.android.nfc","Start":"1-12-2014 12:07:24","End":"1-12-2014 12:07:34"}}
{"Application":{"ProcessName":"com.lmi.vodafone.rescue","Start":"1-12-2014 12:09:51","End":"1-12-2014 12:10:16"}}
{"Application":{"ProcessName":"com.android.htcdialer","Start":"1-12-2014 12:09:51","End":"1-12-2014 12:10:16"}}
{"Application":{"ProcessName":"com.android.nfc","Start":"1-12-2014 12:09:51","End":"1-12-2014 12:10:16"}}
{"Application":{"ProcessName":"com.htc.task","Start":"1-12-2014 12:24:45","End":"1-12-2014 12:24:52"}}
{"Application":{"ProcessName":"com.lmi.vodafone.rescue","Start":"1-12-2014 12:24:42","End":"1-12-2014 12:24:55"}}
{"Application":{"ProcessName":"com.android.htcdialer","Start":"1-12-2014 12:24:42","End":"1-12-2014 12:24:55"}}
{"Application":{"ProcessName":"com.android.nfc","Start":"1-12-2014 12:24:42","End":"1-12-2014 12:24:55"}}
{"Application":{"ProcessName":"com.lmi.vodafone.rescue","Start":"1-12-2014 12:25:31","End":"1-12-2014 12:25:48"}}
{"Application":{"ProcessName":"com.android.htcdialer","Start":"1-12-2014 12:25:31","End":"1-12-2014 12:25:48"}}
{"Application":{"ProcessName":"com.android.nfc","Start":"1-12-2014 12:25:31","End":"1-12-2014 12:25:48"}}
{"Call": {"Number":"+98912418####","Duration":"429","Time":"1-12-2014 12:24:41","Type":"1"}}
{"Application":{"ProcessName":"com.lmi.vodafone.rescue","Start":"1-12-2014 12:32:00","End":"1-12-2014 12:32:18"}}
{"Application":{"ProcessName":"com.android.htcdialer","Start":"1-12-2014 12:32:00","End":"1-12-2014 12:32:18"}}
{"Application":{"ProcessName":"com.android.nfc","Start":"1-12-2014 12:32:00","End":"1-12-2014 12:32:18"}}
{"Application":{"ProcessName":"com.lmi.vodafone.rescue","Start":"1-12-2014 13:31:40","End":"1-12-2014 13:31:50"}}
{"Application":{"ProcessName":"com.android.htcdialer","Start":"1-12-2014 13:31:40","End":"1-12-2014 13:31:50"}}
{"Application":{"ProcessName":"com.android.nfc","Start":"1-12-2014 13:31:40","End":"1-12-2014 13:31:50"}}
{"Application":{"ProcessName":"com.lmi.vodafone.rescue","Start":"1-12-2014 13:50:01","End":"1-12-2014 13:50:21"}}
{"Application":{"ProcessName":"com.android.htcdialer","Start":"1-12-2014 13:50:01","End":"1-12-2014 13:50:21"}}
{"Application":{"ProcessName":"com.android.nfc","Start":"1-12-2014 13:50:01","End":"1-12-2014 13:50:21"}}
{"Application":{"ProcessName":"com.lmi.vodafone.rescue","Start":"1-12-2014 14:29:13","End":"1-12-2014 14:29:18"}}
{"Application":{"ProcessName":"com.android.htcdialer","Start":"1-12-2014 14:29:13","End":"1-12-2014 14:29:18"}}
{"Application":{"ProcessName":"com.android.nfc","Start":"1-12-2014 14:29:13","End":"1-12-2014 14:29:18"}}
{"Application":{"ProcessName":"info.androidz.horoscope","Start":"1-12-2014 14:30:41","End":"1-12-2014 14:30:44"}}
{"Application":{"ProcessName":"com.htc.musicenhancer:enhancerprovider","Start":"1-12-2014 14:30:51","End":"1-12-2014 14:31:55"}}
{"Application":{"ProcessName":"com.lmi.vodafone.rescue","Start":"1-12-2014 14:30:34","End":"1-12-2014 14:31:55"}}
{"Application":{"ProcessName":"com.android.htcdialer","Start":"1-12-2014 14:30:34","End":"1-12-2014 14:31:55"}}
{"Application":{"ProcessName":"com.android.nfc","Start":"1-12-2014 14:30:34","End":"1-12-2014 14:31:55"}}
{"Application":{"ProcessName":"com.htc.music","Start":"1-12-2014 14:30:44","End":"1-12-2014 14:31:55"}}
{"Application":{"ProcessName":"com.google.process.location","Start":"1-12-2014 14:36:06","End":"1-12-2014 14:36:12"}}
{"Application":{"ProcessName":"com.htc.calendar","Start":"1-12-2014 14:36:12","End":"1-12-2014 14:36:16"}}
{"Application":{"ProcessName":"com.htc.musicenhancer:enhancerprovider","Start":"1-12-2014 14:36:06","End":"1-12-2014 14:37:57"}}
{"Application":{"ProcessName":"com.lmi.vodafone.rescue","Start":"1-12-2014 14:36:06","End":"1-12-2014 14:37:57"}}
{"Application":{"ProcessName":"com.android.htcdialer","Start":"1-12-2014 14:36:06","End":"1-12-2014 14:37:57"}}
{"Application":{"ProcessName":"com.android.nfc","Start":"1-12-2014 14:36:06","End":"1-12-2014 14:37:57"}}
{"Application":{"ProcessName":"com.htc.music","Start":"1-12-2014 14:36:06","End":"1-12-2014 14:37:57"}}
{"Application":{"ProcessName":"com.htc.android.worldclock","Start":"1-12-2014 14:40:57","End":"1-12-2014 14:41:24"}}
{"Application":{"ProcessName":"com.lmi.vodafone.rescue","Start":"1-12-2014 14:40:53","End":"1-12-2014 14:41:28"}}
{"Application":{"ProcessName":"com.android.htcdialer","Start":"1-12-2014 14:40:53","End":"1-12-2014 14:41:28"}}
{"Application":{"ProcessName":"com.android.nfc","Start":"1-12-2014 14:40:53","End":"1-12-2014 14:41:28"}}
{"Application":{"ProcessName":"com.lmi.vodafone.rescue","Start":"1-12-2014 14:59:26","End":"1-12-2014 14:59:36"}}
{"Application":{"ProcessName":"com.htc.android.worldclock","Start":"1-12-2014 14:59:33","End":"1-12-2014 14:59:36"}}
{"Application":{"ProcessName":"com.android.htcdialer","Start":"1-12-2014 14:59:26","End":"1-12-2014 14:59:36"}}
{"Application":{"ProcessName":"com.android.nfc","Start":"1-12-2014 14:59:26","End":"1-12-2014 14:59:36"}}
{"WiFi":{"SSID":"ASUS","BSSID":"bc:ae:c5:a5:b4:c0","capabilities":"[WPA2-PSK-CCMP][ESS]","level":"-64","frequency":"2452","time":"Sunday, January 12, 2014 5:06:51 PM Iran Standard Time"}}
{"WiFi":{"SSID":"Golbarg","BSSID":"f4:ec:38:d5:d7:67","capabilities":"[WPA-PSK-TKIP+CCMP][WPA2-PSK-TKIP+CCMP][ESS]","level":"-79","frequency":"2462","time":"Sunday, January 12, 2014 5:06:51 PM Iran Standard Time"}}
{"WiFi":{"SSID":"vetmedia","BSSID":"00:26:5a:cc:4b:35","capabilities":"[WPS][WEP][ESS]","level":"-78","frequency":"2447","time":"Sunday, January 12, 2014 5:06:51 PM Iran Standard Time"}}
{"WiFi":{"SSID":"ali","BSSID":"84:c9:b2:36:d5:9d","capabilities":"[WPS][WEP][ESS]","level":"-93","frequency":"2412","time":"Sunday, January 12, 2014 5:06:51 PM Iran Standard Time"}}
{"WiFi":{"SSID":"ASUS","BSSID":"bc:ae:c5:a5:b4:c0","capabilities":"[WPA2-PSK-CCMP][ESS]","level":"-64","frequency":"2452","time":"Sunday, January 12, 2014 5:06:51 PM Iran Standard Time"}}
{"WiFi":{"SSID":"Golbarg","BSSID":"f4:ec:38:d5:d7:67","capabilities":"[WPA-PSK-TKIP+CCMP][WPA2-PSK-TKIP+CCMP][ESS]","level":"-79","frequency":"2462","time":"Sunday, January 12, 2014 5:06:51 PM Iran Standard Time"}}
{"WiFi":{"SSID":"vetmedia","BSSID":"00:26:5a:cc:4b:35","capabilities":"[WPS][WEP][ESS]","level":"-78","frequency":"2447","time":"Sunday, January 12, 2014 5:06:51 PM Iran Standard Time"}}
{"WiFi":{"SSID":"ali","BSSID":"84:c9:b2:36:d5:9d","capabilities":"[WPS][WEP][ESS]","level":"-93","frequency":"2412","time":"Sunday, January 12, 2014 5:06:51 PM Iran Standard Time"}}
{"Application":{"ProcessName":"com.android.settings","Start":"1-12-2014 17:06:44","End":"1-12-2014 17:06:54"}}
{"Application":{"ProcessName":"com.android.settings:remote","Start":"1-12-2014 17:06:47","End":"1-12-2014 17:06:54"}}
{"Application":{"ProcessName":"com.google.android.talk","Start":"1-12-2014 17:07:05","End":"1-12-2014 17:07:09"}}
{"Application":{"ProcessName":"com.tencent.mm","Start":"1-12-2014 17:07:09","End":"1-12-2014 17:07:15"}}
{"WiFi":{"SSID":"ASUS","BSSID":"bc:ae:c5:a5:b4:c0","capabilities":"[WPA2-PSK-CCMP][ESS]","level":"-64","frequency":"2452","time":"Sunday, January 12, 2014 5:07:51 PM Iran Standard Time"}}
{"WiFi":{"SSID":"Golbarg","BSSID":"f4:ec:38:d5:d7:67","capabilities":"[WPA-PSK-TKIP+CCMP][WPA2-PSK-TKIP+CCMP][ESS]","level":"-79","frequency":"2462","time":"Sunday, January 12, 2014 5:07:51 PM Iran Standard Time"}}
{"WiFi":{"SSID":"vetmedia","BSSID":"00:26:5a:cc:4b:35","capabilities":"[WPS][WEP][ESS]","level":"-78","frequency":"2447","time":"Sunday, January 12, 2014 5:07:51 PM Iran Standard Time"}}
{"WiFi":{"SSID":"ali","BSSID":"84:c9:b2:36:d5:9d","capabilities":"[WPS][WEP][ESS]","level":"-93","frequency":"2412","time":"Sunday, January 12, 2014 5:07:51 PM Iran Standard Time"}}
{"WiFi":{"SSID":"ASUS","BSSID":"bc:ae:c5:a5:b4:c0","capabilities":"[WPA2-PSK-CCMP][ESS]","level":"-64","frequency":"2452","time":"Sunday, January 12, 2014 5:07:51 PM Iran Standard Time"}}
{"WiFi":{"SSID":"Golbarg","BSSID":"f4:ec:38:d5:d7:67","capabilities":"[WPA-PSK-TKIP+CCMP][WPA2-PSK-TKIP+CCMP][ESS]","level":"-79","frequency":"2462","time":"Sunday, January 12, 2014 5:07:51 PM Iran Standard Time"}}
{"WiFi":{"SSID":"vetmedia","BSSID":"00:26:5a:cc:4b:35","capabilities":"[WPS][WEP][ESS]","level":"-78","frequency":"2447","time":"Sunday, January 12, 2014 5:07:51 PM Iran Standard Time"}}
{"WiFi":{"SSID":"ali","BSSID":"84:c9:b2:36:d5:9d","capabilities":"[WPS][WEP][ESS]","level":"-93","frequency":"2412","time":"Sunday, January 12, 2014 5:07:51 PM Iran Standard Time"}}
{"Application":{"ProcessName":"com.google.android.apps.plus","Start":"1-12-2014 17:08:30","End":"1-12-2014 17:08:35"}}
{"WiFi":{"SSID":"ASUS","BSSID":"bc:ae:c5:a5:b4:c0","capabilities":"[WPA2-PSK-CCMP][ESS]","level":"-64","frequency":"2452","time":"Sunday, January 12, 2014 5:08:51 PM Iran Standard Time"}}
{"WiFi":{"SSID":"Golbarg","BSSID":"f4:ec:38:d5:d7:67","capabilities":"[WPA-PSK-TKIP+CCMP][WPA2-PSK-TKIP+CCMP][ESS]","level":"-79","frequency":"2462","time":"Sunday, January 12, 2014 5:08:51 PM Iran Standard Time"}}
{"WiFi":{"SSID":"vetmedia","BSSID":"00:26:5a:cc:4b:35","capabilities":"[WPS][WEP][ESS]","level":"-78","frequency":"2447","time":"Sunday, January 12, 2014 5:08:51 PM Iran Standard Time"}}
{"WiFi":{"SSID":"ali","BSSID":"84:c9:b2:36:d5:9d","capabilities":"[WPS][WEP][ESS]","level":"-93","frequency":"2412","time":"Sunday, January 12, 2014 5:08:51 PM Iran Standard Time"}}
{"WiFi":{"SSID":"ASUS","BSSID":"bc:ae:c5:a5:b4:c0","capabilities":"[WPA2-PSK-CCMP][ESS]","level":"-64","frequency":"2452","time":"Sunday, January 12, 2014 5:08:51 PM Iran Standard Time"}}
{"WiFi":{"SSID":"Golbarg","BSSID":"f4:ec:38:d5:d7:67","capabilities":"[WPA-PSK-TKIP+CCMP][WPA2-PSK-TKIP+CCMP][ESS]","level":"-79","frequency":"2462","time":"Sunday, January 12, 2014 5:08:51 PM Iran Standard Time"}}
{"WiFi":{"SSID":"vetmedia","BSSID":"00:26:5a:cc:4b:35","capabilities":"[WPS][WEP][ESS]","level":"-78","frequency":"2447","time":"Sunday, January 12, 2014 5:08:51 PM Iran Standard Time"}}
{"WiFi":{"SSID":"ali","BSSID":"84:c9:b2:36:d5:9d","capabilities":"[WPS][WEP][ESS]","level":"-93","frequency":"2412","time":"Sunday, January 12, 2014 5:08:51 PM Iran Standard Time"}}
{"Application":{"ProcessName":"info.androidz.horoscope","Start":"1-12-2014 17:06:57","End":"1-12-2014 17:09:20"}}
{"Application":{"ProcessName":"com.android.settings","Start":"1-12-2014 17:09:26","End":"1-12-2014 17:09:30"}}
{"Application":{"ProcessName":"com.android.settings:remote","Start":"1-12-2014 17:09:30","End":"1-12-2014 17:09:39"}}
{"Application":{"ProcessName":"com.lmi.vodafone.rescue","Start":"1-12-2014 17:06:34","End":"1-12-2014 17:10:29"}}
{"Application":{"ProcessName":"com.android.htcdialer","Start":"1-12-2014 17:06:34","End":"1-12-2014 17:10:29"}}
{"Application":{"ProcessName":"com.android.nfc","Start":"1-12-2014 17:06:34","End":"1-12-2014 17:10:29"}}
{"Application":{"ProcessName":"com.lmi.vodafone.rescue","Start":"1-12-2014 17:20:28","End":"1-12-2014 17:20:38"}}
{"Application":{"ProcessName":"com.android.htcdialer","Start":"1-12-2014 17:20:28","End":"1-12-2014 17:20:38"}}
{"Application":{"ProcessName":"com.android.nfc","Start":"1-12-2014 17:20:28","End":"1-12-2014 17:20:38"}}
{"Application":{"ProcessName":"com.lmi.vodafone.rescue","Start":"1-12-2014 17:26:56","End":"1-12-2014 17:27:06"}}
{"Application":{"ProcessName":"com.android.htcdialer","Start":"1-12-2014 17:26:56","End":"1-12-2014 17:27:06"}}
{"Application":{"ProcessName":"com.android.nfc","Start":"1-12-2014 17:26:56","End":"1-12-2014 17:27:06"}}
{"Application":{"ProcessName":"com.lmi.vodafone.rescue","Start":"1-12-2014 17:34:18","End":"1-12-2014 17:34:36"}}
{"Application":{"ProcessName":"com.android.htcdialer","Start":"1-12-2014 17:34:18","End":"1-12-2014 17:34:36"}}
{"Application":{"ProcessName":"com.android.nfc","Start":"1-12-2014 17:34:18","End":"1-12-2014 17:34:36"}}
{"Application":{"ProcessName":"com.htc.calendar","Start":"1-12-2014 17:37:15","End":"1-12-2014 17:37:24"}}
{"Application":{"ProcessName":"com.android.mms","Start":"1-12-2014 17:37:35","End":"1-12-2014 17:37:46"}}
{"Application":{"ProcessName":"com.android.providers.telephony","Start":"1-12-2014 17:37:35","End":"1-12-2014 17:37:46"}}
{"Application":{"ProcessName":"com.lmi.vodafone.rescue","Start":"1-12-2014 17:37:14","End":"1-12-2014 17:37:57"}}
{"Application":{"ProcessName":"com.android.htcdialer","Start":"1-12-2014 17:37:14","End":"1-12-2014 17:37:57"}}
{"Application":{"ProcessName":"com.android.nfc","Start":"1-12-2014 17:37:14","End":"1-12-2014 17:37:57"}}
{"Call": {"Number":"+98919484####","Duration":"149","Time":"1-12-2014 17:37:49","Type":"2"}}
{"Application":{"ProcessName":"com.lmi.vodafone.rescue","Start":"1-12-2014 17:45:48","End":"1-12-2014 17:45:58"}}
{"Application":{"ProcessName":"com.android.htcdialer","Start":"1-12-2014 17:45:48","End":"1-12-2014 17:45:58"}}
{"Application":{"ProcessName":"com.android.nfc","Start":"1-12-2014 17:45:48","End":"1-12-2014 17:45:58"}}
{"Application":{"ProcessName":"com.lmi.vodafone.rescue","Start":"1-12-2014 18:17:18","End":"1-12-2014 18:17:28"}}
{"Application":{"ProcessName":"com.android.htcdialer","Start":"1-12-2014 18:17:18","End":"1-12-2014 18:17:28"}}
{"Application":{"ProcessName":"com.android.nfc","Start":"1-12-2014 18:17:18","End":"1-12-2014 18:17:28"}}
{"Application":{"ProcessName":"com.lmi.vodafone.rescue","Start":"1-12-2014 18:33:15","End":"1-12-2014 18:33:38"}}
{"Application":{"ProcessName":"com.android.htcdialer","Start":"1-12-2014 18:33:15","End":"1-12-2014 18:33:38"}}
{"Application":{"ProcessName":"com.android.nfc","Start":"1-12-2014 18:33:15","End":"1-12-2014 18:33:38"}}
{"Application":{"ProcessName":"com.lmi.vodafone.rescue","Start":"1-12-2014 19:41:33","End":"1-12-2014 19:41:43"}}
{"Application":{"ProcessName":"com.android.htcdialer","Start":"1-12-2014 19:41:33","End":"1-12-2014 19:41:43"}}
{"Application":{"ProcessName":"com.android.nfc","Start":"1-12-2014 19:41:33","End":"1-12-2014 19:41:43"}}
{"Application":{"ProcessName":"com.lmi.vodafone.rescue","Start":"1-12-2014 19:50:00","End":"1-12-2014 19:50:10"}}
{"Application":{"ProcessName":"com.android.htcdialer","Start":"1-12-2014 19:50:00","End":"1-12-2014 19:50:10"}}
{"Application":{"ProcessName":"com.android.nfc","Start":"1-12-2014 19:50:00","End":"1-12-2014 19:50:10"}}
{"Application":{"ProcessName":"com.lmi.vodafone.rescue","Start":"1-12-2014 19:50:56","End":"1-12-2014 19:51:17"}}
{"Application":{"ProcessName":"com.android.htcdialer","Start":"1-12-2014 19:50:56","End":"1-12-2014 19:51:17"}}
{"Application":{"ProcessName":"com.android.nfc","Start":"1-12-2014 19:50:56","End":"1-12-2014 19:51:17"}}
{"Application":{"ProcessName":"com.android.providers.telephony","Start":"1-12-2014 19:57:48","End":"1-12-2014 19:58:17"}}
{"Application":{"ProcessName":"com.android.mms","Start":"1-12-2014 19:57:48","End":"1-12-2014 19:58:27"}}
{"Application":{"ProcessName":"com.lmi.vodafone.rescue","Start":"1-12-2014 19:57:37","End":"1-12-2014 19:59:28"}}
{"Application":{"ProcessName":"com.android.htcdialer","Start":"1-12-2014 19:57:37","End":"1-12-2014 19:59:38"}}
{"Application":{"ProcessName":"com.android.nfc","Start":"1-12-2014 19:57:37","End":"1-12-2014 19:59:38"}}
{"Application":{"ProcessName":"com.htc.lockscreen","Start":"1-12-2014 19:59:28","End":"1-12-2014 19:59:38"}}
{"Call": {"Number":"0912402####","Duration":"484","Time":"1-12-2014 19:59:27","Type":"2"}}
{"Application":{"ProcessName":"com.lmi.vodafone.rescue","Start":"1-12-2014 20:40:49","End":"1-12-2014 20:40:50"}}
{"Application":{"ProcessName":"com.android.htcdialer","Start":"1-12-2014 20:40:49","End":"1-12-2014 20:40:50"}}
{"Application":{"ProcessName":"com.android.nfc","Start":"1-12-2014 20:40:49","End":"1-12-2014 20:40:50"}}
{"Application":{"ProcessName":"com.google.android.apps.maps:NetworkLocationService","Start":"1-12-2014 20:51:29","End":"1-12-2014 20:51:29"}}
{"Application":{"ProcessName":"com.htc.flexnet","Start":"1-12-2014 20:51:29","End":"1-12-2014 20:51:39"}}
{"Application":{"ProcessName":"com.lmi.vodafone.rescue","Start":"1-12-2014 20:51:29","End":"1-12-2014 20:51:54"}}
{"Application":{"ProcessName":"com.android.htcdialer","Start":"1-12-2014 20:51:29","End":"1-12-2014 20:51:54"}}
{"Application":{"ProcessName":"com.android.nfc","Start":"1-12-2014 20:51:29","End":"1-12-2014 20:51:54"}}
{"Application":{"ProcessName":"com.lmi.vodafone.rescue","Start":"1-12-2014 22:39:08","End":"1-12-2014 22:39:26"}}
{"Application":{"ProcessName":"com.android.htcdialer","Start":"1-12-2014 22:39:08","End":"1-12-2014 22:39:26"}}
{"Application":{"ProcessName":"com.android.nfc","Start":"1-12-2014 22:39:08","End":"1-12-2014 22:39:26"}}
{"Application":{"ProcessName":"com.htc.android.worldclock","Start":"1-12-2014 22:49:12","End":"1-12-2014 22:50:13"}}
{"Application":{"ProcessName":"com.lmi.vodafone.rescue","Start":"1-12-2014 22:49:02","End":"1-12-2014 22:50:23"}}
{"Application":{"ProcessName":"com.android.htcdialer","Start":"1-12-2014 22:49:02","End":"1-12-2014 22:50:23"}}
{"Application":{"ProcessName":"com.android.nfc","Start":"1-12-2014 22:49:02","End":"1-12-2014 22:50:23"}}
{"Application":{"ProcessName":"com.htc.music:mediaplaybackservice","Start":"1-12-2014 22:53:19","End":"1-12-2014 22:53:21"}}
{"Application":{"ProcessName":"com.htc.bgp","Start":"1-12-2014 22:53:19","End":"1-12-2014 22:53:21"}}
{"Application":{"ProcessName":"com.htc.calendar","Start":"1-12-2014 22:53:21","End":"1-12-2014 22:53:29"}}
{"Application":{"ProcessName":"com.htc.musicenhancer:enhancerprovider","Start":"1-12-2014 22:53:29","End":"1-12-2014 22:54:10"}}
{"Application":{"ProcessName":"com.htc.music","Start":"1-12-2014 22:53:19","End":"1-12-2014 22:54:10"}}
{"Application":{"ProcessName":"com.htc.musicenhancer:enhancerprovider","Start":"1-12-2014 22:54:40","End":"1-12-2014 22:55:30"}}
{"Application":{"ProcessName":"com.htc.music","Start":"1-12-2014 22:54:40","End":"1-12-2014 22:55:30"}}
{"Application":{"ProcessName":"com.htc.bgp","Start":"1-12-2014 22:55:41","End":"1-12-2014 22:55:42"}}
{"Application":{"ProcessName":"com.android.providers.telephony","Start":"1-12-2014 22:57:41","End":"1-12-2014 22:58:01"}}
{"Application":{"ProcessName":"com.lmi.vodafone.rescue","Start":"1-12-2014 22:53:19","End":"1-12-2014 22:58:21"}}
{"Application":{"ProcessName":"com.android.htcdialer","Start":"1-12-2014 22:53:19","End":"1-12-2014 22:58:21"}}
{"Application":{"ProcessName":"com.android.nfc","Start":"1-12-2014 22:53:19","End":"1-12-2014 22:58:21"}}
{"Application":{"ProcessName":"com.htc.album","Start":"1-12-2014 22:55:32","End":"1-12-2014 22:58:21"}}
{"Application":{"ProcessName":"com.htc.android.worldclock","Start":"1-12-2014 22:59:21","End":"1-12-2014 22:59:31"}}
{"Application":{"ProcessName":"com.htc.android.worldclock","Start":"1-12-2014 22:59:41","End":"1-12-2014 23:01:52"}}
{"Application":{"ProcessName":"com.lmi.vodafone.rescue","Start":"1-12-2014 22:59:21","End":"1-12-2014 23:02:12"}}
{"Application":{"ProcessName":"com.android.htcdialer","Start":"1-12-2014 22:59:21","End":"1-12-2014 23:02:12"}}
{"Application":{"ProcessName":"com.android.nfc","Start":"1-12-2014 22:59:21","End":"1-12-2014 23:02:12"}}
{"Application":{"ProcessName":"com.htc.calendar","Start":"1-12-2014 23:02:03","End":"1-12-2014 23:02:12"}}
