{"Application":{"ProcessName":"com.android.settings:remote","Start":"1-14-2014 23:00:59","End":"1-14-2014 23:00:59"}}
{"Application":{"ProcessName":"com.htc.musicenhancer:enhancerprovider","Start":"1-14-2014 23:00:59","End":"1-14-2014 23:01:39"}}
{"Application":{"ProcessName":"com.lmi.vodafone.rescue","Start":"1-14-2014 23:00:59","End":"1-14-2014 23:01:39"}}
{"Application":{"ProcessName":"com.android.htcdialer","Start":"1-14-2014 23:00:59","End":"1-14-2014 23:01:39"}}
{"Application":{"ProcessName":"com.android.nfc","Start":"1-14-2014 23:00:59","End":"1-14-2014 23:01:39"}}
{"Application":{"ProcessName":"com.htc.music","Start":"1-14-2014 23:00:59","End":"1-14-2014 23:01:39"}}
{"Application":{"ProcessName":"com.htc.musicenhancer:enhancerprovider","Start":"1-14-2014 23:05:00","End":"1-14-2014 23:05:20"}}
{"Application":{"ProcessName":"com.lmi.vodafone.rescue","Start":"1-14-2014 23:05:00","End":"1-14-2014 23:05:20"}}
{"Application":{"ProcessName":"com.android.htcdialer","Start":"1-14-2014 23:05:00","End":"1-14-2014 23:05:20"}}
{"Application":{"ProcessName":"com.android.nfc","Start":"1-14-2014 23:05:00","End":"1-14-2014 23:05:20"}}
{"Application":{"ProcessName":"com.htc.music","Start":"1-14-2014 23:05:00","End":"1-14-2014 23:05:20"}}
{"Application":{"ProcessName":"com.android.htccontacts","Start":"1-14-2014 23:08:41","End":"1-14-2014 23:08:41"}}
{"Application":{"ProcessName":"com.htc.musicenhancer:enhancerprovider","Start":"1-14-2014 23:08:41","End":"1-14-2014 23:08:51"}}
{"Application":{"ProcessName":"com.htc.music","Start":"1-14-2014 23:08:41","End":"1-14-2014 23:08:51"}}
{"Application":{"ProcessName":"com.htc.android.worldclock","Start":"1-14-2014 23:09:01","End":"1-14-2014 23:09:21"}}
{"Application":{"ProcessName":"com.lmi.vodafone.rescue","Start":"1-14-2014 23:08:41","End":"1-14-2014 23:09:57"}}
{"Application":{"ProcessName":"com.android.htcdialer","Start":"1-14-2014 23:08:41","End":"1-14-2014 23:09:57"}}
{"Application":{"ProcessName":"com.android.nfc","Start":"1-14-2014 23:08:41","End":"1-14-2014 23:09:57"}}
{"Application":{"ProcessName":"com.lmi.vodafone.rescue","Start":"1-15-2014 06:47:12","End":"1-15-2014 06:47:23"}}
{"Application":{"ProcessName":"com.android.htcdialer","Start":"1-15-2014 06:47:12","End":"1-15-2014 06:47:23"}}
{"Application":{"ProcessName":"com.android.nfc","Start":"1-15-2014 06:47:12","End":"1-15-2014 06:47:23"}}
{"Application":{"ProcessName":"com.android.settings:remote","Start":"1-15-2014 06:47:12","End":"1-15-2014 06:47:23"}}
{"Application":{"ProcessName":"com.htc.android.worldclock","Start":"1-15-2014 07:00:04","End":"1-15-2014 07:00:10"}}
{"Application":{"ProcessName":"com.htc.android.worldclock","Start":"1-15-2014 07:00:20","End":"1-15-2014 07:00:24"}}
{"Application":{"ProcessName":"com.lmi.vodafone.rescue","Start":"1-15-2014 07:00:04","End":"1-15-2014 07:01:24"}}
{"Application":{"ProcessName":"com.android.htcdialer","Start":"1-15-2014 07:00:04","End":"1-15-2014 07:01:24"}}
{"Application":{"ProcessName":"com.android.nfc","Start":"1-15-2014 07:00:04","End":"1-15-2014 07:01:24"}}
{"Application":{"ProcessName":"com.lmi.vodafone.rescue","Start":"1-15-2014 08:02:09","End":"1-15-2014 08:02:20"}}
{"Application":{"ProcessName":"com.android.htcdialer","Start":"1-15-2014 08:02:09","End":"1-15-2014 08:02:20"}}
{"Application":{"ProcessName":"com.android.nfc","Start":"1-15-2014 08:02:09","End":"1-15-2014 08:02:20"}}
{"Application":{"ProcessName":"com.lmi.vodafone.rescue","Start":"1-15-2014 08:08:13","End":"1-15-2014 08:08:32"}}
{"Application":{"ProcessName":"com.android.htcdialer","Start":"1-15-2014 08:08:13","End":"1-15-2014 08:08:32"}}
{"Application":{"ProcessName":"com.android.nfc","Start":"1-15-2014 08:08:13","End":"1-15-2014 08:08:32"}}
{"Application":{"ProcessName":"com.tencent.mm","Start":"1-15-2014 08:09:05","End":"1-15-2014 08:09:11"}}
{"Application":{"ProcessName":"com.htc.calendar","Start":"1-15-2014 08:09:05","End":"1-15-2014 08:09:11"}}
{"Application":{"ProcessName":"com.htc.HtcBeatsNotify","Start":"1-15-2014 08:09:11","End":"1-15-2014 08:09:16"}}
{"Application":{"ProcessName":"com.lmi.vodafone.rescue","Start":"1-15-2014 08:09:00","End":"1-15-2014 08:09:26"}}
{"Application":{"ProcessName":"com.android.htcdialer","Start":"1-15-2014 08:09:00","End":"1-15-2014 08:09:26"}}
{"Application":{"ProcessName":"com.android.nfc","Start":"1-15-2014 08:09:00","End":"1-15-2014 08:09:26"}}
{"Application":{"ProcessName":"com.htc.music","Start":"1-15-2014 08:09:05","End":"1-15-2014 08:09:26"}}
{"Application":{"ProcessName":"com.htc.weather.bg","Start":"1-15-2014 08:12:32","End":"1-15-2014 08:12:36"}}
{"Application":{"ProcessName":"com.lmi.vodafone.rescue","Start":"1-15-2014 08:12:32","End":"1-15-2014 08:12:36"}}
{"Application":{"ProcessName":"com.android.htcdialer","Start":"1-15-2014 08:12:32","End":"1-15-2014 08:12:36"}}
{"Application":{"ProcessName":"com.android.nfc","Start":"1-15-2014 08:12:32","End":"1-15-2014 08:12:36"}}
{"Application":{"ProcessName":"com.htc.music","Start":"1-15-2014 08:12:32","End":"1-15-2014 08:12:36"}}
{"Application":{"ProcessName":"com.htc.musicenhancer:enhancerprovider","Start":"1-15-2014 08:16:03","End":"1-15-2014 08:16:38"}}
{"Application":{"ProcessName":"com.lmi.vodafone.rescue","Start":"1-15-2014 08:15:53","End":"1-15-2014 08:16:38"}}
{"Application":{"ProcessName":"com.android.htcdialer","Start":"1-15-2014 08:15:53","End":"1-15-2014 08:16:38"}}
{"Application":{"ProcessName":"com.android.nfc","Start":"1-15-2014 08:15:53","End":"1-15-2014 08:16:38"}}
{"Application":{"ProcessName":"com.htc.music","Start":"1-15-2014 08:15:53","End":"1-15-2014 08:16:38"}}
{"Application":{"ProcessName":"com.android.htcdialer","Start":"1-15-2014 08:17:44","End":"1-15-2014 08:18:15"}}
{"Application":{"ProcessName":"com.htc.bgp","Start":"1-15-2014 08:17:44","End":"1-15-2014 08:18:15"}}
{"Application":{"ProcessName":"com.android.providers.telephony","Start":"1-15-2014 08:26:13","End":"1-15-2014 08:26:43"}}
{"Application":{"ProcessName":"com.android.mms","Start":"1-15-2014 08:26:13","End":"1-15-2014 08:27:04"}}
{"SMS":{"Address":"091948####","type":"2","date":"1-15-2014 08:27:03","body":"ANONYMIZED","Type":"2", "metadata": {"name": ""}}}
{"SMS":{"Address":"+98933907####","type":"2","date":"1-15-2014 08:28:01","body":"ANONYMIZED","Type":"2", "metadata": {"name": "Pegah"}}}
{"Application":{"ProcessName":"com.android.mms","Start":"1-15-2014 08:27:55","End":"1-15-2014 08:28:25"}}
{"Application":{"ProcessName":"com.android.providers.telephony","Start":"1-15-2014 08:27:55","End":"1-15-2014 08:28:25"}}
{"SMS":{"Address":"+98933907####","type":"1","date":"1-15-2014 08:28:52","body":"ANONYMIZED","Type":"1", "metadata": {"name": "Pegah"}}}
{"Application":{"ProcessName":"com.android.mms","Start":"1-15-2014 08:28:55","End":"1-15-2014 08:29:09"}}
{"Application":{"ProcessName":"com.android.providers.telephony","Start":"1-15-2014 08:28:55","End":"1-15-2014 08:29:09"}}
{"Application":{"ProcessName":"com.lmi.vodafone.rescue","Start":"1-15-2014 08:26:02","End":"1-15-2014 08:29:09"}}
{"Application":{"ProcessName":"com.android.htcdialer","Start":"1-15-2014 08:26:02","End":"1-15-2014 08:29:09"}}
{"Application":{"ProcessName":"com.android.nfc","Start":"1-15-2014 08:26:02","End":"1-15-2014 08:29:09"}}
{"SMS":{"Address":"+98933907####","type":"2","date":"1-15-2014 08:38:20","body":"ANONYMIZED","Type":"2", "metadata": {"name": "Pegah"}}}
{"Application":{"ProcessName":"com.tencent.mm:push","Start":"1-15-2014 08:38:36","End":"1-15-2014 08:38:36"}}
{"Application":{"ProcessName":"com.android.mms","Start":"1-15-2014 08:38:05","End":"1-15-2014 08:38:56"}}
{"Application":{"ProcessName":"com.android.providers.telephony","Start":"1-15-2014 08:38:05","End":"1-15-2014 08:38:56"}}
{"Application":{"ProcessName":"com.lmi.vodafone.rescue","Start":"1-15-2014 08:38:05","End":"1-15-2014 08:38:56"}}
{"Application":{"ProcessName":"com.android.htcdialer","Start":"1-15-2014 08:38:05","End":"1-15-2014 08:38:56"}}
{"Application":{"ProcessName":"com.android.nfc","Start":"1-15-2014 08:38:05","End":"1-15-2014 08:38:56"}}
{"Application":{"ProcessName":"com.android.mms","Start":"1-15-2014 08:51:03","End":"1-15-2014 08:51:33"}}
{"Application":{"ProcessName":"com.android.providers.telephony","Start":"1-15-2014 08:51:03","End":"1-15-2014 08:51:33"}}
{"Application":{"ProcessName":"com.lmi.vodafone.rescue","Start":"1-15-2014 08:51:03","End":"1-15-2014 08:51:33"}}
{"Application":{"ProcessName":"com.android.htcdialer","Start":"1-15-2014 08:51:03","End":"1-15-2014 08:51:33"}}
{"Application":{"ProcessName":"com.android.nfc","Start":"1-15-2014 08:51:03","End":"1-15-2014 08:51:33"}}
{"WiFi":{"SSID":"fani","BSSID":"00:20:a6:cb:d2:62","capabilities":"[ESS]","level":"-81","frequency":"2412","time":"Wednesday, January 15, 2014 8:57:07 AM Iran Standard Time"}}
{"WiFi":{"SSID":"fani","BSSID":"00:20:a6:cb:d2:62","capabilities":"[ESS]","level":"-81","frequency":"2412","time":"Wednesday, January 15, 2014 8:57:07 AM Iran Standard Time"}}
{"WiFi":{"SSID":"fani","BSSID":"00:20:a6:cb:d2:62","capabilities":"[ESS]","level":"-85","frequency":"2412","time":"Wednesday, January 15, 2014 8:58:07 AM Iran Standard Time"}}
{"WiFi":{"SSID":"fani","BSSID":"00:20:a6:cb:d2:62","capabilities":"[ESS]","level":"-85","frequency":"2412","time":"Wednesday, January 15, 2014 8:58:07 AM Iran Standard Time"}}
{"Application":{"ProcessName":"com.lmi.vodafone.rescue","Start":"1-15-2014 08:56:40","End":"1-15-2014 08:58:30"}}
{"Application":{"ProcessName":"com.android.htcdialer","Start":"1-15-2014 08:56:40","End":"1-15-2014 08:58:30"}}
{"Application":{"ProcessName":"com.android.settings","Start":"1-15-2014 08:56:40","End":"1-15-2014 08:58:30"}}
{"Application":{"ProcessName":"com.android.nfc","Start":"1-15-2014 08:56:40","End":"1-15-2014 08:58:30"}}
{"WiFi":{"SSID":"fani","BSSID":"00:20:a6:cb:d2:62","capabilities":"[ESS]","level":"-91","frequency":"2412","time":"Wednesday, January 15, 2014 8:59:07 AM Iran Standard Time"}}
{"WiFi":{"SSID":"test","BSSID":"00:1c:f0:8e:cf:79","capabilities":"[WPA2-PSK-TKIP+CCMP-preauth][ESS]","level":"-88","frequency":"2472","time":"Wednesday, January 15, 2014 8:59:07 AM Iran Standard Time"}}
{"WiFi":{"SSID":"fani","BSSID":"00:20:a6:cb:d2:62","capabilities":"[ESS]","level":"-91","frequency":"2412","time":"Wednesday, January 15, 2014 8:59:07 AM Iran Standard Time"}}
{"WiFi":{"SSID":"test","BSSID":"00:1c:f0:8e:cf:79","capabilities":"[WPA2-PSK-TKIP+CCMP-preauth][ESS]","level":"-88","frequency":"2472","time":"Wednesday, January 15, 2014 8:59:07 AM Iran Standard Time"}}
{"WiFi":{"SSID":"fani","BSSID":"00:20:a6:cb:d2:62","capabilities":"[ESS]","level":"-82","frequency":"2412","time":"Wednesday, January 15, 2014 9:00:07 AM Iran Standard Time"}}
{"WiFi":{"SSID":"fani","BSSID":"00:20:a6:cb:d2:62","capabilities":"[ESS]","level":"-82","frequency":"2412","time":"Wednesday, January 15, 2014 9:00:07 AM Iran Standard Time"}}
{"WiFi":{"SSID":"fani","BSSID":"00:20:a6:cb:d2:62","capabilities":"[ESS]","level":"-80","frequency":"2412","time":"Wednesday, January 15, 2014 9:01:21 AM Iran Standard Time"}}
{"WiFi":{"SSID":"fani","BSSID":"00:20:a6:cb:d2:62","capabilities":"[ESS]","level":"-80","frequency":"2412","time":"Wednesday, January 15, 2014 9:01:21 AM Iran Standard Time"}}
{"WiFi":{"SSID":"fani","BSSID":"00:20:a6:cb:d2:62","capabilities":"[ESS]","level":"-92","frequency":"2412","time":"Wednesday, January 15, 2014 9:02:40 AM Iran Standard Time"}}
{"WiFi":{"SSID":"fani","BSSID":"00:20:a6:cb:d2:62","capabilities":"[ESS]","level":"-92","frequency":"2412","time":"Wednesday, January 15, 2014 9:02:40 AM Iran Standard Time"}}
{"WiFi":{"SSID":"fani","BSSID":"00:20:a6:cb:d2:62","capabilities":"[ESS]","level":"-83","frequency":"2412","time":"Wednesday, January 15, 2014 9:03:48 AM Iran Standard Time"}}
{"WiFi":{"SSID":"fani","BSSID":"00:20:a6:cb:d2:62","capabilities":"[ESS]","level":"-83","frequency":"2412","time":"Wednesday, January 15, 2014 9:03:48 AM Iran Standard Time"}}
{"WiFi":{"SSID":"fani","BSSID":"00:20:a6:cb:d2:62","capabilities":"[ESS]","level":"-78","frequency":"2412","time":"Wednesday, January 15, 2014 9:04:48 AM Iran Standard Time"}}
{"WiFi":{"SSID":"fani","BSSID":"00:20:a6:cb:d2:62","capabilities":"[ESS]","level":"-78","frequency":"2412","time":"Wednesday, January 15, 2014 9:04:48 AM Iran Standard Time"}}
{"WiFi":{"SSID":"fani","BSSID":"00:20:a6:cb:d2:62","capabilities":"[ESS]","level":"-81","frequency":"2412","time":"Wednesday, January 15, 2014 9:05:48 AM Iran Standard Time"}}
{"WiFi":{"SSID":"fani","BSSID":"00:20:a6:cb:d2:62","capabilities":"[ESS]","level":"-81","frequency":"2412","time":"Wednesday, January 15, 2014 9:05:48 AM Iran Standard Time"}}
{"WiFi":{"SSID":"fani","BSSID":"00:20:a6:cb:d2:62","capabilities":"[ESS]","level":"-80","frequency":"2412","time":"Wednesday, January 15, 2014 9:06:48 AM Iran Standard Time"}}
{"WiFi":{"SSID":"fani","BSSID":"00:20:a6:cb:d2:62","capabilities":"[ESS]","level":"-80","frequency":"2412","time":"Wednesday, January 15, 2014 9:06:48 AM Iran Standard Time"}}
{"WiFi":{"SSID":"fani","BSSID":"00:20:a6:cb:d2:62","capabilities":"[ESS]","level":"-84","frequency":"2412","time":"Wednesday, January 15, 2014 9:07:48 AM Iran Standard Time"}}
{"WiFi":{"SSID":"fani","BSSID":"00:20:a6:cb:d2:62","capabilities":"[ESS]","level":"-84","frequency":"2412","time":"Wednesday, January 15, 2014 9:07:48 AM Iran Standard Time"}}
{"WiFi":{"SSID":"fani","BSSID":"00:20:a6:cb:d2:62","capabilities":"[ESS]","level":"-82","frequency":"2412","time":"Wednesday, January 15, 2014 9:08:48 AM Iran Standard Time"}}
{"WiFi":{"SSID":"fani","BSSID":"00:20:a6:cb:d2:62","capabilities":"[ESS]","level":"-82","frequency":"2412","time":"Wednesday, January 15, 2014 9:08:48 AM Iran Standard Time"}}
{"WiFi":{"SSID":"fani","BSSID":"00:20:a6:cb:d2:62","capabilities":"[ESS]","level":"-79","frequency":"2412","time":"Wednesday, January 15, 2014 9:09:48 AM Iran Standard Time"}}
{"WiFi":{"SSID":"fani","BSSID":"00:20:a6:cb:d2:62","capabilities":"[ESS]","level":"-79","frequency":"2412","time":"Wednesday, January 15, 2014 9:09:48 AM Iran Standard Time"}}
{"Application":{"ProcessName":"com.android.settings:remote","Start":"1-15-2014 09:10:07","End":"1-15-2014 09:10:13"}}
{"Application":{"ProcessName":"com.tencent.mm","Start":"1-15-2014 09:10:13","End":"1-15-2014 09:10:19"}}
{"Application":{"ProcessName":"com.android.settings","Start":"1-15-2014 09:10:07","End":"1-15-2014 09:10:19"}}
{"Application":{"ProcessName":"com.android.settings:remote","Start":"1-15-2014 09:10:19","End":"1-15-2014 09:10:23"}}
{"Application":{"ProcessName":"com.google.android.apps.plus","Start":"1-15-2014 09:10:23","End":"1-15-2014 09:10:29"}}
{"Application":{"ProcessName":"com.lmi.vodafone.rescue","Start":"1-15-2014 09:10:07","End":"1-15-2014 09:10:59"}}
{"Application":{"ProcessName":"com.android.htcdialer","Start":"1-15-2014 09:10:07","End":"1-15-2014 09:10:59"}}
{"Application":{"ProcessName":"com.android.nfc","Start":"1-15-2014 09:10:07","End":"1-15-2014 09:10:59"}}
{"Application":{"ProcessName":"com.lmi.vodafone.rescue","Start":"1-15-2014 09:46:03","End":"1-15-2014 09:46:17"}}
{"Application":{"ProcessName":"com.android.htcdialer","Start":"1-15-2014 09:46:03","End":"1-15-2014 09:46:17"}}
{"Application":{"ProcessName":"com.android.nfc","Start":"1-15-2014 09:46:03","End":"1-15-2014 09:46:17"}}
{"Application":{"ProcessName":"com.lmi.vodafone.rescue","Start":"1-15-2014 10:01:42","End":"1-15-2014 10:01:54"}}
{"Application":{"ProcessName":"com.android.htcdialer","Start":"1-15-2014 10:01:42","End":"1-15-2014 10:01:54"}}
{"Application":{"ProcessName":"com.android.nfc","Start":"1-15-2014 10:01:42","End":"1-15-2014 10:01:54"}}
{"Application":{"ProcessName":"com.lmi.vodafone.rescue","Start":"1-15-2014 10:07:19","End":"1-15-2014 10:07:32"}}
{"Application":{"ProcessName":"com.android.htcdialer","Start":"1-15-2014 10:07:19","End":"1-15-2014 10:07:32"}}
{"Application":{"ProcessName":"com.android.nfc","Start":"1-15-2014 10:07:19","End":"1-15-2014 10:07:32"}}
{"Application":{"ProcessName":"com.lmi.vodafone.rescue","Start":"1-15-2014 10:23:53","End":"1-15-2014 10:24:16"}}
{"Application":{"ProcessName":"com.android.htcdialer","Start":"1-15-2014 10:23:53","End":"1-15-2014 10:24:16"}}
{"Application":{"ProcessName":"com.android.nfc","Start":"1-15-2014 10:23:53","End":"1-15-2014 10:24:16"}}
{"Application":{"ProcessName":"com.lmi.vodafone.rescue","Start":"1-15-2014 11:00:23","End":"1-15-2014 11:00:51"}}
{"Application":{"ProcessName":"com.android.htcdialer","Start":"1-15-2014 11:00:23","End":"1-15-2014 11:00:51"}}
{"Application":{"ProcessName":"com.android.nfc","Start":"1-15-2014 11:00:23","End":"1-15-2014 11:00:51"}}
{"Application":{"ProcessName":"com.lmi.vodafone.rescue","Start":"1-15-2014 11:19:43","End":"1-15-2014 11:19:45"}}
{"Application":{"ProcessName":"com.android.htcdialer","Start":"1-15-2014 11:19:43","End":"1-15-2014 11:19:45"}}
{"Application":{"ProcessName":"com.android.nfc","Start":"1-15-2014 11:19:43","End":"1-15-2014 11:19:45"}}
{"SMS":{"Address":"+9820####","type":"1","date":"1-15-2014 11:19:18","body":"ANONYMIZED","Type":"1", "metadata": {"name": ""}}}
{"Application":{"ProcessName":"com.htc.bgp","Start":"1-15-2014 11:30:54","End":"1-15-2014 11:31:02"}}
{"Application":{"ProcessName":"com.android.mms","Start":"1-15-2014 11:31:02","End":"1-15-2014 11:31:04"}}
{"Application":{"ProcessName":"com.android.providers.telephony","Start":"1-15-2014 11:31:02","End":"1-15-2014 11:31:04"}}
{"Application":{"ProcessName":"com.lmi.vodafone.rescue","Start":"1-15-2014 11:30:52","End":"1-15-2014 11:31:12"}}
{"Application":{"ProcessName":"com.android.htcdialer","Start":"1-15-2014 11:30:52","End":"1-15-2014 11:31:12"}}
{"Application":{"ProcessName":"com.android.nfc","Start":"1-15-2014 11:30:52","End":"1-15-2014 11:31:12"}}
{"Application":{"ProcessName":"com.android.providers.telephony","Start":"1-15-2014 11:35:04","End":"1-15-2014 11:35:07"}}
{"SMS":{"Address":"0912813####","type":"2","date":"1-15-2014 11:35:58","body":"ANONYMIZED","Type":"2", "metadata": {"name": "Mona"}}}
{"SMS":{"Address":"+98930275####","type":"2","date":"1-15-2014 11:36:13","body":"ANONYMIZED","Type":"2", "metadata": {"name": "Shima"}}}
{"Application":{"ProcessName":"com.android.mms","Start":"1-15-2014 11:35:04","End":"1-15-2014 11:36:26"}}
{"Application":{"ProcessName":"com.android.providers.telephony","Start":"1-15-2014 11:36:05","End":"1-15-2014 11:36:26"}}
{"Application":{"ProcessName":"com.lmi.vodafone.rescue","Start":"1-15-2014 11:34:57","End":"1-15-2014 11:36:26"}}
{"Application":{"ProcessName":"com.android.htcdialer","Start":"1-15-2014 11:34:57","End":"1-15-2014 11:36:26"}}
{"Application":{"ProcessName":"com.android.nfc","Start":"1-15-2014 11:34:57","End":"1-15-2014 11:36:26"}}
{"Application":{"ProcessName":"com.lmi.vodafone.rescue","Start":"1-15-2014 11:37:16","End":"1-15-2014 11:37:41"}}
{"Application":{"ProcessName":"com.android.htcdialer","Start":"1-15-2014 11:37:16","End":"1-15-2014 11:37:41"}}
{"Application":{"ProcessName":"com.android.nfc","Start":"1-15-2014 11:37:16","End":"1-15-2014 11:37:41"}}
{"Application":{"ProcessName":"com.android.mms","Start":"1-15-2014 11:38:36","End":"1-15-2014 11:38:44"}}
{"Application":{"ProcessName":"com.android.providers.telephony","Start":"1-15-2014 11:38:36","End":"1-15-2014 11:38:44"}}
{"Application":{"ProcessName":"com.lmi.vodafone.rescue","Start":"1-15-2014 11:38:34","End":"1-15-2014 11:39:10"}}
{"Application":{"ProcessName":"com.android.htcdialer","Start":"1-15-2014 11:38:34","End":"1-15-2014 11:39:10"}}
{"Application":{"ProcessName":"com.android.nfc","Start":"1-15-2014 11:38:34","End":"1-15-2014 11:39:10"}}
{"Application":{"ProcessName":"com.lmi.vodafone.rescue","Start":"1-15-2014 11:58:12","End":"1-15-2014 11:58:22"}}
{"Application":{"ProcessName":"com.android.htcdialer","Start":"1-15-2014 11:58:12","End":"1-15-2014 11:58:22"}}
{"Application":{"ProcessName":"com.android.nfc","Start":"1-15-2014 11:58:12","End":"1-15-2014 11:58:22"}}
{"Call": {"Number":"+98212206####","Duration":"2","Time":"1-15-2014 11:58:19","Type":"2"}}
{"Call": {"Number":"+98212206####","Duration":"0","Time":"1-15-2014 11:58:52","Type":"2"}}
{"Application":{"ProcessName":"com.lmi.vodafone.rescue","Start":"1-15-2014 11:58:52","End":"1-15-2014 11:59:02"}}
{"Application":{"ProcessName":"com.android.htcdialer","Start":"1-15-2014 11:58:52","End":"1-15-2014 11:59:02"}}
{"Application":{"ProcessName":"com.android.nfc","Start":"1-15-2014 11:58:52","End":"1-15-2014 11:59:02"}}
{"Application":{"ProcessName":"com.lmi.vodafone.rescue","Start":"1-15-2014 11:59:43","End":"1-15-2014 11:59:45"}}
{"Application":{"ProcessName":"com.android.htcdialer","Start":"1-15-2014 11:59:43","End":"1-15-2014 11:59:45"}}
{"Application":{"ProcessName":"com.android.nfc","Start":"1-15-2014 11:59:43","End":"1-15-2014 11:59:45"}}
{"Application":{"ProcessName":"com.android.settings","Start":"1-15-2014 11:59:43","End":"1-15-2014 11:59:45"}}
{"Call": {"Number":"+98912604####","Duration":"29","Time":"1-15-2014 11:58:58","Type":"2"}}
{"Application":{"ProcessName":"com.lmi.vodafone.rescue","Start":"1-15-2014 12:01:56","End":"1-15-2014 12:02:30"}}
{"Application":{"ProcessName":"com.android.htcdialer","Start":"1-15-2014 12:01:56","End":"1-15-2014 12:02:30"}}
{"Application":{"ProcessName":"com.android.nfc","Start":"1-15-2014 12:01:56","End":"1-15-2014 12:02:30"}}
{"SMS":{"Address":"+98919426####","type":"2","date":"1-15-2014 12:06:51","body":"ANONYMIZED","Type":"2", "metadata": {"name": "Zahra"}}}
{"Application":{"ProcessName":"com.android.settings","Start":"1-15-2014 12:06:55","End":"1-15-2014 12:06:56"}}
{"Application":{"ProcessName":"com.android.mms","Start":"1-15-2014 12:06:35","End":"1-15-2014 12:07:06"}}
{"Application":{"ProcessName":"com.android.providers.telephony","Start":"1-15-2014 12:06:55","End":"1-15-2014 12:07:06"}}
{"Application":{"ProcessName":"com.lmi.vodafone.rescue","Start":"1-15-2014 12:06:25","End":"1-15-2014 12:08:31"}}
{"Application":{"ProcessName":"com.android.htcdialer","Start":"1-15-2014 12:06:25","End":"1-15-2014 12:08:31"}}
{"Application":{"ProcessName":"com.android.nfc","Start":"1-15-2014 12:06:25","End":"1-15-2014 12:08:31"}}
{"Application":{"ProcessName":"com.lmi.vodafone.rescue","Start":"1-15-2014 12:21:52","End":"1-15-2014 12:22:02"}}
{"Application":{"ProcessName":"com.android.htcdialer","Start":"1-15-2014 12:21:52","End":"1-15-2014 12:22:02"}}
{"Application":{"ProcessName":"com.android.nfc","Start":"1-15-2014 12:21:52","End":"1-15-2014 12:22:02"}}
{"SMS":{"Address":"+98930275####","type":"1","date":"1-15-2014 12:24:56","body":"ANONYMIZED","Type":"1", "metadata": {"name": "Shima"}}}
{"Application":{"ProcessName":"com.htc.bgp","Start":"1-15-2014 12:26:19","End":"1-15-2014 12:26:28"}}
{"Application":{"ProcessName":"com.android.mms","Start":"1-15-2014 12:26:28","End":"1-15-2014 12:26:44"}}
{"Application":{"ProcessName":"com.lmi.vodafone.rescue","Start":"1-15-2014 12:26:18","End":"1-15-2014 12:26:44"}}
{"Application":{"ProcessName":"com.android.htcdialer","Start":"1-15-2014 12:26:18","End":"1-15-2014 12:26:44"}}
{"Application":{"ProcessName":"com.android.nfc","Start":"1-15-2014 12:26:18","End":"1-15-2014 12:26:44"}}
{"Application":{"ProcessName":"com.android.mms","Start":"1-15-2014 12:27:12","End":"1-15-2014 12:27:23"}}
{"Application":{"ProcessName":"com.android.mms","Start":"1-15-2014 12:27:34","End":"1-15-2014 12:28:19"}}
{"Application":{"ProcessName":"com.android.providers.telephony","Start":"1-15-2014 12:27:34","End":"1-15-2014 12:28:19"}}
{"Application":{"ProcessName":"com.lmi.vodafone.rescue","Start":"1-15-2014 12:27:12","End":"1-15-2014 12:28:19"}}
{"Application":{"ProcessName":"com.android.htcdialer","Start":"1-15-2014 12:27:12","End":"1-15-2014 12:28:19"}}
{"Application":{"ProcessName":"com.android.nfc","Start":"1-15-2014 12:27:12","End":"1-15-2014 12:28:19"}}
{"Application":{"ProcessName":"com.android.mms","Start":"1-15-2014 12:29:23","End":"1-15-2014 12:29:57"}}
{"Application":{"ProcessName":"com.android.providers.telephony","Start":"1-15-2014 12:29:23","End":"1-15-2014 12:29:57"}}
{"Application":{"ProcessName":"com.lmi.vodafone.rescue","Start":"1-15-2014 12:28:46","End":"1-15-2014 12:29:57"}}
{"Application":{"ProcessName":"com.android.htcdialer","Start":"1-15-2014 12:28:46","End":"1-15-2014 12:29:57"}}
{"Application":{"ProcessName":"com.android.nfc","Start":"1-15-2014 12:28:46","End":"1-15-2014 12:29:57"}}
{"Application":{"ProcessName":"com.google.android.gms","Start":"1-15-2014 12:31:45","End":"1-15-2014 12:31:55"}}
{"Application":{"ProcessName":"com.google.process.location","Start":"1-15-2014 12:31:55","End":"1-15-2014 12:31:55"}}
{"Application":{"ProcessName":"com.android.mms","Start":"1-15-2014 12:31:15","End":"1-15-2014 12:33:52"}}
{"Application":{"ProcessName":"com.android.providers.telephony","Start":"1-15-2014 12:31:15","End":"1-15-2014 12:33:52"}}
{"Application":{"ProcessName":"com.lmi.vodafone.rescue","Start":"1-15-2014 12:31:05","End":"1-15-2014 12:33:52"}}
{"Application":{"ProcessName":"com.android.htcdialer","Start":"1-15-2014 12:31:05","End":"1-15-2014 12:33:52"}}
{"Application":{"ProcessName":"com.android.nfc","Start":"1-15-2014 12:31:05","End":"1-15-2014 12:33:52"}}
{"SMS":{"Address":"+98930275####","type":"2","date":"1-15-2014 12:35:16","body":"ANONYMIZED","Type":"2", "metadata": {"name": "Shima"}}}
{"Application":{"ProcessName":"com.android.mms","Start":"1-15-2014 12:34:48","End":"1-15-2014 12:36:07"}}
{"Application":{"ProcessName":"com.android.providers.telephony","Start":"1-15-2014 12:34:48","End":"1-15-2014 12:36:07"}}
{"Application":{"ProcessName":"com.lmi.vodafone.rescue","Start":"1-15-2014 12:34:48","End":"1-15-2014 12:36:07"}}
{"Application":{"ProcessName":"com.android.htcdialer","Start":"1-15-2014 12:34:48","End":"1-15-2014 12:36:07"}}
{"Application":{"ProcessName":"com.android.nfc","Start":"1-15-2014 12:34:48","End":"1-15-2014 12:36:07"}}
{"SMS":{"Address":"+98930275####","type":"1","date":"1-15-2014 12:41:29","body":"ANONYMIZED","Type":"1", "metadata": {"name": "Shima"}}}
{"Application":{"ProcessName":"com.android.mms","Start":"1-15-2014 12:41:43","End":"1-15-2014 12:41:53"}}
{"Application":{"ProcessName":"com.android.providers.telephony","Start":"1-15-2014 12:41:43","End":"1-15-2014 12:41:53"}}
{"Application":{"ProcessName":"com.lmi.vodafone.rescue","Start":"1-15-2014 12:41:33","End":"1-15-2014 12:41:53"}}
{"Application":{"ProcessName":"com.android.htcdialer","Start":"1-15-2014 12:41:33","End":"1-15-2014 12:41:53"}}
{"Application":{"ProcessName":"com.android.nfc","Start":"1-15-2014 12:41:33","End":"1-15-2014 12:41:53"}}
{"Application":{"ProcessName":"com.htc.bgp","Start":"1-15-2014 12:42:58","End":"1-15-2014 12:43:08"}}
{"Application":{"ProcessName":"com.android.mms","Start":"1-15-2014 12:43:08","End":"1-15-2014 12:43:22"}}
{"Application":{"ProcessName":"com.android.providers.telephony","Start":"1-15-2014 12:43:08","End":"1-15-2014 12:43:22"}}
{"Application":{"ProcessName":"com.lmi.vodafone.rescue","Start":"1-15-2014 12:42:58","End":"1-15-2014 12:43:22"}}
{"Application":{"ProcessName":"com.android.htcdialer","Start":"1-15-2014 12:42:58","End":"1-15-2014 12:43:22"}}
{"Application":{"ProcessName":"com.android.nfc","Start":"1-15-2014 12:42:58","End":"1-15-2014 12:43:22"}}
{"Application":{"ProcessName":"com.htc.task","Start":"1-15-2014 12:55:14","End":"1-15-2014 12:55:15"}}
{"Application":{"ProcessName":"com.android.settings:remote","Start":"1-15-2014 12:55:14","End":"1-15-2014 12:55:15"}}
{"Application":{"ProcessName":"com.farsitel.bazaar","Start":"1-15-2014 12:55:15","End":"1-15-2014 12:55:25"}}
{"Application":{"ProcessName":"com.lmi.vodafone.rescue","Start":"1-15-2014 12:55:14","End":"1-15-2014 12:55:25"}}
{"Application":{"ProcessName":"com.android.htcdialer","Start":"1-15-2014 12:55:14","End":"1-15-2014 12:55:25"}}
{"Application":{"ProcessName":"com.android.nfc","Start":"1-15-2014 12:55:14","End":"1-15-2014 12:55:25"}}
{"Call": {"Number":"+98912604####","Duration":"7","Time":"1-15-2014 12:55:09","Type":"1"}}
{"Application":{"ProcessName":"com.lmi.vodafone.rescue","Start":"1-15-2014 12:55:36","End":"1-15-2014 12:55:46"}}
{"Application":{"ProcessName":"com.android.htcdialer","Start":"1-15-2014 12:55:36","End":"1-15-2014 12:55:46"}}
{"Application":{"ProcessName":"com.android.nfc","Start":"1-15-2014 12:55:36","End":"1-15-2014 12:55:46"}}
{"SMS":{"Address":"+98930275####","type":"2","date":"1-15-2014 13:02:09","body":"ANONYMIZED","Type":"2", "metadata": {"name": "Shima"}}}
{"Application":{"ProcessName":"com.android.mms","Start":"1-15-2014 13:01:25","End":"1-15-2014 13:02:15"}}
{"Application":{"ProcessName":"com.android.providers.telephony","Start":"1-15-2014 13:01:25","End":"1-15-2014 13:02:15"}}
{"Application":{"ProcessName":"com.htc.music:mediaplaybackservice","Start":"1-15-2014 13:02:56","End":"1-15-2014 13:03:06"}}
{"Application":{"ProcessName":"com.htc.bgp","Start":"1-15-2014 13:02:56","End":"1-15-2014 13:03:06"}}
{"Application":{"ProcessName":"com.htc.musicenhancer:enhancerprovider","Start":"1-15-2014 13:03:06","End":"1-15-2014 13:03:17"}}
{"Application":{"ProcessName":"com.lmi.vodafone.rescue","Start":"1-15-2014 13:01:25","End":"1-15-2014 13:03:17"}}
{"Application":{"ProcessName":"com.android.htcdialer","Start":"1-15-2014 13:01:25","End":"1-15-2014 13:03:17"}}
{"Application":{"ProcessName":"com.android.nfc","Start":"1-15-2014 13:01:25","End":"1-15-2014 13:03:17"}}
{"Application":{"ProcessName":"com.htc.music","Start":"1-15-2014 13:02:56","End":"1-15-2014 13:03:17"}}
{"Application":{"ProcessName":"com.htc.musicenhancer:enhancerprovider","Start":"1-15-2014 13:06:30","End":"1-15-2014 13:06:38"}}
{"Application":{"ProcessName":"com.lmi.vodafone.rescue","Start":"1-15-2014 13:06:30","End":"1-15-2014 13:06:38"}}
{"Application":{"ProcessName":"com.android.htcdialer","Start":"1-15-2014 13:06:30","End":"1-15-2014 13:06:38"}}
{"Application":{"ProcessName":"com.android.nfc","Start":"1-15-2014 13:06:30","End":"1-15-2014 13:06:38"}}
{"Application":{"ProcessName":"com.htc.music","Start":"1-15-2014 13:06:30","End":"1-15-2014 13:06:38"}}
{"Application":{"ProcessName":"com.htc.musicenhancer:enhancerprovider","Start":"1-15-2014 13:08:53","End":"1-15-2014 13:08:59"}}
{"Application":{"ProcessName":"com.lmi.vodafone.rescue","Start":"1-15-2014 13:08:53","End":"1-15-2014 13:08:59"}}
{"Application":{"ProcessName":"com.android.htcdialer","Start":"1-15-2014 13:08:53","End":"1-15-2014 13:08:59"}}
{"Application":{"ProcessName":"com.android.nfc","Start":"1-15-2014 13:08:53","End":"1-15-2014 13:08:59"}}
{"Application":{"ProcessName":"com.htc.music","Start":"1-15-2014 13:08:53","End":"1-15-2014 13:08:59"}}
{"SMS":{"Address":"+98930275####","type":"1","date":"1-15-2014 13:09:07","body":"ANONYMIZED","Type":"1", "metadata": {"name": "Shima"}}}
{"Application":{"ProcessName":"com.lmi.vodafone.rescue","Start":"1-15-2014 13:09:13","End":"1-15-2014 13:09:22"}}
{"Application":{"ProcessName":"com.android.htcdialer","Start":"1-15-2014 13:09:13","End":"1-15-2014 13:09:22"}}
{"Application":{"ProcessName":"com.android.nfc","Start":"1-15-2014 13:09:13","End":"1-15-2014 13:09:22"}}
{"SMS":{"Address":"+98930275####","type":"2","date":"1-15-2014 13:17:43","body":"ANONYMIZED","Type":"2", "metadata": {"name": "Shima"}}}
{"Application":{"ProcessName":"com.android.mms","Start":"1-15-2014 13:17:21","End":"1-15-2014 13:18:46"}}
{"Application":{"ProcessName":"com.android.providers.telephony","Start":"1-15-2014 13:17:21","End":"1-15-2014 13:18:46"}}
{"Application":{"ProcessName":"com.lmi.vodafone.rescue","Start":"1-15-2014 13:17:15","End":"1-15-2014 13:18:46"}}
{"Application":{"ProcessName":"com.android.htcdialer","Start":"1-15-2014 13:17:15","End":"1-15-2014 13:18:46"}}
{"Application":{"ProcessName":"com.android.nfc","Start":"1-15-2014 13:17:15","End":"1-15-2014 13:18:46"}}
{"SMS":{"Address":"+98930275####","type":"1","date":"1-15-2014 13:22:46","body":"ANONYMIZED","Type":"1", "metadata": {"name": "Shima"}}}
{"Application":{"ProcessName":"com.android.mms","Start":"1-15-2014 13:22:54","End":"1-15-2014 13:23:05"}}
{"Application":{"ProcessName":"com.android.providers.telephony","Start":"1-15-2014 13:22:54","End":"1-15-2014 13:23:05"}}
{"Application":{"ProcessName":"com.lmi.vodafone.rescue","Start":"1-15-2014 13:22:54","End":"1-15-2014 13:23:05"}}
{"Application":{"ProcessName":"com.android.htcdialer","Start":"1-15-2014 13:22:54","End":"1-15-2014 13:23:05"}}
{"Application":{"ProcessName":"com.android.nfc","Start":"1-15-2014 13:22:54","End":"1-15-2014 13:23:05"}}
{"Application":{"ProcessName":"com.android.mms","Start":"1-15-2014 13:23:10","End":"1-15-2014 13:23:35"}}
{"Application":{"ProcessName":"com.android.providers.telephony","Start":"1-15-2014 13:23:10","End":"1-15-2014 13:23:35"}}
{"SMS":{"Address":"+98930275####","type":"2","date":"1-15-2014 13:24:16","body":"ANONYMIZED","Type":"2", "metadata": {"name": "Shima"}}}
{"Application":{"ProcessName":"com.android.mms","Start":"1-15-2014 13:23:40","End":"1-15-2014 13:25:23"}}
{"Application":{"ProcessName":"com.android.providers.telephony","Start":"1-15-2014 13:23:46","End":"1-15-2014 13:25:23"}}
{"Application":{"ProcessName":"com.lmi.vodafone.rescue","Start":"1-15-2014 13:23:10","End":"1-15-2014 13:25:23"}}
{"Application":{"ProcessName":"com.android.htcdialer","Start":"1-15-2014 13:23:10","End":"1-15-2014 13:25:23"}}
{"Application":{"ProcessName":"com.android.nfc","Start":"1-15-2014 13:23:10","End":"1-15-2014 13:25:23"}}
{"Application":{"ProcessName":"com.android.mms","Start":"1-15-2014 13:27:11","End":"1-15-2014 13:27:24"}}
{"Application":{"ProcessName":"com.android.providers.telephony","Start":"1-15-2014 13:27:11","End":"1-15-2014 13:27:24"}}
{"Application":{"ProcessName":"com.lmi.vodafone.rescue","Start":"1-15-2014 13:27:11","End":"1-15-2014 13:27:24"}}
{"Application":{"ProcessName":"com.android.htcdialer","Start":"1-15-2014 13:27:11","End":"1-15-2014 13:27:24"}}
{"Application":{"ProcessName":"com.android.nfc","Start":"1-15-2014 13:27:11","End":"1-15-2014 13:27:24"}}
{"Application":{"ProcessName":"com.htc.weather.bg","Start":"1-15-2014 14:01:37","End":"1-15-2014 14:01:45"}}
{"Application":{"ProcessName":"com.android.providers.telephony","Start":"1-15-2014 14:01:35","End":"1-15-2014 14:01:48"}}
{"Application":{"ProcessName":"com.android.mms","Start":"1-15-2014 14:01:35","End":"1-15-2014 14:02:15"}}
{"Application":{"ProcessName":"com.android.providers.telephony","Start":"1-15-2014 14:01:55","End":"1-15-2014 14:02:15"}}
{"SMS":{"Address":"+98930275####","type":"2","date":"1-15-2014 14:02:12","body":"ANONYMIZED","Type":"2", "metadata": {"name": "Shima"}}}
{"Application":{"ProcessName":"com.htc.musicenhancer:enhancerprovider","Start":"1-15-2014 14:02:15","End":"1-15-2014 14:02:25"}}
{"Application":{"ProcessName":"com.lmi.vodafone.rescue","Start":"1-15-2014 14:01:35","End":"1-15-2014 14:02:25"}}
{"Application":{"ProcessName":"com.android.htcdialer","Start":"1-15-2014 14:01:35","End":"1-15-2014 14:02:25"}}
{"Application":{"ProcessName":"com.android.nfc","Start":"1-15-2014 14:01:35","End":"1-15-2014 14:02:25"}}
{"Application":{"ProcessName":"com.htc.music","Start":"1-15-2014 14:02:15","End":"1-15-2014 14:02:25"}}
{"Application":{"ProcessName":"com.htc.musicenhancer:enhancerprovider","Start":"1-15-2014 14:04:48","End":"1-15-2014 14:05:09"}}
{"Application":{"ProcessName":"com.lmi.vodafone.rescue","Start":"1-15-2014 14:04:48","End":"1-15-2014 14:05:09"}}
{"Application":{"ProcessName":"com.android.htcdialer","Start":"1-15-2014 14:04:48","End":"1-15-2014 14:05:09"}}
{"Application":{"ProcessName":"com.android.nfc","Start":"1-15-2014 14:04:48","End":"1-15-2014 14:05:09"}}
{"Application":{"ProcessName":"com.htc.music","Start":"1-15-2014 14:04:48","End":"1-15-2014 14:05:09"}}
{"Application":{"ProcessName":"com.google.process.location","Start":"1-15-2014 14:10:04","End":"1-15-2014 14:10:06"}}
{"Application":{"ProcessName":"com.htc.musicenhancer:enhancerprovider","Start":"1-15-2014 14:10:06","End":"1-15-2014 14:10:14"}}
{"Application":{"ProcessName":"com.google.android.apps.maps:LocationFriendService","Start":"1-15-2014 14:10:06","End":"1-15-2014 14:10:14"}}
{"Application":{"ProcessName":"com.lmi.vodafone.rescue","Start":"1-15-2014 14:09:56","End":"1-15-2014 14:10:14"}}
{"Application":{"ProcessName":"com.android.htcdialer","Start":"1-15-2014 14:09:56","End":"1-15-2014 14:10:14"}}
{"Application":{"ProcessName":"com.android.nfc","Start":"1-15-2014 14:09:56","End":"1-15-2014 14:10:14"}}
{"Application":{"ProcessName":"com.htc.music","Start":"1-15-2014 14:10:04","End":"1-15-2014 14:10:14"}}
{"SMS":{"Address":"HAMRAH####","type":"1","date":"1-15-2014 17:39:46","body":"ANONYMIZED","Type":"1", "metadata": {"name": ""}}}
{"Application":{"ProcessName":"com.htc.calendar","Start":"1-15-2014 14:39:05","End":"1-15-2014 14:39:14"}}
{"Application":{"ProcessName":"com.android.mms","Start":"1-15-2014 14:39:03","End":"1-15-2014 14:41:03"}}
{"Application":{"ProcessName":"com.android.providers.telephony","Start":"1-15-2014 14:39:03","End":"1-15-2014 14:41:03"}}
{"Application":{"ProcessName":"com.lmi.vodafone.rescue","Start":"1-15-2014 14:39:03","End":"1-15-2014 14:41:03"}}
{"Application":{"ProcessName":"com.android.htcdialer","Start":"1-15-2014 14:39:03","End":"1-15-2014 14:41:03"}}
{"Application":{"ProcessName":"com.android.nfc","Start":"1-15-2014 14:39:03","End":"1-15-2014 14:41:03"}}
{"Application":{"ProcessName":"com.lmi.vodafone.rescue","Start":"1-15-2014 14:47:14","End":"1-15-2014 14:47:40"}}
{"Application":{"ProcessName":"com.android.htcdialer","Start":"1-15-2014 14:47:14","End":"1-15-2014 14:47:40"}}
{"Application":{"ProcessName":"com.android.nfc","Start":"1-15-2014 14:47:14","End":"1-15-2014 14:47:40"}}
{"Application":{"ProcessName":"com.lmi.vodafone.rescue","Start":"1-15-2014 14:49:30","End":"1-15-2014 14:50:11"}}
{"Application":{"ProcessName":"com.htc.android.worldclock","Start":"1-15-2014 14:49:41","End":"1-15-2014 14:50:11"}}
{"Application":{"ProcessName":"com.android.htcdialer","Start":"1-15-2014 14:49:30","End":"1-15-2014 14:50:11"}}
{"Application":{"ProcessName":"com.android.nfc","Start":"1-15-2014 14:49:30","End":"1-15-2014 14:50:11"}}
{"Application":{"ProcessName":"com.android.providers.telephony","Start":"1-15-2014 15:10:02","End":"1-15-2014 15:10:03"}}
{"Application":{"ProcessName":"com.htc.bg","Start":"1-15-2014 15:10:02","End":"1-15-2014 15:10:03"}}
{"Application":{"ProcessName":"com.android.settings:remote","Start":"1-15-2014 15:10:03","End":"1-15-2014 15:10:12"}}
{"Application":{"ProcessName":"com.lmi.vodafone.rescue","Start":"1-15-2014 15:10:02","End":"1-15-2014 15:10:27"}}
{"Application":{"ProcessName":"com.htc.android.worldclock","Start":"1-15-2014 15:10:02","End":"1-15-2014 15:10:27"}}
{"Application":{"ProcessName":"com.android.htcdialer","Start":"1-15-2014 15:10:02","End":"1-15-2014 15:10:27"}}
{"Application":{"ProcessName":"com.android.nfc","Start":"1-15-2014 15:10:02","End":"1-15-2014 15:10:27"}}
{"Application":{"ProcessName":"com.lmi.vodafone.rescue","Start":"1-15-2014 15:20:09","End":"1-15-2014 15:21:23"}}
{"Application":{"ProcessName":"com.htc.android.worldclock","Start":"1-15-2014 15:20:09","End":"1-15-2014 15:21:23"}}
{"Application":{"ProcessName":"com.android.htcdialer","Start":"1-15-2014 15:20:09","End":"1-15-2014 15:21:23"}}
{"Application":{"ProcessName":"com.android.nfc","Start":"1-15-2014 15:20:09","End":"1-15-2014 15:21:23"}}
{"Application":{"ProcessName":"com.htc.bgp","Start":"1-15-2014 16:07:50","End":"1-15-2014 16:07:51"}}
{"Application":{"ProcessName":"com.htc.android.worldclock","Start":"1-15-2014 16:07:50","End":"1-15-2014 16:08:00"}}
{"Application":{"ProcessName":"com.android.settings","Start":"1-15-2014 16:08:00","End":"1-15-2014 16:08:10"}}
{"Application":{"ProcessName":"com.htc.album","Start":"1-15-2014 16:08:30","End":"1-15-2014 16:08:51"}}
{"Application":{"ProcessName":"com.lmi.vodafone.rescue","Start":"1-15-2014 16:07:50","End":"1-15-2014 16:09:15"}}
{"Application":{"ProcessName":"com.android.htcdialer","Start":"1-15-2014 16:07:50","End":"1-15-2014 16:09:15"}}
{"Application":{"ProcessName":"com.android.nfc","Start":"1-15-2014 16:07:50","End":"1-15-2014 16:09:15"}}
{"Application":{"ProcessName":"com.htc.music:mediaplaybackservice","Start":"1-15-2014 16:14:04","End":"1-15-2014 16:14:14"}}
{"Application":{"ProcessName":"com.htc.bgp","Start":"1-15-2014 16:14:04","End":"1-15-2014 16:14:14"}}
{"Application":{"ProcessName":"com.htc.musicenhancer:enhancerprovider","Start":"1-15-2014 16:14:14","End":"1-15-2014 16:14:24"}}
{"Application":{"ProcessName":"com.lmi.vodafone.rescue","Start":"1-15-2014 16:14:03","End":"1-15-2014 16:14:24"}}
{"Application":{"ProcessName":"com.android.htcdialer","Start":"1-15-2014 16:14:03","End":"1-15-2014 16:14:24"}}
{"Application":{"ProcessName":"com.android.nfc","Start":"1-15-2014 16:14:03","End":"1-15-2014 16:14:24"}}
{"Application":{"ProcessName":"com.htc.music","Start":"1-15-2014 16:14:03","End":"1-15-2014 16:14:24"}}
{"Application":{"ProcessName":"com.htc.musicenhancer:enhancerprovider","Start":"1-15-2014 16:16:34","End":"1-15-2014 16:16:49"}}
{"Application":{"ProcessName":"com.lmi.vodafone.rescue","Start":"1-15-2014 16:16:34","End":"1-15-2014 16:16:49"}}
{"Application":{"ProcessName":"com.android.htcdialer","Start":"1-15-2014 16:16:34","End":"1-15-2014 16:16:49"}}
{"Application":{"ProcessName":"com.android.nfc","Start":"1-15-2014 16:16:34","End":"1-15-2014 16:16:49"}}
{"Application":{"ProcessName":"com.htc.music","Start":"1-15-2014 16:16:34","End":"1-15-2014 16:16:49"}}
{"Application":{"ProcessName":"com.lmi.vodafone.rescue","Start":"1-15-2014 16:49:34","End":"1-15-2014 16:49:45"}}
{"Application":{"ProcessName":"com.android.htcdialer","Start":"1-15-2014 16:49:34","End":"1-15-2014 16:49:45"}}
{"Application":{"ProcessName":"com.android.nfc","Start":"1-15-2014 16:49:34","End":"1-15-2014 16:49:45"}}
{"Application":{"ProcessName":"com.htc.bgp","Start":"1-15-2014 17:05:13","End":"1-15-2014 17:05:14"}}
{"Application":{"ProcessName":"com.android.mms","Start":"1-15-2014 17:05:13","End":"1-15-2014 17:05:51"}}
{"Application":{"ProcessName":"com.android.providers.telephony","Start":"1-15-2014 17:05:14","End":"1-15-2014 17:05:51"}}
{"Application":{"ProcessName":"com.lmi.vodafone.rescue","Start":"1-15-2014 17:05:13","End":"1-15-2014 17:05:51"}}
{"Application":{"ProcessName":"com.android.htcdialer","Start":"1-15-2014 17:05:13","End":"1-15-2014 17:05:51"}}
{"Application":{"ProcessName":"com.android.nfc","Start":"1-15-2014 17:05:13","End":"1-15-2014 17:05:51"}}
{"Application":{"ProcessName":"com.android.mms","Start":"1-15-2014 17:06:21","End":"1-15-2014 17:06:27"}}
{"Application":{"ProcessName":"com.lmi.vodafone.rescue","Start":"1-15-2014 17:06:17","End":"1-15-2014 17:07:28"}}
{"Application":{"ProcessName":"com.android.htcdialer","Start":"1-15-2014 17:06:17","End":"1-15-2014 17:07:28"}}
{"Application":{"ProcessName":"com.android.nfc","Start":"1-15-2014 17:06:17","End":"1-15-2014 17:07:28"}}
{"Application":{"ProcessName":"com.htc.musicenhancer:enhancerprovider","Start":"1-15-2014 17:28:33","End":"1-15-2014 17:29:04"}}
{"Application":{"ProcessName":"com.lmi.vodafone.rescue","Start":"1-15-2014 17:28:22","End":"1-15-2014 17:29:04"}}
{"Application":{"ProcessName":"com.android.htcdialer","Start":"1-15-2014 17:28:22","End":"1-15-2014 17:29:04"}}
{"Application":{"ProcessName":"com.android.nfc","Start":"1-15-2014 17:28:22","End":"1-15-2014 17:29:04"}}
{"Application":{"ProcessName":"com.htc.music","Start":"1-15-2014 17:28:22","End":"1-15-2014 17:29:04"}}
{"Application":{"ProcessName":"com.htc.weather.bg","Start":"1-15-2014 17:31:37","End":"1-15-2014 17:31:45"}}
{"Application":{"ProcessName":"com.htc.bgp","Start":"1-15-2014 17:31:37","End":"1-15-2014 17:31:45"}}
{"Application":{"ProcessName":"com.htc.musicenhancer:enhancerprovider","Start":"1-15-2014 17:31:35","End":"1-15-2014 17:31:55"}}
{"Application":{"ProcessName":"com.lmi.vodafone.rescue","Start":"1-15-2014 17:31:35","End":"1-15-2014 17:31:55"}}
{"Application":{"ProcessName":"com.android.htcdialer","Start":"1-15-2014 17:31:35","End":"1-15-2014 17:31:55"}}
{"Application":{"ProcessName":"com.android.nfc","Start":"1-15-2014 17:31:35","End":"1-15-2014 17:31:55"}}
{"Application":{"ProcessName":"com.htc.music","Start":"1-15-2014 17:31:35","End":"1-15-2014 17:31:55"}}
{"Application":{"ProcessName":"com.htc.musicenhancer:enhancerprovider","Start":"1-15-2014 17:34:06","End":"1-15-2014 17:34:38"}}
{"Application":{"ProcessName":"com.lmi.vodafone.rescue","Start":"1-15-2014 17:34:06","End":"1-15-2014 17:34:38"}}
{"Application":{"ProcessName":"com.android.htcdialer","Start":"1-15-2014 17:34:06","End":"1-15-2014 17:34:38"}}
{"Application":{"ProcessName":"com.android.nfc","Start":"1-15-2014 17:34:06","End":"1-15-2014 17:34:38"}}
{"Application":{"ProcessName":"com.htc.music","Start":"1-15-2014 17:34:06","End":"1-15-2014 17:34:38"}}
{"Application":{"ProcessName":"com.android.settings:remote","Start":"1-15-2014 17:35:09","End":"1-15-2014 17:35:16"}}
{"Application":{"ProcessName":"com.htc.musicenhancer:enhancerprovider","Start":"1-15-2014 17:35:09","End":"1-15-2014 17:35:26"}}
{"Application":{"ProcessName":"com.lmi.vodafone.rescue","Start":"1-15-2014 17:35:09","End":"1-15-2014 17:35:26"}}
{"Application":{"ProcessName":"com.android.htcdialer","Start":"1-15-2014 17:35:09","End":"1-15-2014 17:35:26"}}
{"Application":{"ProcessName":"com.android.nfc","Start":"1-15-2014 17:35:09","End":"1-15-2014 17:35:26"}}
{"Application":{"ProcessName":"com.htc.music","Start":"1-15-2014 17:35:09","End":"1-15-2014 17:35:26"}}
{"Application":{"ProcessName":"com.htc.musicenhancer:enhancerprovider","Start":"1-15-2014 17:35:56","End":"1-15-2014 17:36:00"}}
{"Application":{"ProcessName":"com.lmi.vodafone.rescue","Start":"1-15-2014 17:35:56","End":"1-15-2014 17:36:00"}}
{"Application":{"ProcessName":"com.android.htcdialer","Start":"1-15-2014 17:35:56","End":"1-15-2014 17:36:00"}}
{"Application":{"ProcessName":"com.android.nfc","Start":"1-15-2014 17:35:56","End":"1-15-2014 17:36:00"}}
{"Application":{"ProcessName":"com.htc.music","Start":"1-15-2014 17:35:56","End":"1-15-2014 17:36:00"}}
{"Application":{"ProcessName":"mobi.infolife.taskmanagerpro","Start":"1-15-2014 17:35:56","End":"1-15-2014 17:36:00"}}
{"Application":{"ProcessName":"com.lmi.vodafone.rescue","Start":"1-15-2014 18:30:10","End":"1-15-2014 18:30:25"}}
{"Application":{"ProcessName":"com.android.htcdialer","Start":"1-15-2014 18:30:10","End":"1-15-2014 18:30:25"}}
{"Application":{"ProcessName":"com.android.nfc","Start":"1-15-2014 18:30:10","End":"1-15-2014 18:30:25"}}
{"Application":{"ProcessName":"com.lmi.vodafone.rescue","Start":"1-15-2014 18:35:06","End":"1-15-2014 18:35:28"}}
{"Application":{"ProcessName":"com.android.htcdialer","Start":"1-15-2014 18:35:06","End":"1-15-2014 18:35:28"}}
{"Application":{"ProcessName":"com.android.nfc","Start":"1-15-2014 18:35:06","End":"1-15-2014 18:35:28"}}
{"Application":{"ProcessName":"com.android.htcdialer","Start":"1-15-2014 18:42:31","End":"1-15-2014 18:42:44"}}
{"Application":{"ProcessName":"com.lmi.vodafone.rescue","Start":"1-15-2014 18:52:06","End":"1-15-2014 18:52:12"}}
{"Application":{"ProcessName":"com.android.htcdialer","Start":"1-15-2014 18:52:06","End":"1-15-2014 18:52:12"}}
{"Application":{"ProcessName":"com.android.nfc","Start":"1-15-2014 18:52:06","End":"1-15-2014 18:52:12"}}
{"Call": {"Number":"+98912604####","Duration":"56","Time":"1-15-2014 18:52:11","Type":"2"}}
{"Application":{"ProcessName":"com.lmi.vodafone.rescue","Start":"1-15-2014 18:53:25","End":"1-15-2014 18:53:31"}}
{"Application":{"ProcessName":"com.android.htcdialer","Start":"1-15-2014 18:53:25","End":"1-15-2014 18:53:31"}}
{"Application":{"ProcessName":"com.android.nfc","Start":"1-15-2014 18:53:25","End":"1-15-2014 18:53:31"}}
{"Application":{"ProcessName":"com.lmi.vodafone.rescue","Start":"1-15-2014 18:55:37","End":"1-15-2014 18:55:47"}}
{"Application":{"ProcessName":"com.android.htcdialer","Start":"1-15-2014 18:55:37","End":"1-15-2014 18:55:47"}}
{"Application":{"ProcessName":"com.android.nfc","Start":"1-15-2014 18:55:37","End":"1-15-2014 18:55:47"}}
{"Call": {"Number":"+98912604####","Duration":"19","Time":"1-15-2014 18:55:39","Type":"2"}}
{"Application":{"ProcessName":"com.android.providers.telephony","Start":"1-15-2014 18:56:22","End":"1-15-2014 18:56:25"}}
{"Application":{"ProcessName":"com.lmi.vodafone.rescue","Start":"1-15-2014 18:56:22","End":"1-15-2014 18:57:22"}}
{"Application":{"ProcessName":"com.android.htcdialer","Start":"1-15-2014 18:56:22","End":"1-15-2014 18:57:22"}}
{"Application":{"ProcessName":"com.android.nfc","Start":"1-15-2014 18:56:22","End":"1-15-2014 18:57:22"}}
{"Application":{"ProcessName":"com.lmi.vodafone.rescue","Start":"1-15-2014 19:02:40","End":"1-15-2014 19:02:46"}}
{"Application":{"ProcessName":"com.android.htcdialer","Start":"1-15-2014 19:02:40","End":"1-15-2014 19:02:46"}}
{"Application":{"ProcessName":"com.android.nfc","Start":"1-15-2014 19:02:40","End":"1-15-2014 19:02:46"}}
{"Application":{"ProcessName":"com.android.providers.telephony","Start":"1-15-2014 19:41:44","End":"1-15-2014 19:41:59"}}
{"Application":{"ProcessName":"com.lmi.vodafone.rescue","Start":"1-15-2014 19:41:29","End":"1-15-2014 19:46:09"}}
{"Application":{"ProcessName":"com.android.htcdialer","Start":"1-15-2014 19:41:29","End":"1-15-2014 19:46:09"}}
{"Application":{"ProcessName":"com.android.nfc","Start":"1-15-2014 19:41:29","End":"1-15-2014 19:46:09"}}
{"Application":{"ProcessName":"com.htc.weather.bg","Start":"1-15-2014 19:46:14","End":"1-15-2014 19:46:19"}}
{"Application":{"ProcessName":"com.lmi.vodafone.rescue","Start":"1-15-2014 19:46:14","End":"1-15-2014 19:46:19"}}
{"Application":{"ProcessName":"com.android.htcdialer","Start":"1-15-2014 19:46:14","End":"1-15-2014 19:46:19"}}
{"Application":{"ProcessName":"com.android.nfc","Start":"1-15-2014 19:46:14","End":"1-15-2014 19:46:19"}}
{"Application":{"ProcessName":"com.android.providers.telephony","Start":"1-15-2014 19:51:44","End":"1-15-2014 19:51:49"}}
{"Application":{"ProcessName":"com.lmi.vodafone.rescue","Start":"1-15-2014 19:51:39","End":"1-15-2014 19:51:49"}}
{"Application":{"ProcessName":"com.android.htcdialer","Start":"1-15-2014 19:51:39","End":"1-15-2014 19:51:49"}}
{"Application":{"ProcessName":"com.android.nfc","Start":"1-15-2014 19:51:39","End":"1-15-2014 19:51:49"}}
{"Application":{"ProcessName":"com.lmi.vodafone.rescue","Start":"1-15-2014 20:02:37","End":"1-15-2014 20:02:47"}}
{"Application":{"ProcessName":"com.android.htcdialer","Start":"1-15-2014 20:02:37","End":"1-15-2014 20:02:47"}}
{"Application":{"ProcessName":"com.android.nfc","Start":"1-15-2014 20:02:37","End":"1-15-2014 20:02:47"}}
{"Application":{"ProcessName":"com.htc.lockscreen","Start":"1-15-2014 20:02:37","End":"1-15-2014 20:02:47"}}
{"Application":{"ProcessName":"mobi.infolife.taskmanagerpro","Start":"1-15-2014 20:02:37","End":"1-15-2014 20:02:47"}}
{"Application":{"ProcessName":"com.lmi.vodafone.rescue","Start":"1-15-2014 20:02:55","End":"1-15-2014 20:03:15"}}
{"Application":{"ProcessName":"com.android.htcdialer","Start":"1-15-2014 20:02:55","End":"1-15-2014 20:03:15"}}
{"Application":{"ProcessName":"com.android.nfc","Start":"1-15-2014 20:02:55","End":"1-15-2014 20:03:15"}}
{"Call": {"Number":"+98919484####","Duration":"0","Time":"1-15-2014 20:03:11","Type":"2"}}
{"Call": {"Number":"+98919484####","Duration":"0","Time":"1-15-2014 20:03:43","Type":"2"}}
{"Application":{"ProcessName":"com.android.mms","Start":"1-15-2014 20:03:51","End":"1-15-2014 20:03:56"}}
{"Application":{"ProcessName":"com.android.providers.telephony","Start":"1-15-2014 20:03:46","End":"1-15-2014 20:03:56"}}
{"Application":{"ProcessName":"com.lmi.vodafone.rescue","Start":"1-15-2014 20:03:46","End":"1-15-2014 20:04:11"}}
{"Application":{"ProcessName":"com.android.htcdialer","Start":"1-15-2014 20:03:46","End":"1-15-2014 20:04:11"}}
{"Application":{"ProcessName":"com.android.nfc","Start":"1-15-2014 20:03:46","End":"1-15-2014 20:04:11"}}
{"Call": {"Number":"+98919484####","Duration":"159","Time":"1-15-2014 20:04:03","Type":"1"}}
{"Application":{"ProcessName":"com.lmi.vodafone.rescue","Start":"1-15-2014 20:06:49","End":"1-15-2014 20:07:59"}}
{"Application":{"ProcessName":"com.android.htcdialer","Start":"1-15-2014 20:06:49","End":"1-15-2014 20:07:59"}}
{"Application":{"ProcessName":"com.android.nfc","Start":"1-15-2014 20:06:49","End":"1-15-2014 20:07:59"}}
{"Application":{"ProcessName":"com.android.providers.telephony","Start":"1-15-2014 20:11:46","End":"1-15-2014 20:12:21"}}
{"Application":{"ProcessName":"com.lmi.vodafone.rescue","Start":"1-15-2014 20:11:41","End":"1-15-2014 20:12:21"}}
{"Application":{"ProcessName":"com.android.htcdialer","Start":"1-15-2014 20:11:41","End":"1-15-2014 20:12:21"}}
{"Application":{"ProcessName":"com.android.nfc","Start":"1-15-2014 20:11:41","End":"1-15-2014 20:12:21"}}
{"Application":{"ProcessName":"com.lmi.vodafone.rescue","Start":"1-15-2014 20:16:57","End":"1-15-2014 20:17:09"}}
{"Application":{"ProcessName":"com.android.htcdialer","Start":"1-15-2014 20:16:57","End":"1-15-2014 20:17:09"}}
{"Application":{"ProcessName":"com.android.nfc","Start":"1-15-2014 20:16:57","End":"1-15-2014 20:17:09"}}
{"Application":{"ProcessName":"com.lmi.vodafone.rescue","Start":"1-15-2014 20:59:10","End":"1-15-2014 20:59:17"}}
{"Application":{"ProcessName":"com.android.htcdialer","Start":"1-15-2014 20:59:10","End":"1-15-2014 20:59:17"}}
{"Application":{"ProcessName":"com.android.nfc","Start":"1-15-2014 20:59:10","End":"1-15-2014 20:59:17"}}
{"Application":{"ProcessName":"com.lmi.vodafone.rescue","Start":"1-15-2014 21:23:11","End":"1-15-2014 21:23:27"}}
{"Application":{"ProcessName":"com.android.htcdialer","Start":"1-15-2014 21:23:11","End":"1-15-2014 21:23:27"}}
{"Application":{"ProcessName":"com.android.nfc","Start":"1-15-2014 21:23:11","End":"1-15-2014 21:23:27"}}
{"Application":{"ProcessName":"com.htc.music","Start":"1-15-2014 21:23:17","End":"1-15-2014 21:23:27"}}
{"Application":{"ProcessName":"com.lmi.vodafone.rescue","Start":"1-15-2014 21:29:13","End":"1-15-2014 21:29:18"}}
{"Application":{"ProcessName":"com.android.nfc","Start":"1-15-2014 21:29:13","End":"1-15-2014 21:29:18"}}
{"Application":{"ProcessName":"com.google.android.apps.maps","Start":"1-15-2014 21:29:13","End":"1-15-2014 21:29:18"}}
{"Application":{"ProcessName":"com.htc.music","Start":"1-15-2014 21:29:13","End":"1-15-2014 21:29:18"}}
{"Application":{"ProcessName":"com.android.htcdialer","Start":"1-15-2014 21:29:13","End":"1-15-2014 21:31:45"}}
{"Application":{"ProcessName":"com.htc.lockscreen","Start":"1-15-2014 22:00:02","End":"1-15-2014 22:00:07"}}
{"Application":{"ProcessName":"com.lmi.vodafone.rescue","Start":"1-15-2014 22:00:02","End":"1-15-2014 22:00:20"}}
{"Application":{"ProcessName":"com.android.htcdialer","Start":"1-15-2014 22:00:02","End":"1-15-2014 22:00:20"}}
{"Application":{"ProcessName":"com.android.nfc","Start":"1-15-2014 22:00:02","End":"1-15-2014 22:00:20"}}
{"Application":{"ProcessName":"com.htc.android.worldclock","Start":"1-15-2014 22:38:14","End":"1-15-2014 22:38:58"}}
{"Application":{"ProcessName":"com.htc.bgp","Start":"1-15-2014 22:39:04","End":"1-15-2014 22:39:08"}}
{"Application":{"ProcessName":"com.htc.calendar","Start":"1-15-2014 22:39:04","End":"1-15-2014 22:39:08"}}
{"Application":{"ProcessName":"com.htc.musicenhancer:enhancerprovider","Start":"1-15-2014 22:39:34","End":"1-15-2014 22:40:10"}}
{"Application":{"ProcessName":"com.lmi.vodafone.rescue","Start":"1-15-2014 22:38:04","End":"1-15-2014 22:40:10"}}
{"Application":{"ProcessName":"com.android.htcdialer","Start":"1-15-2014 22:38:04","End":"1-15-2014 22:40:10"}}
{"Application":{"ProcessName":"com.android.nfc","Start":"1-15-2014 22:38:04","End":"1-15-2014 22:40:10"}}
{"Application":{"ProcessName":"com.htc.music","Start":"1-15-2014 22:39:28","End":"1-15-2014 22:40:10"}}
{"Application":{"ProcessName":"com.htc.musicenhancer:enhancerprovider","Start":"1-15-2014 22:40:15","End":"1-15-2014 22:40:20"}}
{"Application":{"ProcessName":"com.htc.music","Start":"1-15-2014 22:40:15","End":"1-15-2014 22:40:20"}}
{"Application":{"ProcessName":"com.htc.album","Start":"1-15-2014 22:40:26","End":"1-15-2014 22:43:18"}}
{"Application":{"ProcessName":"com.htc.musicenhancer:enhancerprovider","Start":"1-15-2014 22:43:38","End":"1-15-2014 22:43:41"}}
{"Application":{"ProcessName":"com.htc.music","Start":"1-15-2014 22:43:18","End":"1-15-2014 22:43:41"}}
{"Application":{"ProcessName":"com.htc.musicenhancer:enhancerprovider","Start":"1-15-2014 22:43:48","End":"1-15-2014 22:44:42"}}
{"Application":{"ProcessName":"com.lmi.vodafone.rescue","Start":"1-15-2014 22:40:15","End":"1-15-2014 22:44:42"}}
{"Application":{"ProcessName":"com.android.htcdialer","Start":"1-15-2014 22:40:15","End":"1-15-2014 22:44:42"}}
{"Application":{"ProcessName":"com.android.nfc","Start":"1-15-2014 22:40:15","End":"1-15-2014 22:44:42"}}
{"Application":{"ProcessName":"com.htc.music","Start":"1-15-2014 22:43:48","End":"1-15-2014 22:44:42"}}
{"Application":{"ProcessName":"com.htc.weather.bg","Start":"1-15-2014 22:47:23","End":"1-15-2014 22:47:33"}}
{"Application":{"ProcessName":"com.htc.bgp","Start":"1-15-2014 22:47:23","End":"1-15-2014 22:47:33"}}
{"Application":{"ProcessName":"com.htc.bgp","Start":"1-15-2014 22:47:43","End":"1-15-2014 22:47:43"}}
{"Application":{"ProcessName":"com.htc.musicenhancer:enhancerprovider","Start":"1-15-2014 22:47:22","End":"1-15-2014 22:47:53"}}
{"Application":{"ProcessName":"com.lmi.vodafone.rescue","Start":"1-15-2014 22:47:22","End":"1-15-2014 22:47:53"}}
{"Application":{"ProcessName":"com.android.htcdialer","Start":"1-15-2014 22:47:22","End":"1-15-2014 22:47:53"}}
{"Application":{"ProcessName":"com.android.nfc","Start":"1-15-2014 22:47:22","End":"1-15-2014 22:47:53"}}
{"Application":{"ProcessName":"com.htc.music","Start":"1-15-2014 22:47:22","End":"1-15-2014 22:47:53"}}
{"Application":{"ProcessName":"com.android.settings:remote","Start":"1-15-2014 22:50:54","End":"1-15-2014 22:50:54"}}
{"Application":{"ProcessName":"com.htc.android.worldclock","Start":"1-15-2014 22:51:14","End":"1-15-2014 22:51:34"}}
{"Application":{"ProcessName":"com.lmi.vodafone.rescue","Start":"1-15-2014 22:50:54","End":"1-15-2014 22:51:44"}}
{"Application":{"ProcessName":"com.android.htcdialer","Start":"1-15-2014 22:50:54","End":"1-15-2014 22:51:44"}}
{"Application":{"ProcessName":"com.android.nfc","Start":"1-15-2014 22:50:54","End":"1-15-2014 22:51:44"}}
{"SMS":{"Address":"+98933907####","type":"1","date":"1-15-2014 23:45:31","body":"ANONYMIZED","Type":"1", "metadata": {"name": "Pegah"}}}
{"Application":{"ProcessName":"com.htc.flexnet","Start":"1-15-2014 23:45:33","End":"1-15-2014 23:45:41"}}
{"Application":{"ProcessName":"com.lmi.vodafone.rescue","Start":"1-15-2014 23:45:33","End":"1-15-2014 23:45:41"}}
{"Application":{"ProcessName":"com.android.htcdialer","Start":"1-15-2014 23:45:33","End":"1-15-2014 23:45:41"}}
{"Application":{"ProcessName":"com.android.nfc","Start":"1-15-2014 23:45:33","End":"1-15-2014 23:45:41"}}
{"Application":{"ProcessName":"com.android.mms","Start":"1-15-2014 23:48:18","End":"1-15-2014 23:48:28"}}
{"Application":{"ProcessName":"com.android.providers.telephony","Start":"1-15-2014 23:48:18","End":"1-15-2014 23:48:28"}}
{"Application":{"ProcessName":"com.lmi.vodafone.rescue","Start":"1-15-2014 23:48:10","End":"1-15-2014 23:48:28"}}
{"Application":{"ProcessName":"com.android.htcdialer","Start":"1-15-2014 23:48:10","End":"1-15-2014 23:48:28"}}
{"Application":{"ProcessName":"com.android.nfc","Start":"1-15-2014 23:48:10","End":"1-15-2014 23:48:28"}}
