{"Application":{"ProcessName":"com.mediatek.thermalmanager","Start":"12-19-2013 23:07:57","End":"12-19-2013 23:09:47"}}
{"Application":{"ProcessName":"com.android.settings","Start":"12-19-2013 23:08:47","End":"12-19-2013 23:09:47"}}
{"Application":{"ProcessName":"com.android.nfc","Start":"12-19-2013 23:07:57","End":"12-19-2013 23:09:47"}}
{"Application":{"ProcessName":"com.mediatek.bluetooth","Start":"12-19-2013 23:07:57","End":"12-19-2013 23:09:47"}}
{"Application":{"ProcessName":"com.android.settings","Start":"12-19-2013 23:11:15","End":"12-19-2013 23:11:25"}}
{"Application":{"ProcessName":"com.android.launcher","Start":"12-19-2013 23:11:25","End":"12-19-2013 23:11:35"}}
{"Application":{"ProcessName":"com.mediatek.thermalmanager","Start":"12-19-2013 23:11:15","End":"12-19-2013 23:16:16"}}
{"Application":{"ProcessName":"com.android.nfc","Start":"12-19-2013 23:11:15","End":"12-19-2013 23:16:16"}}
{"Application":{"ProcessName":"com.mediatek.bluetooth","Start":"12-19-2013 23:11:15","End":"12-19-2013 23:16:16"}}
{"Application":{"ProcessName":"com.goodreads","Start":"12-19-2013 23:11:35","End":"12-19-2013 23:16:36"}}
{"Application":{"ProcessName":"com.goodreads","Start":"12-19-2013 23:16:36","End":"12-19-2013 23:19:06"}}
{"Application":{"ProcessName":"com.mediatek.thermalmanager","Start":"12-19-2013 23:16:16","End":"12-19-2013 23:30:11"}}
{"Application":{"ProcessName":"com.android.launcher","Start":"12-19-2013 23:19:06","End":"12-19-2013 23:30:11"}}
{"Application":{"ProcessName":"com.android.nfc","Start":"12-19-2013 23:16:16","End":"12-19-2013 23:30:11"}}
{"Application":{"ProcessName":"com.mediatek.bluetooth","Start":"12-19-2013 23:16:16","End":"12-19-2013 23:30:11"}}
{"Application":{"ProcessName":"com.android.launcher","Start":"12-19-2013 23:32:18","End":"12-19-2013 23:32:31"}}
{"Application":{"ProcessName":"com.mediatek.thermalmanager","Start":"12-19-2013 23:32:18","End":"12-19-2013 23:34:11"}}
{"Application":{"ProcessName":"com.lslk.sleepbot","Start":"12-19-2013 23:32:31","End":"12-19-2013 23:34:11"}}
{"Application":{"ProcessName":"com.android.nfc","Start":"12-19-2013 23:32:18","End":"12-19-2013 23:34:11"}}
{"Application":{"ProcessName":"com.mediatek.bluetooth","Start":"12-19-2013 23:32:18","End":"12-19-2013 23:34:11"}}
{"Application":{"ProcessName":"com.lslk.sleepbot","Start":"12-20-2013 07:41:36","End":"12-20-2013 07:42:06"}}
{"Application":{"ProcessName":"com.android.launcher","Start":"12-20-2013 07:42:06","End":"12-20-2013 07:42:26"}}
{"Application":{"ProcessName":"com.lslk.sleepbot","Start":"12-20-2013 07:42:26","End":"12-20-2013 07:42:36"}}
{"Application":{"ProcessName":"com.mediatek.thermalmanager","Start":"12-20-2013 07:41:36","End":"12-20-2013 07:42:46"}}
{"Application":{"ProcessName":"com.android.launcher","Start":"12-20-2013 07:42:36","End":"12-20-2013 07:42:46"}}
{"Application":{"ProcessName":"com.android.nfc","Start":"12-20-2013 07:41:36","End":"12-20-2013 07:42:46"}}
{"Application":{"ProcessName":"com.mediatek.bluetooth","Start":"12-20-2013 07:41:36","End":"12-20-2013 07:42:46"}}
{"Application":{"ProcessName":"com.android.contacts","Start":"12-20-2013 08:23:34","End":"12-20-2013 08:24:45"}}
{"Application":{"ProcessName":"com.android.settings","Start":"12-20-2013 08:25:05","End":"12-20-2013 08:25:15"}}
{"Application":{"ProcessName":"com.android.contacts","Start":"12-20-2013 08:24:55","End":"12-20-2013 08:26:05"}}
{"Application":{"ProcessName":"com.android.launcher","Start":"12-20-2013 08:25:55","End":"12-20-2013 08:26:05"}}
{"Application":{"ProcessName":"com.mediatek.thermalmanager","Start":"12-20-2013 08:23:34","End":"12-20-2013 08:28:35"}}
{"Application":{"ProcessName":"com.android.nfc","Start":"12-20-2013 08:23:34","End":"12-20-2013 08:28:35"}}
{"Application":{"ProcessName":"com.mediatek.bluetooth","Start":"12-20-2013 08:23:34","End":"12-20-2013 08:28:35"}}
{"Application":{"ProcessName":"com.tencent.mm","Start":"12-20-2013 08:26:05","End":"12-20-2013 08:29:55"}}
{"Application":{"ProcessName":"com.tencent.mm:tools","Start":"12-20-2013 08:29:55","End":"12-20-2013 08:31:15"}}
{"Application":{"ProcessName":"com.mediatek.thermalmanager","Start":"12-20-2013 08:28:35","End":"12-20-2013 08:31:15"}}
{"Application":{"ProcessName":"com.android.nfc","Start":"12-20-2013 08:28:35","End":"12-20-2013 08:31:15"}}
{"Application":{"ProcessName":"com.mediatek.bluetooth","Start":"12-20-2013 08:28:35","End":"12-20-2013 08:31:15"}}
{"Application":{"ProcessName":"com.tencent.mm:tools","Start":"12-20-2013 08:32:16","End":"12-20-2013 08:32:26"}}
{"Application":{"ProcessName":"com.mediatek.thermalmanager","Start":"12-20-2013 08:32:16","End":"12-20-2013 08:35:36"}}
{"Application":{"ProcessName":"com.tencent.mm","Start":"12-20-2013 08:32:26","End":"12-20-2013 08:35:36"}}
{"Application":{"ProcessName":"com.android.nfc","Start":"12-20-2013 08:32:16","End":"12-20-2013 08:35:36"}}
{"Application":{"ProcessName":"com.mediatek.bluetooth","Start":"12-20-2013 08:32:16","End":"12-20-2013 08:35:36"}}
{"Application":{"ProcessName":"com.android.settings","Start":"12-20-2013 15:30:24","End":"12-20-2013 15:30:34"}}
{"Application":{"ProcessName":"com.android.contacts","Start":"12-20-2013 15:30:44","End":"12-20-2013 15:30:44"}}
{"Application":{"ProcessName":"com.jbook","Start":"12-20-2013 15:31:04","End":"12-20-2013 15:31:14"}}
{"Application":{"ProcessName":"com.android.exchange","Start":"12-20-2013 15:29:44","End":"12-20-2013 15:34:44"}}
{"Application":{"ProcessName":"com.mediatek.thermalmanager","Start":"12-20-2013 15:29:44","End":"12-20-2013 15:34:44"}}
{"Application":{"ProcessName":"com.mediatek.bluetooth","Start":"12-20-2013 15:29:44","End":"12-20-2013 15:34:44"}}
{"Application":{"ProcessName":"com.android.nfc","Start":"12-20-2013 15:29:44","End":"12-20-2013 15:34:44"}}
{"Application":{"ProcessName":"com.whatsapp","Start":"12-20-2013 15:29:44","End":"12-20-2013 15:34:44"}}
{"Application":{"ProcessName":"com.android.exchange","Start":"12-20-2013 15:34:44","End":"12-20-2013 15:39:45"}}
{"Application":{"ProcessName":"com.mediatek.thermalmanager","Start":"12-20-2013 15:34:44","End":"12-20-2013 15:39:45"}}
{"Application":{"ProcessName":"com.mediatek.bluetooth","Start":"12-20-2013 15:34:44","End":"12-20-2013 15:39:45"}}
{"Application":{"ProcessName":"com.android.nfc","Start":"12-20-2013 15:34:44","End":"12-20-2013 15:39:45"}}
{"Application":{"ProcessName":"com.whatsapp","Start":"12-20-2013 15:34:44","End":"12-20-2013 15:39:45"}}
{"Application":{"ProcessName":"com.android.exchange","Start":"12-20-2013 15:39:45","End":"12-20-2013 15:43:15"}}
{"Application":{"ProcessName":"com.mediatek.thermalmanager","Start":"12-20-2013 15:39:45","End":"12-20-2013 15:43:15"}}
{"Application":{"ProcessName":"com.mediatek.bluetooth","Start":"12-20-2013 15:39:45","End":"12-20-2013 15:43:15"}}
{"Application":{"ProcessName":"com.android.nfc","Start":"12-20-2013 15:39:45","End":"12-20-2013 15:43:15"}}
{"Application":{"ProcessName":"com.whatsapp","Start":"12-20-2013 15:39:45","End":"12-20-2013 15:43:15"}}
{"Application":{"ProcessName":"jp.naver.line.android","Start":"12-20-2013 16:02:42","End":"12-20-2013 16:02:45"}}
{"Application":{"ProcessName":"com.whatsapp","Start":"12-20-2013 16:02:42","End":"12-20-2013 16:07:03"}}
{"Application":{"ProcessName":"com.android.launcher","Start":"12-20-2013 16:07:03","End":"12-20-2013 16:07:13"}}
{"Application":{"ProcessName":"com.whatsapp","Start":"12-20-2013 16:17:12","End":"12-20-2013 16:19:43"}}
{"Application":{"ProcessName":"com.tencent.mm:push","Start":"12-20-2013 16:21:33","End":"12-20-2013 16:21:43"}}
{"Application":{"ProcessName":"com.tencent.mm","Start":"12-20-2013 16:19:33","End":"12-20-2013 16:21:43"}}
{"Application":{"ProcessName":"com.android.exchange","Start":"12-20-2013 16:17:12","End":"12-20-2013 16:21:43"}}
{"Application":{"ProcessName":"com.mediatek.thermalmanager","Start":"12-20-2013 16:17:12","End":"12-20-2013 16:21:43"}}
{"Application":{"ProcessName":"com.android.launcher","Start":"12-20-2013 16:21:43","End":"12-20-2013 16:21:43"}}
{"Application":{"ProcessName":"com.mediatek.bluetooth","Start":"12-20-2013 16:17:12","End":"12-20-2013 16:21:43"}}
{"Application":{"ProcessName":"com.android.nfc","Start":"12-20-2013 16:17:12","End":"12-20-2013 16:21:43"}}
{"Application":{"ProcessName":"com.android.launcher","Start":"12-20-2013 16:28:38","End":"12-20-2013 16:28:58"}}
{"Application":{"ProcessName":"com.whatsapp","Start":"12-20-2013 16:28:58","End":"12-20-2013 16:30:29"}}
{"Application":{"ProcessName":"com.android.launcher","Start":"12-20-2013 16:30:29","End":"12-20-2013 16:30:39"}}
{"Application":{"ProcessName":"com.android.exchange","Start":"12-20-2013 16:28:38","End":"12-20-2013 16:33:39"}}
{"Application":{"ProcessName":"com.mediatek.thermalmanager","Start":"12-20-2013 16:28:38","End":"12-20-2013 16:33:39"}}
{"Application":{"ProcessName":"com.mediatek.bluetooth","Start":"12-20-2013 16:28:38","End":"12-20-2013 16:33:39"}}
{"Application":{"ProcessName":"com.android.nfc","Start":"12-20-2013 16:28:38","End":"12-20-2013 16:33:39"}}
{"Application":{"ProcessName":"com.whatsapp","Start":"12-20-2013 16:30:39","End":"12-20-2013 16:35:39"}}
{"Application":{"ProcessName":"com.whatsapp","Start":"12-20-2013 16:35:39","End":"12-20-2013 16:37:00"}}
{"Application":{"ProcessName":"com.android.exchange","Start":"12-20-2013 16:33:39","End":"12-20-2013 16:38:00"}}
{"Application":{"ProcessName":"com.mediatek.thermalmanager","Start":"12-20-2013 16:33:39","End":"12-20-2013 16:38:00"}}
{"Application":{"ProcessName":"com.android.launcher","Start":"12-20-2013 16:37:00","End":"12-20-2013 16:38:00"}}
{"Application":{"ProcessName":"com.mediatek.bluetooth","Start":"12-20-2013 16:33:39","End":"12-20-2013 16:38:00"}}
{"Application":{"ProcessName":"com.android.nfc","Start":"12-20-2013 16:33:39","End":"12-20-2013 16:38:00"}}
{"Application":{"ProcessName":"com.android.exchange","Start":"12-20-2013 19:08:21","End":"12-20-2013 19:11:57"}}
{"Application":{"ProcessName":"com.mediatek.thermalmanager","Start":"12-20-2013 19:08:21","End":"12-20-2013 19:11:57"}}
{"Application":{"ProcessName":"com.android.launcher","Start":"12-20-2013 19:08:21","End":"12-20-2013 19:11:57"}}
{"Application":{"ProcessName":"com.mediatek.bluetooth","Start":"12-20-2013 19:08:21","End":"12-20-2013 19:11:57"}}
{"Application":{"ProcessName":"com.android.nfc","Start":"12-20-2013 19:08:21","End":"12-20-2013 19:11:57"}}
{"Application":{"ProcessName":"com.lslk.sleepbot","Start":"12-20-2013 19:39:32","End":"12-20-2013 19:39:33"}}
{"Application":{"ProcessName":"com.android.launcher","Start":"12-20-2013 19:39:32","End":"12-20-2013 19:39:43"}}
{"Application":{"ProcessName":"com.whatsapp","Start":"12-20-2013 19:39:43","End":"12-20-2013 19:41:33"}}
{"Application":{"ProcessName":"com.tencent.mm","Start":"12-20-2013 19:41:23","End":"12-20-2013 19:41:43"}}
{"Application":{"ProcessName":"com.whatsapp","Start":"12-20-2013 19:41:43","End":"12-20-2013 19:42:43"}}
{"Application":{"ProcessName":"com.android.exchange","Start":"12-20-2013 19:39:32","End":"12-20-2013 19:43:43"}}
{"Application":{"ProcessName":"com.mediatek.thermalmanager","Start":"12-20-2013 19:39:32","End":"12-20-2013 19:43:43"}}
{"Application":{"ProcessName":"com.android.launcher","Start":"12-20-2013 19:42:43","End":"12-20-2013 19:43:43"}}
{"Application":{"ProcessName":"com.mediatek.bluetooth","Start":"12-20-2013 19:39:32","End":"12-20-2013 19:43:43"}}
{"Application":{"ProcessName":"com.android.nfc","Start":"12-20-2013 19:39:32","End":"12-20-2013 19:43:43"}}
{"Application":{"ProcessName":"com.android.exchange","Start":"12-20-2013 19:44:43","End":"12-20-2013 19:45:43"}}
{"Application":{"ProcessName":"com.mediatek.thermalmanager","Start":"12-20-2013 19:44:43","End":"12-20-2013 19:45:43"}}
{"Application":{"ProcessName":"com.android.launcher","Start":"12-20-2013 19:44:43","End":"12-20-2013 19:45:43"}}
{"Application":{"ProcessName":"com.mediatek.bluetooth","Start":"12-20-2013 19:44:43","End":"12-20-2013 19:45:43"}}
{"Application":{"ProcessName":"com.android.nfc","Start":"12-20-2013 19:44:43","End":"12-20-2013 19:45:43"}}
{"Application":{"ProcessName":"com.android.launcher","Start":"12-20-2013 19:58:43","End":"12-20-2013 19:58:53"}}
{"Application":{"ProcessName":"com.yahoo.mobile.client.android.im","Start":"12-20-2013 21:13:59","End":"12-20-2013 21:14:09"}}
{"Application":{"ProcessName":"jp.naver.line.android","Start":"12-20-2013 21:14:09","End":"12-20-2013 21:14:20"}}
{"Application":{"ProcessName":"com.mediatek.thermalmanager","Start":"12-20-2013 21:13:59","End":"12-20-2013 21:14:40"}}
{"Application":{"ProcessName":"com.android.launcher","Start":"12-20-2013 21:13:59","End":"12-20-2013 21:14:40"}}
{"Application":{"ProcessName":"com.android.nfc","Start":"12-20-2013 21:13:59","End":"12-20-2013 21:14:40"}}
{"Application":{"ProcessName":"com.mediatek.bluetooth","Start":"12-20-2013 21:13:59","End":"12-20-2013 21:14:40"}}
{"Application":{"ProcessName":"com.android.launcher","Start":"12-20-2013 22:23:39","End":"12-20-2013 22:23:49"}}
{"Application":{"ProcessName":"com.mediatek.thermalmanager","Start":"12-20-2013 22:23:39","End":"12-20-2013 22:23:59"}}
{"Application":{"ProcessName":"com.android.contacts","Start":"12-20-2013 22:23:49","End":"12-20-2013 22:23:59"}}
{"Application":{"ProcessName":"com.android.nfc","Start":"12-20-2013 22:23:39","End":"12-20-2013 22:23:59"}}
{"Application":{"ProcessName":"com.mediatek.bluetooth","Start":"12-20-2013 22:23:39","End":"12-20-2013 22:23:59"}}
{"Call": {"Number":"+98912486####","Duration":"215","Time":"12-20-2013 22:23:53","Type":"2"}}
{"Call": {"Number":"+98912486####","Duration":"215","Time":"12-20-2013 22:23:53","Type":"2"}}
{"Application":{"ProcessName":"com.android.contacts","Start":"12-20-2013 22:27:50","End":"12-20-2013 22:27:51"}}
{"SMS":{"Address":"+98300####","type":"1","date":"12-17-2013 16:00:33","body":"ANONYMIZED","Type":"1", "metadata": {"name": ""}}}
{"SMS":{"Address":"RighTel","type":"1","date":"12-20-2013 22:27:56","body":"ANONYMIZED","Type":"1", "metadata": {"name": ""}}}
{"Application":{"ProcessName":"com.android.launcher","Start":"12-20-2013 22:27:51","End":"12-20-2013 22:28:00"}}
{"Application":{"ProcessName":"com.time.ir","Start":"12-20-2013 22:28:00","End":"12-20-2013 22:28:50"}}
{"SMS":{"Address":"+98300####","type":"1","date":"12-17-2013 16:00:33","body":"ANONYMIZED","Type":"1", "metadata": {"name": ""}}}
{"Application":{"ProcessName":"com.android.launcher","Start":"12-20-2013 22:28:50","End":"12-20-2013 22:29:01"}}
{"Application":{"ProcessName":"com.android.mms","Start":"12-20-2013 22:29:01","End":"12-20-2013 22:29:11"}}
{"Application":{"ProcessName":"com.android.launcher","Start":"12-20-2013 23:14:13","End":"12-20-2013 23:14:33"}}
{"Application":{"ProcessName":"com.pcvirt.Computer","Start":"12-20-2013 23:14:33","End":"12-20-2013 23:15:13"}}
{"Application":{"ProcessName":"com.android.packageinstaller","Start":"12-20-2013 23:15:13","End":"12-20-2013 23:15:33"}}
{"Application":{"ProcessName":"com.sand.airdroid:push","Start":"12-20-2013 23:15:33","End":"12-20-2013 23:15:43"}}
{"Application":{"ProcessName":"com.sand.airdroid","Start":"12-20-2013 23:15:33","End":"12-20-2013 23:15:43"}}
{"Application":{"ProcessName":"jp.naver.line.android","Start":"12-20-2013 23:15:54","End":"12-20-2013 23:16:04"}}
{"Application":{"ProcessName":"com.playstation.allstars.island","Start":"12-20-2013 23:15:33","End":"12-20-2013 23:16:44"}}
{"Application":{"ProcessName":"com.pcvirt.Computer","Start":"12-20-2013 23:16:44","End":"12-20-2013 23:16:54"}}
{"Application":{"ProcessName":"com.playstation.allstars.island","Start":"12-20-2013 23:16:54","End":"12-20-2013 23:17:04"}}
{"Application":{"ProcessName":"com.pcvirt.Computer","Start":"12-20-2013 23:17:04","End":"12-20-2013 23:17:14"}}
{"Application":{"ProcessName":"com.android.settings","Start":"12-20-2013 23:17:14","End":"12-20-2013 23:17:24"}}
{"Application":{"ProcessName":"com.farsitel.bazaar","Start":"12-20-2013 23:17:34","End":"12-20-2013 23:17:44"}}
{"Application":{"ProcessName":"com.android.packageinstaller","Start":"12-20-2013 23:17:24","End":"12-20-2013 23:17:44"}}
{"Application":{"ProcessName":"com.mediatek.thermalmanager","Start":"12-20-2013 23:14:13","End":"12-20-2013 23:19:14"}}
{"Application":{"ProcessName":"com.android.nfc","Start":"12-20-2013 23:14:13","End":"12-20-2013 23:19:14"}}
{"Application":{"ProcessName":"com.mediatek.bluetooth","Start":"12-20-2013 23:14:13","End":"12-20-2013 23:19:14"}}
{"Application":{"ProcessName":"air.realhorrorstories.tk","Start":"12-20-2013 23:17:44","End":"12-20-2013 23:19:34"}}
{"Application":{"ProcessName":"com.android.launcher","Start":"12-20-2013 23:19:34","End":"12-20-2013 23:19:44"}}
{"Application":{"ProcessName":"air.realhorrorstories.tk","Start":"12-20-2013 23:19:44","End":"12-20-2013 23:23:15"}}
{"Application":{"ProcessName":"com.android.launcher","Start":"12-20-2013 23:23:15","End":"12-20-2013 23:23:25"}}
{"Application":{"ProcessName":"com.android.settings","Start":"12-20-2013 23:23:25","End":"12-20-2013 23:23:35"}}
{"Application":{"ProcessName":"com.mediatek.thermalmanager","Start":"12-20-2013 23:19:14","End":"12-20-2013 23:24:15"}}
{"Application":{"ProcessName":"com.android.nfc","Start":"12-20-2013 23:19:14","End":"12-20-2013 23:24:15"}}
{"Application":{"ProcessName":"com.mediatek.bluetooth","Start":"12-20-2013 23:19:14","End":"12-20-2013 23:24:15"}}
{"Application":{"ProcessName":"air.realhorrorstories.tk","Start":"12-20-2013 23:23:35","End":"12-20-2013 23:28:35"}}
{"Application":{"ProcessName":"com.mediatek.thermalmanager","Start":"12-20-2013 23:24:15","End":"12-20-2013 23:29:15"}}
{"Application":{"ProcessName":"com.android.nfc","Start":"12-20-2013 23:24:15","End":"12-20-2013 23:29:15"}}
{"Application":{"ProcessName":"com.mediatek.bluetooth","Start":"12-20-2013 23:24:15","End":"12-20-2013 23:29:15"}}
