{"Bluetooth":{"name":"Morvarid","address":"98:52:B1:B0:40:B8","bond status":"none","time":"Wednesday, January 8, 2014 11:59:00 PM Iran Standard Time"}}
{"Bluetooth":{"name":"Morvarid","address":"98:52:B1:B0:40:B8","bond status":"none","time":"Wednesday, January 8, 2014 11:59:00 PM Iran Standard Time"}}
{"Bluetooth":{"name":"NO_DEVICENAME","address":"00:1C:D4:6F:CA:0D","bond status":"none","time":"Wednesday, January 8, 2014 11:59:00 PM Iran Standard Time"}}
{"Bluetooth":{"name":"NO_DEVICENAME","address":"00:1C:D4:6F:CA:0D","bond status":"none","time":"Wednesday, January 8, 2014 11:59:00 PM Iran Standard Time"}}
{"Bluetooth":{"name":"NO_DEVICENAME","address":"5C:F6:DC:0D:C2:21","bond status":"none","time":"Wednesday, January 8, 2014 11:59:00 PM Iran Standard Time"}}
{"Bluetooth":{"name":"NO_DEVICENAME","address":"5C:F6:DC:0D:C2:21","bond status":"none","time":"Wednesday, January 8, 2014 11:59:00 PM Iran Standard Time"}}
{"Application":{"ProcessName":"com.mediatek.thermalmanager","Start":"1-8-2014 23:56:08","End":"1-9-2014 00:01:09"}}
{"Application":{"ProcessName":"com.android.gallery3d","Start":"1-9-2014 00:00:59","End":"1-9-2014 00:01:09"}}
{"Application":{"ProcessName":"com.mediatek.bluetooth","Start":"1-8-2014 23:56:08","End":"1-9-2014 00:01:09"}}
{"Application":{"ProcessName":"com.android.nfc","Start":"1-8-2014 23:56:08","End":"1-9-2014 00:01:09"}}
{"Application":{"ProcessName":"com.mediatek.thermalmanager","Start":"1-9-2014 00:01:09","End":"1-9-2014 00:02:09"}}
{"Application":{"ProcessName":"com.android.settings","Start":"1-9-2014 00:01:09","End":"1-9-2014 00:02:09"}}
{"Application":{"ProcessName":"com.mediatek.bluetooth","Start":"1-9-2014 00:01:09","End":"1-9-2014 00:02:09"}}
{"Application":{"ProcessName":"com.android.nfc","Start":"1-9-2014 00:01:09","End":"1-9-2014 00:02:09"}}
{"Application":{"ProcessName":"jp.naver.line.android","Start":"1-9-2014 00:03:57","End":"1-9-2014 00:04:07"}}
{"Application":{"ProcessName":"com.android.settings","Start":"1-9-2014 00:03:57","End":"1-9-2014 00:04:07"}}
{"Application":{"ProcessName":"com.android.gallery3d","Start":"1-9-2014 00:04:07","End":"1-9-2014 00:05:37"}}
{"Application":{"ProcessName":"com.mediatek.thermalmanager","Start":"1-9-2014 00:03:57","End":"1-9-2014 00:11:05"}}
{"Application":{"ProcessName":"com.android.launcher","Start":"1-9-2014 00:05:37","End":"1-9-2014 00:11:05"}}
{"Application":{"ProcessName":"com.android.nfc","Start":"1-9-2014 00:03:57","End":"1-9-2014 00:11:05"}}
{"Application":{"ProcessName":"com.mediatek.bluetooth","Start":"1-9-2014 00:03:57","End":"1-9-2014 00:11:05"}}
{"Application":{"ProcessName":"tv.chidare","Start":"1-9-2014 10:30:39","End":"1-9-2014 10:31:29"}}
{"Application":{"ProcessName":"com.android.launcher","Start":"1-9-2014 10:31:29","End":"1-9-2014 10:31:49"}}
{"Application":{"ProcessName":"com.android.settings","Start":"1-9-2014 10:31:59","End":"1-9-2014 10:31:59"}}
{"Application":{"ProcessName":"com.mediatek.thermalmanager","Start":"1-9-2014 10:30:39","End":"1-9-2014 10:35:40"}}
{"Application":{"ProcessName":"com.android.nfc","Start":"1-9-2014 10:30:39","End":"1-9-2014 10:35:40"}}
{"Application":{"ProcessName":"com.mediatek.bluetooth","Start":"1-9-2014 10:30:39","End":"1-9-2014 10:35:40"}}
{"Application":{"ProcessName":"com.socialnmobile.dictapps.notepad.color.note","Start":"1-9-2014 10:31:49","End":"1-9-2014 10:35:40"}}
{"Application":{"ProcessName":"com.mediatek.thermalmanager","Start":"1-9-2014 10:35:40","End":"1-9-2014 10:38:08"}}
{"Application":{"ProcessName":"com.android.launcher","Start":"1-9-2014 10:35:40","End":"1-9-2014 10:38:08"}}
{"Application":{"ProcessName":"com.android.nfc","Start":"1-9-2014 10:35:40","End":"1-9-2014 10:38:08"}}
{"Application":{"ProcessName":"com.mediatek.bluetooth","Start":"1-9-2014 10:35:40","End":"1-9-2014 10:38:08"}}
{"Call": {"Number":"+98939218####","Duration":"10","Time":"1-9-2014 11:05:41","Type":"1"}}
{"Application":{"ProcessName":"com.nomad.whosthat","Start":"1-9-2014 11:06:18","End":"1-9-2014 11:14:11"}}
{"Application":{"ProcessName":"com.mediatek.thermalmanager","Start":"1-9-2014 11:05:47","End":"1-9-2014 11:14:11"}}
{"Application":{"ProcessName":"com.android.nfc","Start":"1-9-2014 11:05:47","End":"1-9-2014 11:14:11"}}
{"Application":{"ProcessName":"com.mediatek.bluetooth","Start":"1-9-2014 11:05:47","End":"1-9-2014 11:14:11"}}
{"Application":{"ProcessName":"com.appmk.Tehran.Tehran","Start":"1-9-2014 11:34:49","End":"1-9-2014 11:34:58"}}
{"Application":{"ProcessName":"jp.naver.line.android","Start":"1-9-2014 11:34:58","End":"1-9-2014 11:35:08"}}
{"Application":{"ProcessName":"com.nomad.whosthat","Start":"1-9-2014 11:34:48","End":"1-9-2014 11:35:08"}}
{"Application":{"ProcessName":"com.mediatek.thermalmanager","Start":"1-9-2014 11:34:48","End":"1-9-2014 11:40:15"}}
{"Application":{"ProcessName":"com.android.launcher","Start":"1-9-2014 11:35:08","End":"1-9-2014 11:40:15"}}
{"Application":{"ProcessName":"com.android.nfc","Start":"1-9-2014 11:34:48","End":"1-9-2014 11:40:15"}}
{"Application":{"ProcessName":"com.mediatek.bluetooth","Start":"1-9-2014 11:34:48","End":"1-9-2014 11:40:15"}}
{"Application":{"ProcessName":"com.viber.voip","Start":"1-9-2014 19:59:07","End":"1-9-2014 19:59:47"}}
{"Application":{"ProcessName":"com.android.launcher","Start":"1-9-2014 19:59:47","End":"1-9-2014 20:00:11"}}
{"Application":{"ProcessName":"com.viber.voip","Start":"1-9-2014 20:00:11","End":"1-9-2014 20:00:51"}}
{"Application":{"ProcessName":"com.android.launcher","Start":"1-9-2014 20:00:51","End":"1-9-2014 20:01:17"}}
{"Application":{"ProcessName":"com.viber.voip","Start":"1-9-2014 20:01:17","End":"1-9-2014 20:01:28"}}
{"Application":{"ProcessName":"com.mediatek.thermalmanager","Start":"1-9-2014 19:59:07","End":"1-9-2014 20:01:38"}}
{"Application":{"ProcessName":"com.android.launcher","Start":"1-9-2014 20:01:28","End":"1-9-2014 20:01:38"}}
{"Application":{"ProcessName":"com.android.nfc","Start":"1-9-2014 19:59:07","End":"1-9-2014 20:01:38"}}
{"Application":{"ProcessName":"com.mediatek.bluetooth","Start":"1-9-2014 19:59:07","End":"1-9-2014 20:01:38"}}
{"Application":{"ProcessName":"com.lslk.sleepbot","Start":"1-9-2014 20:25:17","End":"1-9-2014 20:25:17"}}
{"Application":{"ProcessName":"com.android.launcher","Start":"1-9-2014 20:25:17","End":"1-9-2014 20:25:27"}}
{"Application":{"ProcessName":"com.example.callmelater","Start":"1-9-2014 20:26:48","End":"1-9-2014 20:26:58"}}
{"Application":{"ProcessName":"com.android.mms","Start":"1-9-2014 20:25:27","End":"1-9-2014 20:26:58"}}
{"Application":{"ProcessName":"com.android.contacts","Start":"1-9-2014 20:26:58","End":"1-9-2014 20:27:18"}}
{"SMS":{"Address":"0912803####","type":"2","date":"1-9-2014 20:27:15","body":"ANONYMIZED","Type":"2", "metadata": {"name": "سامان اکبریان"}}}
{"Application":{"ProcessName":"com.android.mms","Start":"1-9-2014 20:27:18","End":"1-9-2014 20:27:38"}}
{"Application":{"ProcessName":"com.viber.voip","Start":"1-9-2014 20:27:38","End":"1-9-2014 20:29:08"}}
{"Application":{"ProcessName":"jp.naver.line.android","Start":"1-9-2014 20:29:08","End":"1-9-2014 20:29:18"}}
{"Application":{"ProcessName":"com.mediatek.thermalmanager","Start":"1-9-2014 20:25:17","End":"1-9-2014 20:30:18"}}
{"Application":{"ProcessName":"com.android.nfc","Start":"1-9-2014 20:25:17","End":"1-9-2014 20:30:18"}}
{"Application":{"ProcessName":"com.mediatek.bluetooth","Start":"1-9-2014 20:25:17","End":"1-9-2014 20:30:18"}}
{"Application":{"ProcessName":"com.new.download.links","Start":"1-9-2014 20:29:08","End":"1-9-2014 20:32:58"}}
{"Application":{"ProcessName":"com.android.packageinstaller","Start":"1-9-2014 20:32:58","End":"1-9-2014 20:33:08"}}
{"Application":{"ProcessName":"jp.naver.line.android","Start":"1-9-2014 20:33:28","End":"1-9-2014 20:33:38"}}
{"Application":{"ProcessName":"com.pcvirt.Computer","Start":"1-9-2014 20:33:08","End":"1-9-2014 20:34:38"}}
{"Application":{"ProcessName":"com.mediatek.thermalmanager","Start":"1-9-2014 20:30:18","End":"1-9-2014 20:35:22"}}
{"Application":{"ProcessName":"com.android.launcher","Start":"1-9-2014 20:34:38","End":"1-9-2014 20:35:22"}}
{"Application":{"ProcessName":"com.android.nfc","Start":"1-9-2014 20:30:18","End":"1-9-2014 20:35:22"}}
{"Application":{"ProcessName":"com.mediatek.bluetooth","Start":"1-9-2014 20:30:18","End":"1-9-2014 20:35:22"}}
{"Application":{"ProcessName":"com.mediatek.thermalmanager","Start":"1-9-2014 20:35:22","End":"1-9-2014 20:40:22"}}
{"Application":{"ProcessName":"com.distdevs.deadrunner","Start":"1-9-2014 20:35:22","End":"1-9-2014 20:40:22"}}
{"Application":{"ProcessName":"com.android.nfc","Start":"1-9-2014 20:35:22","End":"1-9-2014 20:40:22"}}
{"Application":{"ProcessName":"com.mediatek.bluetooth","Start":"1-9-2014 20:35:22","End":"1-9-2014 20:40:22"}}
{"Application":{"ProcessName":"com.mediatek.thermalmanager","Start":"1-9-2014 20:40:22","End":"1-9-2014 20:45:23"}}
{"Application":{"ProcessName":"com.distdevs.deadrunner","Start":"1-9-2014 20:40:22","End":"1-9-2014 20:45:23"}}
{"Application":{"ProcessName":"com.android.nfc","Start":"1-9-2014 20:40:22","End":"1-9-2014 20:45:23"}}
{"Application":{"ProcessName":"com.mediatek.bluetooth","Start":"1-9-2014 20:40:22","End":"1-9-2014 20:45:23"}}
{"Application":{"ProcessName":"com.mediatek.thermalmanager","Start":"1-9-2014 20:45:23","End":"1-9-2014 20:50:23"}}
{"Application":{"ProcessName":"com.distdevs.deadrunner","Start":"1-9-2014 20:45:23","End":"1-9-2014 20:50:23"}}
{"Application":{"ProcessName":"com.android.nfc","Start":"1-9-2014 20:45:23","End":"1-9-2014 20:50:23"}}
{"Application":{"ProcessName":"com.mediatek.bluetooth","Start":"1-9-2014 20:45:23","End":"1-9-2014 20:50:23"}}
{"Application":{"ProcessName":"com.distdevs.deadrunner","Start":"1-9-2014 20:50:23","End":"1-9-2014 20:50:43"}}
{"SMS":{"Address":"0912803####","type":"2","date":"1-9-2014 21:22:58","body":"ANONYMIZED","Type":"2", "metadata": {"name": "سامان اکبریان"}}}
{"SMS":{"Address":"0912803####","type":"2","date":"1-9-2014 21:23:20","body":"ANONYMIZED","Type":"2", "metadata": {"name": "سامان اکبریان"}}}
{"SMS":{"Address":"+98912803####","type":"1","date":"1-9-2014 21:24:11","body":"ANONYMIZED","Type":"1", "metadata": {"name": "سامان اکبریان"}}}
{"Application":{"ProcessName":"com.lslk.sleepbot","Start":"1-9-2014 21:26:00","End":"1-9-2014 21:26:09"}}
{"Application":{"ProcessName":"com.lslk.sleepbot","Start":"1-9-2014 21:27:00","End":"1-9-2014 21:27:00"}}
{"Application":{"ProcessName":"com.android.mms","Start":"1-9-2014 21:23:09","End":"1-9-2014 21:28:10"}}
{"Application":{"ProcessName":"com.mediatek.thermalmanager","Start":"1-9-2014 21:23:09","End":"1-9-2014 21:28:10"}}
{"Application":{"ProcessName":"com.android.nfc","Start":"1-9-2014 21:23:09","End":"1-9-2014 21:28:10"}}
{"Application":{"ProcessName":"com.mediatek.bluetooth","Start":"1-9-2014 21:23:09","End":"1-9-2014 21:28:10"}}
{"SMS":{"Address":"0912803####","type":"2","date":"1-9-2014 21:28:17","body":"ANONYMIZED","Type":"2", "metadata": {"name": "سامان اکبریان"}}}
{"Application":{"ProcessName":"com.android.mms","Start":"1-9-2014 21:28:10","End":"1-9-2014 21:30:20"}}
{"Application":{"ProcessName":"com.mediatek.thermalmanager","Start":"1-9-2014 21:28:10","End":"1-9-2014 21:30:20"}}
{"Application":{"ProcessName":"com.android.nfc","Start":"1-9-2014 21:28:10","End":"1-9-2014 21:30:20"}}
{"Application":{"ProcessName":"com.mediatek.bluetooth","Start":"1-9-2014 21:28:10","End":"1-9-2014 21:30:20"}}
{"Call": {"Number":"+98933600####","Duration":"154","Time":"1-9-2014 21:30:13","Type":"1"}}
{"Application":{"ProcessName":"com.android.launcher","Start":"1-9-2014 21:33:01","End":"1-9-2014 21:33:01"}}
{"Call": {"Number":"+98933600####","Duration":"154","Time":"1-9-2014 21:30:13","Type":"1"}}
{"Application":{"ProcessName":"com.android.contacts","Start":"1-9-2014 21:33:01","End":"1-9-2014 21:34:21"}}
{"Application":{"ProcessName":"com.yahoo.mobile.client.android.im","Start":"1-9-2014 21:35:09","End":"1-9-2014 21:35:19"}}
{"Application":{"ProcessName":"com.android.launcher","Start":"1-9-2014 21:34:21","End":"1-9-2014 21:35:19"}}
{"Application":{"ProcessName":"com.android.mms","Start":"1-9-2014 21:35:19","End":"1-9-2014 21:35:39"}}
{"Application":{"ProcessName":"com.android.contacts","Start":"1-9-2014 21:35:39","End":"1-9-2014 21:35:49"}}
{"Application":{"ProcessName":"com.android.mms","Start":"1-9-2014 21:35:49","End":"1-9-2014 21:36:10"}}
{"SMS":{"Address":"+98933600####","type":"2","date":"1-9-2014 21:36:04","body":"ANONYMIZED","Type":"2", "metadata": {"name": "اکبر سلیمان زاده"}}}
{"Application":{"ProcessName":"com.android.contacts","Start":"1-9-2014 21:36:10","End":"1-9-2014 21:37:00"}}
{"Application":{"ProcessName":"com.lslk.sleepbot","Start":"1-9-2014 21:37:00","End":"1-9-2014 21:37:00"}}
{"Application":{"ProcessName":"ir.tgbs.android.iranapp","Start":"1-9-2014 21:37:00","End":"1-9-2014 21:37:20"}}
{"Application":{"ProcessName":"com.android.launcher","Start":"1-9-2014 21:37:20","End":"1-9-2014 21:37:30"}}
{"Application":{"ProcessName":"com.mediatek.thermalmanager","Start":"1-9-2014 21:33:01","End":"1-9-2014 21:38:10"}}
{"Application":{"ProcessName":"com.android.nfc","Start":"1-9-2014 21:33:01","End":"1-9-2014 21:38:10"}}
{"Application":{"ProcessName":"com.mediatek.bluetooth","Start":"1-9-2014 21:33:01","End":"1-9-2014 21:38:10"}}
{"Application":{"ProcessName":"com.nothio.plazza","Start":"1-9-2014 21:37:30","End":"1-9-2014 21:42:30"}}
{"Application":{"ProcessName":"com.mediatek.thermalmanager","Start":"1-9-2014 21:38:10","End":"1-9-2014 21:43:10"}}
{"Application":{"ProcessName":"com.android.nfc","Start":"1-9-2014 21:38:10","End":"1-9-2014 21:43:10"}}
{"Application":{"ProcessName":"com.mediatek.bluetooth","Start":"1-9-2014 21:38:10","End":"1-9-2014 21:43:10"}}
{"Application":{"ProcessName":"jp.naver.line.android","Start":"1-9-2014 21:43:40","End":"1-9-2014 21:43:50"}}
{"Application":{"ProcessName":"com.android.settings","Start":"1-9-2014 21:44:00","End":"1-9-2014 21:44:10"}}
{"Application":{"ProcessName":"com.nothio.plazza","Start":"1-9-2014 21:42:30","End":"1-9-2014 21:44:40"}}
{"Application":{"ProcessName":"com.android.gallery3d","Start":"1-9-2014 21:44:50","End":"1-9-2014 21:45:00"}}
{"Application":{"ProcessName":"com.android.packageinstaller","Start":"1-9-2014 21:44:40","End":"1-9-2014 21:45:00"}}
{"Application":{"ProcessName":"jp.naver.line.android","Start":"1-9-2014 21:45:10","End":"1-9-2014 21:45:20"}}
{"Application":{"ProcessName":"com.yahoo.mobile.client.android.im","Start":"1-9-2014 21:45:20","End":"1-9-2014 21:45:30"}}
