{"Application":{"ProcessName":"com.yahoo.mobile.client.android.im","Start":"12-19-2013 10:00:59","End":"12-19-2013 10:01:09"}}
{"Application":{"ProcessName":"com.mediatek.thermalmanager","Start":"12-19-2013 09:59:39","End":"12-19-2013 10:01:09"}}
{"Application":{"ProcessName":"com.android.contacts","Start":"12-19-2013 09:59:39","End":"12-19-2013 10:01:09"}}
{"Application":{"ProcessName":"com.android.nfc","Start":"12-19-2013 09:59:39","End":"12-19-2013 10:01:09"}}
{"Application":{"ProcessName":"com.mediatek.bluetooth","Start":"12-19-2013 09:59:39","End":"12-19-2013 10:01:09"}}
{"Application":{"ProcessName":"com.mediatek.thermalmanager","Start":"12-19-2013 10:10:39","End":"12-19-2013 10:10:49"}}
{"Application":{"ProcessName":"com.android.launcher","Start":"12-19-2013 10:10:39","End":"12-19-2013 10:10:49"}}
{"Application":{"ProcessName":"com.android.nfc","Start":"12-19-2013 10:10:39","End":"12-19-2013 10:10:49"}}
{"Application":{"ProcessName":"com.mediatek.bluetooth","Start":"12-19-2013 10:10:39","End":"12-19-2013 10:10:49"}}
{"Application":{"ProcessName":"com.mediatek.thermalmanager","Start":"12-19-2013 10:11:19","End":"12-19-2013 10:11:29"}}
{"Application":{"ProcessName":"com.android.nfc","Start":"12-19-2013 10:11:19","End":"12-19-2013 10:11:29"}}
{"Application":{"ProcessName":"com.mediatek.bluetooth","Start":"12-19-2013 10:11:19","End":"12-19-2013 10:11:29"}}
{"Call": {"Number":"+98912801####","Duration":"295","Time":"12-19-2013 10:10:43","Type":"2"}}
{"SMS":{"Address":"+98910210####","type":"2","date":"12-17-2013 20:39:24","body":"ANONYMIZED","Type":"2", "metadata": {"name": "حسن باقری منطقی"}}}
{"Application":{"ProcessName":"com.mediatek.thermalmanager","Start":"12-19-2013 10:16:19","End":"12-19-2013 10:16:40"}}
{"Application":{"ProcessName":"com.android.contacts","Start":"12-19-2013 10:16:29","End":"12-19-2013 10:16:40"}}
{"Application":{"ProcessName":"com.android.nfc","Start":"12-19-2013 10:16:19","End":"12-19-2013 10:16:40"}}
{"Application":{"ProcessName":"com.mediatek.bluetooth","Start":"12-19-2013 10:16:19","End":"12-19-2013 10:16:40"}}
{"SMS":{"Address":"RighTel","type":"1","date":"12-19-2013 10:16:34","body":"ANONYMIZED","Type":"1", "metadata": {"name": ""}}}
{"Application":{"ProcessName":"com.mediatek.thermalmanager","Start":"12-19-2013 10:20:21","End":"12-19-2013 10:20:31"}}
{"Application":{"ProcessName":"com.android.contacts","Start":"12-19-2013 10:20:21","End":"12-19-2013 10:20:31"}}
{"Application":{"ProcessName":"com.android.nfc","Start":"12-19-2013 10:20:21","End":"12-19-2013 10:20:31"}}
{"Application":{"ProcessName":"com.mediatek.bluetooth","Start":"12-19-2013 10:20:21","End":"12-19-2013 10:20:31"}}
{"Application":{"ProcessName":"com.android.launcher","Start":"12-19-2013 11:28:08","End":"12-19-2013 11:28:17"}}
{"Application":{"ProcessName":"com.android.mms","Start":"12-19-2013 11:28:17","End":"12-19-2013 11:29:28"}}
{"Application":{"ProcessName":"com.mediatek.thermalmanager","Start":"12-19-2013 11:28:08","End":"12-19-2013 11:29:28"}}
{"Application":{"ProcessName":"com.android.nfc","Start":"12-19-2013 11:28:08","End":"12-19-2013 11:29:28"}}
{"Application":{"ProcessName":"com.mediatek.bluetooth","Start":"12-19-2013 11:28:08","End":"12-19-2013 11:29:28"}}
{"Application":{"ProcessName":"com.android.mms","Start":"12-19-2013 11:44:28","End":"12-19-2013 11:44:38"}}
{"Application":{"ProcessName":"com.mediatek.thermalmanager","Start":"12-19-2013 11:44:28","End":"12-19-2013 11:45:15"}}
{"Application":{"ProcessName":"com.android.settings","Start":"12-19-2013 11:44:38","End":"12-19-2013 11:45:15"}}
{"Application":{"ProcessName":"com.android.nfc","Start":"12-19-2013 11:44:28","End":"12-19-2013 11:45:15"}}
{"Application":{"ProcessName":"com.mediatek.bluetooth","Start":"12-19-2013 11:44:28","End":"12-19-2013 11:45:15"}}
{"SMS":{"Address":"+98912549####","type":"1","date":"12-19-2013 11:45:57","body":"ANONYMIZED","Type":"1", "metadata": {"name": "آرین"}}}
{"Application":{"ProcessName":"com.android.launcher","Start":"12-19-2013 12:43:19","End":"12-19-2013 12:43:29"}}
{"SMS":{"Address":"0912549####","type":"2","date":"12-19-2013 12:44:40","body":"ANONYMIZED","Type":"2", "metadata": {"name": "آرین"}}}
{"SMS":{"Address":"+98912549####","type":"1","date":"12-19-2013 11:45:57","body":"ANONYMIZED","Type":"1", "metadata": {"name": "آرین"}}}
{"SMS":{"Address":"+98912549####","type":"1","date":"12-19-2013 11:21:33","body":"ANONYMIZED","Type":"1", "metadata": {"name": "آرین"}}}
{"SMS":{"Address":"+98910210####","type":"2","date":"12-17-2013 20:39:24","body":"ANONYMIZED","Type":"2", "metadata": {"name": "حسن باقری منطقی"}}}
{"Application":{"ProcessName":"com.lslk.sleepbot","Start":"12-19-2013 12:46:00","End":"12-19-2013 12:46:00"}}
{"SMS":{"Address":"+98910210####","type":"1","date":"12-17-2013 18:24:12","body":"ANONYMIZED","Type":"1", "metadata": {"name": "حسن باقری منطقی"}}}
{"SMS":{"Address":"+98300####","type":"1","date":"12-17-2013 16:00:33","body":"ANONYMIZED","Type":"1", "metadata": {"name": ""}}}
{"Application":{"ProcessName":"com.mediatek.thermalmanager","Start":"12-19-2013 12:43:19","End":"12-19-2013 12:48:20"}}
{"Application":{"ProcessName":"com.android.nfc","Start":"12-19-2013 12:43:19","End":"12-19-2013 12:48:20"}}
{"Application":{"ProcessName":"com.mediatek.bluetooth","Start":"12-19-2013 12:43:19","End":"12-19-2013 12:48:20"}}
{"Application":{"ProcessName":"com.android.launcher","Start":"12-19-2013 14:01:21","End":"12-19-2013 14:02:41"}}
{"Application":{"ProcessName":"com.mediatek.thermalmanager","Start":"12-19-2013 14:01:21","End":"12-19-2013 14:02:41"}}
{"Application":{"ProcessName":"com.mediatek.bluetooth","Start":"12-19-2013 14:01:21","End":"12-19-2013 14:02:41"}}
{"Application":{"ProcessName":"com.android.nfc","Start":"12-19-2013 14:01:21","End":"12-19-2013 14:02:41"}}
{"Application":{"ProcessName":"com.android.deskclock","Start":"12-19-2013 14:40:03","End":"12-19-2013 14:40:23"}}
{"Application":{"ProcessName":"com.dragon.android.mobomarket","Start":"12-19-2013 14:40:33","End":"12-19-2013 14:40:43"}}
{"Application":{"ProcessName":"com.android.launcher","Start":"12-19-2013 14:40:23","End":"12-19-2013 14:41:03"}}
{"Application":{"ProcessName":"com.mediatek.thermalmanager","Start":"12-19-2013 14:40:03","End":"12-19-2013 14:42:34"}}
{"Application":{"ProcessName":"com.android.deskclock","Start":"12-19-2013 14:41:03","End":"12-19-2013 14:42:34"}}
{"Application":{"ProcessName":"com.mediatek.bluetooth","Start":"12-19-2013 14:40:03","End":"12-19-2013 14:42:34"}}
{"Application":{"ProcessName":"com.android.nfc","Start":"12-19-2013 14:40:03","End":"12-19-2013 14:42:34"}}
{"SMS":{"Address":"+98300####","type":"1","date":"12-17-2013 16:00:33","body":"ANONYMIZED","Type":"1", "metadata": {"name": ""}}}
{"SMS":{"Address":"+98912801####","type":"1","date":"12-19-2013 14:48:22","body":"ANONYMIZED","Type":"1", "metadata": {"name": "ریحانه12"}}}
{"Application":{"ProcessName":"com.mediatek.thermalmanager","Start":"12-19-2013 15:10:07","End":"12-19-2013 15:10:18"}}
{"Application":{"ProcessName":"com.android.deskclock","Start":"12-19-2013 15:10:07","End":"12-19-2013 15:10:18"}}
{"Application":{"ProcessName":"com.mediatek.bluetooth","Start":"12-19-2013 15:10:07","End":"12-19-2013 15:10:18"}}
{"Application":{"ProcessName":"com.android.nfc","Start":"12-19-2013 15:10:07","End":"12-19-2013 15:10:18"}}
{"Application":{"ProcessName":"com.android.deskclock","Start":"12-19-2013 15:20:08","End":"12-19-2013 15:20:28"}}
{"Application":{"ProcessName":"com.android.launcher","Start":"12-19-2013 15:20:28","End":"12-19-2013 15:20:38"}}
{"Application":{"ProcessName":"com.android.mms","Start":"12-19-2013 15:20:38","End":"12-19-2013 15:21:39"}}
{"Application":{"ProcessName":"com.mediatek.thermalmanager","Start":"12-19-2013 15:20:08","End":"12-19-2013 15:21:39"}}
{"Application":{"ProcessName":"com.mediatek.bluetooth","Start":"12-19-2013 15:20:08","End":"12-19-2013 15:21:39"}}
{"Application":{"ProcessName":"com.android.nfc","Start":"12-19-2013 15:20:08","End":"12-19-2013 15:21:39"}}
{"Application":{"ProcessName":"com.android.contacts","Start":"12-19-2013 20:20:02","End":"12-19-2013 20:20:12"}}
{"SMS":{"Address":"+986823","type":"1","date":"12-19-2013 20:20:11","body":"ANONYMIZED","Type":"1", "metadata": {"name": ""}}}
{"Application":{"ProcessName":"com.android.launcher","Start":"12-19-2013 20:20:22","End":"12-19-2013 20:20:32"}}
{"Application":{"ProcessName":"com.android.mms","Start":"12-19-2013 20:20:32","End":"12-19-2013 20:21:02"}}
{"Application":{"ProcessName":"com.android.contacts","Start":"12-19-2013 20:21:02","End":"12-19-2013 20:21:12"}}
{"Application":{"ProcessName":"com.android.contacts","Start":"12-19-2013 20:23:02","End":"12-19-2013 20:23:12"}}
{"Application":{"ProcessName":"com.mediatek.thermalmanager","Start":"12-19-2013 20:20:02","End":"12-19-2013 20:24:37"}}
{"Application":{"ProcessName":"com.android.contacts","Start":"12-19-2013 20:23:22","End":"12-19-2013 20:24:37"}}
{"Application":{"ProcessName":"com.mediatek.bluetooth","Start":"12-19-2013 20:20:02","End":"12-19-2013 20:24:37"}}
{"Application":{"ProcessName":"com.android.nfc","Start":"12-19-2013 20:20:02","End":"12-19-2013 20:24:37"}}
{"Application":{"ProcessName":"com.android.launcher","Start":"12-19-2013 20:33:57","End":"12-19-2013 20:34:07"}}
{"Application":{"ProcessName":"com.tencent.mm","Start":"12-19-2013 20:34:07","End":"12-19-2013 20:36:38"}}
{"Application":{"ProcessName":"com.mediatek.thermalmanager","Start":"12-19-2013 20:33:57","End":"12-19-2013 20:36:48"}}
{"Application":{"ProcessName":"com.android.launcher","Start":"12-19-2013 20:36:38","End":"12-19-2013 20:36:48"}}
{"Application":{"ProcessName":"com.mediatek.bluetooth","Start":"12-19-2013 20:33:57","End":"12-19-2013 20:36:48"}}
{"Application":{"ProcessName":"com.android.nfc","Start":"12-19-2013 20:33:57","End":"12-19-2013 20:36:48"}}
{"Application":{"ProcessName":"com.mediatek.thermalmanager","Start":"12-19-2013 20:39:08","End":"12-19-2013 20:39:18"}}
{"Application":{"ProcessName":"com.android.launcher","Start":"12-19-2013 20:39:08","End":"12-19-2013 20:39:18"}}
{"Application":{"ProcessName":"com.mediatek.bluetooth","Start":"12-19-2013 20:39:08","End":"12-19-2013 20:39:18"}}
{"Application":{"ProcessName":"com.android.nfc","Start":"12-19-2013 20:39:08","End":"12-19-2013 20:39:18"}}
{"Application":{"ProcessName":"com.android.launcher","Start":"12-19-2013 20:39:28","End":"12-19-2013 20:39:38"}}
{"Application":{"ProcessName":"com.google.android.apps.uploader","Start":"12-19-2013 20:39:58","End":"12-19-2013 20:39:58"}}
{"Application":{"ProcessName":"com.new.download.links","Start":"12-19-2013 20:40:08","End":"12-19-2013 20:40:18"}}
{"WiFi":{"SSID":"Hamed-Dlink","BSSID":"34:08:04:17:84:03","capabilities":"[WPA2-PSK-CCMP][WPS][ESS]","level":"-48","frequency":"2412","time":"Thursday, December 19, 2013 8:40:27 PM Iran Standard Time"}}
{"WiFi":{"SSID":"kiarash","BSSID":"bc:76:70:0c:47:81","capabilities":"[WPA-PSK-TKIP+CCMP][WPA2-PSK-TKIP+CCMP][ESS]","level":"-77","frequency":"2437","time":"Thursday, December 19, 2013 8:40:27 PM Iran Standard Time"}}
{"WiFi":{"SSID":"trane23","BSSID":"28:3c:e4:35:3b:a1","capabilities":"[WPA-PSK-TKIP+CCMP][WPA2-PSK-TKIP+CCMP][ESS]","level":"-78","frequency":"2462","time":"Thursday, December 19, 2013 8:40:27 PM Iran Standard Time"}}
{"WiFi":{"SSID":"ehsan","BSSID":"10:c6:1f:22:88:0e","capabilities":"[WPA-PSK-CCMP][ESS]","level":"-80","frequency":"2432","time":"Thursday, December 19, 2013 8:40:27 PM Iran Standard Time"}}
{"WiFi":{"SSID":"FSK","BSSID":"1c:af:f7:b0:62:7a","capabilities":"[WEP][ESS]","level":"-75","frequency":"2462","time":"Thursday, December 19, 2013 8:40:27 PM Iran Standard Time"}}
{"WiFi":{"SSID":"Hamed-Dlink","BSSID":"34:08:04:17:84:03","capabilities":"[WPA2-PSK-CCMP][WPS][ESS]","level":"-48","frequency":"2412","time":"Thursday, December 19, 2013 8:40:27 PM Iran Standard Time"}}
{"WiFi":{"SSID":"kiarash","BSSID":"bc:76:70:0c:47:81","capabilities":"[WPA-PSK-TKIP+CCMP][WPA2-PSK-TKIP+CCMP][ESS]","level":"-77","frequency":"2437","time":"Thursday, December 19, 2013 8:40:27 PM Iran Standard Time"}}
{"WiFi":{"SSID":"trane23","BSSID":"28:3c:e4:35:3b:a1","capabilities":"[WPA-PSK-TKIP+CCMP][WPA2-PSK-TKIP+CCMP][ESS]","level":"-78","frequency":"2462","time":"Thursday, December 19, 2013 8:40:27 PM Iran Standard Time"}}
{"WiFi":{"SSID":"ehsan","BSSID":"10:c6:1f:22:88:0e","capabilities":"[WPA-PSK-CCMP][ESS]","level":"-80","frequency":"2432","time":"Thursday, December 19, 2013 8:40:27 PM Iran Standard Time"}}
{"WiFi":{"SSID":"FSK","BSSID":"1c:af:f7:b0:62:7a","capabilities":"[WEP][ESS]","level":"-75","frequency":"2462","time":"Thursday, December 19, 2013 8:40:27 PM Iran Standard Time"}}
{"Application":{"ProcessName":"jp.naver.line.android","Start":"12-19-2013 20:40:18","End":"12-19-2013 20:40:28"}}
{"WiFi":{"SSID":"Hamed-Dlink","BSSID":"34:08:04:17:84:03","capabilities":"[WPA2-PSK-CCMP][WPS][ESS]","level":"-48","frequency":"2412","time":"Thursday, December 19, 2013 8:41:27 PM Iran Standard Time"}}
{"WiFi":{"SSID":"kiarash","BSSID":"bc:76:70:0c:47:81","capabilities":"[WPA-PSK-TKIP+CCMP][WPA2-PSK-TKIP+CCMP][ESS]","level":"-77","frequency":"2437","time":"Thursday, December 19, 2013 8:41:27 PM Iran Standard Time"}}
{"WiFi":{"SSID":"trane23","BSSID":"28:3c:e4:35:3b:a1","capabilities":"[WPA-PSK-TKIP+CCMP][WPA2-PSK-TKIP+CCMP][ESS]","level":"-78","frequency":"2462","time":"Thursday, December 19, 2013 8:41:27 PM Iran Standard Time"}}
{"WiFi":{"SSID":"ehsan","BSSID":"10:c6:1f:22:88:0e","capabilities":"[WPA-PSK-CCMP][ESS]","level":"-80","frequency":"2432","time":"Thursday, December 19, 2013 8:41:27 PM Iran Standard Time"}}
{"WiFi":{"SSID":"FSK","BSSID":"1c:af:f7:b0:62:7a","capabilities":"[WEP][ESS]","level":"-75","frequency":"2462","time":"Thursday, December 19, 2013 8:41:27 PM Iran Standard Time"}}
{"WiFi":{"SSID":"Hamed-Dlink","BSSID":"34:08:04:17:84:03","capabilities":"[WPA2-PSK-CCMP][WPS][ESS]","level":"-48","frequency":"2412","time":"Thursday, December 19, 2013 8:41:27 PM Iran Standard Time"}}
{"WiFi":{"SSID":"kiarash","BSSID":"bc:76:70:0c:47:81","capabilities":"[WPA-PSK-TKIP+CCMP][WPA2-PSK-TKIP+CCMP][ESS]","level":"-77","frequency":"2437","time":"Thursday, December 19, 2013 8:41:27 PM Iran Standard Time"}}
{"WiFi":{"SSID":"trane23","BSSID":"28:3c:e4:35:3b:a1","capabilities":"[WPA-PSK-TKIP+CCMP][WPA2-PSK-TKIP+CCMP][ESS]","level":"-78","frequency":"2462","time":"Thursday, December 19, 2013 8:41:27 PM Iran Standard Time"}}
{"WiFi":{"SSID":"ehsan","BSSID":"10:c6:1f:22:88:0e","capabilities":"[WPA-PSK-CCMP][ESS]","level":"-80","frequency":"2432","time":"Thursday, December 19, 2013 8:41:27 PM Iran Standard Time"}}
{"WiFi":{"SSID":"FSK","BSSID":"1c:af:f7:b0:62:7a","capabilities":"[WEP][ESS]","level":"-75","frequency":"2462","time":"Thursday, December 19, 2013 8:41:27 PM Iran Standard Time"}}
{"WiFi":{"SSID":"Hamed-Dlink","BSSID":"34:08:04:17:84:03","capabilities":"[WPA2-PSK-CCMP][WPS][ESS]","level":"-48","frequency":"2412","time":"Thursday, December 19, 2013 8:42:27 PM Iran Standard Time"}}
{"WiFi":{"SSID":"kiarash","BSSID":"bc:76:70:0c:47:81","capabilities":"[WPA-PSK-TKIP+CCMP][WPA2-PSK-TKIP+CCMP][ESS]","level":"-77","frequency":"2437","time":"Thursday, December 19, 2013 8:42:27 PM Iran Standard Time"}}
{"WiFi":{"SSID":"trane23","BSSID":"28:3c:e4:35:3b:a1","capabilities":"[WPA-PSK-TKIP+CCMP][WPA2-PSK-TKIP+CCMP][ESS]","level":"-78","frequency":"2462","time":"Thursday, December 19, 2013 8:42:27 PM Iran Standard Time"}}
{"WiFi":{"SSID":"ehsan","BSSID":"10:c6:1f:22:88:0e","capabilities":"[WPA-PSK-CCMP][ESS]","level":"-80","frequency":"2432","time":"Thursday, December 19, 2013 8:42:27 PM Iran Standard Time"}}
{"WiFi":{"SSID":"FSK","BSSID":"1c:af:f7:b0:62:7a","capabilities":"[WEP][ESS]","level":"-75","frequency":"2462","time":"Thursday, December 19, 2013 8:42:27 PM Iran Standard Time"}}
{"WiFi":{"SSID":"Hamed-Dlink","BSSID":"34:08:04:17:84:03","capabilities":"[WPA2-PSK-CCMP][WPS][ESS]","level":"-48","frequency":"2412","time":"Thursday, December 19, 2013 8:42:27 PM Iran Standard Time"}}
{"WiFi":{"SSID":"kiarash","BSSID":"bc:76:70:0c:47:81","capabilities":"[WPA-PSK-TKIP+CCMP][WPA2-PSK-TKIP+CCMP][ESS]","level":"-77","frequency":"2437","time":"Thursday, December 19, 2013 8:42:27 PM Iran Standard Time"}}
{"WiFi":{"SSID":"trane23","BSSID":"28:3c:e4:35:3b:a1","capabilities":"[WPA-PSK-TKIP+CCMP][WPA2-PSK-TKIP+CCMP][ESS]","level":"-78","frequency":"2462","time":"Thursday, December 19, 2013 8:42:27 PM Iran Standard Time"}}
{"WiFi":{"SSID":"ehsan","BSSID":"10:c6:1f:22:88:0e","capabilities":"[WPA-PSK-CCMP][ESS]","level":"-80","frequency":"2432","time":"Thursday, December 19, 2013 8:42:27 PM Iran Standard Time"}}
{"WiFi":{"SSID":"FSK","BSSID":"1c:af:f7:b0:62:7a","capabilities":"[WEP][ESS]","level":"-75","frequency":"2462","time":"Thursday, December 19, 2013 8:42:27 PM Iran Standard Time"}}
{"Application":{"ProcessName":"com.mediatek.thermalmanager","Start":"12-19-2013 20:39:28","End":"12-19-2013 20:43:37"}}
{"Application":{"ProcessName":"com.tencent.mm","Start":"12-19-2013 20:39:38","End":"12-19-2013 20:43:37"}}
{"Application":{"ProcessName":"com.mediatek.bluetooth","Start":"12-19-2013 20:39:28","End":"12-19-2013 20:43:37"}}
{"Application":{"ProcessName":"com.android.nfc","Start":"12-19-2013 20:39:28","End":"12-19-2013 20:43:37"}}
{"WiFi":{"SSID":"Hamed-Dlink","BSSID":"34:08:04:17:84:03","capabilities":"[WPA2-PSK-CCMP][WPS][ESS]","level":"-63","frequency":"2412","time":"Thursday, December 19, 2013 8:44:58 PM Iran Standard Time"}}
{"WiFi":{"SSID":"My-Dlink","BSSID":"1c:af:f7:b5:8f:18","capabilities":"[WPA-PSK-TKIP+CCMP][WPA2-PSK-TKIP+CCMP][ESS]","level":"-76","frequency":"2462","time":"Thursday, December 19, 2013 8:44:58 PM Iran Standard Time"}}
{"WiFi":{"SSID":"Golpa","BSSID":"90:f6:52:fa:7f:5e","capabilities":"[WPA-PSK-TKIP+CCMP][WPA2-PSK-TKIP+CCMP][ESS]","level":"-76","frequency":"2462","time":"Thursday, December 19, 2013 8:44:58 PM Iran Standard Time"}}
{"WiFi":{"SSID":"arash","BSSID":"28:3c:e4:42:8d:3d","capabilities":"[WPA-PSK-CCMP][ESS]","level":"-79","frequency":"2462","time":"Thursday, December 19, 2013 8:44:58 PM Iran Standard Time"}}
{"WiFi":{"SSID":"orc","BSSID":"84:a8:e4:46:1d:29","capabilities":"[WPA-PSK-CCMP][WPS][ESS]","level":"-84","frequency":"2462","time":"Thursday, December 19, 2013 8:44:58 PM Iran Standard Time"}}
{"WiFi":{"SSID":"FSK","BSSID":"1c:af:f7:b0:62:7a","capabilities":"[WEP][ESS]","level":"-63","frequency":"2462","time":"Thursday, December 19, 2013 8:44:58 PM Iran Standard Time"}}
{"WiFi":{"SSID":"Hamed-Dlink","BSSID":"34:08:04:17:84:03","capabilities":"[WPA2-PSK-CCMP][WPS][ESS]","level":"-63","frequency":"2412","time":"Thursday, December 19, 2013 8:44:58 PM Iran Standard Time"}}
{"WiFi":{"SSID":"My-Dlink","BSSID":"1c:af:f7:b5:8f:18","capabilities":"[WPA-PSK-TKIP+CCMP][WPA2-PSK-TKIP+CCMP][ESS]","level":"-76","frequency":"2462","time":"Thursday, December 19, 2013 8:44:58 PM Iran Standard Time"}}
{"WiFi":{"SSID":"Golpa","BSSID":"90:f6:52:fa:7f:5e","capabilities":"[WPA-PSK-TKIP+CCMP][WPA2-PSK-TKIP+CCMP][ESS]","level":"-76","frequency":"2462","time":"Thursday, December 19, 2013 8:44:58 PM Iran Standard Time"}}
{"WiFi":{"SSID":"arash","BSSID":"28:3c:e4:42:8d:3d","capabilities":"[WPA-PSK-CCMP][ESS]","level":"-79","frequency":"2462","time":"Thursday, December 19, 2013 8:44:58 PM Iran Standard Time"}}
{"WiFi":{"SSID":"orc","BSSID":"84:a8:e4:46:1d:29","capabilities":"[WPA-PSK-CCMP][WPS][ESS]","level":"-84","frequency":"2462","time":"Thursday, December 19, 2013 8:44:58 PM Iran Standard Time"}}
{"WiFi":{"SSID":"FSK","BSSID":"1c:af:f7:b0:62:7a","capabilities":"[WEP][ESS]","level":"-63","frequency":"2462","time":"Thursday, December 19, 2013 8:44:58 PM Iran Standard Time"}}
{"WiFi":{"SSID":"Hamed-Dlink","BSSID":"34:08:04:17:84:03","capabilities":"[WPA2-PSK-CCMP][WPS][ESS]","level":"-63","frequency":"2412","time":"Thursday, December 19, 2013 8:45:58 PM Iran Standard Time"}}
{"WiFi":{"SSID":"My-Dlink","BSSID":"1c:af:f7:b5:8f:18","capabilities":"[WPA-PSK-TKIP+CCMP][WPA2-PSK-TKIP+CCMP][ESS]","level":"-76","frequency":"2462","time":"Thursday, December 19, 2013 8:45:58 PM Iran Standard Time"}}
{"WiFi":{"SSID":"Golpa","BSSID":"90:f6:52:fa:7f:5e","capabilities":"[WPA-PSK-TKIP+CCMP][WPA2-PSK-TKIP+CCMP][ESS]","level":"-76","frequency":"2462","time":"Thursday, December 19, 2013 8:45:58 PM Iran Standard Time"}}
{"WiFi":{"SSID":"arash","BSSID":"28:3c:e4:42:8d:3d","capabilities":"[WPA-PSK-CCMP][ESS]","level":"-79","frequency":"2462","time":"Thursday, December 19, 2013 8:45:58 PM Iran Standard Time"}}
{"WiFi":{"SSID":"orc","BSSID":"84:a8:e4:46:1d:29","capabilities":"[WPA-PSK-CCMP][WPS][ESS]","level":"-84","frequency":"2462","time":"Thursday, December 19, 2013 8:45:58 PM Iran Standard Time"}}
{"WiFi":{"SSID":"FSK","BSSID":"1c:af:f7:b0:62:7a","capabilities":"[WEP][ESS]","level":"-63","frequency":"2462","time":"Thursday, December 19, 2013 8:45:58 PM Iran Standard Time"}}
{"WiFi":{"SSID":"Hamed-Dlink","BSSID":"34:08:04:17:84:03","capabilities":"[WPA2-PSK-CCMP][WPS][ESS]","level":"-63","frequency":"2412","time":"Thursday, December 19, 2013 8:45:58 PM Iran Standard Time"}}
{"WiFi":{"SSID":"My-Dlink","BSSID":"1c:af:f7:b5:8f:18","capabilities":"[WPA-PSK-TKIP+CCMP][WPA2-PSK-TKIP+CCMP][ESS]","level":"-76","frequency":"2462","time":"Thursday, December 19, 2013 8:45:58 PM Iran Standard Time"}}
{"WiFi":{"SSID":"Golpa","BSSID":"90:f6:52:fa:7f:5e","capabilities":"[WPA-PSK-TKIP+CCMP][WPA2-PSK-TKIP+CCMP][ESS]","level":"-76","frequency":"2462","time":"Thursday, December 19, 2013 8:45:58 PM Iran Standard Time"}}
{"WiFi":{"SSID":"arash","BSSID":"28:3c:e4:42:8d:3d","capabilities":"[WPA-PSK-CCMP][ESS]","level":"-79","frequency":"2462","time":"Thursday, December 19, 2013 8:45:58 PM Iran Standard Time"}}
{"WiFi":{"SSID":"orc","BSSID":"84:a8:e4:46:1d:29","capabilities":"[WPA-PSK-CCMP][WPS][ESS]","level":"-84","frequency":"2462","time":"Thursday, December 19, 2013 8:45:58 PM Iran Standard Time"}}
{"WiFi":{"SSID":"FSK","BSSID":"1c:af:f7:b0:62:7a","capabilities":"[WEP][ESS]","level":"-63","frequency":"2462","time":"Thursday, December 19, 2013 8:45:58 PM Iran Standard Time"}}
{"WiFi":{"SSID":"Hamed-Dlink","BSSID":"34:08:04:17:84:03","capabilities":"[WPA2-PSK-CCMP][WPS][ESS]","level":"-63","frequency":"2412","time":"Thursday, December 19, 2013 8:46:58 PM Iran Standard Time"}}
{"WiFi":{"SSID":"My-Dlink","BSSID":"1c:af:f7:b5:8f:18","capabilities":"[WPA-PSK-TKIP+CCMP][WPA2-PSK-TKIP+CCMP][ESS]","level":"-76","frequency":"2462","time":"Thursday, December 19, 2013 8:46:58 PM Iran Standard Time"}}
{"WiFi":{"SSID":"Golpa","BSSID":"90:f6:52:fa:7f:5e","capabilities":"[WPA-PSK-TKIP+CCMP][WPA2-PSK-TKIP+CCMP][ESS]","level":"-76","frequency":"2462","time":"Thursday, December 19, 2013 8:46:58 PM Iran Standard Time"}}
{"WiFi":{"SSID":"arash","BSSID":"28:3c:e4:42:8d:3d","capabilities":"[WPA-PSK-CCMP][ESS]","level":"-79","frequency":"2462","time":"Thursday, December 19, 2013 8:46:58 PM Iran Standard Time"}}
{"WiFi":{"SSID":"orc","BSSID":"84:a8:e4:46:1d:29","capabilities":"[WPA-PSK-CCMP][WPS][ESS]","level":"-84","frequency":"2462","time":"Thursday, December 19, 2013 8:46:58 PM Iran Standard Time"}}
{"WiFi":{"SSID":"FSK","BSSID":"1c:af:f7:b0:62:7a","capabilities":"[WEP][ESS]","level":"-63","frequency":"2462","time":"Thursday, December 19, 2013 8:46:58 PM Iran Standard Time"}}
{"WiFi":{"SSID":"Hamed-Dlink","BSSID":"34:08:04:17:84:03","capabilities":"[WPA2-PSK-CCMP][WPS][ESS]","level":"-63","frequency":"2412","time":"Thursday, December 19, 2013 8:46:58 PM Iran Standard Time"}}
{"WiFi":{"SSID":"My-Dlink","BSSID":"1c:af:f7:b5:8f:18","capabilities":"[WPA-PSK-TKIP+CCMP][WPA2-PSK-TKIP+CCMP][ESS]","level":"-76","frequency":"2462","time":"Thursday, December 19, 2013 8:46:58 PM Iran Standard Time"}}
{"WiFi":{"SSID":"Golpa","BSSID":"90:f6:52:fa:7f:5e","capabilities":"[WPA-PSK-TKIP+CCMP][WPA2-PSK-TKIP+CCMP][ESS]","level":"-76","frequency":"2462","time":"Thursday, December 19, 2013 8:46:58 PM Iran Standard Time"}}
{"WiFi":{"SSID":"arash","BSSID":"28:3c:e4:42:8d:3d","capabilities":"[WPA-PSK-CCMP][ESS]","level":"-79","frequency":"2462","time":"Thursday, December 19, 2013 8:46:58 PM Iran Standard Time"}}
{"WiFi":{"SSID":"orc","BSSID":"84:a8:e4:46:1d:29","capabilities":"[WPA-PSK-CCMP][WPS][ESS]","level":"-84","frequency":"2462","time":"Thursday, December 19, 2013 8:46:58 PM Iran Standard Time"}}
{"WiFi":{"SSID":"FSK","BSSID":"1c:af:f7:b0:62:7a","capabilities":"[WEP][ESS]","level":"-63","frequency":"2462","time":"Thursday, December 19, 2013 8:46:58 PM Iran Standard Time"}}
{"WiFi":{"SSID":"Hamed-Dlink","BSSID":"34:08:04:17:84:03","capabilities":"[WPA2-PSK-CCMP][WPS][ESS]","level":"-63","frequency":"2412","time":"Thursday, December 19, 2013 8:47:58 PM Iran Standard Time"}}
{"WiFi":{"SSID":"My-Dlink","BSSID":"1c:af:f7:b5:8f:18","capabilities":"[WPA-PSK-TKIP+CCMP][WPA2-PSK-TKIP+CCMP][ESS]","level":"-76","frequency":"2462","time":"Thursday, December 19, 2013 8:47:58 PM Iran Standard Time"}}
{"WiFi":{"SSID":"Golpa","BSSID":"90:f6:52:fa:7f:5e","capabilities":"[WPA-PSK-TKIP+CCMP][WPA2-PSK-TKIP+CCMP][ESS]","level":"-76","frequency":"2462","time":"Thursday, December 19, 2013 8:47:58 PM Iran Standard Time"}}
{"WiFi":{"SSID":"arash","BSSID":"28:3c:e4:42:8d:3d","capabilities":"[WPA-PSK-CCMP][ESS]","level":"-79","frequency":"2462","time":"Thursday, December 19, 2013 8:47:58 PM Iran Standard Time"}}
{"WiFi":{"SSID":"orc","BSSID":"84:a8:e4:46:1d:29","capabilities":"[WPA-PSK-CCMP][WPS][ESS]","level":"-84","frequency":"2462","time":"Thursday, December 19, 2013 8:47:58 PM Iran Standard Time"}}
{"WiFi":{"SSID":"FSK","BSSID":"1c:af:f7:b0:62:7a","capabilities":"[WEP][ESS]","level":"-63","frequency":"2462","time":"Thursday, December 19, 2013 8:47:58 PM Iran Standard Time"}}
{"WiFi":{"SSID":"Hamed-Dlink","BSSID":"34:08:04:17:84:03","capabilities":"[WPA2-PSK-CCMP][WPS][ESS]","level":"-63","frequency":"2412","time":"Thursday, December 19, 2013 8:47:58 PM Iran Standard Time"}}
{"WiFi":{"SSID":"My-Dlink","BSSID":"1c:af:f7:b5:8f:18","capabilities":"[WPA-PSK-TKIP+CCMP][WPA2-PSK-TKIP+CCMP][ESS]","level":"-76","frequency":"2462","time":"Thursday, December 19, 2013 8:47:58 PM Iran Standard Time"}}
{"WiFi":{"SSID":"Golpa","BSSID":"90:f6:52:fa:7f:5e","capabilities":"[WPA-PSK-TKIP+CCMP][WPA2-PSK-TKIP+CCMP][ESS]","level":"-76","frequency":"2462","time":"Thursday, December 19, 2013 8:47:58 PM Iran Standard Time"}}
{"WiFi":{"SSID":"arash","BSSID":"28:3c:e4:42:8d:3d","capabilities":"[WPA-PSK-CCMP][ESS]","level":"-79","frequency":"2462","time":"Thursday, December 19, 2013 8:47:58 PM Iran Standard Time"}}
{"WiFi":{"SSID":"orc","BSSID":"84:a8:e4:46:1d:29","capabilities":"[WPA-PSK-CCMP][WPS][ESS]","level":"-84","frequency":"2462","time":"Thursday, December 19, 2013 8:47:58 PM Iran Standard Time"}}
{"WiFi":{"SSID":"FSK","BSSID":"1c:af:f7:b0:62:7a","capabilities":"[WEP][ESS]","level":"-63","frequency":"2462","time":"Thursday, December 19, 2013 8:47:58 PM Iran Standard Time"}}
{"Application":{"ProcessName":"com.mediatek.thermalmanager","Start":"12-19-2013 20:44:50","End":"12-19-2013 20:48:40"}}
{"Application":{"ProcessName":"com.tencent.mm","Start":"12-19-2013 20:44:50","End":"12-19-2013 20:48:40"}}
{"Application":{"ProcessName":"com.android.nfc","Start":"12-19-2013 20:44:50","End":"12-19-2013 20:48:40"}}
{"Application":{"ProcessName":"com.mediatek.bluetooth","Start":"12-19-2013 20:44:50","End":"12-19-2013 20:48:40"}}
{"WiFi":{"SSID":"Hamed-Dlink","BSSID":"34:08:04:17:84:03","capabilities":"[WPA2-PSK-CCMP][WPS][ESS]","level":"-63","frequency":"2412","time":"Thursday, December 19, 2013 8:48:58 PM Iran Standard Time"}}
{"WiFi":{"SSID":"My-Dlink","BSSID":"1c:af:f7:b5:8f:18","capabilities":"[WPA-PSK-TKIP+CCMP][WPA2-PSK-TKIP+CCMP][ESS]","level":"-76","frequency":"2462","time":"Thursday, December 19, 2013 8:48:58 PM Iran Standard Time"}}
{"WiFi":{"SSID":"Golpa","BSSID":"90:f6:52:fa:7f:5e","capabilities":"[WPA-PSK-TKIP+CCMP][WPA2-PSK-TKIP+CCMP][ESS]","level":"-76","frequency":"2462","time":"Thursday, December 19, 2013 8:48:58 PM Iran Standard Time"}}
{"WiFi":{"SSID":"arash","BSSID":"28:3c:e4:42:8d:3d","capabilities":"[WPA-PSK-CCMP][ESS]","level":"-79","frequency":"2462","time":"Thursday, December 19, 2013 8:48:58 PM Iran Standard Time"}}
{"WiFi":{"SSID":"orc","BSSID":"84:a8:e4:46:1d:29","capabilities":"[WPA-PSK-CCMP][WPS][ESS]","level":"-84","frequency":"2462","time":"Thursday, December 19, 2013 8:48:58 PM Iran Standard Time"}}
{"WiFi":{"SSID":"FSK","BSSID":"1c:af:f7:b0:62:7a","capabilities":"[WEP][ESS]","level":"-63","frequency":"2462","time":"Thursday, December 19, 2013 8:48:58 PM Iran Standard Time"}}
{"WiFi":{"SSID":"Hamed-Dlink","BSSID":"34:08:04:17:84:03","capabilities":"[WPA2-PSK-CCMP][WPS][ESS]","level":"-63","frequency":"2412","time":"Thursday, December 19, 2013 8:48:58 PM Iran Standard Time"}}
{"WiFi":{"SSID":"My-Dlink","BSSID":"1c:af:f7:b5:8f:18","capabilities":"[WPA-PSK-TKIP+CCMP][WPA2-PSK-TKIP+CCMP][ESS]","level":"-76","frequency":"2462","time":"Thursday, December 19, 2013 8:48:58 PM Iran Standard Time"}}
{"WiFi":{"SSID":"Golpa","BSSID":"90:f6:52:fa:7f:5e","capabilities":"[WPA-PSK-TKIP+CCMP][WPA2-PSK-TKIP+CCMP][ESS]","level":"-76","frequency":"2462","time":"Thursday, December 19, 2013 8:48:58 PM Iran Standard Time"}}
{"WiFi":{"SSID":"arash","BSSID":"28:3c:e4:42:8d:3d","capabilities":"[WPA-PSK-CCMP][ESS]","level":"-79","frequency":"2462","time":"Thursday, December 19, 2013 8:48:58 PM Iran Standard Time"}}
{"WiFi":{"SSID":"orc","BSSID":"84:a8:e4:46:1d:29","capabilities":"[WPA-PSK-CCMP][WPS][ESS]","level":"-84","frequency":"2462","time":"Thursday, December 19, 2013 8:48:58 PM Iran Standard Time"}}
{"WiFi":{"SSID":"FSK","BSSID":"1c:af:f7:b0:62:7a","capabilities":"[WEP][ESS]","level":"-63","frequency":"2462","time":"Thursday, December 19, 2013 8:48:58 PM Iran Standard Time"}}
{"WiFi":{"SSID":"Hamed-Dlink","BSSID":"34:08:04:17:84:03","capabilities":"[WPA2-PSK-CCMP][WPS][ESS]","level":"-63","frequency":"2412","time":"Thursday, December 19, 2013 8:56:23 PM Iran Standard Time"}}
{"WiFi":{"SSID":"My-Dlink","BSSID":"1c:af:f7:b5:8f:18","capabilities":"[WPA-PSK-TKIP+CCMP][WPA2-PSK-TKIP+CCMP][ESS]","level":"-76","frequency":"2462","time":"Thursday, December 19, 2013 8:56:23 PM Iran Standard Time"}}
{"WiFi":{"SSID":"Golpa","BSSID":"90:f6:52:fa:7f:5e","capabilities":"[WPA-PSK-TKIP+CCMP][WPA2-PSK-TKIP+CCMP][ESS]","level":"-76","frequency":"2462","time":"Thursday, December 19, 2013 8:56:23 PM Iran Standard Time"}}
{"WiFi":{"SSID":"arash","BSSID":"28:3c:e4:42:8d:3d","capabilities":"[WPA-PSK-CCMP][ESS]","level":"-79","frequency":"2462","time":"Thursday, December 19, 2013 8:56:23 PM Iran Standard Time"}}
{"WiFi":{"SSID":"orc","BSSID":"84:a8:e4:46:1d:29","capabilities":"[WPA-PSK-CCMP][WPS][ESS]","level":"-84","frequency":"2462","time":"Thursday, December 19, 2013 8:56:23 PM Iran Standard Time"}}
{"WiFi":{"SSID":"FSK","BSSID":"1c:af:f7:b0:62:7a","capabilities":"[WEP][ESS]","level":"-63","frequency":"2462","time":"Thursday, December 19, 2013 8:56:23 PM Iran Standard Time"}}
{"WiFi":{"SSID":"Hamed-Dlink","BSSID":"34:08:04:17:84:03","capabilities":"[WPA2-PSK-CCMP][WPS][ESS]","level":"-63","frequency":"2412","time":"Thursday, December 19, 2013 8:56:23 PM Iran Standard Time"}}
{"WiFi":{"SSID":"My-Dlink","BSSID":"1c:af:f7:b5:8f:18","capabilities":"[WPA-PSK-TKIP+CCMP][WPA2-PSK-TKIP+CCMP][ESS]","level":"-76","frequency":"2462","time":"Thursday, December 19, 2013 8:56:23 PM Iran Standard Time"}}
{"WiFi":{"SSID":"Golpa","BSSID":"90:f6:52:fa:7f:5e","capabilities":"[WPA-PSK-TKIP+CCMP][WPA2-PSK-TKIP+CCMP][ESS]","level":"-76","frequency":"2462","time":"Thursday, December 19, 2013 8:56:23 PM Iran Standard Time"}}
{"WiFi":{"SSID":"arash","BSSID":"28:3c:e4:42:8d:3d","capabilities":"[WPA-PSK-CCMP][ESS]","level":"-79","frequency":"2462","time":"Thursday, December 19, 2013 8:56:23 PM Iran Standard Time"}}
{"WiFi":{"SSID":"orc","BSSID":"84:a8:e4:46:1d:29","capabilities":"[WPA-PSK-CCMP][WPS][ESS]","level":"-84","frequency":"2462","time":"Thursday, December 19, 2013 8:56:23 PM Iran Standard Time"}}
{"WiFi":{"SSID":"FSK","BSSID":"1c:af:f7:b0:62:7a","capabilities":"[WEP][ESS]","level":"-63","frequency":"2462","time":"Thursday, December 19, 2013 8:56:23 PM Iran Standard Time"}}
{"WiFi":{"SSID":"Hamed-Dlink","BSSID":"34:08:04:17:84:03","capabilities":"[WPA2-PSK-CCMP][WPS][ESS]","level":"-46","frequency":"2412","time":"Thursday, December 19, 2013 9:02:56 PM Iran Standard Time"}}
{"WiFi":{"SSID":"orc","BSSID":"84:a8:e4:46:1d:29","capabilities":"[WPA-PSK-CCMP][WPS][ESS]","level":"-75","frequency":"2462","time":"Thursday, December 19, 2013 9:02:56 PM Iran Standard Time"}}
{"WiFi":{"SSID":"ehsan","BSSID":"10:c6:1f:22:88:0e","capabilities":"[WPA-PSK-CCMP][ESS]","level":"-76","frequency":"2432","time":"Thursday, December 19, 2013 9:02:56 PM Iran Standard Time"}}
{"WiFi":{"SSID":"kiarash","BSSID":"bc:76:70:0c:47:81","capabilities":"[WPA-PSK-TKIP+CCMP][WPA2-PSK-TKIP+CCMP][ESS]","level":"-78","frequency":"2437","time":"Thursday, December 19, 2013 9:02:56 PM Iran Standard Time"}}
{"WiFi":{"SSID":"Abtin","BSSID":"10:c6:1f:e9:cb:f6","capabilities":"[WPA-PSK-TKIP+CCMP][WPA2-PSK-TKIP+CCMP][WPS][ESS]","level":"-80","frequency":"2422","time":"Thursday, December 19, 2013 9:02:56 PM Iran Standard Time"}}
{"WiFi":{"SSID":"Bayat","BSSID":"90:f6:52:4f:32:07","capabilities":"[WPA-PSK-TKIP+CCMP][WPA2-PSK-TKIP+CCMP][ESS]","level":"-88","frequency":"2457","time":"Thursday, December 19, 2013 9:02:56 PM Iran Standard Time"}}
{"WiFi":{"SSID":"arash","BSSID":"28:3c:e4:42:8d:3d","capabilities":"[WPA-PSK-CCMP][ESS]","level":"-90","frequency":"2462","time":"Thursday, December 19, 2013 9:02:56 PM Iran Standard Time"}}
{"WiFi":{"SSID":"edalat","BSSID":"b0:48:7a:c6:48:eb","capabilities":"[WPA2-PSK-TKIP+CCMP][ESS]","level":"-92","frequency":"2457","time":"Thursday, December 19, 2013 9:02:56 PM Iran Standard Time"}}
{"WiFi":{"SSID":"FSK","BSSID":"1c:af:f7:b0:62:7a","capabilities":"[WEP][ESS]","level":"-64","frequency":"2462","time":"Thursday, December 19, 2013 9:02:56 PM Iran Standard Time"}}
{"WiFi":{"SSID":"TRENDnet638","BSSID":"00:14:d1:c7:4f:30","capabilities":"[WPS][ESS]","level":"-79","frequency":"2457","time":"Thursday, December 19, 2013 9:02:56 PM Iran Standard Time"}}
{"WiFi":{"SSID":"Maleki-Avagostar.net","BSSID":"54:e6:fc:a5:69:2f","capabilities":"[WPA2-PSK-CCMP][ESS]","level":"-88","frequency":"2412","time":"Thursday, December 19, 2013 9:02:56 PM Iran Standard Time"}}
{"WiFi":{"SSID":"ARIAN","BSSID":"74:ea:3a:ac:c2:08","capabilities":"[WPA-PSK-TKIP][ESS]","level":"-89","frequency":"2437","time":"Thursday, December 19, 2013 9:02:56 PM Iran Standard Time"}}
{"WiFi":{"SSID":"Shahrooz","BSSID":"bc:76:70:0c:3c:ce","capabilities":"[WPA-PSK-TKIP+CCMP][WPA2-PSK-TKIP+CCMP][ESS]","level":"-91","frequency":"2432","time":"Thursday, December 19, 2013 9:02:56 PM Iran Standard Time"}}
{"WiFi":{"SSID":"heydari","BSSID":"54:e6:fc:d2:0d:14","capabilities":"[WPA-PSK-TKIP][ESS]","level":"-92","frequency":"2412","time":"Thursday, December 19, 2013 9:02:56 PM Iran Standard Time"}}
{"WiFi":{"SSID":"Hamed-Dlink","BSSID":"34:08:04:17:84:03","capabilities":"[WPA2-PSK-CCMP][WPS][ESS]","level":"-46","frequency":"2412","time":"Thursday, December 19, 2013 9:02:56 PM Iran Standard Time"}}
{"WiFi":{"SSID":"orc","BSSID":"84:a8:e4:46:1d:29","capabilities":"[WPA-PSK-CCMP][WPS][ESS]","level":"-75","frequency":"2462","time":"Thursday, December 19, 2013 9:02:56 PM Iran Standard Time"}}
{"WiFi":{"SSID":"ehsan","BSSID":"10:c6:1f:22:88:0e","capabilities":"[WPA-PSK-CCMP][ESS]","level":"-76","frequency":"2432","time":"Thursday, December 19, 2013 9:02:56 PM Iran Standard Time"}}
{"WiFi":{"SSID":"kiarash","BSSID":"bc:76:70:0c:47:81","capabilities":"[WPA-PSK-TKIP+CCMP][WPA2-PSK-TKIP+CCMP][ESS]","level":"-78","frequency":"2437","time":"Thursday, December 19, 2013 9:02:56 PM Iran Standard Time"}}
{"WiFi":{"SSID":"Abtin","BSSID":"10:c6:1f:e9:cb:f6","capabilities":"[WPA-PSK-TKIP+CCMP][WPA2-PSK-TKIP+CCMP][WPS][ESS]","level":"-80","frequency":"2422","time":"Thursday, December 19, 2013 9:02:56 PM Iran Standard Time"}}
{"WiFi":{"SSID":"Bayat","BSSID":"90:f6:52:4f:32:07","capabilities":"[WPA-PSK-TKIP+CCMP][WPA2-PSK-TKIP+CCMP][ESS]","level":"-88","frequency":"2457","time":"Thursday, December 19, 2013 9:02:56 PM Iran Standard Time"}}
{"WiFi":{"SSID":"arash","BSSID":"28:3c:e4:42:8d:3d","capabilities":"[WPA-PSK-CCMP][ESS]","level":"-90","frequency":"2462","time":"Thursday, December 19, 2013 9:02:56 PM Iran Standard Time"}}
{"WiFi":{"SSID":"edalat","BSSID":"b0:48:7a:c6:48:eb","capabilities":"[WPA2-PSK-TKIP+CCMP][ESS]","level":"-92","frequency":"2457","time":"Thursday, December 19, 2013 9:02:56 PM Iran Standard Time"}}
{"WiFi":{"SSID":"FSK","BSSID":"1c:af:f7:b0:62:7a","capabilities":"[WEP][ESS]","level":"-64","frequency":"2462","time":"Thursday, December 19, 2013 9:02:56 PM Iran Standard Time"}}
{"WiFi":{"SSID":"TRENDnet638","BSSID":"00:14:d1:c7:4f:30","capabilities":"[WPS][ESS]","level":"-79","frequency":"2457","time":"Thursday, December 19, 2013 9:02:56 PM Iran Standard Time"}}
{"WiFi":{"SSID":"Maleki-Avagostar.net","BSSID":"54:e6:fc:a5:69:2f","capabilities":"[WPA2-PSK-CCMP][ESS]","level":"-88","frequency":"2412","time":"Thursday, December 19, 2013 9:02:56 PM Iran Standard Time"}}
{"WiFi":{"SSID":"ARIAN","BSSID":"74:ea:3a:ac:c2:08","capabilities":"[WPA-PSK-TKIP][ESS]","level":"-89","frequency":"2437","time":"Thursday, December 19, 2013 9:02:56 PM Iran Standard Time"}}
{"WiFi":{"SSID":"Shahrooz","BSSID":"bc:76:70:0c:3c:ce","capabilities":"[WPA-PSK-TKIP+CCMP][WPA2-PSK-TKIP+CCMP][ESS]","level":"-91","frequency":"2432","time":"Thursday, December 19, 2013 9:02:56 PM Iran Standard Time"}}
{"WiFi":{"SSID":"heydari","BSSID":"54:e6:fc:d2:0d:14","capabilities":"[WPA-PSK-TKIP][ESS]","level":"-92","frequency":"2412","time":"Thursday, December 19, 2013 9:02:56 PM Iran Standard Time"}}
{"WiFi":{"SSID":"Hamed-Dlink","BSSID":"34:08:04:17:84:03","capabilities":"[WPA2-PSK-CCMP][WPS][ESS]","level":"-46","frequency":"2412","time":"Thursday, December 19, 2013 9:27:16 PM Iran Standard Time"}}
{"WiFi":{"SSID":"orc","BSSID":"84:a8:e4:46:1d:29","capabilities":"[WPA-PSK-CCMP][WPS][ESS]","level":"-75","frequency":"2462","time":"Thursday, December 19, 2013 9:27:16 PM Iran Standard Time"}}
{"WiFi":{"SSID":"ehsan","BSSID":"10:c6:1f:22:88:0e","capabilities":"[WPA-PSK-CCMP][ESS]","level":"-76","frequency":"2432","time":"Thursday, December 19, 2013 9:27:16 PM Iran Standard Time"}}
{"WiFi":{"SSID":"kiarash","BSSID":"bc:76:70:0c:47:81","capabilities":"[WPA-PSK-TKIP+CCMP][WPA2-PSK-TKIP+CCMP][ESS]","level":"-78","frequency":"2437","time":"Thursday, December 19, 2013 9:27:16 PM Iran Standard Time"}}
{"WiFi":{"SSID":"Abtin","BSSID":"10:c6:1f:e9:cb:f6","capabilities":"[WPA-PSK-TKIP+CCMP][WPA2-PSK-TKIP+CCMP][WPS][ESS]","level":"-80","frequency":"2422","time":"Thursday, December 19, 2013 9:27:16 PM Iran Standard Time"}}
{"WiFi":{"SSID":"Bayat","BSSID":"90:f6:52:4f:32:07","capabilities":"[WPA-PSK-TKIP+CCMP][WPA2-PSK-TKIP+CCMP][ESS]","level":"-88","frequency":"2457","time":"Thursday, December 19, 2013 9:27:16 PM Iran Standard Time"}}
{"WiFi":{"SSID":"arash","BSSID":"28:3c:e4:42:8d:3d","capabilities":"[WPA-PSK-CCMP][ESS]","level":"-90","frequency":"2462","time":"Thursday, December 19, 2013 9:27:16 PM Iran Standard Time"}}
{"WiFi":{"SSID":"edalat","BSSID":"b0:48:7a:c6:48:eb","capabilities":"[WPA2-PSK-TKIP+CCMP][ESS]","level":"-92","frequency":"2457","time":"Thursday, December 19, 2013 9:27:16 PM Iran Standard Time"}}
{"WiFi":{"SSID":"FSK","BSSID":"1c:af:f7:b0:62:7a","capabilities":"[WEP][ESS]","level":"-64","frequency":"2462","time":"Thursday, December 19, 2013 9:27:16 PM Iran Standard Time"}}
{"WiFi":{"SSID":"TRENDnet638","BSSID":"00:14:d1:c7:4f:30","capabilities":"[WPS][ESS]","level":"-79","frequency":"2457","time":"Thursday, December 19, 2013 9:27:16 PM Iran Standard Time"}}
{"WiFi":{"SSID":"Maleki-Avagostar.net","BSSID":"54:e6:fc:a5:69:2f","capabilities":"[WPA2-PSK-CCMP][ESS]","level":"-88","frequency":"2412","time":"Thursday, December 19, 2013 9:27:16 PM Iran Standard Time"}}
{"WiFi":{"SSID":"ARIAN","BSSID":"74:ea:3a:ac:c2:08","capabilities":"[WPA-PSK-TKIP][ESS]","level":"-89","frequency":"2437","time":"Thursday, December 19, 2013 9:27:16 PM Iran Standard Time"}}
{"WiFi":{"SSID":"Shahrooz","BSSID":"bc:76:70:0c:3c:ce","capabilities":"[WPA-PSK-TKIP+CCMP][WPA2-PSK-TKIP+CCMP][ESS]","level":"-91","frequency":"2432","time":"Thursday, December 19, 2013 9:27:16 PM Iran Standard Time"}}
{"WiFi":{"SSID":"heydari","BSSID":"54:e6:fc:d2:0d:14","capabilities":"[WPA-PSK-TKIP][ESS]","level":"-92","frequency":"2412","time":"Thursday, December 19, 2013 9:27:16 PM Iran Standard Time"}}
{"WiFi":{"SSID":"Hamed-Dlink","BSSID":"34:08:04:17:84:03","capabilities":"[WPA2-PSK-CCMP][WPS][ESS]","level":"-46","frequency":"2412","time":"Thursday, December 19, 2013 9:27:16 PM Iran Standard Time"}}
{"WiFi":{"SSID":"orc","BSSID":"84:a8:e4:46:1d:29","capabilities":"[WPA-PSK-CCMP][WPS][ESS]","level":"-75","frequency":"2462","time":"Thursday, December 19, 2013 9:27:16 PM Iran Standard Time"}}
{"WiFi":{"SSID":"ehsan","BSSID":"10:c6:1f:22:88:0e","capabilities":"[WPA-PSK-CCMP][ESS]","level":"-76","frequency":"2432","time":"Thursday, December 19, 2013 9:27:16 PM Iran Standard Time"}}
{"WiFi":{"SSID":"kiarash","BSSID":"bc:76:70:0c:47:81","capabilities":"[WPA-PSK-TKIP+CCMP][WPA2-PSK-TKIP+CCMP][ESS]","level":"-78","frequency":"2437","time":"Thursday, December 19, 2013 9:27:16 PM Iran Standard Time"}}
{"WiFi":{"SSID":"Abtin","BSSID":"10:c6:1f:e9:cb:f6","capabilities":"[WPA-PSK-TKIP+CCMP][WPA2-PSK-TKIP+CCMP][WPS][ESS]","level":"-80","frequency":"2422","time":"Thursday, December 19, 2013 9:27:16 PM Iran Standard Time"}}
{"WiFi":{"SSID":"Bayat","BSSID":"90:f6:52:4f:32:07","capabilities":"[WPA-PSK-TKIP+CCMP][WPA2-PSK-TKIP+CCMP][ESS]","level":"-88","frequency":"2457","time":"Thursday, December 19, 2013 9:27:16 PM Iran Standard Time"}}
{"WiFi":{"SSID":"arash","BSSID":"28:3c:e4:42:8d:3d","capabilities":"[WPA-PSK-CCMP][ESS]","level":"-90","frequency":"2462","time":"Thursday, December 19, 2013 9:27:16 PM Iran Standard Time"}}
{"WiFi":{"SSID":"edalat","BSSID":"b0:48:7a:c6:48:eb","capabilities":"[WPA2-PSK-TKIP+CCMP][ESS]","level":"-92","frequency":"2457","time":"Thursday, December 19, 2013 9:27:16 PM Iran Standard Time"}}
{"WiFi":{"SSID":"FSK","BSSID":"1c:af:f7:b0:62:7a","capabilities":"[WEP][ESS]","level":"-64","frequency":"2462","time":"Thursday, December 19, 2013 9:27:16 PM Iran Standard Time"}}
{"WiFi":{"SSID":"TRENDnet638","BSSID":"00:14:d1:c7:4f:30","capabilities":"[WPS][ESS]","level":"-79","frequency":"2457","time":"Thursday, December 19, 2013 9:27:16 PM Iran Standard Time"}}
{"WiFi":{"SSID":"Maleki-Avagostar.net","BSSID":"54:e6:fc:a5:69:2f","capabilities":"[WPA2-PSK-CCMP][ESS]","level":"-88","frequency":"2412","time":"Thursday, December 19, 2013 9:27:16 PM Iran Standard Time"}}
{"WiFi":{"SSID":"ARIAN","BSSID":"74:ea:3a:ac:c2:08","capabilities":"[WPA-PSK-TKIP][ESS]","level":"-89","frequency":"2437","time":"Thursday, December 19, 2013 9:27:16 PM Iran Standard Time"}}
{"WiFi":{"SSID":"Shahrooz","BSSID":"bc:76:70:0c:3c:ce","capabilities":"[WPA-PSK-TKIP+CCMP][WPA2-PSK-TKIP+CCMP][ESS]","level":"-91","frequency":"2432","time":"Thursday, December 19, 2013 9:27:16 PM Iran Standard Time"}}
{"WiFi":{"SSID":"heydari","BSSID":"54:e6:fc:d2:0d:14","capabilities":"[WPA-PSK-TKIP][ESS]","level":"-92","frequency":"2412","time":"Thursday, December 19, 2013 9:27:16 PM Iran Standard Time"}}
{"WiFi":{"SSID":"Hamed-Dlink","BSSID":"34:08:04:17:84:03","capabilities":"[WPA2-PSK-CCMP][WPS][ESS]","level":"-46","frequency":"2412","time":"Thursday, December 19, 2013 9:52:09 PM Iran Standard Time"}}
{"WiFi":{"SSID":"orc","BSSID":"84:a8:e4:46:1d:29","capabilities":"[WPA-PSK-CCMP][WPS][ESS]","level":"-75","frequency":"2462","time":"Thursday, December 19, 2013 9:52:09 PM Iran Standard Time"}}
{"WiFi":{"SSID":"ehsan","BSSID":"10:c6:1f:22:88:0e","capabilities":"[WPA-PSK-CCMP][ESS]","level":"-76","frequency":"2432","time":"Thursday, December 19, 2013 9:52:09 PM Iran Standard Time"}}
{"WiFi":{"SSID":"kiarash","BSSID":"bc:76:70:0c:47:81","capabilities":"[WPA-PSK-TKIP+CCMP][WPA2-PSK-TKIP+CCMP][ESS]","level":"-78","frequency":"2437","time":"Thursday, December 19, 2013 9:52:09 PM Iran Standard Time"}}
{"WiFi":{"SSID":"Abtin","BSSID":"10:c6:1f:e9:cb:f6","capabilities":"[WPA-PSK-TKIP+CCMP][WPA2-PSK-TKIP+CCMP][WPS][ESS]","level":"-80","frequency":"2422","time":"Thursday, December 19, 2013 9:52:09 PM Iran Standard Time"}}
{"WiFi":{"SSID":"Bayat","BSSID":"90:f6:52:4f:32:07","capabilities":"[WPA-PSK-TKIP+CCMP][WPA2-PSK-TKIP+CCMP][ESS]","level":"-88","frequency":"2457","time":"Thursday, December 19, 2013 9:52:09 PM Iran Standard Time"}}
{"WiFi":{"SSID":"arash","BSSID":"28:3c:e4:42:8d:3d","capabilities":"[WPA-PSK-CCMP][ESS]","level":"-90","frequency":"2462","time":"Thursday, December 19, 2013 9:52:09 PM Iran Standard Time"}}
{"WiFi":{"SSID":"edalat","BSSID":"b0:48:7a:c6:48:eb","capabilities":"[WPA2-PSK-TKIP+CCMP][ESS]","level":"-92","frequency":"2457","time":"Thursday, December 19, 2013 9:52:09 PM Iran Standard Time"}}
{"WiFi":{"SSID":"FSK","BSSID":"1c:af:f7:b0:62:7a","capabilities":"[WEP][ESS]","level":"-64","frequency":"2462","time":"Thursday, December 19, 2013 9:52:09 PM Iran Standard Time"}}
{"WiFi":{"SSID":"TRENDnet638","BSSID":"00:14:d1:c7:4f:30","capabilities":"[WPS][ESS]","level":"-79","frequency":"2457","time":"Thursday, December 19, 2013 9:52:09 PM Iran Standard Time"}}
{"WiFi":{"SSID":"Maleki-Avagostar.net","BSSID":"54:e6:fc:a5:69:2f","capabilities":"[WPA2-PSK-CCMP][ESS]","level":"-88","frequency":"2412","time":"Thursday, December 19, 2013 9:52:09 PM Iran Standard Time"}}
{"WiFi":{"SSID":"ARIAN","BSSID":"74:ea:3a:ac:c2:08","capabilities":"[WPA-PSK-TKIP][ESS]","level":"-89","frequency":"2437","time":"Thursday, December 19, 2013 9:52:09 PM Iran Standard Time"}}
{"WiFi":{"SSID":"Shahrooz","BSSID":"bc:76:70:0c:3c:ce","capabilities":"[WPA-PSK-TKIP+CCMP][WPA2-PSK-TKIP+CCMP][ESS]","level":"-91","frequency":"2432","time":"Thursday, December 19, 2013 9:52:09 PM Iran Standard Time"}}
{"WiFi":{"SSID":"heydari","BSSID":"54:e6:fc:d2:0d:14","capabilities":"[WPA-PSK-TKIP][ESS]","level":"-92","frequency":"2412","time":"Thursday, December 19, 2013 9:52:09 PM Iran Standard Time"}}
{"WiFi":{"SSID":"Hamed-Dlink","BSSID":"34:08:04:17:84:03","capabilities":"[WPA2-PSK-CCMP][WPS][ESS]","level":"-46","frequency":"2412","time":"Thursday, December 19, 2013 9:52:09 PM Iran Standard Time"}}
{"WiFi":{"SSID":"orc","BSSID":"84:a8:e4:46:1d:29","capabilities":"[WPA-PSK-CCMP][WPS][ESS]","level":"-75","frequency":"2462","time":"Thursday, December 19, 2013 9:52:09 PM Iran Standard Time"}}
{"WiFi":{"SSID":"ehsan","BSSID":"10:c6:1f:22:88:0e","capabilities":"[WPA-PSK-CCMP][ESS]","level":"-76","frequency":"2432","time":"Thursday, December 19, 2013 9:52:09 PM Iran Standard Time"}}
{"WiFi":{"SSID":"kiarash","BSSID":"bc:76:70:0c:47:81","capabilities":"[WPA-PSK-TKIP+CCMP][WPA2-PSK-TKIP+CCMP][ESS]","level":"-78","frequency":"2437","time":"Thursday, December 19, 2013 9:52:09 PM Iran Standard Time"}}
{"WiFi":{"SSID":"Abtin","BSSID":"10:c6:1f:e9:cb:f6","capabilities":"[WPA-PSK-TKIP+CCMP][WPA2-PSK-TKIP+CCMP][WPS][ESS]","level":"-80","frequency":"2422","time":"Thursday, December 19, 2013 9:52:09 PM Iran Standard Time"}}
{"WiFi":{"SSID":"Bayat","BSSID":"90:f6:52:4f:32:07","capabilities":"[WPA-PSK-TKIP+CCMP][WPA2-PSK-TKIP+CCMP][ESS]","level":"-88","frequency":"2457","time":"Thursday, December 19, 2013 9:52:09 PM Iran Standard Time"}}
{"WiFi":{"SSID":"arash","BSSID":"28:3c:e4:42:8d:3d","capabilities":"[WPA-PSK-CCMP][ESS]","level":"-90","frequency":"2462","time":"Thursday, December 19, 2013 9:52:09 PM Iran Standard Time"}}
{"WiFi":{"SSID":"edalat","BSSID":"b0:48:7a:c6:48:eb","capabilities":"[WPA2-PSK-TKIP+CCMP][ESS]","level":"-92","frequency":"2457","time":"Thursday, December 19, 2013 9:52:09 PM Iran Standard Time"}}
{"WiFi":{"SSID":"FSK","BSSID":"1c:af:f7:b0:62:7a","capabilities":"[WEP][ESS]","level":"-64","frequency":"2462","time":"Thursday, December 19, 2013 9:52:09 PM Iran Standard Time"}}
{"WiFi":{"SSID":"TRENDnet638","BSSID":"00:14:d1:c7:4f:30","capabilities":"[WPS][ESS]","level":"-79","frequency":"2457","time":"Thursday, December 19, 2013 9:52:09 PM Iran Standard Time"}}
{"WiFi":{"SSID":"Maleki-Avagostar.net","BSSID":"54:e6:fc:a5:69:2f","capabilities":"[WPA2-PSK-CCMP][ESS]","level":"-88","frequency":"2412","time":"Thursday, December 19, 2013 9:52:09 PM Iran Standard Time"}}
{"WiFi":{"SSID":"ARIAN","BSSID":"74:ea:3a:ac:c2:08","capabilities":"[WPA-PSK-TKIP][ESS]","level":"-89","frequency":"2437","time":"Thursday, December 19, 2013 9:52:09 PM Iran Standard Time"}}
{"WiFi":{"SSID":"Shahrooz","BSSID":"bc:76:70:0c:3c:ce","capabilities":"[WPA-PSK-TKIP+CCMP][WPA2-PSK-TKIP+CCMP][ESS]","level":"-91","frequency":"2432","time":"Thursday, December 19, 2013 9:52:09 PM Iran Standard Time"}}
{"WiFi":{"SSID":"heydari","BSSID":"54:e6:fc:d2:0d:14","capabilities":"[WPA-PSK-TKIP][ESS]","level":"-92","frequency":"2412","time":"Thursday, December 19, 2013 9:52:09 PM Iran Standard Time"}}
{"WiFi":{"SSID":"Hamed-Dlink","BSSID":"34:08:04:17:84:03","capabilities":"[WPA2-PSK-CCMP][WPS][ESS]","level":"-46","frequency":"2412","time":"Thursday, December 19, 2013 10:18:16 PM Iran Standard Time"}}
{"WiFi":{"SSID":"orc","BSSID":"84:a8:e4:46:1d:29","capabilities":"[WPA-PSK-CCMP][WPS][ESS]","level":"-75","frequency":"2462","time":"Thursday, December 19, 2013 10:18:16 PM Iran Standard Time"}}
{"WiFi":{"SSID":"ehsan","BSSID":"10:c6:1f:22:88:0e","capabilities":"[WPA-PSK-CCMP][ESS]","level":"-76","frequency":"2432","time":"Thursday, December 19, 2013 10:18:16 PM Iran Standard Time"}}
{"WiFi":{"SSID":"kiarash","BSSID":"bc:76:70:0c:47:81","capabilities":"[WPA-PSK-TKIP+CCMP][WPA2-PSK-TKIP+CCMP][ESS]","level":"-78","frequency":"2437","time":"Thursday, December 19, 2013 10:18:16 PM Iran Standard Time"}}
{"WiFi":{"SSID":"Abtin","BSSID":"10:c6:1f:e9:cb:f6","capabilities":"[WPA-PSK-TKIP+CCMP][WPA2-PSK-TKIP+CCMP][WPS][ESS]","level":"-80","frequency":"2422","time":"Thursday, December 19, 2013 10:18:16 PM Iran Standard Time"}}
{"WiFi":{"SSID":"Bayat","BSSID":"90:f6:52:4f:32:07","capabilities":"[WPA-PSK-TKIP+CCMP][WPA2-PSK-TKIP+CCMP][ESS]","level":"-88","frequency":"2457","time":"Thursday, December 19, 2013 10:18:16 PM Iran Standard Time"}}
{"WiFi":{"SSID":"arash","BSSID":"28:3c:e4:42:8d:3d","capabilities":"[WPA-PSK-CCMP][ESS]","level":"-90","frequency":"2462","time":"Thursday, December 19, 2013 10:18:16 PM Iran Standard Time"}}
{"WiFi":{"SSID":"edalat","BSSID":"b0:48:7a:c6:48:eb","capabilities":"[WPA2-PSK-TKIP+CCMP][ESS]","level":"-92","frequency":"2457","time":"Thursday, December 19, 2013 10:18:16 PM Iran Standard Time"}}
{"WiFi":{"SSID":"FSK","BSSID":"1c:af:f7:b0:62:7a","capabilities":"[WEP][ESS]","level":"-64","frequency":"2462","time":"Thursday, December 19, 2013 10:18:16 PM Iran Standard Time"}}
{"WiFi":{"SSID":"TRENDnet638","BSSID":"00:14:d1:c7:4f:30","capabilities":"[WPS][ESS]","level":"-79","frequency":"2457","time":"Thursday, December 19, 2013 10:18:16 PM Iran Standard Time"}}
{"WiFi":{"SSID":"Maleki-Avagostar.net","BSSID":"54:e6:fc:a5:69:2f","capabilities":"[WPA2-PSK-CCMP][ESS]","level":"-88","frequency":"2412","time":"Thursday, December 19, 2013 10:18:16 PM Iran Standard Time"}}
{"WiFi":{"SSID":"ARIAN","BSSID":"74:ea:3a:ac:c2:08","capabilities":"[WPA-PSK-TKIP][ESS]","level":"-89","frequency":"2437","time":"Thursday, December 19, 2013 10:18:16 PM Iran Standard Time"}}
{"WiFi":{"SSID":"Shahrooz","BSSID":"bc:76:70:0c:3c:ce","capabilities":"[WPA-PSK-TKIP+CCMP][WPA2-PSK-TKIP+CCMP][ESS]","level":"-91","frequency":"2432","time":"Thursday, December 19, 2013 10:18:16 PM Iran Standard Time"}}
{"WiFi":{"SSID":"heydari","BSSID":"54:e6:fc:d2:0d:14","capabilities":"[WPA-PSK-TKIP][ESS]","level":"-92","frequency":"2412","time":"Thursday, December 19, 2013 10:18:16 PM Iran Standard Time"}}
{"WiFi":{"SSID":"Hamed-Dlink","BSSID":"34:08:04:17:84:03","capabilities":"[WPA2-PSK-CCMP][WPS][ESS]","level":"-46","frequency":"2412","time":"Thursday, December 19, 2013 10:18:16 PM Iran Standard Time"}}
{"WiFi":{"SSID":"orc","BSSID":"84:a8:e4:46:1d:29","capabilities":"[WPA-PSK-CCMP][WPS][ESS]","level":"-75","frequency":"2462","time":"Thursday, December 19, 2013 10:18:16 PM Iran Standard Time"}}
{"WiFi":{"SSID":"ehsan","BSSID":"10:c6:1f:22:88:0e","capabilities":"[WPA-PSK-CCMP][ESS]","level":"-76","frequency":"2432","time":"Thursday, December 19, 2013 10:18:16 PM Iran Standard Time"}}
{"WiFi":{"SSID":"kiarash","BSSID":"bc:76:70:0c:47:81","capabilities":"[WPA-PSK-TKIP+CCMP][WPA2-PSK-TKIP+CCMP][ESS]","level":"-78","frequency":"2437","time":"Thursday, December 19, 2013 10:18:16 PM Iran Standard Time"}}
{"WiFi":{"SSID":"Abtin","BSSID":"10:c6:1f:e9:cb:f6","capabilities":"[WPA-PSK-TKIP+CCMP][WPA2-PSK-TKIP+CCMP][WPS][ESS]","level":"-80","frequency":"2422","time":"Thursday, December 19, 2013 10:18:16 PM Iran Standard Time"}}
{"WiFi":{"SSID":"Bayat","BSSID":"90:f6:52:4f:32:07","capabilities":"[WPA-PSK-TKIP+CCMP][WPA2-PSK-TKIP+CCMP][ESS]","level":"-88","frequency":"2457","time":"Thursday, December 19, 2013 10:18:16 PM Iran Standard Time"}}
{"WiFi":{"SSID":"arash","BSSID":"28:3c:e4:42:8d:3d","capabilities":"[WPA-PSK-CCMP][ESS]","level":"-90","frequency":"2462","time":"Thursday, December 19, 2013 10:18:16 PM Iran Standard Time"}}
{"WiFi":{"SSID":"edalat","BSSID":"b0:48:7a:c6:48:eb","capabilities":"[WPA2-PSK-TKIP+CCMP][ESS]","level":"-92","frequency":"2457","time":"Thursday, December 19, 2013 10:18:16 PM Iran Standard Time"}}
{"WiFi":{"SSID":"FSK","BSSID":"1c:af:f7:b0:62:7a","capabilities":"[WEP][ESS]","level":"-64","frequency":"2462","time":"Thursday, December 19, 2013 10:18:16 PM Iran Standard Time"}}
{"WiFi":{"SSID":"TRENDnet638","BSSID":"00:14:d1:c7:4f:30","capabilities":"[WPS][ESS]","level":"-79","frequency":"2457","time":"Thursday, December 19, 2013 10:18:16 PM Iran Standard Time"}}
{"WiFi":{"SSID":"Maleki-Avagostar.net","BSSID":"54:e6:fc:a5:69:2f","capabilities":"[WPA2-PSK-CCMP][ESS]","level":"-88","frequency":"2412","time":"Thursday, December 19, 2013 10:18:16 PM Iran Standard Time"}}
{"WiFi":{"SSID":"ARIAN","BSSID":"74:ea:3a:ac:c2:08","capabilities":"[WPA-PSK-TKIP][ESS]","level":"-89","frequency":"2437","time":"Thursday, December 19, 2013 10:18:16 PM Iran Standard Time"}}
{"WiFi":{"SSID":"Shahrooz","BSSID":"bc:76:70:0c:3c:ce","capabilities":"[WPA-PSK-TKIP+CCMP][WPA2-PSK-TKIP+CCMP][ESS]","level":"-91","frequency":"2432","time":"Thursday, December 19, 2013 10:18:16 PM Iran Standard Time"}}
{"WiFi":{"SSID":"heydari","BSSID":"54:e6:fc:d2:0d:14","capabilities":"[WPA-PSK-TKIP][ESS]","level":"-92","frequency":"2412","time":"Thursday, December 19, 2013 10:18:16 PM Iran Standard Time"}}
{"WiFi":{"SSID":"Hamed-Dlink","BSSID":"34:08:04:17:84:03","capabilities":"[WPA2-PSK-CCMP][WPS][ESS]","level":"-45","frequency":"2412","time":"Thursday, December 19, 2013 10:27:04 PM Iran Standard Time"}}
{"WiFi":{"SSID":"ehsan","BSSID":"10:c6:1f:22:88:0e","capabilities":"[WPA-PSK-CCMP][ESS]","level":"-74","frequency":"2432","time":"Thursday, December 19, 2013 10:27:04 PM Iran Standard Time"}}
{"WiFi":{"SSID":"kiarash","BSSID":"bc:76:70:0c:47:81","capabilities":"[WPA-PSK-TKIP+CCMP][WPA2-PSK-TKIP+CCMP][ESS]","level":"-77","frequency":"2437","time":"Thursday, December 19, 2013 10:27:04 PM Iran Standard Time"}}
{"WiFi":{"SSID":"FSK","BSSID":"1c:af:f7:b0:62:7a","capabilities":"[WEP][ESS]","level":"-64","frequency":"2462","time":"Thursday, December 19, 2013 10:27:04 PM Iran Standard Time"}}
{"WiFi":{"SSID":"TRENDnet638","BSSID":"00:14:d1:c7:4f:30","capabilities":"[WPS][ESS]","level":"-84","frequency":"2457","time":"Thursday, December 19, 2013 10:27:04 PM Iran Standard Time"}}
{"WiFi":{"SSID":"arash","BSSID":"28:3c:e4:42:8d:3d","capabilities":"[WPA-PSK-CCMP][ESS]","level":"-90","frequency":"2462","time":"Thursday, December 19, 2013 10:27:04 PM Iran Standard Time"}}
{"WiFi":{"SSID":"sepid","BSSID":"00:1f:a4:b8:7e:b8","capabilities":"[WPA2-PSK-CCMP][ESS]","level":"-92","frequency":"2462","time":"Thursday, December 19, 2013 10:27:04 PM Iran Standard Time"}}
{"WiFi":{"SSID":"orc","BSSID":"84:a8:e4:46:1d:29","capabilities":"[WPA-PSK-CCMP][WPS][ESS]","level":"-80","frequency":"2462","time":"Thursday, December 19, 2013 10:27:04 PM Iran Standard Time"}}
{"WiFi":{"SSID":"Hamed-Dlink","BSSID":"34:08:04:17:84:03","capabilities":"[WPA2-PSK-CCMP][WPS][ESS]","level":"-45","frequency":"2412","time":"Thursday, December 19, 2013 10:27:04 PM Iran Standard Time"}}
{"WiFi":{"SSID":"ehsan","BSSID":"10:c6:1f:22:88:0e","capabilities":"[WPA-PSK-CCMP][ESS]","level":"-74","frequency":"2432","time":"Thursday, December 19, 2013 10:27:04 PM Iran Standard Time"}}
{"WiFi":{"SSID":"kiarash","BSSID":"bc:76:70:0c:47:81","capabilities":"[WPA-PSK-TKIP+CCMP][WPA2-PSK-TKIP+CCMP][ESS]","level":"-77","frequency":"2437","time":"Thursday, December 19, 2013 10:27:04 PM Iran Standard Time"}}
{"WiFi":{"SSID":"FSK","BSSID":"1c:af:f7:b0:62:7a","capabilities":"[WEP][ESS]","level":"-64","frequency":"2462","time":"Thursday, December 19, 2013 10:27:04 PM Iran Standard Time"}}
{"WiFi":{"SSID":"TRENDnet638","BSSID":"00:14:d1:c7:4f:30","capabilities":"[WPS][ESS]","level":"-84","frequency":"2457","time":"Thursday, December 19, 2013 10:27:04 PM Iran Standard Time"}}
{"WiFi":{"SSID":"arash","BSSID":"28:3c:e4:42:8d:3d","capabilities":"[WPA-PSK-CCMP][ESS]","level":"-90","frequency":"2462","time":"Thursday, December 19, 2013 10:27:04 PM Iran Standard Time"}}
{"WiFi":{"SSID":"sepid","BSSID":"00:1f:a4:b8:7e:b8","capabilities":"[WPA2-PSK-CCMP][ESS]","level":"-92","frequency":"2462","time":"Thursday, December 19, 2013 10:27:04 PM Iran Standard Time"}}
{"WiFi":{"SSID":"orc","BSSID":"84:a8:e4:46:1d:29","capabilities":"[WPA-PSK-CCMP][WPS][ESS]","level":"-80","frequency":"2462","time":"Thursday, December 19, 2013 10:27:04 PM Iran Standard Time"}}
{"WiFi":{"SSID":"Hamed-Dlink","BSSID":"34:08:04:17:84:03","capabilities":"[WPA2-PSK-CCMP][WPS][ESS]","level":"-46","frequency":"2412","time":"Thursday, December 19, 2013 10:33:27 PM Iran Standard Time"}}
{"WiFi":{"SSID":"ehsan","BSSID":"10:c6:1f:22:88:0e","capabilities":"[WPA-PSK-CCMP][ESS]","level":"-75","frequency":"2432","time":"Thursday, December 19, 2013 10:33:27 PM Iran Standard Time"}}
{"WiFi":{"SSID":"kiarash","BSSID":"bc:76:70:0c:47:81","capabilities":"[WPA-PSK-TKIP+CCMP][WPA2-PSK-TKIP+CCMP][ESS]","level":"-77","frequency":"2437","time":"Thursday, December 19, 2013 10:33:27 PM Iran Standard Time"}}
{"WiFi":{"SSID":"FSK","BSSID":"1c:af:f7:b0:62:7a","capabilities":"[WEP][ESS]","level":"-63","frequency":"2462","time":"Thursday, December 19, 2013 10:33:27 PM Iran Standard Time"}}
{"WiFi":{"SSID":"TRENDnet638","BSSID":"00:14:d1:c7:4f:30","capabilities":"[WPS][ESS]","level":"-78","frequency":"2457","time":"Thursday, December 19, 2013 10:33:27 PM Iran Standard Time"}}
{"WiFi":{"SSID":"arash","BSSID":"28:3c:e4:42:8d:3d","capabilities":"[WPA-PSK-CCMP][ESS]","level":"-91","frequency":"2462","time":"Thursday, December 19, 2013 10:33:27 PM Iran Standard Time"}}
{"WiFi":{"SSID":"sepid","BSSID":"00:1f:a4:b8:7e:b8","capabilities":"[WPA2-PSK-CCMP][ESS]","level":"-91","frequency":"2462","time":"Thursday, December 19, 2013 10:33:27 PM Iran Standard Time"}}
{"WiFi":{"SSID":"orc","BSSID":"84:a8:e4:46:1d:29","capabilities":"[WPA-PSK-CCMP][WPS][ESS]","level":"-79","frequency":"2462","time":"Thursday, December 19, 2013 10:33:27 PM Iran Standard Time"}}
{"WiFi":{"SSID":"Golpa","BSSID":"90:f6:52:fa:7f:5e","capabilities":"[WPA-PSK-TKIP+CCMP][WPA2-PSK-TKIP+CCMP][ESS]","level":"-91","frequency":"2462","time":"Thursday, December 19, 2013 10:33:27 PM Iran Standard Time"}}
{"WiFi":{"SSID":"My-Dlink","BSSID":"1c:af:f7:b5:8f:18","capabilities":"[WPA-PSK-TKIP+CCMP][WPA2-PSK-TKIP+CCMP][ESS]","level":"-93","frequency":"2462","time":"Thursday, December 19, 2013 10:33:27 PM Iran Standard Time"}}
{"WiFi":{"SSID":"Hamed-Dlink","BSSID":"34:08:04:17:84:03","capabilities":"[WPA2-PSK-CCMP][WPS][ESS]","level":"-46","frequency":"2412","time":"Thursday, December 19, 2013 10:33:27 PM Iran Standard Time"}}
{"WiFi":{"SSID":"ehsan","BSSID":"10:c6:1f:22:88:0e","capabilities":"[WPA-PSK-CCMP][ESS]","level":"-75","frequency":"2432","time":"Thursday, December 19, 2013 10:33:27 PM Iran Standard Time"}}
{"WiFi":{"SSID":"kiarash","BSSID":"bc:76:70:0c:47:81","capabilities":"[WPA-PSK-TKIP+CCMP][WPA2-PSK-TKIP+CCMP][ESS]","level":"-77","frequency":"2437","time":"Thursday, December 19, 2013 10:33:27 PM Iran Standard Time"}}
{"WiFi":{"SSID":"FSK","BSSID":"1c:af:f7:b0:62:7a","capabilities":"[WEP][ESS]","level":"-63","frequency":"2462","time":"Thursday, December 19, 2013 10:33:27 PM Iran Standard Time"}}
{"WiFi":{"SSID":"TRENDnet638","BSSID":"00:14:d1:c7:4f:30","capabilities":"[WPS][ESS]","level":"-78","frequency":"2457","time":"Thursday, December 19, 2013 10:33:27 PM Iran Standard Time"}}
{"WiFi":{"SSID":"arash","BSSID":"28:3c:e4:42:8d:3d","capabilities":"[WPA-PSK-CCMP][ESS]","level":"-91","frequency":"2462","time":"Thursday, December 19, 2013 10:33:27 PM Iran Standard Time"}}
{"WiFi":{"SSID":"sepid","BSSID":"00:1f:a4:b8:7e:b8","capabilities":"[WPA2-PSK-CCMP][ESS]","level":"-91","frequency":"2462","time":"Thursday, December 19, 2013 10:33:27 PM Iran Standard Time"}}
{"WiFi":{"SSID":"orc","BSSID":"84:a8:e4:46:1d:29","capabilities":"[WPA-PSK-CCMP][WPS][ESS]","level":"-79","frequency":"2462","time":"Thursday, December 19, 2013 10:33:27 PM Iran Standard Time"}}
{"WiFi":{"SSID":"Golpa","BSSID":"90:f6:52:fa:7f:5e","capabilities":"[WPA-PSK-TKIP+CCMP][WPA2-PSK-TKIP+CCMP][ESS]","level":"-91","frequency":"2462","time":"Thursday, December 19, 2013 10:33:27 PM Iran Standard Time"}}
{"WiFi":{"SSID":"My-Dlink","BSSID":"1c:af:f7:b5:8f:18","capabilities":"[WPA-PSK-TKIP+CCMP][WPA2-PSK-TKIP+CCMP][ESS]","level":"-93","frequency":"2462","time":"Thursday, December 19, 2013 10:33:27 PM Iran Standard Time"}}
{"WiFi":{"SSID":"Hamed-Dlink","BSSID":"34:08:04:17:84:03","capabilities":"[WPA2-PSK-CCMP][WPS][ESS]","level":"-53","frequency":"2412","time":"Thursday, December 19, 2013 10:34:41 PM Iran Standard Time"}}
{"WiFi":{"SSID":"ehsan","BSSID":"10:c6:1f:22:88:0e","capabilities":"[WPA-PSK-CCMP][ESS]","level":"-75","frequency":"2432","time":"Thursday, December 19, 2013 10:34:41 PM Iran Standard Time"}}
{"WiFi":{"SSID":"orc","BSSID":"84:a8:e4:46:1d:29","capabilities":"[WPA-PSK-CCMP][WPS][ESS]","level":"-60","frequency":"2462","time":"Thursday, December 19, 2013 10:34:41 PM Iran Standard Time"}}
{"WiFi":{"SSID":"hemmat","BSSID":"d4:ca:6d:a5:a4:13","capabilities":"[WPA-PSK-TKIP+CCMP][WPA2-PSK-TKIP+CCMP][ESS]","level":"-89","frequency":"2432","time":"Thursday, December 19, 2013 10:34:41 PM Iran Standard Time"}}
{"WiFi":{"SSID":"Bayat","BSSID":"90:f6:52:4f:32:07","capabilities":"[WPA-PSK-TKIP+CCMP][WPA2-PSK-TKIP+CCMP][ESS]","level":"-90","frequency":"2457","time":"Thursday, December 19, 2013 10:34:41 PM Iran Standard Time"}}
{"WiFi":{"SSID":"edalat","BSSID":"b0:48:7a:c6:48:eb","capabilities":"[WPA2-PSK-TKIP+CCMP][ESS]","level":"-93","frequency":"2457","time":"Thursday, December 19, 2013 10:34:41 PM Iran Standard Time"}}
{"WiFi":{"SSID":"FSK","BSSID":"1c:af:f7:b0:62:7a","capabilities":"[WEP][ESS]","level":"-78","frequency":"2462","time":"Thursday, December 19, 2013 10:34:41 PM Iran Standard Time"}}
{"WiFi":{"SSID":"TRENDnet638","BSSID":"00:14:d1:c7:4f:30","capabilities":"[WPS][ESS]","level":"-77","frequency":"2457","time":"Thursday, December 19, 2013 10:34:41 PM Iran Standard Time"}}
{"WiFi":{"SSID":"hemmat","BSSID":"d4:ca:6d:7d:75:b3","capabilities":"[ESS]","level":"-90","frequency":"2412","time":"Thursday, December 19, 2013 10:34:41 PM Iran Standard Time"}}
{"WiFi":{"SSID":"Abtin","BSSID":"10:c6:1f:e9:cb:f6","capabilities":"[WPA-PSK-TKIP+CCMP][WPA2-PSK-TKIP+CCMP][WPS][ESS]","level":"-76","frequency":"2422","time":"Thursday, December 19, 2013 10:34:41 PM Iran Standard Time"}}
{"WiFi":{"SSID":"ARIAN","BSSID":"74:ea:3a:ac:c2:08","capabilities":"[WPA-PSK-TKIP][ESS]","level":"-82","frequency":"2437","time":"Thursday, December 19, 2013 10:34:41 PM Iran Standard Time"}}
{"WiFi":{"SSID":"Hamed-Dlink","BSSID":"34:08:04:17:84:03","capabilities":"[WPA2-PSK-CCMP][WPS][ESS]","level":"-53","frequency":"2412","time":"Thursday, December 19, 2013 10:34:41 PM Iran Standard Time"}}
{"WiFi":{"SSID":"ehsan","BSSID":"10:c6:1f:22:88:0e","capabilities":"[WPA-PSK-CCMP][ESS]","level":"-75","frequency":"2432","time":"Thursday, December 19, 2013 10:34:41 PM Iran Standard Time"}}
{"WiFi":{"SSID":"orc","BSSID":"84:a8:e4:46:1d:29","capabilities":"[WPA-PSK-CCMP][WPS][ESS]","level":"-60","frequency":"2462","time":"Thursday, December 19, 2013 10:34:41 PM Iran Standard Time"}}
{"WiFi":{"SSID":"hemmat","BSSID":"d4:ca:6d:a5:a4:13","capabilities":"[WPA-PSK-TKIP+CCMP][WPA2-PSK-TKIP+CCMP][ESS]","level":"-89","frequency":"2432","time":"Thursday, December 19, 2013 10:34:41 PM Iran Standard Time"}}
{"WiFi":{"SSID":"Bayat","BSSID":"90:f6:52:4f:32:07","capabilities":"[WPA-PSK-TKIP+CCMP][WPA2-PSK-TKIP+CCMP][ESS]","level":"-90","frequency":"2457","time":"Thursday, December 19, 2013 10:34:41 PM Iran Standard Time"}}
{"WiFi":{"SSID":"edalat","BSSID":"b0:48:7a:c6:48:eb","capabilities":"[WPA2-PSK-TKIP+CCMP][ESS]","level":"-93","frequency":"2457","time":"Thursday, December 19, 2013 10:34:41 PM Iran Standard Time"}}
{"WiFi":{"SSID":"FSK","BSSID":"1c:af:f7:b0:62:7a","capabilities":"[WEP][ESS]","level":"-78","frequency":"2462","time":"Thursday, December 19, 2013 10:34:41 PM Iran Standard Time"}}
{"WiFi":{"SSID":"TRENDnet638","BSSID":"00:14:d1:c7:4f:30","capabilities":"[WPS][ESS]","level":"-77","frequency":"2457","time":"Thursday, December 19, 2013 10:34:41 PM Iran Standard Time"}}
{"WiFi":{"SSID":"hemmat","BSSID":"d4:ca:6d:7d:75:b3","capabilities":"[ESS]","level":"-90","frequency":"2412","time":"Thursday, December 19, 2013 10:34:41 PM Iran Standard Time"}}
{"WiFi":{"SSID":"Abtin","BSSID":"10:c6:1f:e9:cb:f6","capabilities":"[WPA-PSK-TKIP+CCMP][WPA2-PSK-TKIP+CCMP][WPS][ESS]","level":"-76","frequency":"2422","time":"Thursday, December 19, 2013 10:34:41 PM Iran Standard Time"}}
{"WiFi":{"SSID":"ARIAN","BSSID":"74:ea:3a:ac:c2:08","capabilities":"[WPA-PSK-TKIP][ESS]","level":"-82","frequency":"2437","time":"Thursday, December 19, 2013 10:34:41 PM Iran Standard Time"}}
{"Application":{"ProcessName":"com.tencent.mm","Start":"12-19-2013 22:34:23","End":"12-19-2013 22:35:03"}}
{"Application":{"ProcessName":"com.android.launcher","Start":"12-19-2013 22:35:03","End":"12-19-2013 22:35:24"}}
{"WiFi":{"SSID":"Hamed-Dlink","BSSID":"34:08:04:17:84:03","capabilities":"[WPA2-PSK-CCMP][WPS][ESS]","level":"-53","frequency":"2412","time":"Thursday, December 19, 2013 10:35:41 PM Iran Standard Time"}}
{"WiFi":{"SSID":"ehsan","BSSID":"10:c6:1f:22:88:0e","capabilities":"[WPA-PSK-CCMP][ESS]","level":"-75","frequency":"2432","time":"Thursday, December 19, 2013 10:35:41 PM Iran Standard Time"}}
{"WiFi":{"SSID":"orc","BSSID":"84:a8:e4:46:1d:29","capabilities":"[WPA-PSK-CCMP][WPS][ESS]","level":"-60","frequency":"2462","time":"Thursday, December 19, 2013 10:35:41 PM Iran Standard Time"}}
{"WiFi":{"SSID":"hemmat","BSSID":"d4:ca:6d:a5:a4:13","capabilities":"[WPA-PSK-TKIP+CCMP][WPA2-PSK-TKIP+CCMP][ESS]","level":"-89","frequency":"2432","time":"Thursday, December 19, 2013 10:35:41 PM Iran Standard Time"}}
{"WiFi":{"SSID":"Bayat","BSSID":"90:f6:52:4f:32:07","capabilities":"[WPA-PSK-TKIP+CCMP][WPA2-PSK-TKIP+CCMP][ESS]","level":"-90","frequency":"2457","time":"Thursday, December 19, 2013 10:35:41 PM Iran Standard Time"}}
{"WiFi":{"SSID":"edalat","BSSID":"b0:48:7a:c6:48:eb","capabilities":"[WPA2-PSK-TKIP+CCMP][ESS]","level":"-93","frequency":"2457","time":"Thursday, December 19, 2013 10:35:41 PM Iran Standard Time"}}
{"WiFi":{"SSID":"FSK","BSSID":"1c:af:f7:b0:62:7a","capabilities":"[WEP][ESS]","level":"-78","frequency":"2462","time":"Thursday, December 19, 2013 10:35:41 PM Iran Standard Time"}}
{"WiFi":{"SSID":"TRENDnet638","BSSID":"00:14:d1:c7:4f:30","capabilities":"[WPS][ESS]","level":"-77","frequency":"2457","time":"Thursday, December 19, 2013 10:35:41 PM Iran Standard Time"}}
{"WiFi":{"SSID":"hemmat","BSSID":"d4:ca:6d:7d:75:b3","capabilities":"[ESS]","level":"-90","frequency":"2412","time":"Thursday, December 19, 2013 10:35:41 PM Iran Standard Time"}}
{"WiFi":{"SSID":"Abtin","BSSID":"10:c6:1f:e9:cb:f6","capabilities":"[WPA-PSK-TKIP+CCMP][WPA2-PSK-TKIP+CCMP][WPS][ESS]","level":"-76","frequency":"2422","time":"Thursday, December 19, 2013 10:35:41 PM Iran Standard Time"}}
{"WiFi":{"SSID":"ARIAN","BSSID":"74:ea:3a:ac:c2:08","capabilities":"[WPA-PSK-TKIP][ESS]","level":"-82","frequency":"2437","time":"Thursday, December 19, 2013 10:35:41 PM Iran Standard Time"}}
{"WiFi":{"SSID":"Hamed-Dlink","BSSID":"34:08:04:17:84:03","capabilities":"[WPA2-PSK-CCMP][WPS][ESS]","level":"-53","frequency":"2412","time":"Thursday, December 19, 2013 10:35:41 PM Iran Standard Time"}}
{"WiFi":{"SSID":"ehsan","BSSID":"10:c6:1f:22:88:0e","capabilities":"[WPA-PSK-CCMP][ESS]","level":"-75","frequency":"2432","time":"Thursday, December 19, 2013 10:35:41 PM Iran Standard Time"}}
{"WiFi":{"SSID":"orc","BSSID":"84:a8:e4:46:1d:29","capabilities":"[WPA-PSK-CCMP][WPS][ESS]","level":"-60","frequency":"2462","time":"Thursday, December 19, 2013 10:35:41 PM Iran Standard Time"}}
{"WiFi":{"SSID":"hemmat","BSSID":"d4:ca:6d:a5:a4:13","capabilities":"[WPA-PSK-TKIP+CCMP][WPA2-PSK-TKIP+CCMP][ESS]","level":"-89","frequency":"2432","time":"Thursday, December 19, 2013 10:35:41 PM Iran Standard Time"}}
{"WiFi":{"SSID":"Bayat","BSSID":"90:f6:52:4f:32:07","capabilities":"[WPA-PSK-TKIP+CCMP][WPA2-PSK-TKIP+CCMP][ESS]","level":"-90","frequency":"2457","time":"Thursday, December 19, 2013 10:35:41 PM Iran Standard Time"}}
{"WiFi":{"SSID":"edalat","BSSID":"b0:48:7a:c6:48:eb","capabilities":"[WPA2-PSK-TKIP+CCMP][ESS]","level":"-93","frequency":"2457","time":"Thursday, December 19, 2013 10:35:41 PM Iran Standard Time"}}
{"WiFi":{"SSID":"FSK","BSSID":"1c:af:f7:b0:62:7a","capabilities":"[WEP][ESS]","level":"-78","frequency":"2462","time":"Thursday, December 19, 2013 10:35:41 PM Iran Standard Time"}}
{"WiFi":{"SSID":"TRENDnet638","BSSID":"00:14:d1:c7:4f:30","capabilities":"[WPS][ESS]","level":"-77","frequency":"2457","time":"Thursday, December 19, 2013 10:35:41 PM Iran Standard Time"}}
{"WiFi":{"SSID":"hemmat","BSSID":"d4:ca:6d:7d:75:b3","capabilities":"[ESS]","level":"-90","frequency":"2412","time":"Thursday, December 19, 2013 10:35:41 PM Iran Standard Time"}}
{"WiFi":{"SSID":"Abtin","BSSID":"10:c6:1f:e9:cb:f6","capabilities":"[WPA-PSK-TKIP+CCMP][WPA2-PSK-TKIP+CCMP][WPS][ESS]","level":"-76","frequency":"2422","time":"Thursday, December 19, 2013 10:35:41 PM Iran Standard Time"}}
{"WiFi":{"SSID":"ARIAN","BSSID":"74:ea:3a:ac:c2:08","capabilities":"[WPA-PSK-TKIP][ESS]","level":"-82","frequency":"2437","time":"Thursday, December 19, 2013 10:35:41 PM Iran Standard Time"}}
{"WiFi":{"SSID":"Hamed-Dlink","BSSID":"34:08:04:17:84:03","capabilities":"[WPA2-PSK-CCMP][WPS][ESS]","level":"-53","frequency":"2412","time":"Thursday, December 19, 2013 10:36:11 PM Iran Standard Time"}}
{"WiFi":{"SSID":"ehsan","BSSID":"10:c6:1f:22:88:0e","capabilities":"[WPA-PSK-CCMP][ESS]","level":"-75","frequency":"2432","time":"Thursday, December 19, 2013 10:36:11 PM Iran Standard Time"}}
{"WiFi":{"SSID":"orc","BSSID":"84:a8:e4:46:1d:29","capabilities":"[WPA-PSK-CCMP][WPS][ESS]","level":"-60","frequency":"2462","time":"Thursday, December 19, 2013 10:36:11 PM Iran Standard Time"}}
{"WiFi":{"SSID":"hemmat","BSSID":"d4:ca:6d:a5:a4:13","capabilities":"[WPA-PSK-TKIP+CCMP][WPA2-PSK-TKIP+CCMP][ESS]","level":"-89","frequency":"2432","time":"Thursday, December 19, 2013 10:36:11 PM Iran Standard Time"}}
{"WiFi":{"SSID":"Bayat","BSSID":"90:f6:52:4f:32:07","capabilities":"[WPA-PSK-TKIP+CCMP][WPA2-PSK-TKIP+CCMP][ESS]","level":"-90","frequency":"2457","time":"Thursday, December 19, 2013 10:36:11 PM Iran Standard Time"}}
{"WiFi":{"SSID":"edalat","BSSID":"b0:48:7a:c6:48:eb","capabilities":"[WPA2-PSK-TKIP+CCMP][ESS]","level":"-93","frequency":"2457","time":"Thursday, December 19, 2013 10:36:11 PM Iran Standard Time"}}
{"WiFi":{"SSID":"FSK","BSSID":"1c:af:f7:b0:62:7a","capabilities":"[WEP][ESS]","level":"-78","frequency":"2462","time":"Thursday, December 19, 2013 10:36:11 PM Iran Standard Time"}}
{"WiFi":{"SSID":"TRENDnet638","BSSID":"00:14:d1:c7:4f:30","capabilities":"[WPS][ESS]","level":"-77","frequency":"2457","time":"Thursday, December 19, 2013 10:36:11 PM Iran Standard Time"}}
{"WiFi":{"SSID":"hemmat","BSSID":"d4:ca:6d:7d:75:b3","capabilities":"[ESS]","level":"-90","frequency":"2412","time":"Thursday, December 19, 2013 10:36:11 PM Iran Standard Time"}}
{"WiFi":{"SSID":"Abtin","BSSID":"10:c6:1f:e9:cb:f6","capabilities":"[WPA-PSK-TKIP+CCMP][WPA2-PSK-TKIP+CCMP][WPS][ESS]","level":"-76","frequency":"2422","time":"Thursday, December 19, 2013 10:36:11 PM Iran Standard Time"}}
{"WiFi":{"SSID":"ARIAN","BSSID":"74:ea:3a:ac:c2:08","capabilities":"[WPA-PSK-TKIP][ESS]","level":"-82","frequency":"2437","time":"Thursday, December 19, 2013 10:36:11 PM Iran Standard Time"}}
{"WiFi":{"SSID":"Hamed-Dlink","BSSID":"34:08:04:17:84:03","capabilities":"[WPA2-PSK-CCMP][WPS][ESS]","level":"-53","frequency":"2412","time":"Thursday, December 19, 2013 10:36:11 PM Iran Standard Time"}}
{"WiFi":{"SSID":"ehsan","BSSID":"10:c6:1f:22:88:0e","capabilities":"[WPA-PSK-CCMP][ESS]","level":"-75","frequency":"2432","time":"Thursday, December 19, 2013 10:36:11 PM Iran Standard Time"}}
{"WiFi":{"SSID":"orc","BSSID":"84:a8:e4:46:1d:29","capabilities":"[WPA-PSK-CCMP][WPS][ESS]","level":"-60","frequency":"2462","time":"Thursday, December 19, 2013 10:36:11 PM Iran Standard Time"}}
{"WiFi":{"SSID":"hemmat","BSSID":"d4:ca:6d:a5:a4:13","capabilities":"[WPA-PSK-TKIP+CCMP][WPA2-PSK-TKIP+CCMP][ESS]","level":"-89","frequency":"2432","time":"Thursday, December 19, 2013 10:36:11 PM Iran Standard Time"}}
{"WiFi":{"SSID":"Bayat","BSSID":"90:f6:52:4f:32:07","capabilities":"[WPA-PSK-TKIP+CCMP][WPA2-PSK-TKIP+CCMP][ESS]","level":"-90","frequency":"2457","time":"Thursday, December 19, 2013 10:36:11 PM Iran Standard Time"}}
{"WiFi":{"SSID":"edalat","BSSID":"b0:48:7a:c6:48:eb","capabilities":"[WPA2-PSK-TKIP+CCMP][ESS]","level":"-93","frequency":"2457","time":"Thursday, December 19, 2013 10:36:11 PM Iran Standard Time"}}
{"WiFi":{"SSID":"FSK","BSSID":"1c:af:f7:b0:62:7a","capabilities":"[WEP][ESS]","level":"-78","frequency":"2462","time":"Thursday, December 19, 2013 10:36:11 PM Iran Standard Time"}}
{"WiFi":{"SSID":"TRENDnet638","BSSID":"00:14:d1:c7:4f:30","capabilities":"[WPS][ESS]","level":"-77","frequency":"2457","time":"Thursday, December 19, 2013 10:36:11 PM Iran Standard Time"}}
{"WiFi":{"SSID":"hemmat","BSSID":"d4:ca:6d:7d:75:b3","capabilities":"[ESS]","level":"-90","frequency":"2412","time":"Thursday, December 19, 2013 10:36:11 PM Iran Standard Time"}}
{"WiFi":{"SSID":"Abtin","BSSID":"10:c6:1f:e9:cb:f6","capabilities":"[WPA-PSK-TKIP+CCMP][WPA2-PSK-TKIP+CCMP][WPS][ESS]","level":"-76","frequency":"2422","time":"Thursday, December 19, 2013 10:36:11 PM Iran Standard Time"}}
{"WiFi":{"SSID":"ARIAN","BSSID":"74:ea:3a:ac:c2:08","capabilities":"[WPA-PSK-TKIP][ESS]","level":"-82","frequency":"2437","time":"Thursday, December 19, 2013 10:36:11 PM Iran Standard Time"}}
{"Application":{"ProcessName":"com.new.download.links","Start":"12-19-2013 22:36:01","End":"12-19-2013 22:36:11"}}
{"Application":{"ProcessName":"com.yahoo.mobile.client.android.im","Start":"12-19-2013 22:39:37","End":"12-19-2013 22:39:47"}}
{"Application":{"ProcessName":"com.android.launcher","Start":"12-19-2013 22:39:37","End":"12-19-2013 22:39:47"}}
{"Application":{"ProcessName":"jp.naver.line.android","Start":"12-19-2013 22:39:47","End":"12-19-2013 22:39:57"}}
{"Application":{"ProcessName":"com.nothio.plazza","Start":"12-19-2013 22:39:47","End":"12-19-2013 22:39:57"}}
{"Application":{"ProcessName":"com.android.launcher","Start":"12-19-2013 22:39:57","End":"12-19-2013 22:40:17"}}
{"Application":{"ProcessName":"com.nothio.plazza","Start":"12-19-2013 22:40:17","End":"12-19-2013 22:42:07"}}
{"Application":{"ProcessName":"com.mediatek.thermalmanager","Start":"12-19-2013 22:39:37","End":"12-19-2013 22:42:07"}}
{"Application":{"ProcessName":"com.android.nfc","Start":"12-19-2013 22:39:37","End":"12-19-2013 22:42:07"}}
{"Application":{"ProcessName":"com.mediatek.bluetooth","Start":"12-19-2013 22:39:37","End":"12-19-2013 22:42:07"}}
{"Application":{"ProcessName":"com.mediatek.thermalmanager","Start":"12-19-2013 22:42:57","End":"12-19-2013 22:44:38"}}
{"Application":{"ProcessName":"com.nothio.plazza","Start":"12-19-2013 22:42:57","End":"12-19-2013 22:44:38"}}
{"Application":{"ProcessName":"com.android.nfc","Start":"12-19-2013 22:42:57","End":"12-19-2013 22:44:38"}}
{"Application":{"ProcessName":"com.mediatek.bluetooth","Start":"12-19-2013 22:42:57","End":"12-19-2013 22:44:38"}}
{"Application":{"ProcessName":"com.nothio.plazza","Start":"12-19-2013 22:51:36","End":"12-19-2013 22:51:46"}}
{"Application":{"ProcessName":"com.new.download.links","Start":"12-19-2013 22:51:46","End":"12-19-2013 22:52:56"}}
{"Application":{"ProcessName":"com.mediatek.thermalmanager","Start":"12-19-2013 22:51:36","End":"12-19-2013 22:52:56"}}
{"Application":{"ProcessName":"com.android.nfc","Start":"12-19-2013 22:51:36","End":"12-19-2013 22:52:56"}}
{"Application":{"ProcessName":"com.mediatek.bluetooth","Start":"12-19-2013 22:51:36","End":"12-19-2013 22:52:56"}}
{"Application":{"ProcessName":"com.new.download.links","Start":"12-19-2013 23:07:57","End":"12-19-2013 23:08:07"}}
{"Application":{"ProcessName":"com.nothio.plazza","Start":"12-19-2013 23:08:07","End":"12-19-2013 23:08:37"}}
{"Application":{"ProcessName":"com.android.launcher","Start":"12-19-2013 23:08:37","End":"12-19-2013 23:08:47"}}
