Date, Sleep Time, Wake Time, Hours,Note
11/29/13,09:43,10:57,1.23,
11/29/13,03:39,05:47,2.13,
11/28/13,05:46,10:04,4.3,
11/28/13,00:27,05:42,5.25,
11/27/13,06:01,08:30,2.48,
11/26/13,01:09,08:11,7.03,
11/25/13,06:35,07:02,0.45,
11/25/13,01:39,06:31,4.86,
11/23/13,01:33,09:30,7.95,جمعه
11/22/13,04:27,13:08,8.68,
11/21/13,02:45,10:48,8.05,5shanbe
11/20/13,20:30,04:19,7.81,
