{"Location":{"Latitude":"35.7618528","Longtitude":"51.4487553","Altitude":"0.0","time":"12-5-2013 23:52:21","Accuracy":"1217.0","Provider":"network"}}
{"Application":{"ProcessName":"com.sec.android.gallery3d","Start":"12-5-2013 23:52:12","End":"12-5-2013 23:52:32"}}
{"Application":{"ProcessName":"com.sec.android.cloudagent","Start":"12-5-2013 23:52:12","End":"12-5-2013 23:52:32"}}
{"Application":{"ProcessName":"com.sec.android.provider.logsprovider","Start":"12-5-2013 23:51:42","End":"12-5-2013 23:53:01"}}
{"Application":{"ProcessName":"com.android.nfc","Start":"12-5-2013 23:51:42","End":"12-5-2013 23:53:01"}}
{"Application":{"ProcessName":"com.android.settings","Start":"12-5-2013 23:51:42","End":"12-5-2013 23:53:01"}}
{"Application":{"ProcessName":"com.sec.android.app.myfiles","Start":"12-5-2013 23:52:32","End":"12-5-2013 23:53:01"}}
{"Application":{"ProcessName":"com.sec.android.app.snotebook","Start":"12-5-2013 23:51:42","End":"12-5-2013 23:53:01"}}
{"Application":{"ProcessName":"com.sec.android.app.FlashBarService","Start":"12-5-2013 23:51:42","End":"12-5-2013 23:53:01"}}
{"Application":{"ProcessName":"com.samsung.android.providers.context","Start":"12-5-2013 23:51:42","End":"12-5-2013 23:53:01"}}
{"Application":{"ProcessName":"com.sec.android.provider.snote","Start":"12-5-2013 23:51:42","End":"12-5-2013 23:53:01"}}
{"Application":{"ProcessName":"com.sec.android.app.twdvfs","Start":"12-5-2013 23:51:42","End":"12-5-2013 23:53:01"}}
{"Application":{"ProcessName":"com.sec.android.app.sysscope","Start":"12-5-2013 23:51:42","End":"12-5-2013 23:53:01"}}
{"Application":{"ProcessName":"com.visionobjects.resourcemanager","Start":"12-5-2013 23:51:42","End":"12-5-2013 23:53:01"}}
{"SMS":{"Address":"+98919116####","type":"1","date":"12-6-2013 00:02:36","body":"ANONYMIZED","Type":"1", "metadata": {"name": "Mashaei"}}}
{"Call": {"Number":"+98912534####","Duration":"6","Time":"12-5-2013 21:23:51","Type":"1"}}
{"Call": {"Number":"+98912534####","Duration":"6","Time":"12-5-2013 21:23:51","Type":"1"}}
{"Call": {"Number":"+98912534####","Duration":"6","Time":"12-5-2013 21:23:51","Type":"1"}}
{"Call": {"Number":"+98912534####","Duration":"6","Time":"12-5-2013 21:23:51","Type":"1"}}
{"Application":{"ProcessName":"com.sec.android.provider.logsprovider","Start":"12-6-2013 00:18:38","End":"12-6-2013 00:18:48"}}
{"Application":{"ProcessName":"com.android.nfc","Start":"12-6-2013 00:18:38","End":"12-6-2013 00:18:48"}}
{"Application":{"ProcessName":"com.android.settings","Start":"12-6-2013 00:18:38","End":"12-6-2013 00:18:48"}}
{"Application":{"ProcessName":"com.sec.android.app.snotebook","Start":"12-6-2013 00:18:38","End":"12-6-2013 00:18:48"}}
{"Application":{"ProcessName":"com.sec.android.app.FlashBarService","Start":"12-6-2013 00:18:38","End":"12-6-2013 00:18:48"}}
{"Application":{"ProcessName":"com.samsung.android.providers.context","Start":"12-6-2013 00:18:38","End":"12-6-2013 00:18:48"}}
{"Application":{"ProcessName":"com.android.mms","Start":"12-6-2013 00:18:38","End":"12-6-2013 00:18:48"}}
{"Application":{"ProcessName":"com.sec.android.provider.snote","Start":"12-6-2013 00:18:38","End":"12-6-2013 00:18:48"}}
{"Application":{"ProcessName":"com.sec.android.app.twdvfs","Start":"12-6-2013 00:18:38","End":"12-6-2013 00:18:48"}}
{"Application":{"ProcessName":"com.sec.android.app.sysscope","Start":"12-6-2013 00:18:38","End":"12-6-2013 00:18:48"}}
{"Application":{"ProcessName":"com.visionobjects.resourcemanager","Start":"12-6-2013 00:18:38","End":"12-6-2013 00:18:48"}}
{"SMS":{"Address":"+98919116####","type":"2","date":"12-6-2013 00:18:45","body":"ANONYMIZED","Type":"2", "metadata": {"name": "Mashaei"}}}
{"Call": {"Number":"+98912534####","Duration":"6","Time":"12-5-2013 21:23:51","Type":"1"}}
{"Call": {"Number":"+98912534####","Duration":"6","Time":"12-5-2013 21:23:51","Type":"1"}}
{"Application":{"ProcessName":"com.sec.android.provider.logsprovider","Start":"12-6-2013 00:19:02","End":"12-6-2013 00:19:57"}}
{"Application":{"ProcessName":"com.android.nfc","Start":"12-6-2013 00:19:02","End":"12-6-2013 00:19:57"}}
{"Application":{"ProcessName":"com.android.settings","Start":"12-6-2013 00:19:02","End":"12-6-2013 00:19:57"}}
{"Application":{"ProcessName":"com.sec.android.app.snotebook","Start":"12-6-2013 00:19:02","End":"12-6-2013 00:19:57"}}
{"Application":{"ProcessName":"com.sec.android.app.FlashBarService","Start":"12-6-2013 00:19:02","End":"12-6-2013 00:19:57"}}
{"Application":{"ProcessName":"com.samsung.android.providers.context","Start":"12-6-2013 00:19:02","End":"12-6-2013 00:19:57"}}
{"Application":{"ProcessName":"com.android.mms","Start":"12-6-2013 00:19:02","End":"12-6-2013 00:19:57"}}
{"Application":{"ProcessName":"com.sec.android.provider.snote","Start":"12-6-2013 00:19:02","End":"12-6-2013 00:19:57"}}
{"Application":{"ProcessName":"com.sec.android.app.twdvfs","Start":"12-6-2013 00:19:02","End":"12-6-2013 00:19:57"}}
{"Application":{"ProcessName":"com.sec.android.app.sysscope","Start":"12-6-2013 00:19:02","End":"12-6-2013 00:19:57"}}
{"Application":{"ProcessName":"com.visionobjects.resourcemanager","Start":"12-6-2013 00:19:02","End":"12-6-2013 00:19:57"}}
{"Application":{"ProcessName":"com.android.mms","Start":"12-6-2013 00:42:01","End":"12-6-2013 00:42:11"}}
{"Application":{"ProcessName":"com.sec.android.app.myfiles","Start":"12-6-2013 00:42:11","End":"12-6-2013 00:42:21"}}
{"Call": {"Number":"+98912534####","Duration":"6","Time":"12-5-2013 21:23:51","Type":"1"}}
{"Call": {"Number":"+98912534####","Duration":"6","Time":"12-5-2013 21:23:51","Type":"1"}}
{"Call": {"Number":"+98912534####","Duration":"6","Time":"12-5-2013 21:23:51","Type":"1"}}
{"Call": {"Number":"+98912534####","Duration":"6","Time":"12-5-2013 21:23:51","Type":"1"}}
{"Call": {"Number":"+98912534####","Duration":"6","Time":"12-5-2013 21:23:51","Type":"1"}}
{"Call": {"Number":"+98912534####","Duration":"6","Time":"12-5-2013 21:23:51","Type":"1"}}
{"Call": {"Number":"+98912534####","Duration":"6","Time":"12-5-2013 21:23:51","Type":"1"}}
{"Call": {"Number":"+98912534####","Duration":"6","Time":"12-5-2013 21:23:51","Type":"1"}}
{"Call": {"Number":"+98912534####","Duration":"6","Time":"12-5-2013 21:23:51","Type":"1"}}
{"Call": {"Number":"+98912534####","Duration":"6","Time":"12-5-2013 21:23:51","Type":"1"}}
{"Application":{"ProcessName":"com.sec.android.app.launcher","Start":"12-6-2013 00:42:21","End":"12-6-2013 00:42:31"}}
{"Location":{"Latitude":"35.7618528","Longtitude":"51.4487553","Altitude":"0.0","time":"12-6-2013 02:24:34","Accuracy":"1217.0","Provider":"network"}}
{"Application":{"ProcessName":"com.samsung.android.providers.context","Start":"12-6-2013 02:24:44","End":"12-6-2013 02:26:04"}}
{"Application":{"ProcessName":"com.sec.android.provider.logsprovider","Start":"12-6-2013 02:24:44","End":"12-6-2013 02:26:04"}}
{"Application":{"ProcessName":"com.sec.android.provider.snote","Start":"12-6-2013 02:24:44","End":"12-6-2013 02:26:04"}}
{"Application":{"ProcessName":"com.sec.android.app.twdvfs","Start":"12-6-2013 02:24:44","End":"12-6-2013 02:26:04"}}
{"Application":{"ProcessName":"com.android.nfc","Start":"12-6-2013 02:24:44","End":"12-6-2013 02:26:04"}}
{"Application":{"ProcessName":"com.android.settings","Start":"12-6-2013 02:24:44","End":"12-6-2013 02:26:04"}}
{"Application":{"ProcessName":"com.sec.android.app.snotebook","Start":"12-6-2013 02:24:44","End":"12-6-2013 02:26:04"}}
{"Application":{"ProcessName":"com.sec.android.app.sysscope","Start":"12-6-2013 02:24:44","End":"12-6-2013 02:26:04"}}
{"Application":{"ProcessName":"com.visionobjects.resourcemanager","Start":"12-6-2013 02:24:44","End":"12-6-2013 02:26:04"}}
{"Application":{"ProcessName":"com.sec.android.app.launcher","Start":"12-6-2013 02:24:44","End":"12-6-2013 02:26:04"}}
{"Application":{"ProcessName":"com.sec.android.app.FlashBarService","Start":"12-6-2013 02:24:44","End":"12-6-2013 02:26:04"}}
{"Application":{"ProcessName":"com.sec.android.Kies","Start":"12-6-2013 03:05:04","End":"12-6-2013 03:05:14"}}
{"Application":{"ProcessName":"com.sec.android.app.launcher","Start":"12-6-2013 03:05:04","End":"12-6-2013 03:05:15"}}
{"Application":{"ProcessName":"com.lslk.sleepbot","Start":"12-6-2013 03:05:15","End":"12-6-2013 03:05:54"}}
{"Application":{"ProcessName":"com.samsung.android.providers.context","Start":"12-6-2013 03:05:04","End":"12-6-2013 03:06:04"}}
{"Application":{"ProcessName":"com.sec.android.provider.logsprovider","Start":"12-6-2013 03:05:04","End":"12-6-2013 03:06:04"}}
{"Application":{"ProcessName":"com.sec.android.provider.snote","Start":"12-6-2013 03:05:04","End":"12-6-2013 03:06:04"}}
{"Application":{"ProcessName":"com.sec.android.app.twdvfs","Start":"12-6-2013 03:05:04","End":"12-6-2013 03:06:04"}}
{"Application":{"ProcessName":"com.android.nfc","Start":"12-6-2013 03:05:04","End":"12-6-2013 03:06:04"}}
{"Application":{"ProcessName":"com.android.settings","Start":"12-6-2013 03:05:04","End":"12-6-2013 03:06:04"}}
{"Application":{"ProcessName":"com.sec.android.app.snotebook","Start":"12-6-2013 03:05:04","End":"12-6-2013 03:06:04"}}
{"Application":{"ProcessName":"com.sec.android.app.sysscope","Start":"12-6-2013 03:05:04","End":"12-6-2013 03:06:04"}}
{"Application":{"ProcessName":"com.visionobjects.resourcemanager","Start":"12-6-2013 03:05:04","End":"12-6-2013 03:06:04"}}
{"Application":{"ProcessName":"com.sec.android.app.launcher","Start":"12-6-2013 03:05:54","End":"12-6-2013 03:06:04"}}
{"Application":{"ProcessName":"com.sec.android.app.FlashBarService","Start":"12-6-2013 03:05:04","End":"12-6-2013 03:06:04"}}
{"Application":{"ProcessName":"com.lslk.sleepbot","Start":"12-6-2013 03:08:52","End":"12-6-2013 03:09:02"}}
{"Application":{"ProcessName":"com.samsung.android.providers.context","Start":"12-6-2013 03:08:52","End":"12-6-2013 03:09:12"}}
{"Application":{"ProcessName":"com.sec.android.provider.logsprovider","Start":"12-6-2013 03:08:52","End":"12-6-2013 03:09:12"}}
{"Application":{"ProcessName":"com.sec.android.provider.snote","Start":"12-6-2013 03:08:52","End":"12-6-2013 03:09:12"}}
{"Application":{"ProcessName":"com.sec.android.app.twdvfs","Start":"12-6-2013 03:08:52","End":"12-6-2013 03:09:12"}}
{"Application":{"ProcessName":"com.android.nfc","Start":"12-6-2013 03:08:52","End":"12-6-2013 03:09:12"}}
{"Application":{"ProcessName":"com.android.settings","Start":"12-6-2013 03:08:52","End":"12-6-2013 03:09:12"}}
{"Application":{"ProcessName":"com.sec.android.app.snotebook","Start":"12-6-2013 03:08:52","End":"12-6-2013 03:09:12"}}
{"Application":{"ProcessName":"com.sec.android.app.sysscope","Start":"12-6-2013 03:08:52","End":"12-6-2013 03:09:12"}}
{"Application":{"ProcessName":"com.visionobjects.resourcemanager","Start":"12-6-2013 03:08:52","End":"12-6-2013 03:09:12"}}
{"Application":{"ProcessName":"com.sec.android.app.launcher","Start":"12-6-2013 03:09:02","End":"12-6-2013 03:09:12"}}
{"Application":{"ProcessName":"com.sec.android.app.FlashBarService","Start":"12-6-2013 03:08:52","End":"12-6-2013 03:09:12"}}
{"Location":{"Latitude":"35.7632722","Longtitude":"51.4483013","Altitude":"0.0","time":"12-6-2013 04:20:55","Accuracy":"1028.0","Provider":"network"}}
{"Location":{"Latitude":"35.7646918","Longtitude":"51.4478472","Altitude":"0.0","time":"12-6-2013 04:21:15","Accuracy":"1028.0","Provider":"network"}}
{"Location":{"Latitude":"35.7632722","Longtitude":"51.4483013","Altitude":"0.0","time":"12-6-2013 08:54:52","Accuracy":"1028.0","Provider":"network"}}
{"Location":{"Latitude":"35.7618528","Longtitude":"51.4487553","Altitude":"0.0","time":"12-6-2013 08:55:12","Accuracy":"1217.0","Provider":"network"}}
{"SMS":{"Address":"+98919116####","type":"2","date":"12-6-2013 00:18:45","body":"ANONYMIZED","Type":"2", "metadata": {"name": "Mashaei"}}}
{"SMS":{"Address":"+9820####","type":"1","date":"12-6-2013 11:03:46","body":"ANONYMIZED","Type":"1", "metadata": {"name": ""}}}
{"Call": {"Number":"+98912534####","Duration":"6","Time":"12-5-2013 21:23:51","Type":"1"}}
{"Call": {"Number":"+98912534####","Duration":"6","Time":"12-5-2013 21:23:51","Type":"1"}}
{"Call": {"Number":"+98912534####","Duration":"6","Time":"12-5-2013 21:23:51","Type":"1"}}
{"Application":{"ProcessName":"com.samsung.android.providers.context","Start":"12-6-2013 11:04:27","End":"12-6-2013 11:04:37"}}
{"Application":{"ProcessName":"com.sec.android.provider.snote","Start":"12-6-2013 11:04:27","End":"12-6-2013 11:04:37"}}
{"Application":{"ProcessName":"com.sec.android.provider.logsprovider","Start":"12-6-2013 11:04:27","End":"12-6-2013 11:04:37"}}
{"Application":{"ProcessName":"com.sec.android.app.twdvfs","Start":"12-6-2013 11:04:27","End":"12-6-2013 11:04:37"}}
{"Application":{"ProcessName":"com.android.nfc","Start":"12-6-2013 11:04:27","End":"12-6-2013 11:04:37"}}
{"Application":{"ProcessName":"com.android.settings","Start":"12-6-2013 11:04:27","End":"12-6-2013 11:04:37"}}
{"Application":{"ProcessName":"com.sec.android.app.snotebook","Start":"12-6-2013 11:04:27","End":"12-6-2013 11:04:37"}}
{"Application":{"ProcessName":"com.sec.android.app.sysscope","Start":"12-6-2013 11:04:27","End":"12-6-2013 11:04:37"}}
{"Application":{"ProcessName":"com.visionobjects.resourcemanager","Start":"12-6-2013 11:04:27","End":"12-6-2013 11:04:37"}}
{"Application":{"ProcessName":"com.lslk.sleepbot","Start":"12-6-2013 11:04:27","End":"12-6-2013 11:04:37"}}
{"Application":{"ProcessName":"com.sec.android.app.FlashBarService","Start":"12-6-2013 11:04:27","End":"12-6-2013 11:04:37"}}
{"Call": {"Number":"+98217737####","Duration":"19","Time":"12-6-2013 11:04:19","Type":"1"}}
{"Call": {"Number":"+98217737####","Duration":"19","Time":"12-6-2013 11:04:19","Type":"1"}}
{"Call": {"Number":"+98217737####","Duration":"19","Time":"12-6-2013 11:04:19","Type":"1"}}
{"Application":{"ProcessName":"com.samsung.android.providers.context","Start":"12-6-2013 11:04:51","End":"12-6-2013 11:05:14"}}
{"Application":{"ProcessName":"com.sec.android.provider.snote","Start":"12-6-2013 11:04:51","End":"12-6-2013 11:05:14"}}
{"Application":{"ProcessName":"com.sec.android.provider.logsprovider","Start":"12-6-2013 11:04:51","End":"12-6-2013 11:05:14"}}
{"Application":{"ProcessName":"com.sec.android.app.twdvfs","Start":"12-6-2013 11:04:51","End":"12-6-2013 11:05:14"}}
{"Application":{"ProcessName":"com.android.nfc","Start":"12-6-2013 11:04:51","End":"12-6-2013 11:05:14"}}
{"Application":{"ProcessName":"com.android.settings","Start":"12-6-2013 11:04:51","End":"12-6-2013 11:05:14"}}
{"Application":{"ProcessName":"com.sec.android.app.snotebook","Start":"12-6-2013 11:04:51","End":"12-6-2013 11:05:14"}}
{"Application":{"ProcessName":"com.sec.android.app.sysscope","Start":"12-6-2013 11:04:51","End":"12-6-2013 11:05:14"}}
{"Application":{"ProcessName":"com.visionobjects.resourcemanager","Start":"12-6-2013 11:04:51","End":"12-6-2013 11:05:14"}}
{"Application":{"ProcessName":"com.sec.android.app.FlashBarService","Start":"12-6-2013 11:04:51","End":"12-6-2013 11:05:14"}}
{"Application":{"ProcessName":"com.samsung.android.providers.context","Start":"12-6-2013 11:37:25","End":"12-6-2013 11:37:58"}}
{"Application":{"ProcessName":"com.sec.android.provider.snote","Start":"12-6-2013 11:37:25","End":"12-6-2013 11:37:58"}}
{"Application":{"ProcessName":"com.sec.android.provider.logsprovider","Start":"12-6-2013 11:37:25","End":"12-6-2013 11:37:58"}}
{"Application":{"ProcessName":"com.sec.android.app.GlanceView","Start":"12-6-2013 11:37:25","End":"12-6-2013 11:37:58"}}
{"Application":{"ProcessName":"com.sec.android.app.twdvfs","Start":"12-6-2013 11:37:25","End":"12-6-2013 11:37:58"}}
{"Application":{"ProcessName":"com.android.settings","Start":"12-6-2013 11:37:25","End":"12-6-2013 11:37:58"}}
{"Application":{"ProcessName":"com.android.nfc","Start":"12-6-2013 11:37:24","End":"12-6-2013 11:37:58"}}
{"Application":{"ProcessName":"com.sec.android.app.snotebook","Start":"12-6-2013 11:37:25","End":"12-6-2013 11:37:58"}}
{"Application":{"ProcessName":"com.sec.android.app.sysscope","Start":"12-6-2013 11:37:25","End":"12-6-2013 11:37:58"}}
{"Application":{"ProcessName":"com.visionobjects.resourcemanager","Start":"12-6-2013 11:37:25","End":"12-6-2013 11:37:58"}}
{"Application":{"ProcessName":"com.sec.android.app.FlashBarService","Start":"12-6-2013 11:37:24","End":"12-6-2013 11:37:58"}}
{"Application":{"ProcessName":"com.samsung.android.providers.context","Start":"12-6-2013 12:10:07","End":"12-6-2013 12:10:17"}}
{"Application":{"ProcessName":"com.sec.android.provider.snote","Start":"12-6-2013 12:10:07","End":"12-6-2013 12:10:17"}}
{"Application":{"ProcessName":"com.sec.android.provider.logsprovider","Start":"12-6-2013 12:10:07","End":"12-6-2013 12:10:17"}}
{"Application":{"ProcessName":"com.sec.android.app.twdvfs","Start":"12-6-2013 12:10:07","End":"12-6-2013 12:10:17"}}
{"Application":{"ProcessName":"com.android.nfc","Start":"12-6-2013 12:10:07","End":"12-6-2013 12:10:17"}}
{"Application":{"ProcessName":"com.android.settings","Start":"12-6-2013 12:10:07","End":"12-6-2013 12:10:17"}}
{"Application":{"ProcessName":"com.sec.android.app.snotebook","Start":"12-6-2013 12:10:07","End":"12-6-2013 12:10:17"}}
{"Application":{"ProcessName":"com.sec.android.app.sysscope","Start":"12-6-2013 12:10:07","End":"12-6-2013 12:10:17"}}
{"Application":{"ProcessName":"com.visionobjects.resourcemanager","Start":"12-6-2013 12:10:07","End":"12-6-2013 12:10:17"}}
{"Application":{"ProcessName":"com.sec.android.app.FlashBarService","Start":"12-6-2013 12:10:07","End":"12-6-2013 12:10:17"}}
{"Call": {"Number":"+98939102####","Duration":"76","Time":"12-6-2013 12:10:03","Type":"1"}}
{"Call": {"Number":"+98939102####","Duration":"76","Time":"12-6-2013 12:10:03","Type":"1"}}
{"Call": {"Number":"+98939102####","Duration":"76","Time":"12-6-2013 12:10:03","Type":"1"}}
{"Application":{"ProcessName":"com.sec.android.widgetapp.ap.hero.accuweather","Start":"12-6-2013 12:11:40","End":"12-6-2013 12:11:45"}}
{"Call": {"Number":"+98939102####","Duration":"76","Time":"12-6-2013 12:10:03","Type":"1"}}
{"Call": {"Number":"+98939102####","Duration":"76","Time":"12-6-2013 12:10:03","Type":"1"}}
{"Call": {"Number":"+98939102####","Duration":"76","Time":"12-6-2013 12:10:03","Type":"1"}}
{"Application":{"ProcessName":"com.samsung.android.providers.context","Start":"12-6-2013 12:11:35","End":"12-6-2013 12:11:56"}}
{"Application":{"ProcessName":"com.sec.android.provider.snote","Start":"12-6-2013 12:11:35","End":"12-6-2013 12:11:56"}}
{"Application":{"ProcessName":"com.sec.android.provider.logsprovider","Start":"12-6-2013 12:11:35","End":"12-6-2013 12:11:56"}}
{"Application":{"ProcessName":"com.sec.android.app.twdvfs","Start":"12-6-2013 12:11:35","End":"12-6-2013 12:11:56"}}
{"Application":{"ProcessName":"com.android.nfc","Start":"12-6-2013 12:11:35","End":"12-6-2013 12:11:56"}}
{"Application":{"ProcessName":"com.android.settings","Start":"12-6-2013 12:11:35","End":"12-6-2013 12:11:56"}}
{"Application":{"ProcessName":"com.sec.android.app.snotebook","Start":"12-6-2013 12:11:35","End":"12-6-2013 12:11:56"}}
{"Application":{"ProcessName":"com.sec.android.app.sysscope","Start":"12-6-2013 12:11:35","End":"12-6-2013 12:11:56"}}
{"Application":{"ProcessName":"com.visionobjects.resourcemanager","Start":"12-6-2013 12:11:35","End":"12-6-2013 12:11:56"}}
{"Application":{"ProcessName":"com.sec.android.app.launcher","Start":"12-6-2013 12:11:40","End":"12-6-2013 12:11:56"}}
{"Application":{"ProcessName":"com.sec.android.app.FlashBarService","Start":"12-6-2013 12:11:35","End":"12-6-2013 12:11:56"}}
{"Application":{"ProcessName":"com.samsung.android.providers.context","Start":"12-6-2013 12:13:05","End":"12-6-2013 12:13:16"}}
{"Application":{"ProcessName":"com.sec.android.provider.snote","Start":"12-6-2013 12:13:05","End":"12-6-2013 12:13:16"}}
{"Application":{"ProcessName":"com.sec.android.provider.logsprovider","Start":"12-6-2013 12:13:05","End":"12-6-2013 12:13:16"}}
{"Application":{"ProcessName":"com.sec.android.app.twdvfs","Start":"12-6-2013 12:13:05","End":"12-6-2013 12:13:16"}}
{"Application":{"ProcessName":"com.android.nfc","Start":"12-6-2013 12:13:05","End":"12-6-2013 12:13:16"}}
{"Application":{"ProcessName":"com.android.settings","Start":"12-6-2013 12:13:05","End":"12-6-2013 12:13:16"}}
{"Application":{"ProcessName":"com.sec.android.app.snotebook","Start":"12-6-2013 12:13:05","End":"12-6-2013 12:13:16"}}
{"Application":{"ProcessName":"com.sec.android.app.sysscope","Start":"12-6-2013 12:13:05","End":"12-6-2013 12:13:16"}}
{"Application":{"ProcessName":"com.visionobjects.resourcemanager","Start":"12-6-2013 12:13:05","End":"12-6-2013 12:13:16"}}
{"Application":{"ProcessName":"com.sec.android.app.FlashBarService","Start":"12-6-2013 12:13:05","End":"12-6-2013 12:13:16"}}
{"Call": {"Number":"+98212226####","Duration":"66","Time":"12-6-2013 12:13:04","Type":"1"}}
{"Call": {"Number":"+98212226####","Duration":"66","Time":"12-6-2013 12:13:04","Type":"1"}}
{"Call": {"Number":"+98212226####","Duration":"66","Time":"12-6-2013 12:13:04","Type":"1"}}
{"Application":{"ProcessName":"com.samsung.android.providers.context","Start":"12-6-2013 12:14:17","End":"12-6-2013 12:14:42"}}
{"Application":{"ProcessName":"com.sec.android.provider.snote","Start":"12-6-2013 12:14:17","End":"12-6-2013 12:14:42"}}
{"Application":{"ProcessName":"com.sec.android.provider.logsprovider","Start":"12-6-2013 12:14:17","End":"12-6-2013 12:14:42"}}
{"Application":{"ProcessName":"com.sec.android.app.twdvfs","Start":"12-6-2013 12:14:17","End":"12-6-2013 12:14:42"}}
{"Application":{"ProcessName":"com.android.nfc","Start":"12-6-2013 12:14:17","End":"12-6-2013 12:14:42"}}
{"Application":{"ProcessName":"com.android.settings","Start":"12-6-2013 12:14:17","End":"12-6-2013 12:14:42"}}
{"Application":{"ProcessName":"com.sec.android.app.snotebook","Start":"12-6-2013 12:14:17","End":"12-6-2013 12:14:42"}}
{"Application":{"ProcessName":"com.sec.android.app.sysscope","Start":"12-6-2013 12:14:17","End":"12-6-2013 12:14:42"}}
{"Application":{"ProcessName":"com.visionobjects.resourcemanager","Start":"12-6-2013 12:14:17","End":"12-6-2013 12:14:42"}}
{"Application":{"ProcessName":"com.sec.android.app.launcher","Start":"12-6-2013 12:14:24","End":"12-6-2013 12:14:42"}}
{"Application":{"ProcessName":"com.sec.android.app.FlashBarService","Start":"12-6-2013 12:14:17","End":"12-6-2013 12:14:42"}}
{"Application":{"ProcessName":"com.samsung.android.providers.context","Start":"12-6-2013 12:53:08","End":"12-6-2013 12:53:21"}}
{"Application":{"ProcessName":"com.sec.android.provider.logsprovider","Start":"12-6-2013 12:53:08","End":"12-6-2013 12:53:21"}}
{"Application":{"ProcessName":"com.sec.android.provider.snote","Start":"12-6-2013 12:53:08","End":"12-6-2013 12:53:21"}}
{"Application":{"ProcessName":"com.sec.android.app.twdvfs","Start":"12-6-2013 12:53:08","End":"12-6-2013 12:53:21"}}
{"Application":{"ProcessName":"com.android.nfc","Start":"12-6-2013 12:53:08","End":"12-6-2013 12:53:21"}}
{"Application":{"ProcessName":"com.android.settings","Start":"12-6-2013 12:53:08","End":"12-6-2013 12:53:21"}}
{"Application":{"ProcessName":"com.sec.android.app.snotebook","Start":"12-6-2013 12:53:08","End":"12-6-2013 12:53:21"}}
{"Application":{"ProcessName":"com.sec.android.app.sysscope","Start":"12-6-2013 12:53:08","End":"12-6-2013 12:53:21"}}
{"Application":{"ProcessName":"com.visionobjects.resourcemanager","Start":"12-6-2013 12:53:08","End":"12-6-2013 12:53:21"}}
{"Application":{"ProcessName":"com.sec.android.app.launcher","Start":"12-6-2013 12:53:08","End":"12-6-2013 12:53:21"}}
{"Application":{"ProcessName":"com.sec.android.app.FlashBarService","Start":"12-6-2013 12:53:08","End":"12-6-2013 12:53:21"}}
{"Call": {"Number":"+98212226####","Duration":"66","Time":"12-6-2013 12:13:04","Type":"1"}}
{"Call": {"Number":"+98212226####","Duration":"66","Time":"12-6-2013 12:13:04","Type":"1"}}
{"Application":{"ProcessName":"com.sec.android.app.launcher","Start":"12-6-2013 13:06:37","End":"12-6-2013 13:06:38"}}
{"Call": {"Number":"+98212226####","Duration":"66","Time":"12-6-2013 12:13:04","Type":"1"}}
{"Call": {"Number":"+98212226####","Duration":"66","Time":"12-6-2013 12:13:04","Type":"1"}}
{"Call": {"Number":"+98212226####","Duration":"66","Time":"12-6-2013 12:13:04","Type":"1"}}
{"Call": {"Number":"+98212226####","Duration":"66","Time":"12-6-2013 12:13:04","Type":"1"}}
{"Call": {"Number":"+98212226####","Duration":"66","Time":"12-6-2013 12:13:04","Type":"1"}}
{"Call": {"Number":"+98212226####","Duration":"66","Time":"12-6-2013 12:13:04","Type":"1"}}
{"Call": {"Number":"+98212226####","Duration":"66","Time":"12-6-2013 12:13:04","Type":"1"}}
{"Call": {"Number":"+98212226####","Duration":"66","Time":"12-6-2013 12:13:04","Type":"1"}}
{"Application":{"ProcessName":"com.android.contacts","Start":"12-6-2013 13:06:38","End":"12-6-2013 13:06:43"}}
{"Call": {"Number":"+98919116####","Duration":"0","Time":"12-6-2013 13:06:41","Type":"2"}}
{"Call": {"Number":"+98919116####","Duration":"0","Time":"12-6-2013 13:06:41","Type":"2"}}
{"Call": {"Number":"+98919116####","Duration":"0","Time":"12-6-2013 13:06:41","Type":"2"}}
{"Call": {"Number":"+98919116####","Duration":"0","Time":"12-6-2013 13:06:41","Type":"2"}}
{"Call": {"Number":"+98919116####","Duration":"0","Time":"12-6-2013 13:06:41","Type":"2"}}
{"Call": {"Number":"+98919116####","Duration":"0","Time":"12-6-2013 13:06:51","Type":"2"}}
{"Call": {"Number":"+98919116####","Duration":"0","Time":"12-6-2013 13:06:51","Type":"2"}}
{"Call": {"Number":"+98919116####","Duration":"0","Time":"12-6-2013 13:06:51","Type":"2"}}
{"Call": {"Number":"+98919116####","Duration":"0","Time":"12-6-2013 13:07:03","Type":"2"}}
{"Call": {"Number":"+98919116####","Duration":"0","Time":"12-6-2013 13:07:03","Type":"2"}}
{"Call": {"Number":"+98919116####","Duration":"0","Time":"12-6-2013 13:07:03","Type":"2"}}
{"Call": {"Number":"+98919116####","Duration":"0","Time":"12-6-2013 13:07:03","Type":"2"}}
{"Call": {"Number":"+98919116####","Duration":"0","Time":"12-6-2013 13:07:14","Type":"2"}}
{"Call": {"Number":"+98919116####","Duration":"0","Time":"12-6-2013 13:07:14","Type":"2"}}
{"Call": {"Number":"+98919116####","Duration":"0","Time":"12-6-2013 13:07:14","Type":"2"}}
{"Call": {"Number":"+98919116####","Duration":"0","Time":"12-6-2013 13:07:14","Type":"2"}}
{"Call": {"Number":"+98919116####","Duration":"0","Time":"12-6-2013 13:07:14","Type":"2"}}
{"Call": {"Number":"+98919116####","Duration":"0","Time":"12-6-2013 13:07:14","Type":"2"}}
{"Call": {"Number":"+98919116####","Duration":"0","Time":"12-6-2013 13:07:14","Type":"2"}}
{"Application":{"ProcessName":"com.samsung.android.providers.context","Start":"12-6-2013 13:06:37","End":"12-6-2013 13:07:28"}}
{"Application":{"ProcessName":"com.sec.android.provider.logsprovider","Start":"12-6-2013 13:06:37","End":"12-6-2013 13:07:28"}}
{"Application":{"ProcessName":"com.sec.android.provider.snote","Start":"12-6-2013 13:06:37","End":"12-6-2013 13:07:28"}}
{"Application":{"ProcessName":"com.sec.android.app.twdvfs","Start":"12-6-2013 13:06:37","End":"12-6-2013 13:07:28"}}
{"Application":{"ProcessName":"com.android.nfc","Start":"12-6-2013 13:06:37","End":"12-6-2013 13:07:28"}}
{"Application":{"ProcessName":"com.android.settings","Start":"12-6-2013 13:06:37","End":"12-6-2013 13:07:28"}}
{"Application":{"ProcessName":"com.sec.android.app.snotebook","Start":"12-6-2013 13:06:37","End":"12-6-2013 13:07:28"}}
{"Application":{"ProcessName":"com.sec.android.app.sysscope","Start":"12-6-2013 13:06:37","End":"12-6-2013 13:07:28"}}
{"Application":{"ProcessName":"com.visionobjects.resourcemanager","Start":"12-6-2013 13:06:37","End":"12-6-2013 13:07:28"}}
{"Application":{"ProcessName":"com.sec.android.app.launcher","Start":"12-6-2013 13:07:27","End":"12-6-2013 13:07:28"}}
{"Application":{"ProcessName":"com.sec.android.app.FlashBarService","Start":"12-6-2013 13:06:37","End":"12-6-2013 13:07:28"}}
{"Application":{"ProcessName":"com.sec.android.app.launcher","Start":"12-6-2013 13:07:54","End":"12-6-2013 13:08:01"}}
{"Call": {"Number":"+98939102####","Duration":"0","Time":"12-6-2013 13:08:01","Type":"2"}}
{"Call": {"Number":"+98939102####","Duration":"0","Time":"12-6-2013 13:08:01","Type":"2"}}
{"Call": {"Number":"+98939102####","Duration":"0","Time":"12-6-2013 13:08:01","Type":"2"}}
{"Application":{"ProcessName":"com.android.contacts","Start":"12-6-2013 13:08:01","End":"12-6-2013 13:08:05"}}
{"Call": {"Number":"+98939102####","Duration":"0","Time":"12-6-2013 13:08:01","Type":"2"}}
{"Call": {"Number":"+98939102####","Duration":"0","Time":"12-6-2013 13:08:01","Type":"2"}}
{"Call": {"Number":"+98939102####","Duration":"0","Time":"12-6-2013 13:08:01","Type":"2"}}
{"Call": {"Number":"+98939102####","Duration":"0","Time":"12-6-2013 13:08:01","Type":"2"}}
{"Application":{"ProcessName":"com.android.contacts","Start":"12-6-2013 13:08:06","End":"12-6-2013 13:08:11"}}
{"Application":{"ProcessName":"com.samsung.android.providers.context","Start":"12-6-2013 13:07:54","End":"12-6-2013 13:08:15"}}
{"Application":{"ProcessName":"com.sec.android.provider.logsprovider","Start":"12-6-2013 13:07:54","End":"12-6-2013 13:08:15"}}
{"Application":{"ProcessName":"com.sec.android.provider.snote","Start":"12-6-2013 13:07:54","End":"12-6-2013 13:08:15"}}
{"Application":{"ProcessName":"com.sec.android.app.twdvfs","Start":"12-6-2013 13:07:54","End":"12-6-2013 13:08:15"}}
{"Application":{"ProcessName":"com.android.nfc","Start":"12-6-2013 13:07:54","End":"12-6-2013 13:08:15"}}
{"Application":{"ProcessName":"com.android.settings","Start":"12-6-2013 13:07:54","End":"12-6-2013 13:08:15"}}
{"Application":{"ProcessName":"com.sec.android.app.snotebook","Start":"12-6-2013 13:07:54","End":"12-6-2013 13:08:15"}}
{"Application":{"ProcessName":"com.sec.android.app.sysscope","Start":"12-6-2013 13:07:54","End":"12-6-2013 13:08:15"}}
{"Application":{"ProcessName":"com.visionobjects.resourcemanager","Start":"12-6-2013 13:07:54","End":"12-6-2013 13:08:15"}}
{"Application":{"ProcessName":"com.sec.android.app.FlashBarService","Start":"12-6-2013 13:07:54","End":"12-6-2013 13:08:15"}}
{"Call": {"Number":"+98910211####","Duration":"0","Time":"12-6-2013 13:08:08","Type":"2"}}
{"Call": {"Number":"+98910211####","Duration":"0","Time":"12-6-2013 13:08:08","Type":"2"}}
{"Call": {"Number":"+98910211####","Duration":"0","Time":"12-6-2013 13:08:08","Type":"2"}}
{"Call": {"Number":"+98910211####","Duration":"0","Time":"12-6-2013 13:08:08","Type":"2"}}
{"Call": {"Number":"+98910211####","Duration":"0","Time":"12-6-2013 13:08:08","Type":"2"}}
{"Application":{"ProcessName":"com.samsung.android.providers.context","Start":"12-6-2013 13:08:21","End":"12-6-2013 13:08:25"}}
{"Application":{"ProcessName":"com.sec.android.provider.snote","Start":"12-6-2013 13:08:21","End":"12-6-2013 13:08:25"}}
{"Application":{"ProcessName":"com.sec.android.provider.logsprovider","Start":"12-6-2013 13:08:21","End":"12-6-2013 13:08:25"}}
{"Application":{"ProcessName":"com.sec.android.app.twdvfs","Start":"12-6-2013 13:08:21","End":"12-6-2013 13:08:25"}}
{"Application":{"ProcessName":"com.android.nfc","Start":"12-6-2013 13:08:21","End":"12-6-2013 13:08:25"}}
{"Application":{"ProcessName":"com.android.settings","Start":"12-6-2013 13:08:21","End":"12-6-2013 13:08:25"}}
{"Application":{"ProcessName":"com.sec.android.app.snotebook","Start":"12-6-2013 13:08:21","End":"12-6-2013 13:08:25"}}
{"Application":{"ProcessName":"com.sec.android.app.sysscope","Start":"12-6-2013 13:08:21","End":"12-6-2013 13:08:25"}}
{"Application":{"ProcessName":"com.visionobjects.resourcemanager","Start":"12-6-2013 13:08:21","End":"12-6-2013 13:08:25"}}
{"Application":{"ProcessName":"com.sec.android.app.launcher","Start":"12-6-2013 13:08:21","End":"12-6-2013 13:08:25"}}
{"Application":{"ProcessName":"com.sec.android.app.FlashBarService","Start":"12-6-2013 13:08:21","End":"12-6-2013 13:08:25"}}
{"Application":{"ProcessName":"com.samsung.android.providers.context","Start":"12-6-2013 15:01:16","End":"12-6-2013 15:01:33"}}
{"Application":{"ProcessName":"com.sec.android.provider.logsprovider","Start":"12-6-2013 15:01:16","End":"12-6-2013 15:01:33"}}
{"Application":{"ProcessName":"com.sec.android.provider.snote","Start":"12-6-2013 15:01:16","End":"12-6-2013 15:01:33"}}
{"Application":{"ProcessName":"com.sec.android.app.twdvfs","Start":"12-6-2013 15:01:16","End":"12-6-2013 15:01:33"}}
{"Application":{"ProcessName":"com.android.nfc","Start":"12-6-2013 15:01:16","End":"12-6-2013 15:01:33"}}
{"Application":{"ProcessName":"com.android.settings","Start":"12-6-2013 15:01:16","End":"12-6-2013 15:01:33"}}
{"Application":{"ProcessName":"com.sec.android.app.snotebook","Start":"12-6-2013 15:01:16","End":"12-6-2013 15:01:33"}}
{"Application":{"ProcessName":"com.sec.android.app.sysscope","Start":"12-6-2013 15:01:16","End":"12-6-2013 15:01:33"}}
{"Application":{"ProcessName":"com.visionobjects.resourcemanager","Start":"12-6-2013 15:01:16","End":"12-6-2013 15:01:33"}}
{"Application":{"ProcessName":"com.sec.android.app.launcher","Start":"12-6-2013 15:01:16","End":"12-6-2013 15:01:33"}}
{"Application":{"ProcessName":"com.sec.android.app.FlashBarService","Start":"12-6-2013 15:01:16","End":"12-6-2013 15:01:33"}}
{"Application":{"ProcessName":"com.samsung.android.providers.context","Start":"12-6-2013 15:14:16","End":"12-6-2013 15:14:54"}}
{"Application":{"ProcessName":"com.sec.android.provider.logsprovider","Start":"12-6-2013 15:14:16","End":"12-6-2013 15:14:54"}}
{"Application":{"ProcessName":"com.sec.android.provider.snote","Start":"12-6-2013 15:14:16","End":"12-6-2013 15:14:54"}}
{"Application":{"ProcessName":"com.sec.android.app.GlanceView","Start":"12-6-2013 15:14:16","End":"12-6-2013 15:14:54"}}
{"Application":{"ProcessName":"com.sec.android.app.twdvfs","Start":"12-6-2013 15:14:16","End":"12-6-2013 15:14:54"}}
{"Application":{"ProcessName":"com.android.nfc","Start":"12-6-2013 15:14:16","End":"12-6-2013 15:14:54"}}
{"Application":{"ProcessName":"com.android.settings","Start":"12-6-2013 15:14:16","End":"12-6-2013 15:14:54"}}
{"Application":{"ProcessName":"com.sec.android.app.snotebook","Start":"12-6-2013 15:14:16","End":"12-6-2013 15:14:54"}}
{"Application":{"ProcessName":"com.sec.android.app.sysscope","Start":"12-6-2013 15:14:16","End":"12-6-2013 15:14:54"}}
{"Application":{"ProcessName":"com.visionobjects.resourcemanager","Start":"12-6-2013 15:14:16","End":"12-6-2013 15:14:54"}}
{"Application":{"ProcessName":"com.sec.android.app.FlashBarService","Start":"12-6-2013 15:14:16","End":"12-6-2013 15:14:54"}}
{"SMS":{"Address":"+9830####","type":"1","date":"12-6-2013 15:37:16","body":"ANONYMIZED","Type":"1", "metadata": {"name": ""}}}
{"Call": {"Number":"+98910211####","Duration":"0","Time":"12-6-2013 13:08:08","Type":"2"}}
{"Call": {"Number":"+98910211####","Duration":"0","Time":"12-6-2013 13:08:08","Type":"2"}}
{"Call": {"Number":"+98910211####","Duration":"0","Time":"12-6-2013 13:08:08","Type":"2"}}
{"Application":{"ProcessName":"com.samsung.android.providers.context","Start":"12-6-2013 15:41:52","End":"12-6-2013 15:42:02"}}
{"Application":{"ProcessName":"com.sec.android.provider.logsprovider","Start":"12-6-2013 15:41:52","End":"12-6-2013 15:42:02"}}
{"Application":{"ProcessName":"com.sec.android.provider.snote","Start":"12-6-2013 15:41:52","End":"12-6-2013 15:42:02"}}
{"Application":{"ProcessName":"com.sec.android.app.twdvfs","Start":"12-6-2013 15:41:52","End":"12-6-2013 15:42:02"}}
{"Application":{"ProcessName":"com.android.nfc","Start":"12-6-2013 15:41:52","End":"12-6-2013 15:42:02"}}
{"Application":{"ProcessName":"com.android.settings","Start":"12-6-2013 15:41:52","End":"12-6-2013 15:42:02"}}
{"Application":{"ProcessName":"com.sec.android.app.snotebook","Start":"12-6-2013 15:41:52","End":"12-6-2013 15:42:02"}}
{"Application":{"ProcessName":"com.sec.android.app.sysscope","Start":"12-6-2013 15:41:52","End":"12-6-2013 15:42:02"}}
{"Application":{"ProcessName":"com.visionobjects.resourcemanager","Start":"12-6-2013 15:41:52","End":"12-6-2013 15:42:02"}}
{"Application":{"ProcessName":"com.sec.android.app.launcher","Start":"12-6-2013 15:41:52","End":"12-6-2013 15:42:02"}}
{"Application":{"ProcessName":"com.sec.android.app.FlashBarService","Start":"12-6-2013 15:41:52","End":"12-6-2013 15:42:02"}}
{"Application":{"ProcessName":"com.samsung.android.providers.context","Start":"12-6-2013 15:42:32","End":"12-6-2013 15:43:04"}}
{"Application":{"ProcessName":"com.sec.android.provider.logsprovider","Start":"12-6-2013 15:42:32","End":"12-6-2013 15:43:04"}}
{"Application":{"ProcessName":"com.sec.android.provider.snote","Start":"12-6-2013 15:42:32","End":"12-6-2013 15:43:04"}}
{"Application":{"ProcessName":"com.sec.android.app.twdvfs","Start":"12-6-2013 15:42:32","End":"12-6-2013 15:43:04"}}
{"Application":{"ProcessName":"com.android.nfc","Start":"12-6-2013 15:42:32","End":"12-6-2013 15:43:04"}}
{"Application":{"ProcessName":"com.android.settings","Start":"12-6-2013 15:42:32","End":"12-6-2013 15:43:04"}}
{"Application":{"ProcessName":"com.sec.android.app.snotebook","Start":"12-6-2013 15:42:32","End":"12-6-2013 15:43:04"}}
{"Application":{"ProcessName":"com.sec.android.app.sysscope","Start":"12-6-2013 15:42:32","End":"12-6-2013 15:43:04"}}
{"Application":{"ProcessName":"com.visionobjects.resourcemanager","Start":"12-6-2013 15:42:32","End":"12-6-2013 15:43:04"}}
{"Application":{"ProcessName":"com.sec.android.app.launcher","Start":"12-6-2013 15:42:32","End":"12-6-2013 15:43:04"}}
{"Application":{"ProcessName":"com.sec.android.app.FlashBarService","Start":"12-6-2013 15:42:32","End":"12-6-2013 15:43:04"}}
{"Application":{"ProcessName":"com.sec.android.widgetapp.analogclocksimple","Start":"12-6-2013 15:44:20","End":"12-6-2013 15:44:30"}}
{"Application":{"ProcessName":"com.sec.android.app.launcher","Start":"12-6-2013 15:44:20","End":"12-6-2013 15:44:51"}}
{"Application":{"ProcessName":"com.android.browser","Start":"12-6-2013 15:44:51","End":"12-6-2013 15:45:41"}}
{"Application":{"ProcessName":"com.sec.android.app.launcher","Start":"12-6-2013 15:45:41","End":"12-6-2013 15:45:51"}}
{"Application":{"ProcessName":"com.sec.android.inputmethod","Start":"12-6-2013 15:46:01","End":"12-6-2013 15:47:01"}}
{"Application":{"ProcessName":"com.sec.android.widgetapp.ap.hero.accuweather","Start":"12-6-2013 15:47:01","End":"12-6-2013 15:47:11"}}
{"Application":{"ProcessName":"com.sec.android.app.launcher","Start":"12-6-2013 15:47:01","End":"12-6-2013 15:47:11"}}
{"Application":{"ProcessName":"com.samsung.android.providers.context","Start":"12-6-2013 15:44:20","End":"12-6-2013 15:49:21"}}
{"Application":{"ProcessName":"com.sec.android.provider.logsprovider","Start":"12-6-2013 15:44:20","End":"12-6-2013 15:49:21"}}
{"Application":{"ProcessName":"com.sec.android.provider.snote","Start":"12-6-2013 15:44:20","End":"12-6-2013 15:49:21"}}
{"Application":{"ProcessName":"com.sec.android.app.twdvfs","Start":"12-6-2013 15:44:20","End":"12-6-2013 15:49:21"}}
{"Application":{"ProcessName":"com.android.nfc","Start":"12-6-2013 15:44:20","End":"12-6-2013 15:49:21"}}
{"Application":{"ProcessName":"com.android.settings","Start":"12-6-2013 15:44:20","End":"12-6-2013 15:49:21"}}
{"Application":{"ProcessName":"com.sec.android.app.snotebook","Start":"12-6-2013 15:44:20","End":"12-6-2013 15:49:21"}}
{"Application":{"ProcessName":"com.sec.android.app.sysscope","Start":"12-6-2013 15:44:20","End":"12-6-2013 15:49:21"}}
{"Application":{"ProcessName":"com.visionobjects.resourcemanager","Start":"12-6-2013 15:44:20","End":"12-6-2013 15:49:21"}}
{"Application":{"ProcessName":"com.sec.android.app.FlashBarService","Start":"12-6-2013 15:44:20","End":"12-6-2013 15:49:21"}}
{"Application":{"ProcessName":"com.sec.android.app.camera","Start":"12-6-2013 15:49:31","End":"12-6-2013 15:49:41"}}
{"Application":{"ProcessName":"com.samsung.android.providers.context","Start":"12-6-2013 15:49:21","End":"12-6-2013 15:49:51"}}
{"Application":{"ProcessName":"com.sec.android.provider.logsprovider","Start":"12-6-2013 15:49:21","End":"12-6-2013 15:49:51"}}
{"Application":{"ProcessName":"com.sec.android.provider.snote","Start":"12-6-2013 15:49:21","End":"12-6-2013 15:49:51"}}
{"Application":{"ProcessName":"com.sec.android.app.twdvfs","Start":"12-6-2013 15:49:21","End":"12-6-2013 15:49:51"}}
{"Application":{"ProcessName":"com.android.nfc","Start":"12-6-2013 15:49:21","End":"12-6-2013 15:49:51"}}
{"Application":{"ProcessName":"com.android.settings","Start":"12-6-2013 15:49:21","End":"12-6-2013 15:49:51"}}
{"Application":{"ProcessName":"com.sec.android.app.snotebook","Start":"12-6-2013 15:49:21","End":"12-6-2013 15:49:51"}}
{"Application":{"ProcessName":"com.sec.android.app.sysscope","Start":"12-6-2013 15:49:21","End":"12-6-2013 15:49:51"}}
{"Application":{"ProcessName":"com.visionobjects.resourcemanager","Start":"12-6-2013 15:49:21","End":"12-6-2013 15:49:51"}}
{"Application":{"ProcessName":"com.sec.android.gallery3d","Start":"12-6-2013 15:49:41","End":"12-6-2013 15:49:51"}}
{"Application":{"ProcessName":"com.sec.android.cloudagent","Start":"12-6-2013 15:49:41","End":"12-6-2013 15:49:51"}}
{"Application":{"ProcessName":"com.sec.android.app.FlashBarService","Start":"12-6-2013 15:49:21","End":"12-6-2013 15:49:51"}}
{"Call": {"Number":"+98910211####","Duration":"0","Time":"12-6-2013 13:08:08","Type":"2"}}
{"Application":{"ProcessName":"com.sec.android.app.launcher","Start":"12-6-2013 15:53:30","End":"12-6-2013 15:53:41"}}
{"Application":{"ProcessName":"com.samsung.android.providers.context","Start":"12-6-2013 15:53:30","End":"12-6-2013 15:54:01"}}
{"Application":{"ProcessName":"com.sec.android.provider.snote","Start":"12-6-2013 15:53:30","End":"12-6-2013 15:54:01"}}
{"Application":{"ProcessName":"com.sec.android.provider.logsprovider","Start":"12-6-2013 15:53:30","End":"12-6-2013 15:54:01"}}
{"Application":{"ProcessName":"com.sec.android.app.twdvfs","Start":"12-6-2013 15:53:30","End":"12-6-2013 15:54:01"}}
{"Application":{"ProcessName":"com.android.nfc","Start":"12-6-2013 15:53:30","End":"12-6-2013 15:54:01"}}
{"Application":{"ProcessName":"com.android.settings","Start":"12-6-2013 15:53:30","End":"12-6-2013 15:54:01"}}
{"Application":{"ProcessName":"com.sec.android.app.snotebook","Start":"12-6-2013 15:53:30","End":"12-6-2013 15:54:01"}}
{"Application":{"ProcessName":"com.android.contacts","Start":"12-6-2013 15:53:41","End":"12-6-2013 15:54:01"}}
{"Application":{"ProcessName":"com.sec.android.app.sysscope","Start":"12-6-2013 15:53:30","End":"12-6-2013 15:54:01"}}
{"Application":{"ProcessName":"com.visionobjects.resourcemanager","Start":"12-6-2013 15:53:30","End":"12-6-2013 15:54:01"}}
{"Application":{"ProcessName":"com.sec.android.app.FlashBarService","Start":"12-6-2013 15:53:30","End":"12-6-2013 15:54:01"}}
{"Call": {"Number":"0938361####","Duration":"0","Time":"12-6-2013 15:53:52","Type":"2"}}
{"Call": {"Number":"0938361####","Duration":"0","Time":"12-6-2013 15:53:52","Type":"2"}}
{"Call": {"Number":"0938361####","Duration":"0","Time":"12-6-2013 15:53:52","Type":"2"}}
{"Call": {"Number":"0938361####","Duration":"0","Time":"12-6-2013 15:53:52","Type":"2"}}
{"Call": {"Number":"0938361####","Duration":"0","Time":"12-6-2013 15:53:52","Type":"2"}}
{"Application":{"ProcessName":"com.samsung.android.providers.context","Start":"12-6-2013 15:54:21","End":"12-6-2013 15:54:44"}}
{"Application":{"ProcessName":"com.sec.android.provider.snote","Start":"12-6-2013 15:54:21","End":"12-6-2013 15:54:44"}}
{"Application":{"ProcessName":"com.sec.android.provider.logsprovider","Start":"12-6-2013 15:54:21","End":"12-6-2013 15:54:44"}}
{"Application":{"ProcessName":"com.sec.android.app.twdvfs","Start":"12-6-2013 15:54:21","End":"12-6-2013 15:54:44"}}
{"Application":{"ProcessName":"com.android.nfc","Start":"12-6-2013 15:54:21","End":"12-6-2013 15:54:44"}}
{"Application":{"ProcessName":"com.android.settings","Start":"12-6-2013 15:54:21","End":"12-6-2013 15:54:44"}}
{"Application":{"ProcessName":"com.sec.android.app.snotebook","Start":"12-6-2013 15:54:21","End":"12-6-2013 15:54:44"}}
{"Application":{"ProcessName":"com.sec.android.app.sysscope","Start":"12-6-2013 15:54:21","End":"12-6-2013 15:54:44"}}
{"Application":{"ProcessName":"com.visionobjects.resourcemanager","Start":"12-6-2013 15:54:21","End":"12-6-2013 15:54:44"}}
{"Application":{"ProcessName":"com.sec.android.app.FlashBarService","Start":"12-6-2013 15:54:21","End":"12-6-2013 15:54:44"}}
{"SMS":{"Address":"+98919116####","type":"1","date":"12-6-2013 16:09:25","body":"ANONYMIZED","Type":"1", "metadata": {"name": "Mashaei"}}}
{"Call": {"Number":"0938361####","Duration":"0","Time":"12-6-2013 15:53:52","Type":"2"}}
{"Call": {"Number":"0938361####","Duration":"0","Time":"12-6-2013 15:53:52","Type":"2"}}
{"Call": {"Number":"0938361####","Duration":"0","Time":"12-6-2013 15:53:52","Type":"2"}}
{"Application":{"ProcessName":"com.samsung.android.providers.context","Start":"12-6-2013 16:09:28","End":"12-6-2013 16:10:14"}}
{"Application":{"ProcessName":"com.sec.android.provider.logsprovider","Start":"12-6-2013 16:09:28","End":"12-6-2013 16:10:14"}}
{"Application":{"ProcessName":"com.sec.android.provider.snote","Start":"12-6-2013 16:09:28","End":"12-6-2013 16:10:14"}}
{"Application":{"ProcessName":"com.sec.android.app.twdvfs","Start":"12-6-2013 16:09:28","End":"12-6-2013 16:10:14"}}
{"Application":{"ProcessName":"com.android.nfc","Start":"12-6-2013 16:09:28","End":"12-6-2013 16:10:14"}}
{"Application":{"ProcessName":"com.android.settings","Start":"12-6-2013 16:09:28","End":"12-6-2013 16:10:14"}}
{"Application":{"ProcessName":"com.sec.android.app.snotebook","Start":"12-6-2013 16:09:28","End":"12-6-2013 16:10:14"}}
{"Application":{"ProcessName":"com.sec.android.app.sysscope","Start":"12-6-2013 16:09:28","End":"12-6-2013 16:10:14"}}
{"Application":{"ProcessName":"com.visionobjects.resourcemanager","Start":"12-6-2013 16:09:28","End":"12-6-2013 16:10:14"}}
{"Application":{"ProcessName":"com.sec.android.app.launcher","Start":"12-6-2013 16:09:28","End":"12-6-2013 16:10:14"}}
{"Application":{"ProcessName":"com.sec.android.app.FlashBarService","Start":"12-6-2013 16:09:28","End":"12-6-2013 16:10:14"}}
{"Application":{"ProcessName":"com.sec.android.widgetapp.analogclocksimple","Start":"12-6-2013 16:15:00","End":"12-6-2013 16:15:00"}}
{"Call": {"Number":"0938361####","Duration":"0","Time":"12-6-2013 15:53:52","Type":"2"}}
{"Application":{"ProcessName":"com.sec.android.widgetapp.dualclockanalog","Start":"12-6-2013 16:15:00","End":"12-6-2013 16:15:10"}}
{"Application":{"ProcessName":"com.sec.android.app.launcher","Start":"12-6-2013 16:15:00","End":"12-6-2013 16:15:10"}}
{"Application":{"ProcessName":"com.android.contacts","Start":"12-6-2013 16:15:10","End":"12-6-2013 16:15:31"}}
{"Application":{"ProcessName":"com.samsung.android.providers.context","Start":"12-6-2013 16:15:00","End":"12-6-2013 16:15:41"}}
{"Application":{"ProcessName":"com.sec.android.provider.snote","Start":"12-6-2013 16:15:00","End":"12-6-2013 16:15:41"}}
{"Application":{"ProcessName":"com.sec.android.provider.logsprovider","Start":"12-6-2013 16:15:00","End":"12-6-2013 16:15:41"}}
{"Application":{"ProcessName":"com.sec.android.app.twdvfs","Start":"12-6-2013 16:15:00","End":"12-6-2013 16:15:41"}}
{"Application":{"ProcessName":"com.android.nfc","Start":"12-6-2013 16:15:00","End":"12-6-2013 16:15:41"}}
{"Application":{"ProcessName":"com.android.settings","Start":"12-6-2013 16:15:00","End":"12-6-2013 16:15:41"}}
{"Application":{"ProcessName":"com.sec.android.app.snotebook","Start":"12-6-2013 16:15:00","End":"12-6-2013 16:15:41"}}
{"Application":{"ProcessName":"com.sec.android.app.sysscope","Start":"12-6-2013 16:15:00","End":"12-6-2013 16:15:41"}}
{"Application":{"ProcessName":"com.visionobjects.resourcemanager","Start":"12-6-2013 16:15:00","End":"12-6-2013 16:15:41"}}
{"Application":{"ProcessName":"com.sec.android.app.FlashBarService","Start":"12-6-2013 16:15:00","End":"12-6-2013 16:15:41"}}
{"Call": {"Number":"0912295####","Duration":"66","Time":"12-6-2013 16:15:21","Type":"2"}}
{"Call": {"Number":"0912295####","Duration":"66","Time":"12-6-2013 16:15:21","Type":"2"}}
{"Call": {"Number":"0912295####","Duration":"66","Time":"12-6-2013 16:15:21","Type":"2"}}
{"Application":{"ProcessName":"com.samsung.android.providers.context","Start":"12-6-2013 16:16:47","End":"12-6-2013 16:16:58"}}
{"Application":{"ProcessName":"com.sec.android.provider.snote","Start":"12-6-2013 16:16:47","End":"12-6-2013 16:16:58"}}
{"Application":{"ProcessName":"com.sec.android.provider.logsprovider","Start":"12-6-2013 16:16:47","End":"12-6-2013 16:16:58"}}
{"Application":{"ProcessName":"com.sec.android.app.twdvfs","Start":"12-6-2013 16:16:47","End":"12-6-2013 16:16:58"}}
{"Application":{"ProcessName":"com.android.nfc","Start":"12-6-2013 16:16:47","End":"12-6-2013 16:16:58"}}
{"Application":{"ProcessName":"com.android.settings","Start":"12-6-2013 16:16:47","End":"12-6-2013 16:16:58"}}
{"Application":{"ProcessName":"com.sec.android.app.snotebook","Start":"12-6-2013 16:16:47","End":"12-6-2013 16:16:58"}}
{"Application":{"ProcessName":"com.sec.android.app.sysscope","Start":"12-6-2013 16:16:47","End":"12-6-2013 16:16:58"}}
{"Application":{"ProcessName":"com.visionobjects.resourcemanager","Start":"12-6-2013 16:16:47","End":"12-6-2013 16:16:58"}}
{"Application":{"ProcessName":"com.sec.android.app.FlashBarService","Start":"12-6-2013 16:16:47","End":"12-6-2013 16:16:58"}}
{"Application":{"ProcessName":"com.samsung.android.providers.context","Start":"12-6-2013 16:44:57","End":"12-6-2013 16:45:07"}}
{"Application":{"ProcessName":"com.android.mms","Start":"12-6-2013 16:44:57","End":"12-6-2013 16:45:07"}}
{"Application":{"ProcessName":"com.sec.android.provider.snote","Start":"12-6-2013 16:44:57","End":"12-6-2013 16:45:07"}}
{"Application":{"ProcessName":"com.sec.android.provider.logsprovider","Start":"12-6-2013 16:44:57","End":"12-6-2013 16:45:07"}}
{"Application":{"ProcessName":"com.sec.android.app.twdvfs","Start":"12-6-2013 16:44:57","End":"12-6-2013 16:45:07"}}
{"Application":{"ProcessName":"com.android.nfc","Start":"12-6-2013 16:44:57","End":"12-6-2013 16:45:07"}}
{"Application":{"ProcessName":"com.android.settings","Start":"12-6-2013 16:44:57","End":"12-6-2013 16:45:07"}}
{"Application":{"ProcessName":"com.sec.android.app.snotebook","Start":"12-6-2013 16:44:57","End":"12-6-2013 16:45:07"}}
{"Application":{"ProcessName":"com.sec.android.app.sysscope","Start":"12-6-2013 16:44:57","End":"12-6-2013 16:45:07"}}
{"Application":{"ProcessName":"com.visionobjects.resourcemanager","Start":"12-6-2013 16:44:57","End":"12-6-2013 16:45:07"}}
{"Application":{"ProcessName":"com.sec.android.app.FlashBarService","Start":"12-6-2013 16:44:57","End":"12-6-2013 16:45:07"}}
{"SMS":{"Address":"+98919116####","type":"2","date":"12-6-2013 16:45:02","body":"ANONYMIZED","Type":"2", "metadata": {"name": "Mashaei"}}}
{"Call": {"Number":"0912295####","Duration":"66","Time":"12-6-2013 16:15:21","Type":"2"}}
{"Call": {"Number":"0912295####","Duration":"66","Time":"12-6-2013 16:15:21","Type":"2"}}
{"Application":{"ProcessName":"com.samsung.android.providers.context","Start":"12-6-2013 16:45:17","End":"12-6-2013 16:46:06"}}
{"Application":{"ProcessName":"com.sec.android.provider.snote","Start":"12-6-2013 16:45:17","End":"12-6-2013 16:46:06"}}
{"Application":{"ProcessName":"com.sec.android.provider.logsprovider","Start":"12-6-2013 16:45:17","End":"12-6-2013 16:46:06"}}
{"Application":{"ProcessName":"com.sec.android.app.twdvfs","Start":"12-6-2013 16:45:17","End":"12-6-2013 16:46:06"}}
{"Application":{"ProcessName":"com.android.nfc","Start":"12-6-2013 16:45:17","End":"12-6-2013 16:46:06"}}
{"Application":{"ProcessName":"com.android.settings","Start":"12-6-2013 16:45:17","End":"12-6-2013 16:46:06"}}
{"Application":{"ProcessName":"com.sec.android.app.snotebook","Start":"12-6-2013 16:45:17","End":"12-6-2013 16:46:06"}}
{"Application":{"ProcessName":"com.sec.android.app.sysscope","Start":"12-6-2013 16:45:17","End":"12-6-2013 16:46:06"}}
{"Application":{"ProcessName":"com.visionobjects.resourcemanager","Start":"12-6-2013 16:45:17","End":"12-6-2013 16:46:06"}}
{"Application":{"ProcessName":"com.sec.android.app.launcher","Start":"12-6-2013 16:45:17","End":"12-6-2013 16:46:06"}}
{"Application":{"ProcessName":"com.sec.android.app.FlashBarService","Start":"12-6-2013 16:45:17","End":"12-6-2013 16:46:06"}}
{"SMS":{"Address":"+98919116####","type":"1","date":"12-6-2013 16:50:45","body":"ANONYMIZED","Type":"1", "metadata": {"name": "Mashaei"}}}
{"Call": {"Number":"0912295####","Duration":"66","Time":"12-6-2013 16:15:21","Type":"2"}}
{"Call": {"Number":"0912295####","Duration":"66","Time":"12-6-2013 16:15:21","Type":"2"}}
{"Call": {"Number":"0912295####","Duration":"66","Time":"12-6-2013 16:15:21","Type":"2"}}
{"Application":{"ProcessName":"com.sec.android.widgetapp.analogclocksimple","Start":"12-6-2013 17:08:41","End":"12-6-2013 17:08:42"}}
{"Call": {"Number":"0912295####","Duration":"66","Time":"12-6-2013 16:15:21","Type":"2"}}
{"Application":{"ProcessName":"com.sec.android.app.launcher","Start":"12-6-2013 17:08:41","End":"12-6-2013 17:08:46"}}
{"Application":{"ProcessName":"com.samsung.android.providers.context","Start":"12-6-2013 17:08:41","End":"12-6-2013 17:09:12"}}
{"Application":{"ProcessName":"com.android.mms","Start":"12-6-2013 17:08:46","End":"12-6-2013 17:09:12"}}
{"Application":{"ProcessName":"com.sec.android.provider.logsprovider","Start":"12-6-2013 17:08:41","End":"12-6-2013 17:09:12"}}
{"Application":{"ProcessName":"com.sec.android.provider.snote","Start":"12-6-2013 17:08:41","End":"12-6-2013 17:09:12"}}
{"Application":{"ProcessName":"com.sec.android.app.twdvfs","Start":"12-6-2013 17:08:41","End":"12-6-2013 17:09:12"}}
{"Application":{"ProcessName":"com.android.nfc","Start":"12-6-2013 17:08:41","End":"12-6-2013 17:09:12"}}
{"Application":{"ProcessName":"com.android.settings","Start":"12-6-2013 17:08:41","End":"12-6-2013 17:09:12"}}
{"Application":{"ProcessName":"com.sec.android.app.snotebook","Start":"12-6-2013 17:08:41","End":"12-6-2013 17:09:12"}}
{"Application":{"ProcessName":"com.sec.android.app.sysscope","Start":"12-6-2013 17:08:41","End":"12-6-2013 17:09:12"}}
{"Application":{"ProcessName":"com.visionobjects.resourcemanager","Start":"12-6-2013 17:08:41","End":"12-6-2013 17:09:12"}}
{"Application":{"ProcessName":"com.sec.android.app.FlashBarService","Start":"12-6-2013 17:08:41","End":"12-6-2013 17:09:12"}}
{"SMS":{"Address":"+98919116####","type":"2","date":"12-6-2013 17:09:08","body":"ANONYMIZED","Type":"2", "metadata": {"name": "Mashaei"}}}
{"Call": {"Number":"0912295####","Duration":"66","Time":"12-6-2013 16:15:21","Type":"2"}}
{"Call": {"Number":"0912295####","Duration":"66","Time":"12-6-2013 16:15:21","Type":"2"}}
{"Application":{"ProcessName":"com.samsung.android.providers.context","Start":"12-6-2013 17:09:27","End":"12-6-2013 17:09:31"}}
{"Application":{"ProcessName":"com.sec.android.provider.snote","Start":"12-6-2013 17:09:27","End":"12-6-2013 17:09:31"}}
{"Application":{"ProcessName":"com.sec.android.provider.logsprovider","Start":"12-6-2013 17:09:27","End":"12-6-2013 17:09:31"}}
{"Application":{"ProcessName":"com.sec.android.app.twdvfs","Start":"12-6-2013 17:09:27","End":"12-6-2013 17:09:31"}}
{"Application":{"ProcessName":"com.android.nfc","Start":"12-6-2013 17:09:27","End":"12-6-2013 17:09:31"}}
{"Application":{"ProcessName":"com.android.settings","Start":"12-6-2013 17:09:27","End":"12-6-2013 17:09:31"}}
{"Application":{"ProcessName":"com.sec.android.app.snotebook","Start":"12-6-2013 17:09:27","End":"12-6-2013 17:09:31"}}
{"Application":{"ProcessName":"com.sec.android.app.sysscope","Start":"12-6-2013 17:09:27","End":"12-6-2013 17:09:31"}}
{"Application":{"ProcessName":"com.visionobjects.resourcemanager","Start":"12-6-2013 17:09:27","End":"12-6-2013 17:09:31"}}
{"Application":{"ProcessName":"com.sec.android.app.launcher","Start":"12-6-2013 17:09:27","End":"12-6-2013 17:09:31"}}
{"Application":{"ProcessName":"com.sec.android.app.FlashBarService","Start":"12-6-2013 17:09:27","End":"12-6-2013 17:09:31"}}
{"SMS":{"Address":"+98919116####","type":"1","date":"12-6-2013 18:33:26","body":"ANONYMIZED","Type":"1", "metadata": {"name": "Mashaei"}}}
{"Call": {"Number":"0912295####","Duration":"66","Time":"12-6-2013 16:15:21","Type":"2"}}
{"Call": {"Number":"0912295####","Duration":"66","Time":"12-6-2013 16:15:21","Type":"2"}}
{"Call": {"Number":"0912295####","Duration":"66","Time":"12-6-2013 16:15:21","Type":"2"}}
{"Application":{"ProcessName":"com.samsung.android.providers.context","Start":"12-6-2013 18:33:30","End":"12-6-2013 18:33:43"}}
{"Application":{"ProcessName":"com.sec.android.provider.snote","Start":"12-6-2013 18:33:30","End":"12-6-2013 18:33:43"}}
{"Application":{"ProcessName":"com.sec.android.provider.logsprovider","Start":"12-6-2013 18:33:30","End":"12-6-2013 18:33:43"}}
{"Application":{"ProcessName":"com.sec.android.app.twdvfs","Start":"12-6-2013 18:33:30","End":"12-6-2013 18:33:43"}}
{"Application":{"ProcessName":"com.android.nfc","Start":"12-6-2013 18:33:30","End":"12-6-2013 18:33:43"}}
{"Application":{"ProcessName":"com.android.settings","Start":"12-6-2013 18:33:30","End":"12-6-2013 18:33:43"}}
{"Application":{"ProcessName":"com.sec.android.app.snotebook","Start":"12-6-2013 18:33:30","End":"12-6-2013 18:33:43"}}
{"Application":{"ProcessName":"com.sec.android.app.sysscope","Start":"12-6-2013 18:33:30","End":"12-6-2013 18:33:43"}}
{"Application":{"ProcessName":"com.visionobjects.resourcemanager","Start":"12-6-2013 18:33:30","End":"12-6-2013 18:33:43"}}
{"Application":{"ProcessName":"com.sec.android.app.launcher","Start":"12-6-2013 18:33:30","End":"12-6-2013 18:33:43"}}
{"Application":{"ProcessName":"com.sec.android.app.FlashBarService","Start":"12-6-2013 18:33:30","End":"12-6-2013 18:33:43"}}
{"Call": {"Number":"0912295####","Duration":"66","Time":"12-6-2013 16:15:21","Type":"2"}}
{"Application":{"ProcessName":"com.sec.android.provider.badge","Start":"12-6-2013 19:21:17","End":"12-6-2013 19:21:22"}}
{"Application":{"ProcessName":"com.sec.android.app.launcher","Start":"12-6-2013 19:21:17","End":"12-6-2013 19:21:22"}}
{"Application":{"ProcessName":"com.samsung.android.providers.context","Start":"12-6-2013 19:21:17","End":"12-6-2013 19:21:37"}}
{"Application":{"ProcessName":"com.android.mms","Start":"12-6-2013 19:21:22","End":"12-6-2013 19:21:37"}}
{"Application":{"ProcessName":"com.sec.android.provider.logsprovider","Start":"12-6-2013 19:21:17","End":"12-6-2013 19:21:37"}}
{"Application":{"ProcessName":"com.sec.android.provider.snote","Start":"12-6-2013 19:21:17","End":"12-6-2013 19:21:37"}}
{"Application":{"ProcessName":"com.sec.android.app.twdvfs","Start":"12-6-2013 19:21:17","End":"12-6-2013 19:21:37"}}
{"Application":{"ProcessName":"com.android.nfc","Start":"12-6-2013 19:21:17","End":"12-6-2013 19:21:37"}}
{"Application":{"ProcessName":"com.android.settings","Start":"12-6-2013 19:21:17","End":"12-6-2013 19:21:37"}}
{"Application":{"ProcessName":"com.sec.android.app.snotebook","Start":"12-6-2013 19:21:17","End":"12-6-2013 19:21:37"}}
{"Application":{"ProcessName":"com.sec.android.app.sysscope","Start":"12-6-2013 19:21:17","End":"12-6-2013 19:21:37"}}
{"Application":{"ProcessName":"com.visionobjects.resourcemanager","Start":"12-6-2013 19:21:17","End":"12-6-2013 19:21:37"}}
{"Application":{"ProcessName":"com.sec.android.app.FlashBarService","Start":"12-6-2013 19:21:17","End":"12-6-2013 19:21:37"}}
{"SMS":{"Address":"+98919116####","type":"2","date":"12-6-2013 19:21:32","body":"ANONYMIZED","Type":"2", "metadata": {"name": "Mashaei"}}}
{"Call": {"Number":"0912295####","Duration":"66","Time":"12-6-2013 16:15:21","Type":"2"}}
{"Call": {"Number":"0912295####","Duration":"66","Time":"12-6-2013 16:15:21","Type":"2"}}
{"Application":{"ProcessName":"com.sec.android.provider.badge","Start":"12-6-2013 19:21:44","End":"12-6-2013 19:21:45"}}
{"Application":{"ProcessName":"com.sec.android.widgetapp.dualclockanalog","Start":"12-6-2013 19:21:45","End":"12-6-2013 19:21:48"}}
{"Application":{"ProcessName":"com.samsung.android.providers.context","Start":"12-6-2013 19:21:44","End":"12-6-2013 19:22:04"}}
{"Application":{"ProcessName":"com.android.mms","Start":"12-6-2013 19:21:44","End":"12-6-2013 19:22:04"}}
{"Application":{"ProcessName":"com.sec.android.provider.snote","Start":"12-6-2013 19:21:44","End":"12-6-2013 19:22:04"}}
{"Application":{"ProcessName":"com.sec.android.provider.logsprovider","Start":"12-6-2013 19:21:44","End":"12-6-2013 19:22:04"}}
{"Application":{"ProcessName":"com.sec.android.app.twdvfs","Start":"12-6-2013 19:21:44","End":"12-6-2013 19:22:04"}}
{"Application":{"ProcessName":"com.android.nfc","Start":"12-6-2013 19:21:44","End":"12-6-2013 19:22:04"}}
{"Application":{"ProcessName":"com.android.settings","Start":"12-6-2013 19:21:44","End":"12-6-2013 19:22:04"}}
{"Application":{"ProcessName":"com.sec.android.app.snotebook","Start":"12-6-2013 19:21:44","End":"12-6-2013 19:22:04"}}
{"Application":{"ProcessName":"com.sec.android.app.sysscope","Start":"12-6-2013 19:21:44","End":"12-6-2013 19:22:04"}}
{"Application":{"ProcessName":"com.visionobjects.resourcemanager","Start":"12-6-2013 19:21:44","End":"12-6-2013 19:22:04"}}
{"Application":{"ProcessName":"com.sec.android.app.FlashBarService","Start":"12-6-2013 19:21:44","End":"12-6-2013 19:22:04"}}
{"SMS":{"Address":"+98919116####","type":"1","date":"12-6-2013 19:23:32","body":"ANONYMIZED","Type":"1", "metadata": {"name": "Mashaei"}}}
{"Call": {"Number":"0912295####","Duration":"66","Time":"12-6-2013 16:15:21","Type":"2"}}
{"Call": {"Number":"0912295####","Duration":"66","Time":"12-6-2013 16:15:21","Type":"2"}}
{"Call": {"Number":"0912295####","Duration":"66","Time":"12-6-2013 16:15:21","Type":"2"}}
{"Application":{"ProcessName":"com.sec.android.provider.badge","Start":"12-6-2013 19:41:04","End":"12-6-2013 19:41:04"}}
{"Call": {"Number":"0912295####","Duration":"66","Time":"12-6-2013 16:15:21","Type":"2"}}
{"Application":{"ProcessName":"com.android.mms","Start":"12-6-2013 19:41:04","End":"12-6-2013 19:41:12"}}
{"Application":{"ProcessName":"com.sec.android.widgetapp.analogclocksimple","Start":"12-6-2013 19:41:04","End":"12-6-2013 19:41:12"}}
{"Application":{"ProcessName":"com.sec.android.widgetapp.dualclockanalog","Start":"12-6-2013 19:41:12","End":"12-6-2013 19:41:14"}}
{"Application":{"ProcessName":"com.sec.android.provider.logsprovider","Start":"12-6-2013 19:41:04","End":"12-6-2013 19:41:29"}}
{"Application":{"ProcessName":"com.android.nfc","Start":"12-6-2013 19:41:04","End":"12-6-2013 19:41:29"}}
{"Application":{"ProcessName":"com.android.settings","Start":"12-6-2013 19:41:04","End":"12-6-2013 19:41:29"}}
{"Application":{"ProcessName":"com.sec.android.app.snotebook","Start":"12-6-2013 19:41:04","End":"12-6-2013 19:41:29"}}
{"Application":{"ProcessName":"com.sec.android.app.FlashBarService","Start":"12-6-2013 19:41:04","End":"12-6-2013 19:41:29"}}
{"Application":{"ProcessName":"com.samsung.android.providers.context","Start":"12-6-2013 19:41:04","End":"12-6-2013 19:41:29"}}
{"Application":{"ProcessName":"com.sec.android.provider.snote","Start":"12-6-2013 19:41:04","End":"12-6-2013 19:41:29"}}
{"Application":{"ProcessName":"com.sec.android.app.twdvfs","Start":"12-6-2013 19:41:04","End":"12-6-2013 19:41:29"}}
{"Application":{"ProcessName":"com.sec.android.app.sysscope","Start":"12-6-2013 19:41:04","End":"12-6-2013 19:41:29"}}
{"Application":{"ProcessName":"com.visionobjects.resourcemanager","Start":"12-6-2013 19:41:04","End":"12-6-2013 19:41:29"}}
{"Application":{"ProcessName":"com.sec.android.app.launcher","Start":"12-6-2013 19:41:12","End":"12-6-2013 19:41:29"}}
{"Application":{"ProcessName":"com.sec.android.provider.logsprovider","Start":"12-6-2013 19:52:14","End":"12-6-2013 19:53:11"}}
{"Application":{"ProcessName":"com.android.nfc","Start":"12-6-2013 19:52:14","End":"12-6-2013 19:53:11"}}
{"Application":{"ProcessName":"com.android.settings","Start":"12-6-2013 19:52:14","End":"12-6-2013 19:53:11"}}
{"Application":{"ProcessName":"com.sec.android.app.snotebook","Start":"12-6-2013 19:52:14","End":"12-6-2013 19:53:11"}}
{"Application":{"ProcessName":"com.sec.android.app.FlashBarService","Start":"12-6-2013 19:52:14","End":"12-6-2013 19:53:11"}}
{"Application":{"ProcessName":"com.samsung.android.providers.context","Start":"12-6-2013 19:52:14","End":"12-6-2013 19:53:11"}}
{"Application":{"ProcessName":"com.sec.android.provider.snote","Start":"12-6-2013 19:52:14","End":"12-6-2013 19:53:11"}}
{"Application":{"ProcessName":"com.sec.android.app.GlanceView","Start":"12-6-2013 19:52:14","End":"12-6-2013 19:53:11"}}
{"Application":{"ProcessName":"com.sec.android.app.twdvfs","Start":"12-6-2013 19:52:14","End":"12-6-2013 19:53:11"}}
{"Application":{"ProcessName":"com.sec.android.app.sysscope","Start":"12-6-2013 19:52:14","End":"12-6-2013 19:53:11"}}
{"Application":{"ProcessName":"com.visionobjects.resourcemanager","Start":"12-6-2013 19:52:14","End":"12-6-2013 19:53:11"}}
{"Call": {"Number":"+98217737####","Duration":"0","Time":"12-6-2013 20:22:42","Type":"3"}}
{"Call": {"Number":"+98217737####","Duration":"0","Time":"12-6-2013 20:22:42","Type":"3"}}
{"Call": {"Number":"+98217737####","Duration":"0","Time":"12-6-2013 20:22:42","Type":"3"}}
{"Application":{"ProcessName":"com.sec.android.provider.logsprovider","Start":"12-6-2013 20:22:48","End":"12-6-2013 20:23:44"}}
{"Application":{"ProcessName":"com.android.nfc","Start":"12-6-2013 20:22:48","End":"12-6-2013 20:23:44"}}
{"Application":{"ProcessName":"com.android.settings","Start":"12-6-2013 20:22:48","End":"12-6-2013 20:23:44"}}
{"Application":{"ProcessName":"com.sec.android.app.snotebook","Start":"12-6-2013 20:22:48","End":"12-6-2013 20:23:44"}}
{"Application":{"ProcessName":"com.sec.android.app.FlashBarService","Start":"12-6-2013 20:22:48","End":"12-6-2013 20:23:44"}}
{"Application":{"ProcessName":"com.samsung.android.providers.context","Start":"12-6-2013 20:22:48","End":"12-6-2013 20:23:44"}}
{"Application":{"ProcessName":"com.sec.android.provider.snote","Start":"12-6-2013 20:22:48","End":"12-6-2013 20:23:44"}}
{"Application":{"ProcessName":"com.sec.android.app.twdvfs","Start":"12-6-2013 20:22:48","End":"12-6-2013 20:23:44"}}
{"Application":{"ProcessName":"com.sec.android.app.sysscope","Start":"12-6-2013 20:22:48","End":"12-6-2013 20:23:44"}}
{"Application":{"ProcessName":"com.visionobjects.resourcemanager","Start":"12-6-2013 20:22:48","End":"12-6-2013 20:23:44"}}
{"Application":{"ProcessName":"com.sec.android.app.launcher","Start":"12-6-2013 20:23:29","End":"12-6-2013 20:23:44"}}
{"Application":{"ProcessName":"com.sec.android.provider.logsprovider","Start":"12-6-2013 20:25:08","End":"12-6-2013 20:25:48"}}
{"Application":{"ProcessName":"com.android.nfc","Start":"12-6-2013 20:25:08","End":"12-6-2013 20:25:48"}}
{"Application":{"ProcessName":"com.android.settings","Start":"12-6-2013 20:25:08","End":"12-6-2013 20:25:48"}}
{"Application":{"ProcessName":"com.sec.android.app.snotebook","Start":"12-6-2013 20:25:08","End":"12-6-2013 20:25:48"}}
{"Application":{"ProcessName":"com.sec.android.app.FlashBarService","Start":"12-6-2013 20:25:08","End":"12-6-2013 20:25:48"}}
{"Application":{"ProcessName":"com.samsung.android.providers.context","Start":"12-6-2013 20:25:08","End":"12-6-2013 20:25:48"}}
{"Application":{"ProcessName":"com.sec.android.provider.snote","Start":"12-6-2013 20:25:08","End":"12-6-2013 20:25:48"}}
{"Application":{"ProcessName":"com.sec.android.app.twdvfs","Start":"12-6-2013 20:25:08","End":"12-6-2013 20:25:48"}}
{"Application":{"ProcessName":"com.sec.android.app.sysscope","Start":"12-6-2013 20:25:08","End":"12-6-2013 20:25:48"}}
{"Application":{"ProcessName":"com.visionobjects.resourcemanager","Start":"12-6-2013 20:25:08","End":"12-6-2013 20:25:48"}}
{"Call": {"Number":"+98217737####","Duration":"62","Time":"12-6-2013 20:25:01","Type":"1"}}
{"Call": {"Number":"+98217737####","Duration":"62","Time":"12-6-2013 20:25:01","Type":"1"}}
{"Call": {"Number":"+98217737####","Duration":"62","Time":"12-6-2013 20:25:01","Type":"1"}}
{"Call": {"Number":"+98217737####","Duration":"62","Time":"12-6-2013 20:25:01","Type":"1"}}
{"Call": {"Number":"+98217737####","Duration":"62","Time":"12-6-2013 20:25:01","Type":"1"}}
{"Call": {"Number":"+98217737####","Duration":"62","Time":"12-6-2013 20:25:01","Type":"1"}}
{"Call": {"Number":"+98217737####","Duration":"62","Time":"12-6-2013 20:25:01","Type":"1"}}
{"Call": {"Number":"+98217737####","Duration":"62","Time":"12-6-2013 20:25:01","Type":"1"}}
{"Call": {"Number":"+98217737####","Duration":"62","Time":"12-6-2013 20:25:01","Type":"1"}}
{"Application":{"ProcessName":"com.sec.android.app.launcher","Start":"12-6-2013 21:18:12","End":"12-6-2013 21:18:17"}}
{"Call": {"Number":"+98217737####","Duration":"62","Time":"12-6-2013 20:25:01","Type":"1"}}
{"Call": {"Number":"+98217737####","Duration":"62","Time":"12-6-2013 20:25:01","Type":"1"}}
{"Call": {"Number":"+98217737####","Duration":"62","Time":"12-6-2013 20:25:01","Type":"1"}}
{"Call": {"Number":"+98217737####","Duration":"62","Time":"12-6-2013 20:25:01","Type":"1"}}
{"Call": {"Number":"+98217737####","Duration":"62","Time":"12-6-2013 20:25:01","Type":"1"}}
{"Call": {"Number":"+98217737####","Duration":"62","Time":"12-6-2013 20:25:01","Type":"1"}}
{"Call": {"Number":"+98217737####","Duration":"62","Time":"12-6-2013 20:25:01","Type":"1"}}
{"Call": {"Number":"+98217737####","Duration":"62","Time":"12-6-2013 20:25:01","Type":"1"}}
{"Call": {"Number":"+98217737####","Duration":"62","Time":"12-6-2013 20:25:01","Type":"1"}}
{"Call": {"Number":"+98217737####","Duration":"62","Time":"12-6-2013 20:25:01","Type":"1"}}
{"Call": {"Number":"+98217737####","Duration":"62","Time":"12-6-2013 20:25:01","Type":"1"}}
{"Call": {"Number":"+98217737####","Duration":"62","Time":"12-6-2013 20:25:01","Type":"1"}}
{"Application":{"ProcessName":"com.sec.android.provider.logsprovider","Start":"12-6-2013 21:18:12","End":"12-6-2013 21:18:39"}}
{"Application":{"ProcessName":"com.android.nfc","Start":"12-6-2013 21:18:12","End":"12-6-2013 21:18:39"}}
{"Application":{"ProcessName":"com.android.settings","Start":"12-6-2013 21:18:12","End":"12-6-2013 21:18:39"}}
{"Application":{"ProcessName":"com.sec.android.app.snotebook","Start":"12-6-2013 21:18:12","End":"12-6-2013 21:18:39"}}
{"Application":{"ProcessName":"com.android.contacts","Start":"12-6-2013 21:18:17","End":"12-6-2013 21:18:39"}}
{"Application":{"ProcessName":"com.sec.android.app.FlashBarService","Start":"12-6-2013 21:18:12","End":"12-6-2013 21:18:39"}}
{"Application":{"ProcessName":"com.samsung.android.providers.context","Start":"12-6-2013 21:18:12","End":"12-6-2013 21:18:39"}}
{"Application":{"ProcessName":"com.sec.android.provider.snote","Start":"12-6-2013 21:18:12","End":"12-6-2013 21:18:39"}}
{"Application":{"ProcessName":"com.sec.android.app.twdvfs","Start":"12-6-2013 21:18:12","End":"12-6-2013 21:18:39"}}
{"Application":{"ProcessName":"com.sec.android.app.sysscope","Start":"12-6-2013 21:18:12","End":"12-6-2013 21:18:39"}}
{"Application":{"ProcessName":"com.visionobjects.resourcemanager","Start":"12-6-2013 21:18:12","End":"12-6-2013 21:18:39"}}
{"Application":{"ProcessName":"com.sec.android.provider.logsprovider","Start":"12-6-2013 21:53:03","End":"12-6-2013 21:53:29"}}
{"Application":{"ProcessName":"com.android.nfc","Start":"12-6-2013 21:53:03","End":"12-6-2013 21:53:29"}}
{"Application":{"ProcessName":"com.android.settings","Start":"12-6-2013 21:53:03","End":"12-6-2013 21:53:29"}}
{"Application":{"ProcessName":"com.sec.android.app.snotebook","Start":"12-6-2013 21:53:03","End":"12-6-2013 21:53:29"}}
{"Application":{"ProcessName":"com.sec.android.app.FlashBarService","Start":"12-6-2013 21:53:03","End":"12-6-2013 21:53:29"}}
{"Application":{"ProcessName":"com.samsung.android.providers.context","Start":"12-6-2013 21:53:03","End":"12-6-2013 21:53:29"}}
{"Application":{"ProcessName":"com.sec.android.provider.snote","Start":"12-6-2013 21:53:03","End":"12-6-2013 21:53:29"}}
{"Application":{"ProcessName":"com.sec.android.app.twdvfs","Start":"12-6-2013 21:53:03","End":"12-6-2013 21:53:29"}}
{"Application":{"ProcessName":"com.sec.android.app.sysscope","Start":"12-6-2013 21:53:03","End":"12-6-2013 21:53:29"}}
{"Application":{"ProcessName":"com.visionobjects.resourcemanager","Start":"12-6-2013 21:53:03","End":"12-6-2013 21:53:29"}}
{"Application":{"ProcessName":"com.sec.android.app.launcher","Start":"12-6-2013 21:53:03","End":"12-6-2013 21:53:29"}}
{"Application":{"ProcessName":"com.sec.android.provider.logsprovider","Start":"12-6-2013 22:08:54","End":"12-6-2013 22:09:05"}}
{"Application":{"ProcessName":"com.android.nfc","Start":"12-6-2013 22:08:54","End":"12-6-2013 22:09:05"}}
{"Application":{"ProcessName":"com.android.settings","Start":"12-6-2013 22:08:54","End":"12-6-2013 22:09:05"}}
{"Application":{"ProcessName":"com.sec.android.app.snotebook","Start":"12-6-2013 22:08:54","End":"12-6-2013 22:09:05"}}
{"Application":{"ProcessName":"com.sec.android.app.FlashBarService","Start":"12-6-2013 22:08:54","End":"12-6-2013 22:09:05"}}
{"Application":{"ProcessName":"com.samsung.android.providers.context","Start":"12-6-2013 22:08:54","End":"12-6-2013 22:09:05"}}
{"Application":{"ProcessName":"com.sec.android.provider.snote","Start":"12-6-2013 22:08:54","End":"12-6-2013 22:09:05"}}
{"Application":{"ProcessName":"com.sec.android.app.twdvfs","Start":"12-6-2013 22:08:54","End":"12-6-2013 22:09:05"}}
{"Application":{"ProcessName":"com.sec.android.app.sysscope","Start":"12-6-2013 22:08:54","End":"12-6-2013 22:09:05"}}
{"Application":{"ProcessName":"com.visionobjects.resourcemanager","Start":"12-6-2013 22:08:54","End":"12-6-2013 22:09:05"}}
{"Application":{"ProcessName":"com.sec.android.app.launcher","Start":"12-6-2013 22:08:54","End":"12-6-2013 22:09:05"}}
{"SMS":{"Address":"+98919116####","type":"2","date":"12-6-2013 22:26:11","body":"ANONYMIZED","Type":"2", "metadata": {"name": "Mashaei"}}}
{"Call": {"Number":"+98217737####","Duration":"62","Time":"12-6-2013 20:25:01","Type":"1"}}
{"Call": {"Number":"+98217737####","Duration":"62","Time":"12-6-2013 20:25:01","Type":"1"}}
{"Application":{"ProcessName":"com.android.mms","Start":"12-6-2013 22:26:09","End":"12-6-2013 22:26:19"}}
{"Application":{"ProcessName":"com.android.mms","Start":"12-6-2013 22:26:22","End":"12-6-2013 22:26:29"}}
{"Application":{"ProcessName":"com.sec.android.app.FileShareServer","Start":"12-6-2013 22:26:19","End":"12-6-2013 22:26:29"}}
{"SMS":{"Address":"+98919116####","type":"1","date":"12-6-2013 22:26:42","body":"ANONYMIZED","Type":"1", "metadata": {"name": "Mashaei"}}}
{"Call": {"Number":"+98217737####","Duration":"62","Time":"12-6-2013 20:25:01","Type":"1"}}
{"Call": {"Number":"+98217737####","Duration":"62","Time":"12-6-2013 20:25:01","Type":"1"}}
{"Call": {"Number":"+98217737####","Duration":"62","Time":"12-6-2013 20:25:01","Type":"1"}}
{"Application":{"ProcessName":"com.android.mms","Start":"12-6-2013 22:26:42","End":"12-6-2013 22:26:49"}}
{"Application":{"ProcessName":"com.sec.android.app.videoplayer","Start":"12-6-2013 22:26:29","End":"12-6-2013 22:26:49"}}
{"Application":{"ProcessName":"com.sec.android.app.videoplayer","Start":"12-6-2013 22:26:51","End":"12-6-2013 22:27:09"}}
{"Application":{"ProcessName":"com.sec.android.cloudagent","Start":"12-6-2013 22:27:11","End":"12-6-2013 22:27:12"}}
{"Application":{"ProcessName":"com.sec.android.app.videoplayer","Start":"12-6-2013 22:27:11","End":"12-6-2013 22:27:41"}}
{"Application":{"ProcessName":"com.sec.android.app.FileShareServer","Start":"12-6-2013 22:27:41","End":"12-6-2013 22:27:49"}}
{"Application":{"ProcessName":"com.sec.android.gallery3d","Start":"12-6-2013 22:27:49","End":"12-6-2013 22:27:51"}}
{"Application":{"ProcessName":"com.sec.android.cloudagent","Start":"12-6-2013 22:27:49","End":"12-6-2013 22:27:51"}}
{"Call": {"Number":"+98217737####","Duration":"62","Time":"12-6-2013 20:25:01","Type":"1"}}
{"Application":{"ProcessName":"com.sec.android.provider.logsprovider","Start":"12-6-2013 22:26:09","End":"12-6-2013 22:27:59"}}
{"Application":{"ProcessName":"com.android.nfc","Start":"12-6-2013 22:26:09","End":"12-6-2013 22:27:59"}}
{"Application":{"ProcessName":"com.android.settings","Start":"12-6-2013 22:26:09","End":"12-6-2013 22:27:59"}}
{"Application":{"ProcessName":"com.sec.android.app.snotebook","Start":"12-6-2013 22:26:09","End":"12-6-2013 22:27:59"}}
{"Application":{"ProcessName":"com.sec.android.app.FlashBarService","Start":"12-6-2013 22:26:09","End":"12-6-2013 22:27:59"}}
{"Application":{"ProcessName":"com.samsung.android.providers.context","Start":"12-6-2013 22:26:09","End":"12-6-2013 22:27:59"}}
{"Application":{"ProcessName":"com.sec.android.provider.snote","Start":"12-6-2013 22:26:09","End":"12-6-2013 22:27:59"}}
{"Application":{"ProcessName":"com.sec.android.app.twdvfs","Start":"12-6-2013 22:26:09","End":"12-6-2013 22:27:59"}}
{"Application":{"ProcessName":"com.sec.android.app.FileShareServer","Start":"12-6-2013 22:27:51","End":"12-6-2013 22:27:59"}}
{"Application":{"ProcessName":"com.sec.android.app.sysscope","Start":"12-6-2013 22:26:09","End":"12-6-2013 22:27:59"}}
{"Application":{"ProcessName":"com.visionobjects.resourcemanager","Start":"12-6-2013 22:26:09","End":"12-6-2013 22:27:59"}}
{"Location":{"Latitude":"35.7632722","Longtitude":"51.4483013","Altitude":"0.0","time":"12-6-2013 22:28:00","Accuracy":"1028.0","Provider":"network"}}
{"Application":{"ProcessName":"com.sec.android.provider.logsprovider","Start":"12-6-2013 22:28:03","End":"12-6-2013 22:28:12"}}
{"Application":{"ProcessName":"com.android.nfc","Start":"12-6-2013 22:28:03","End":"12-6-2013 22:28:12"}}
{"Application":{"ProcessName":"com.android.settings","Start":"12-6-2013 22:28:03","End":"12-6-2013 22:28:12"}}
{"Application":{"ProcessName":"com.sec.android.app.snotebook","Start":"12-6-2013 22:28:03","End":"12-6-2013 22:28:12"}}
{"Application":{"ProcessName":"com.sec.android.app.FlashBarService","Start":"12-6-2013 22:28:03","End":"12-6-2013 22:28:12"}}
{"Application":{"ProcessName":"com.samsung.android.providers.context","Start":"12-6-2013 22:28:03","End":"12-6-2013 22:28:12"}}
{"Application":{"ProcessName":"com.sec.android.provider.snote","Start":"12-6-2013 22:28:03","End":"12-6-2013 22:28:12"}}
{"Application":{"ProcessName":"com.sec.android.app.twdvfs","Start":"12-6-2013 22:28:03","End":"12-6-2013 22:28:12"}}
{"Application":{"ProcessName":"com.sec.android.app.tmserver","Start":"12-6-2013 22:28:10","End":"12-6-2013 22:28:12"}}
{"Application":{"ProcessName":"com.visionobjects.resourcemanager","Start":"12-6-2013 22:28:10","End":"12-6-2013 22:28:12"}}
{"Application":{"ProcessName":"com.sec.android.app.sysscope","Start":"12-6-2013 22:28:03","End":"12-6-2013 22:28:12"}}
{"Application":{"ProcessName":"com.sec.android.app.launcher","Start":"12-6-2013 22:28:03","End":"12-6-2013 22:28:12"}}
{"Location":{"Latitude":"35.7618528","Longtitude":"51.4487553","Altitude":"0.0","time":"12-6-2013 22:28:40","Accuracy":"1217.0","Provider":"network"}}
{"Location":{"Latitude":"35.7632722","Longtitude":"51.4483013","Altitude":"0.0","time":"12-6-2013 22:29:20","Accuracy":"1028.0","Provider":"network"}}
{"Location":{"Latitude":"35.7646918","Longtitude":"51.4478472","Altitude":"0.0","time":"12-6-2013 22:29:40","Accuracy":"1028.0","Provider":"network"}}
{"Location":{"Latitude":"35.7632722","Longtitude":"51.4483013","Altitude":"0.0","time":"12-6-2013 22:30:00","Accuracy":"1028.0","Provider":"network"}}
{"Location":{"Latitude":"35.7618528","Longtitude":"51.4487553","Altitude":"0.0","time":"12-6-2013 22:30:20","Accuracy":"1217.0","Provider":"network"}}
{"Application":{"ProcessName":"com.sec.android.provider.logsprovider","Start":"12-6-2013 22:41:23","End":"12-6-2013 22:41:26"}}
{"Application":{"ProcessName":"com.android.nfc","Start":"12-6-2013 22:41:23","End":"12-6-2013 22:41:26"}}
{"Application":{"ProcessName":"com.android.settings","Start":"12-6-2013 22:41:23","End":"12-6-2013 22:41:26"}}
{"Application":{"ProcessName":"com.sec.android.app.snotebook","Start":"12-6-2013 22:41:23","End":"12-6-2013 22:41:26"}}
{"Application":{"ProcessName":"com.sec.android.app.FlashBarService","Start":"12-6-2013 22:41:23","End":"12-6-2013 22:41:26"}}
{"Application":{"ProcessName":"com.samsung.android.providers.context","Start":"12-6-2013 22:41:23","End":"12-6-2013 22:41:26"}}
{"Application":{"ProcessName":"com.sec.android.provider.snote","Start":"12-6-2013 22:41:23","End":"12-6-2013 22:41:26"}}
{"Application":{"ProcessName":"com.sec.android.app.twdvfs","Start":"12-6-2013 22:41:23","End":"12-6-2013 22:41:26"}}
{"Application":{"ProcessName":"com.sec.android.app.sysscope","Start":"12-6-2013 22:41:23","End":"12-6-2013 22:41:26"}}
{"Application":{"ProcessName":"com.visionobjects.resourcemanager","Start":"12-6-2013 22:41:23","End":"12-6-2013 22:41:26"}}
{"Application":{"ProcessName":"com.sec.android.app.launcher","Start":"12-6-2013 22:41:23","End":"12-6-2013 22:41:26"}}
{"Location":{"Latitude":"35.7627991","Longtitude":"51.4484526","Altitude":"0.0","time":"12-6-2013 23:14:32","Accuracy":"1028.0","Provider":"network"}}
{"Location":{"Latitude":"35.7618528","Longtitude":"51.4487553","Altitude":"0.0","time":"12-6-2013 23:14:52","Accuracy":"1217.0","Provider":"network"}}
{"Location":{"Latitude":"35.7632722","Longtitude":"51.4483013","Altitude":"0.0","time":"12-6-2013 23:17:12","Accuracy":"1028.0","Provider":"network"}}
{"Location":{"Latitude":"35.7618528","Longtitude":"51.4487553","Altitude":"0.0","time":"12-6-2013 23:17:52","Accuracy":"1217.0","Provider":"network"}}
{"Location":{"Latitude":"35.7632722","Longtitude":"51.4483013","Altitude":"0.0","time":"12-6-2013 23:31:15","Accuracy":"1028.0","Provider":"network"}}
{"Location":{"Latitude":"35.7646918","Longtitude":"51.4478472","Altitude":"0.0","time":"12-6-2013 23:31:35","Accuracy":"1028.0","Provider":"network"}}
{"Location":{"Latitude":"35.7632722","Longtitude":"51.4483013","Altitude":"0.0","time":"12-6-2013 23:32:16","Accuracy":"1028.0","Provider":"network"}}
{"Location":{"Latitude":"35.7618528","Longtitude":"51.4487553","Altitude":"0.0","time":"12-6-2013 23:33:16","Accuracy":"1217.0","Provider":"network"}}
{"Location":{"Latitude":"35.7632722","Longtitude":"51.4483013","Altitude":"0.0","time":"12-6-2013 23:33:36","Accuracy":"1028.0","Provider":"network"}}
{"Location":{"Latitude":"35.7646918","Longtitude":"51.4478472","Altitude":"0.0","time":"12-6-2013 23:33:56","Accuracy":"1028.0","Provider":"network"}}
{"Location":{"Latitude":"35.7632722","Longtitude":"51.4483013","Altitude":"0.0","time":"12-6-2013 23:34:16","Accuracy":"1028.0","Provider":"network"}}
{"Location":{"Latitude":"35.7618528","Longtitude":"51.4487553","Altitude":"0.0","time":"12-6-2013 23:34:36","Accuracy":"1217.0","Provider":"network"}}
{"Location":{"Latitude":"35.7627991","Longtitude":"51.4484526","Altitude":"0.0","time":"12-6-2013 23:35:36","Accuracy":"1028.0","Provider":"network"}}
{"Location":{"Latitude":"35.7632722","Longtitude":"51.4483013","Altitude":"0.0","time":"12-6-2013 23:35:56","Accuracy":"1028.0","Provider":"network"}}
{"Location":{"Latitude":"35.7618528","Longtitude":"51.4487553","Altitude":"0.0","time":"12-6-2013 23:36:37","Accuracy":"1217.0","Provider":"network"}}
{"Location":{"Latitude":"35.7632722","Longtitude":"51.4483013","Altitude":"0.0","time":"12-6-2013 23:39:17","Accuracy":"1028.0","Provider":"network"}}
{"Location":{"Latitude":"35.7618528","Longtitude":"51.4487553","Altitude":"0.0","time":"12-6-2013 23:40:37","Accuracy":"1217.0","Provider":"network"}}
{"Location":{"Latitude":"35.7632722","Longtitude":"51.4483013","Altitude":"0.0","time":"12-6-2013 23:41:18","Accuracy":"1028.0","Provider":"network"}}
{"Location":{"Latitude":"35.7618528","Longtitude":"51.4487553","Altitude":"0.0","time":"12-6-2013 23:41:58","Accuracy":"1217.0","Provider":"network"}}
{"Application":{"ProcessName":"com.sec.android.provider.logsprovider","Start":"12-6-2013 23:44:10","End":"12-6-2013 23:44:20"}}
{"Application":{"ProcessName":"com.android.nfc","Start":"12-6-2013 23:44:10","End":"12-6-2013 23:44:20"}}
{"Application":{"ProcessName":"com.android.settings","Start":"12-6-2013 23:44:10","End":"12-6-2013 23:44:20"}}
{"Application":{"ProcessName":"com.sec.android.app.snotebook","Start":"12-6-2013 23:44:10","End":"12-6-2013 23:44:20"}}
{"Application":{"ProcessName":"com.sec.android.app.FlashBarService","Start":"12-6-2013 23:44:10","End":"12-6-2013 23:44:20"}}
{"Application":{"ProcessName":"com.samsung.android.providers.context","Start":"12-6-2013 23:44:10","End":"12-6-2013 23:44:20"}}
{"Application":{"ProcessName":"com.sec.android.provider.snote","Start":"12-6-2013 23:44:10","End":"12-6-2013 23:44:20"}}
{"Application":{"ProcessName":"com.sec.android.app.twdvfs","Start":"12-6-2013 23:44:10","End":"12-6-2013 23:44:20"}}
{"Application":{"ProcessName":"com.sec.android.app.sysscope","Start":"12-6-2013 23:44:10","End":"12-6-2013 23:44:20"}}
{"Application":{"ProcessName":"com.visionobjects.resourcemanager","Start":"12-6-2013 23:44:10","End":"12-6-2013 23:44:20"}}
