{"Call": {"Number":"6037*9910*9228*####","Duration":"0","Time":"12-12-2013 22:57:21","Type":"2"}}
{"Call": {"Number":"6037*9910*9228*####","Duration":"0","Time":"12-12-2013 22:57:21","Type":"2"}}
{"Application":{"ProcessName":"com.samsung.android.providers.context","Start":"12-12-2013 23:46:55","End":"12-12-2013 23:47:55"}}
{"Application":{"ProcessName":"com.sec.android.provider.logsprovider","Start":"12-12-2013 23:46:55","End":"12-12-2013 23:47:55"}}
{"Application":{"ProcessName":"com.sec.android.provider.snote","Start":"12-12-2013 23:46:55","End":"12-12-2013 23:47:55"}}
{"Application":{"ProcessName":"com.sec.android.app.twdvfs","Start":"12-12-2013 23:46:55","End":"12-12-2013 23:47:55"}}
{"Application":{"ProcessName":"com.android.nfc","Start":"12-12-2013 23:46:55","End":"12-12-2013 23:47:55"}}
{"Application":{"ProcessName":"com.sec.android.app.snotebook","Start":"12-12-2013 23:46:55","End":"12-12-2013 23:47:55"}}
{"Application":{"ProcessName":"com.sec.android.app.sysscope","Start":"12-12-2013 23:46:55","End":"12-12-2013 23:47:55"}}
{"Application":{"ProcessName":"com.sec.android.app.launcher","Start":"12-12-2013 23:46:55","End":"12-12-2013 23:47:55"}}
{"Application":{"ProcessName":"com.sec.android.app.FlashBarService","Start":"12-12-2013 23:46:55","End":"12-12-2013 23:47:55"}}
{"Call": {"Number":"6037*9910*9228*####","Duration":"0","Time":"12-12-2013 22:57:21","Type":"2"}}
{"Application":{"ProcessName":"com.sec.android.app.launcher","Start":"12-13-2013 00:00:25","End":"12-13-2013 00:00:35"}}
{"Application":{"ProcessName":"com.samsung.android.providers.context","Start":"12-13-2013 00:00:25","End":"12-13-2013 00:00:55"}}
{"Application":{"ProcessName":"com.android.mms","Start":"12-13-2013 00:00:35","End":"12-13-2013 00:00:55"}}
{"Application":{"ProcessName":"com.sec.android.provider.snote","Start":"12-13-2013 00:00:25","End":"12-13-2013 00:00:55"}}
{"Application":{"ProcessName":"com.sec.android.provider.logsprovider","Start":"12-13-2013 00:00:25","End":"12-13-2013 00:00:55"}}
{"Application":{"ProcessName":"com.sec.android.app.twdvfs","Start":"12-13-2013 00:00:25","End":"12-13-2013 00:00:55"}}
{"Application":{"ProcessName":"com.android.nfc","Start":"12-13-2013 00:00:25","End":"12-13-2013 00:00:55"}}
{"Application":{"ProcessName":"com.sec.android.app.snotebook","Start":"12-13-2013 00:00:25","End":"12-13-2013 00:00:55"}}
{"Application":{"ProcessName":"com.sec.android.app.sysscope","Start":"12-13-2013 00:00:25","End":"12-13-2013 00:00:55"}}
{"Application":{"ProcessName":"com.sec.android.app.FlashBarService","Start":"12-13-2013 00:00:25","End":"12-13-2013 00:00:55"}}
{"SMS":{"Address":"+98919116####","type":"2","date":"12-13-2013 00:00:50","body":"ANONYMIZED","Type":"2", "metadata": {"name": "Mashaei"}}}
{"Call": {"Number":"6037*9910*9228*####","Duration":"0","Time":"12-12-2013 22:57:21","Type":"2"}}
{"Call": {"Number":"6037*9910*9228*####","Duration":"0","Time":"12-12-2013 22:57:21","Type":"2"}}
{"Application":{"ProcessName":"com.samsung.android.providers.context","Start":"12-13-2013 00:01:08","End":"12-13-2013 00:01:24"}}
{"Application":{"ProcessName":"com.sec.android.provider.snote","Start":"12-13-2013 00:01:08","End":"12-13-2013 00:01:24"}}
{"Application":{"ProcessName":"com.sec.android.provider.logsprovider","Start":"12-13-2013 00:01:08","End":"12-13-2013 00:01:24"}}
{"Application":{"ProcessName":"com.sec.android.app.twdvfs","Start":"12-13-2013 00:01:08","End":"12-13-2013 00:01:24"}}
{"Application":{"ProcessName":"com.android.nfc","Start":"12-13-2013 00:01:08","End":"12-13-2013 00:01:24"}}
{"Application":{"ProcessName":"com.sec.android.app.snotebook","Start":"12-13-2013 00:01:08","End":"12-13-2013 00:01:24"}}
{"Application":{"ProcessName":"com.sec.android.app.sysscope","Start":"12-13-2013 00:01:08","End":"12-13-2013 00:01:24"}}
{"Application":{"ProcessName":"com.sec.android.app.launcher","Start":"12-13-2013 00:01:08","End":"12-13-2013 00:01:24"}}
{"Application":{"ProcessName":"com.sec.android.app.FlashBarService","Start":"12-13-2013 00:01:08","End":"12-13-2013 00:01:24"}}
{"Application":{"ProcessName":"com.samsung.android.providers.context","Start":"12-13-2013 00:41:23","End":"12-13-2013 00:41:56"}}
{"Application":{"ProcessName":"com.sec.android.provider.logsprovider","Start":"12-13-2013 00:41:23","End":"12-13-2013 00:41:56"}}
{"Application":{"ProcessName":"com.sec.android.provider.snote","Start":"12-13-2013 00:41:23","End":"12-13-2013 00:41:56"}}
{"Application":{"ProcessName":"com.sec.android.app.twdvfs","Start":"12-13-2013 00:41:23","End":"12-13-2013 00:41:56"}}
{"Application":{"ProcessName":"com.android.nfc","Start":"12-13-2013 00:41:23","End":"12-13-2013 00:41:56"}}
{"Application":{"ProcessName":"com.sec.android.app.snotebook","Start":"12-13-2013 00:41:23","End":"12-13-2013 00:41:56"}}
{"Application":{"ProcessName":"com.sec.android.app.sysscope","Start":"12-13-2013 00:41:23","End":"12-13-2013 00:41:56"}}
{"Application":{"ProcessName":"com.sec.android.app.launcher","Start":"12-13-2013 00:41:23","End":"12-13-2013 00:41:56"}}
{"Application":{"ProcessName":"com.sec.android.app.FlashBarService","Start":"12-13-2013 00:41:23","End":"12-13-2013 00:41:56"}}
{"Application":{"ProcessName":"com.sec.android.widgetapp.analogclocksimple","Start":"12-13-2013 00:55:21","End":"12-13-2013 00:55:31"}}
{"Application":{"ProcessName":"com.sec.android.app.launcher","Start":"12-13-2013 00:55:21","End":"12-13-2013 00:55:31"}}
{"Application":{"ProcessName":"com.sec.android.app.myfiles","Start":"12-13-2013 00:55:31","End":"12-13-2013 00:56:31"}}
{"Application":{"ProcessName":"com.sec.android.gallery3d","Start":"12-13-2013 00:56:31","End":"12-13-2013 00:56:41"}}
{"Application":{"ProcessName":"com.sec.android.cloudagent","Start":"12-13-2013 00:56:31","End":"12-13-2013 00:56:41"}}
{"Application":{"ProcessName":"com.sec.android.app.myfiles","Start":"12-13-2013 00:56:41","End":"12-13-2013 00:57:11"}}
{"Application":{"ProcessName":"com.sec.android.gallery3d","Start":"12-13-2013 00:57:11","End":"12-13-2013 00:57:21"}}
{"Application":{"ProcessName":"com.sec.android.cloudagent","Start":"12-13-2013 00:57:11","End":"12-13-2013 00:57:21"}}
{"Application":{"ProcessName":"com.samsung.android.providers.context","Start":"12-13-2013 00:55:21","End":"12-13-2013 00:57:31"}}
{"Application":{"ProcessName":"com.sec.android.provider.snote","Start":"12-13-2013 00:55:21","End":"12-13-2013 00:57:31"}}
{"Application":{"ProcessName":"com.sec.android.provider.logsprovider","Start":"12-13-2013 00:55:21","End":"12-13-2013 00:57:31"}}
{"Application":{"ProcessName":"com.sec.android.app.twdvfs","Start":"12-13-2013 00:55:21","End":"12-13-2013 00:57:31"}}
{"Application":{"ProcessName":"com.android.nfc","Start":"12-13-2013 00:55:21","End":"12-13-2013 00:57:31"}}
{"Application":{"ProcessName":"com.sec.android.app.myfiles","Start":"12-13-2013 00:57:21","End":"12-13-2013 00:57:31"}}
{"Application":{"ProcessName":"com.sec.android.app.snotebook","Start":"12-13-2013 00:55:21","End":"12-13-2013 00:57:31"}}
{"Application":{"ProcessName":"com.sec.android.app.sysscope","Start":"12-13-2013 00:55:21","End":"12-13-2013 00:57:31"}}
{"Application":{"ProcessName":"com.sec.android.app.FlashBarService","Start":"12-13-2013 00:55:21","End":"12-13-2013 00:57:31"}}
{"Application":{"ProcessName":"com.sec.android.app.myfiles","Start":"12-13-2013 01:02:15","End":"12-13-2013 01:02:55"}}
{"Application":{"ProcessName":"com.sec.android.app.launcher","Start":"12-13-2013 01:02:55","End":"12-13-2013 01:03:25"}}
{"Location":{"Latitude":"35.7632678","Longtitude":"51.4483067","Altitude":"0.0","time":"12-13-2013 01:03:35","Accuracy":"1019.0","Provider":"network"}}
{"Location":{"Latitude":"35.764697","Longtitude":"51.4478565","Altitude":"0.0","time":"12-13-2013 01:03:55","Accuracy":"1019.0","Provider":"network"}}
{"Location":{"Latitude":"35.7618387","Longtitude":"51.448757","Altitude":"0.0","time":"12-13-2013 02:37:48","Accuracy":"1202.0","Provider":"network"}}
{"Application":{"ProcessName":"com.samsung.android.providers.context","Start":"12-13-2013 02:37:47","End":"12-13-2013 02:37:57"}}
{"Application":{"ProcessName":"com.sec.android.provider.logsprovider","Start":"12-13-2013 02:37:47","End":"12-13-2013 02:37:57"}}
{"Application":{"ProcessName":"com.sec.android.provider.snote","Start":"12-13-2013 02:37:47","End":"12-13-2013 02:37:57"}}
{"Application":{"ProcessName":"com.sec.android.app.twdvfs","Start":"12-13-2013 02:37:47","End":"12-13-2013 02:37:57"}}
{"Application":{"ProcessName":"com.android.nfc","Start":"12-13-2013 02:37:47","End":"12-13-2013 02:37:57"}}
{"Application":{"ProcessName":"com.sec.android.app.snotebook","Start":"12-13-2013 02:37:47","End":"12-13-2013 02:37:57"}}
{"Application":{"ProcessName":"com.sec.android.app.sysscope","Start":"12-13-2013 02:37:47","End":"12-13-2013 02:37:57"}}
{"Application":{"ProcessName":"com.lslk.sleepbot","Start":"12-13-2013 02:37:47","End":"12-13-2013 02:37:57"}}
{"Application":{"ProcessName":"com.sec.android.app.FlashBarService","Start":"12-13-2013 02:37:47","End":"12-13-2013 02:37:57"}}
{"Application":{"ProcessName":"com.samsung.android.providers.context","Start":"12-13-2013 08:18:27","End":"12-13-2013 08:20:48"}}
{"Application":{"ProcessName":"com.sec.android.provider.logsprovider","Start":"12-13-2013 08:18:27","End":"12-13-2013 08:20:48"}}
{"Application":{"ProcessName":"com.sec.android.provider.snote","Start":"12-13-2013 08:18:27","End":"12-13-2013 08:20:48"}}
{"Application":{"ProcessName":"com.sec.android.app.twdvfs","Start":"12-13-2013 08:18:27","End":"12-13-2013 08:20:48"}}
{"Application":{"ProcessName":"com.android.nfc","Start":"12-13-2013 08:18:27","End":"12-13-2013 08:20:48"}}
{"Application":{"ProcessName":"com.sec.android.app.snotebook","Start":"12-13-2013 08:18:27","End":"12-13-2013 08:20:48"}}
{"Application":{"ProcessName":"com.sec.android.app.sysscope","Start":"12-13-2013 08:18:27","End":"12-13-2013 08:20:48"}}
{"Application":{"ProcessName":"com.lslk.sleepbot","Start":"12-13-2013 08:18:27","End":"12-13-2013 08:20:48"}}
{"Application":{"ProcessName":"com.sec.android.app.FlashBarService","Start":"12-13-2013 08:18:27","End":"12-13-2013 08:20:48"}}
{"SMS":{"Address":"+98919116####","type":"2","date":"12-13-2013 00:00:50","body":"ANONYMIZED","Type":"2", "metadata": {"name": "Mashaei"}}}
{"SMS":{"Address":"+9820####","type":"1","date":"12-13-2013 11:03:57","body":"ANONYMIZED","Type":"1", "metadata": {"name": ""}}}
{"Call": {"Number":"6037*9910*9228*####","Duration":"0","Time":"12-12-2013 22:57:21","Type":"2"}}
{"Call": {"Number":"6037*9910*9228*####","Duration":"0","Time":"12-12-2013 22:57:21","Type":"2"}}
{"Call": {"Number":"6037*9910*9228*####","Duration":"0","Time":"12-12-2013 22:57:21","Type":"2"}}
{"Application":{"ProcessName":"com.samsung.android.providers.context","Start":"12-13-2013 11:04:04","End":"12-13-2013 11:04:14"}}
{"Application":{"ProcessName":"com.sec.android.provider.snote","Start":"12-13-2013 11:04:04","End":"12-13-2013 11:04:14"}}
{"Application":{"ProcessName":"com.sec.android.provider.logsprovider","Start":"12-13-2013 11:04:04","End":"12-13-2013 11:04:14"}}
{"Application":{"ProcessName":"com.sec.android.app.twdvfs","Start":"12-13-2013 11:04:04","End":"12-13-2013 11:04:14"}}
{"Application":{"ProcessName":"com.android.nfc","Start":"12-13-2013 11:04:04","End":"12-13-2013 11:04:14"}}
{"Application":{"ProcessName":"com.sec.android.app.snotebook","Start":"12-13-2013 11:04:04","End":"12-13-2013 11:04:14"}}
{"Application":{"ProcessName":"com.sec.android.app.sysscope","Start":"12-13-2013 11:04:04","End":"12-13-2013 11:04:14"}}
{"Application":{"ProcessName":"com.lslk.sleepbot","Start":"12-13-2013 11:04:04","End":"12-13-2013 11:04:14"}}
{"Application":{"ProcessName":"com.sec.android.app.FlashBarService","Start":"12-13-2013 11:04:04","End":"12-13-2013 11:04:14"}}
{"Application":{"ProcessName":"com.androidwasabi.livewallpaper.nexusdot","Start":"12-13-2013 12:17:11","End":"12-13-2013 12:17:21"}}
{"Application":{"ProcessName":"com.lslk.sleepbot","Start":"12-13-2013 12:17:11","End":"12-13-2013 12:17:31"}}
{"Application":{"ProcessName":"com.samsung.android.providers.context","Start":"12-13-2013 12:17:11","End":"12-13-2013 12:17:41"}}
{"Application":{"ProcessName":"com.sec.android.provider.snote","Start":"12-13-2013 12:17:11","End":"12-13-2013 12:17:41"}}
{"Application":{"ProcessName":"com.sec.android.provider.logsprovider","Start":"12-13-2013 12:17:11","End":"12-13-2013 12:17:41"}}
{"Application":{"ProcessName":"com.sec.android.app.twdvfs","Start":"12-13-2013 12:17:11","End":"12-13-2013 12:17:41"}}
{"Application":{"ProcessName":"com.android.nfc","Start":"12-13-2013 12:17:11","End":"12-13-2013 12:17:41"}}
{"Application":{"ProcessName":"com.android.settings","Start":"12-13-2013 12:17:11","End":"12-13-2013 12:17:41"}}
{"Application":{"ProcessName":"com.sec.android.app.snotebook","Start":"12-13-2013 12:17:11","End":"12-13-2013 12:17:41"}}
{"Application":{"ProcessName":"com.sec.android.app.sysscope","Start":"12-13-2013 12:17:11","End":"12-13-2013 12:17:41"}}
{"Application":{"ProcessName":"com.sec.android.app.FlashBarService","Start":"12-13-2013 12:17:11","End":"12-13-2013 12:17:41"}}
{"Call": {"Number":"+98212226####","Duration":"57","Time":"12-13-2013 12:17:10","Type":"1"}}
{"Call": {"Number":"+98212226####","Duration":"57","Time":"12-13-2013 12:17:10","Type":"1"}}
{"Call": {"Number":"+98212226####","Duration":"57","Time":"12-13-2013 12:17:10","Type":"1"}}
{"Application":{"ProcessName":"com.samsung.android.providers.context","Start":"12-13-2013 12:22:32","End":"12-13-2013 12:22:52"}}
{"Application":{"ProcessName":"com.sec.android.provider.snote","Start":"12-13-2013 12:22:32","End":"12-13-2013 12:22:52"}}
{"Application":{"ProcessName":"com.sec.android.provider.logsprovider","Start":"12-13-2013 12:22:32","End":"12-13-2013 12:22:52"}}
{"Application":{"ProcessName":"com.sec.android.app.twdvfs","Start":"12-13-2013 12:22:32","End":"12-13-2013 12:22:52"}}
{"Application":{"ProcessName":"com.android.nfc","Start":"12-13-2013 12:22:32","End":"12-13-2013 12:22:52"}}
{"Application":{"ProcessName":"com.android.settings","Start":"12-13-2013 12:22:32","End":"12-13-2013 12:22:52"}}
{"Application":{"ProcessName":"com.sec.android.app.snotebook","Start":"12-13-2013 12:22:32","End":"12-13-2013 12:22:52"}}
{"Application":{"ProcessName":"com.sec.android.app.sysscope","Start":"12-13-2013 12:22:32","End":"12-13-2013 12:22:52"}}
{"Application":{"ProcessName":"com.sec.android.app.FlashBarService","Start":"12-13-2013 12:22:32","End":"12-13-2013 12:22:52"}}
{"Call": {"Number":"+98919116####","Duration":"33","Time":"12-13-2013 12:22:30","Type":"1"}}
{"Call": {"Number":"+98919116####","Duration":"33","Time":"12-13-2013 12:22:30","Type":"1"}}
{"Call": {"Number":"+98919116####","Duration":"33","Time":"12-13-2013 12:22:30","Type":"1"}}
{"Call": {"Number":"+98919116####","Duration":"33","Time":"12-13-2013 12:22:30","Type":"1"}}
{"Application":{"ProcessName":"com.samsung.android.providers.context","Start":"12-13-2013 12:23:30","End":"12-13-2013 12:23:52"}}
{"Application":{"ProcessName":"com.android.mms","Start":"12-13-2013 12:23:30","End":"12-13-2013 12:23:52"}}
{"Application":{"ProcessName":"com.sec.android.provider.snote","Start":"12-13-2013 12:23:30","End":"12-13-2013 12:23:52"}}
{"Application":{"ProcessName":"com.sec.android.provider.logsprovider","Start":"12-13-2013 12:23:30","End":"12-13-2013 12:23:52"}}
{"Application":{"ProcessName":"com.sec.android.app.twdvfs","Start":"12-13-2013 12:23:30","End":"12-13-2013 12:23:52"}}
{"Application":{"ProcessName":"com.android.nfc","Start":"12-13-2013 12:23:30","End":"12-13-2013 12:23:52"}}
{"Application":{"ProcessName":"com.android.settings","Start":"12-13-2013 12:23:30","End":"12-13-2013 12:23:52"}}
{"Application":{"ProcessName":"com.sec.android.app.snotebook","Start":"12-13-2013 12:23:30","End":"12-13-2013 12:23:52"}}
{"Application":{"ProcessName":"com.sec.android.app.sysscope","Start":"12-13-2013 12:23:30","End":"12-13-2013 12:23:52"}}
{"Application":{"ProcessName":"com.sec.android.app.FlashBarService","Start":"12-13-2013 12:23:30","End":"12-13-2013 12:23:52"}}
{"SMS":{"Address":"+98910211####","type":"1","date":"12-13-2013 12:37:18","body":"ANONYMIZED","Type":"1", "metadata": {"name": "Mammad Ghorbani"}}}
{"Call": {"Number":"+98919116####","Duration":"33","Time":"12-13-2013 12:22:30","Type":"1"}}
{"Call": {"Number":"+98919116####","Duration":"33","Time":"12-13-2013 12:22:30","Type":"1"}}
{"Call": {"Number":"+98919116####","Duration":"33","Time":"12-13-2013 12:22:30","Type":"1"}}
{"Application":{"ProcessName":"com.samsung.android.providers.context","Start":"12-13-2013 12:42:14","End":"12-13-2013 12:42:34"}}
{"Application":{"ProcessName":"com.sec.android.provider.snote","Start":"12-13-2013 12:42:14","End":"12-13-2013 12:42:34"}}
{"Application":{"ProcessName":"com.sec.android.provider.logsprovider","Start":"12-13-2013 12:42:14","End":"12-13-2013 12:42:34"}}
{"Application":{"ProcessName":"com.sec.android.app.twdvfs","Start":"12-13-2013 12:42:14","End":"12-13-2013 12:42:34"}}
{"Application":{"ProcessName":"com.android.nfc","Start":"12-13-2013 12:42:14","End":"12-13-2013 12:42:34"}}
{"Application":{"ProcessName":"com.android.settings","Start":"12-13-2013 12:42:14","End":"12-13-2013 12:42:34"}}
{"Application":{"ProcessName":"com.sec.android.app.snotebook","Start":"12-13-2013 12:42:14","End":"12-13-2013 12:42:34"}}
{"Application":{"ProcessName":"com.sec.android.app.sysscope","Start":"12-13-2013 12:42:14","End":"12-13-2013 12:42:34"}}
{"Application":{"ProcessName":"com.sec.android.app.FlashBarService","Start":"12-13-2013 12:42:14","End":"12-13-2013 12:42:34"}}
{"Call": {"Number":"+98910211####","Duration":"23","Time":"12-13-2013 12:42:09","Type":"1"}}
{"Call": {"Number":"+98910211####","Duration":"23","Time":"12-13-2013 12:42:09","Type":"1"}}
{"Call": {"Number":"+98910211####","Duration":"23","Time":"12-13-2013 12:42:09","Type":"1"}}
{"Application":{"ProcessName":"com.sec.android.widgetapp.analogclocksimple","Start":"12-13-2013 12:42:48","End":"12-13-2013 12:42:58"}}
{"Call": {"Number":"+98910211####","Duration":"23","Time":"12-13-2013 12:42:09","Type":"1"}}
{"Application":{"ProcessName":"com.samsung.android.providers.context","Start":"12-13-2013 12:42:48","End":"12-13-2013 12:43:09"}}
{"Application":{"ProcessName":"com.android.mms","Start":"12-13-2013 12:42:58","End":"12-13-2013 12:43:09"}}
{"Application":{"ProcessName":"com.sec.android.provider.snote","Start":"12-13-2013 12:42:48","End":"12-13-2013 12:43:09"}}
{"Application":{"ProcessName":"com.sec.android.provider.logsprovider","Start":"12-13-2013 12:42:48","End":"12-13-2013 12:43:09"}}
{"Application":{"ProcessName":"com.sec.android.app.twdvfs","Start":"12-13-2013 12:42:48","End":"12-13-2013 12:43:09"}}
{"Application":{"ProcessName":"com.android.nfc","Start":"12-13-2013 12:42:48","End":"12-13-2013 12:43:09"}}
{"Application":{"ProcessName":"com.android.settings","Start":"12-13-2013 12:42:48","End":"12-13-2013 12:43:09"}}
{"Application":{"ProcessName":"com.sec.android.app.snotebook","Start":"12-13-2013 12:42:48","End":"12-13-2013 12:43:09"}}
{"Application":{"ProcessName":"com.sec.android.app.sysscope","Start":"12-13-2013 12:42:48","End":"12-13-2013 12:43:09"}}
{"Application":{"ProcessName":"com.sec.android.app.FlashBarService","Start":"12-13-2013 12:42:48","End":"12-13-2013 12:43:09"}}
{"Application":{"ProcessName":"com.samsung.android.providers.context","Start":"12-13-2013 12:47:29","End":"12-13-2013 12:48:31"}}
{"Application":{"ProcessName":"com.sec.android.provider.snote","Start":"12-13-2013 12:47:29","End":"12-13-2013 12:48:31"}}
{"Application":{"ProcessName":"com.sec.android.provider.logsprovider","Start":"12-13-2013 12:47:29","End":"12-13-2013 12:48:31"}}
{"Application":{"ProcessName":"com.sec.android.app.GlanceView","Start":"12-13-2013 12:47:29","End":"12-13-2013 12:48:31"}}
{"Application":{"ProcessName":"com.sec.android.app.twdvfs","Start":"12-13-2013 12:47:29","End":"12-13-2013 12:48:31"}}
{"Application":{"ProcessName":"com.android.nfc","Start":"12-13-2013 12:47:29","End":"12-13-2013 12:48:31"}}
{"Application":{"ProcessName":"com.android.settings","Start":"12-13-2013 12:47:29","End":"12-13-2013 12:48:31"}}
{"Application":{"ProcessName":"com.sec.android.app.snotebook","Start":"12-13-2013 12:47:29","End":"12-13-2013 12:48:31"}}
{"Application":{"ProcessName":"com.sec.android.app.sysscope","Start":"12-13-2013 12:47:29","End":"12-13-2013 12:48:31"}}
{"Application":{"ProcessName":"com.sec.android.app.FlashBarService","Start":"12-13-2013 12:47:29","End":"12-13-2013 12:48:31"}}
{"Application":{"ProcessName":"com.sec.android.widgetapp.dualclockanalog","Start":"12-13-2013 13:03:44","End":"12-13-2013 13:03:54"}}
{"Application":{"ProcessName":"com.apk.com.lovePositions201208","Start":"12-13-2013 13:03:44","End":"12-13-2013 13:03:54"}}
{"Application":{"ProcessName":"com.samsung.android.providers.context","Start":"12-13-2013 13:03:44","End":"12-13-2013 13:04:04"}}
{"Application":{"ProcessName":"com.sec.android.provider.snote","Start":"12-13-2013 13:03:44","End":"12-13-2013 13:04:04"}}
{"Application":{"ProcessName":"com.sec.android.provider.logsprovider","Start":"12-13-2013 13:03:44","End":"12-13-2013 13:04:04"}}
{"Application":{"ProcessName":"com.sec.android.app.twdvfs","Start":"12-13-2013 13:03:44","End":"12-13-2013 13:04:04"}}
{"Application":{"ProcessName":"com.android.nfc","Start":"12-13-2013 13:03:44","End":"12-13-2013 13:04:04"}}
{"Application":{"ProcessName":"com.android.settings","Start":"12-13-2013 13:03:44","End":"12-13-2013 13:04:04"}}
{"Application":{"ProcessName":"com.sec.android.app.snotebook","Start":"12-13-2013 13:03:44","End":"12-13-2013 13:04:04"}}
{"Application":{"ProcessName":"com.sec.android.app.sysscope","Start":"12-13-2013 13:03:44","End":"12-13-2013 13:04:04"}}
{"Application":{"ProcessName":"com.sec.android.app.FlashBarService","Start":"12-13-2013 13:03:44","End":"12-13-2013 13:04:04"}}
{"Call": {"Number":"+98910211####","Duration":"13","Time":"12-13-2013 13:03:42","Type":"1"}}
{"Call": {"Number":"+98910211####","Duration":"13","Time":"12-13-2013 13:03:42","Type":"1"}}
{"Call": {"Number":"+98910211####","Duration":"13","Time":"12-13-2013 13:03:42","Type":"1"}}
{"Application":{"ProcessName":"com.samsung.android.providers.context","Start":"12-13-2013 15:15:46","End":"12-13-2013 15:15:56"}}
{"Application":{"ProcessName":"com.android.mms","Start":"12-13-2013 15:15:46","End":"12-13-2013 15:15:56"}}
{"Application":{"ProcessName":"com.sec.android.provider.snote","Start":"12-13-2013 15:15:46","End":"12-13-2013 15:15:56"}}
{"Application":{"ProcessName":"com.sec.android.provider.logsprovider","Start":"12-13-2013 15:15:46","End":"12-13-2013 15:15:56"}}
{"Application":{"ProcessName":"com.sec.android.app.twdvfs","Start":"12-13-2013 15:15:46","End":"12-13-2013 15:15:56"}}
{"Application":{"ProcessName":"com.android.nfc","Start":"12-13-2013 15:15:46","End":"12-13-2013 15:15:56"}}
{"Application":{"ProcessName":"com.android.settings","Start":"12-13-2013 15:15:46","End":"12-13-2013 15:15:56"}}
{"Application":{"ProcessName":"com.sec.android.app.snotebook","Start":"12-13-2013 15:15:46","End":"12-13-2013 15:15:56"}}
{"Application":{"ProcessName":"com.sec.android.app.sysscope","Start":"12-13-2013 15:15:46","End":"12-13-2013 15:15:56"}}
{"Application":{"ProcessName":"com.sec.android.app.FlashBarService","Start":"12-13-2013 15:15:46","End":"12-13-2013 15:15:56"}}
{"Application":{"ProcessName":"com.samsung.android.providers.context","Start":"12-13-2013 15:17:17","End":"12-13-2013 15:17:52"}}
{"Application":{"ProcessName":"com.sec.android.provider.snote","Start":"12-13-2013 15:17:17","End":"12-13-2013 15:17:52"}}
{"Application":{"ProcessName":"com.sec.android.provider.logsprovider","Start":"12-13-2013 15:17:17","End":"12-13-2013 15:17:52"}}
{"Application":{"ProcessName":"com.sec.android.app.GlanceView","Start":"12-13-2013 15:17:17","End":"12-13-2013 15:17:52"}}
{"Application":{"ProcessName":"com.sec.android.app.twdvfs","Start":"12-13-2013 15:17:17","End":"12-13-2013 15:17:52"}}
{"Application":{"ProcessName":"com.android.nfc","Start":"12-13-2013 15:17:17","End":"12-13-2013 15:17:52"}}
{"Application":{"ProcessName":"com.android.settings","Start":"12-13-2013 15:17:17","End":"12-13-2013 15:17:52"}}
{"Application":{"ProcessName":"com.sec.android.app.snotebook","Start":"12-13-2013 15:17:17","End":"12-13-2013 15:17:52"}}
{"Application":{"ProcessName":"com.sec.android.app.sysscope","Start":"12-13-2013 15:17:17","End":"12-13-2013 15:17:52"}}
{"Application":{"ProcessName":"com.sec.android.app.FlashBarService","Start":"12-13-2013 15:17:17","End":"12-13-2013 15:17:52"}}
{"SMS":{"Address":"+98919116####","type":"1","date":"12-13-2013 15:25:02","body":"ANONYMIZED","Type":"1", "metadata": {"name": "Mashaei"}}}
{"Call": {"Number":"+98910211####","Duration":"13","Time":"12-13-2013 13:03:42","Type":"1"}}
{"Call": {"Number":"+98910211####","Duration":"13","Time":"12-13-2013 13:03:42","Type":"1"}}
{"Call": {"Number":"+98910211####","Duration":"13","Time":"12-13-2013 13:03:42","Type":"1"}}
{"Application":{"ProcessName":"com.samsung.android.providers.context","Start":"12-13-2013 15:25:05","End":"12-13-2013 15:25:36"}}
{"Application":{"ProcessName":"com.android.mms","Start":"12-13-2013 15:25:05","End":"12-13-2013 15:25:36"}}
{"Application":{"ProcessName":"com.sec.android.provider.snote","Start":"12-13-2013 15:25:05","End":"12-13-2013 15:25:36"}}
{"Application":{"ProcessName":"com.sec.android.provider.logsprovider","Start":"12-13-2013 15:25:05","End":"12-13-2013 15:25:36"}}
{"Application":{"ProcessName":"com.sec.android.app.twdvfs","Start":"12-13-2013 15:25:05","End":"12-13-2013 15:25:36"}}
{"Application":{"ProcessName":"com.android.nfc","Start":"12-13-2013 15:25:05","End":"12-13-2013 15:25:36"}}
{"Application":{"ProcessName":"com.android.settings","Start":"12-13-2013 15:25:05","End":"12-13-2013 15:25:36"}}
{"Application":{"ProcessName":"com.sec.android.app.snotebook","Start":"12-13-2013 15:25:05","End":"12-13-2013 15:25:36"}}
{"Application":{"ProcessName":"com.sec.android.app.sysscope","Start":"12-13-2013 15:25:05","End":"12-13-2013 15:25:36"}}
{"Application":{"ProcessName":"com.sec.android.app.FlashBarService","Start":"12-13-2013 15:25:05","End":"12-13-2013 15:25:36"}}
{"Call": {"Number":"+98910211####","Duration":"13","Time":"12-13-2013 13:03:42","Type":"1"}}
{"Call": {"Number":"+98910211####","Duration":"13","Time":"12-13-2013 13:03:42","Type":"1"}}
{"Application":{"ProcessName":"com.samsung.android.providers.context","Start":"12-13-2013 15:37:05","End":"12-13-2013 15:37:15"}}
{"Application":{"ProcessName":"com.android.mms","Start":"12-13-2013 15:37:05","End":"12-13-2013 15:37:15"}}
{"Application":{"ProcessName":"com.sec.android.provider.snote","Start":"12-13-2013 15:37:05","End":"12-13-2013 15:37:15"}}
{"Application":{"ProcessName":"com.sec.android.provider.logsprovider","Start":"12-13-2013 15:37:05","End":"12-13-2013 15:37:15"}}
{"Application":{"ProcessName":"com.sec.android.app.twdvfs","Start":"12-13-2013 15:37:05","End":"12-13-2013 15:37:15"}}
{"Application":{"ProcessName":"com.android.nfc","Start":"12-13-2013 15:37:05","End":"12-13-2013 15:37:15"}}
{"Application":{"ProcessName":"com.android.settings","Start":"12-13-2013 15:37:05","End":"12-13-2013 15:37:15"}}
{"Application":{"ProcessName":"com.sec.android.app.snotebook","Start":"12-13-2013 15:37:05","End":"12-13-2013 15:37:15"}}
{"Application":{"ProcessName":"com.sec.android.app.sysscope","Start":"12-13-2013 15:37:05","End":"12-13-2013 15:37:15"}}
{"Application":{"ProcessName":"com.sec.android.app.FlashBarService","Start":"12-13-2013 15:37:05","End":"12-13-2013 15:37:15"}}
{"SMS":{"Address":"+98919116####","type":"2","date":"12-13-2013 15:37:12","body":"ANONYMIZED","Type":"2", "metadata": {"name": "Mashaei"}}}
{"Call": {"Number":"+98910211####","Duration":"13","Time":"12-13-2013 13:03:42","Type":"1"}}
{"Call": {"Number":"+98910211####","Duration":"13","Time":"12-13-2013 13:03:42","Type":"1"}}
{"Application":{"ProcessName":"com.samsung.android.providers.context","Start":"12-13-2013 15:37:32","End":"12-13-2013 15:38:45"}}
{"Application":{"ProcessName":"com.sec.android.provider.snote","Start":"12-13-2013 15:37:32","End":"12-13-2013 15:38:45"}}
{"Application":{"ProcessName":"com.sec.android.provider.logsprovider","Start":"12-13-2013 15:37:32","End":"12-13-2013 15:38:45"}}
{"Application":{"ProcessName":"com.sec.android.app.twdvfs","Start":"12-13-2013 15:37:32","End":"12-13-2013 15:38:45"}}
{"Application":{"ProcessName":"com.android.nfc","Start":"12-13-2013 15:37:32","End":"12-13-2013 15:38:45"}}
{"Application":{"ProcessName":"com.android.settings","Start":"12-13-2013 15:37:32","End":"12-13-2013 15:38:45"}}
{"Application":{"ProcessName":"com.sec.android.app.snotebook","Start":"12-13-2013 15:37:32","End":"12-13-2013 15:38:45"}}
{"Application":{"ProcessName":"com.sec.android.app.sysscope","Start":"12-13-2013 15:37:32","End":"12-13-2013 15:38:45"}}
{"Application":{"ProcessName":"com.sec.android.app.launcher","Start":"12-13-2013 15:37:32","End":"12-13-2013 15:38:45"}}
{"Application":{"ProcessName":"com.sec.android.app.FlashBarService","Start":"12-13-2013 15:37:32","End":"12-13-2013 15:38:45"}}
{"Application":{"ProcessName":"com.sec.android.provider.badge","Start":"12-13-2013 15:41:45","End":"12-13-2013 15:41:45"}}
{"Call": {"Number":"+98910211####","Duration":"13","Time":"12-13-2013 13:03:42","Type":"1"}}
{"Call": {"Number":"+98910211####","Duration":"13","Time":"12-13-2013 13:03:42","Type":"1"}}
{"Call": {"Number":"+98910211####","Duration":"13","Time":"12-13-2013 13:03:42","Type":"1"}}
{"Call": {"Number":"+98910211####","Duration":"13","Time":"12-13-2013 13:03:42","Type":"1"}}
{"Call": {"Number":"+98910211####","Duration":"13","Time":"12-13-2013 13:03:42","Type":"1"}}
{"Call": {"Number":"+98910211####","Duration":"13","Time":"12-13-2013 13:03:42","Type":"1"}}
{"Call": {"Number":"+98910211####","Duration":"13","Time":"12-13-2013 13:03:42","Type":"1"}}
{"Call": {"Number":"+98910211####","Duration":"13","Time":"12-13-2013 13:03:42","Type":"1"}}
{"Call": {"Number":"+98910211####","Duration":"13","Time":"12-13-2013 13:03:42","Type":"1"}}
{"Call": {"Number":"+98910211####","Duration":"13","Time":"12-13-2013 13:03:42","Type":"1"}}
{"Call": {"Number":"+98910211####","Duration":"13","Time":"12-13-2013 13:03:42","Type":"1"}}
{"Call": {"Number":"+98910211####","Duration":"13","Time":"12-13-2013 13:03:42","Type":"1"}}
{"Application":{"ProcessName":"com.sec.android.widgetapp.analogclocksimple","Start":"12-13-2013 15:41:45","End":"12-13-2013 15:41:55"}}
{"Application":{"ProcessName":"com.sec.android.app.launcher","Start":"12-13-2013 15:41:45","End":"12-13-2013 15:41:55"}}
{"Call": {"Number":"+98919116####","Duration":"22","Time":"12-13-2013 15:41:52","Type":"2"}}
{"Call": {"Number":"+98919116####","Duration":"22","Time":"12-13-2013 15:41:52","Type":"2"}}
{"Call": {"Number":"+98919116####","Duration":"22","Time":"12-13-2013 15:41:52","Type":"2"}}
{"Application":{"ProcessName":"com.samsung.android.providers.context","Start":"12-13-2013 15:41:45","End":"12-13-2013 15:42:25"}}
{"Application":{"ProcessName":"com.sec.android.provider.snote","Start":"12-13-2013 15:41:45","End":"12-13-2013 15:42:25"}}
{"Application":{"ProcessName":"com.sec.android.provider.logsprovider","Start":"12-13-2013 15:41:45","End":"12-13-2013 15:42:25"}}
{"Application":{"ProcessName":"com.sec.android.app.twdvfs","Start":"12-13-2013 15:41:45","End":"12-13-2013 15:42:25"}}
{"Application":{"ProcessName":"com.android.nfc","Start":"12-13-2013 15:41:45","End":"12-13-2013 15:42:25"}}
{"Application":{"ProcessName":"com.android.settings","Start":"12-13-2013 15:41:45","End":"12-13-2013 15:42:25"}}
{"Application":{"ProcessName":"com.sec.android.app.snotebook","Start":"12-13-2013 15:41:45","End":"12-13-2013 15:42:25"}}
{"Application":{"ProcessName":"com.sec.android.app.sysscope","Start":"12-13-2013 15:41:45","End":"12-13-2013 15:42:25"}}
{"Application":{"ProcessName":"com.sec.android.app.FlashBarService","Start":"12-13-2013 15:41:45","End":"12-13-2013 15:42:25"}}
{"Call": {"Number":"+98919116####","Duration":"22","Time":"12-13-2013 15:41:52","Type":"2"}}
{"Call": {"Number":"+98919116####","Duration":"22","Time":"12-13-2013 15:41:52","Type":"2"}}
{"Call": {"Number":"+98919116####","Duration":"22","Time":"12-13-2013 15:41:52","Type":"2"}}
{"Call": {"Number":"+98919116####","Duration":"22","Time":"12-13-2013 15:41:52","Type":"2"}}
{"Application":{"ProcessName":"com.sec.android.widgetapp.analogclocksimple","Start":"12-13-2013 15:47:02","End":"12-13-2013 15:47:12"}}
{"Application":{"ProcessName":"com.samsung.android.providers.context","Start":"12-13-2013 15:47:02","End":"12-13-2013 15:47:33"}}
{"Application":{"ProcessName":"com.sec.android.provider.snote","Start":"12-13-2013 15:47:02","End":"12-13-2013 15:47:33"}}
{"Application":{"ProcessName":"com.sec.android.provider.logsprovider","Start":"12-13-2013 15:47:02","End":"12-13-2013 15:47:33"}}
{"Application":{"ProcessName":"com.sec.android.app.twdvfs","Start":"12-13-2013 15:47:02","End":"12-13-2013 15:47:33"}}
{"Application":{"ProcessName":"com.android.nfc","Start":"12-13-2013 15:47:02","End":"12-13-2013 15:47:33"}}
{"Application":{"ProcessName":"com.android.settings","Start":"12-13-2013 15:47:02","End":"12-13-2013 15:47:33"}}
{"Application":{"ProcessName":"com.sec.android.app.snotebook","Start":"12-13-2013 15:47:02","End":"12-13-2013 15:47:33"}}
{"Application":{"ProcessName":"com.sec.android.app.sysscope","Start":"12-13-2013 15:47:02","End":"12-13-2013 15:47:33"}}
{"Application":{"ProcessName":"com.android.contacts","Start":"12-13-2013 15:47:02","End":"12-13-2013 15:47:33"}}
{"Application":{"ProcessName":"com.sec.android.app.FlashBarService","Start":"12-13-2013 15:47:02","End":"12-13-2013 15:47:33"}}
{"Application":{"ProcessName":"com.android.contacts","Start":"12-13-2013 15:48:15","End":"12-13-2013 15:48:26"}}
{"Application":{"ProcessName":"com.sec.android.widgetapp.analogclocksimple","Start":"12-13-2013 15:48:16","End":"12-13-2013 15:48:26"}}
{"Call": {"Number":"+98919116####","Duration":"0","Time":"12-13-2013 15:48:23","Type":"2"}}
{"Call": {"Number":"+98919116####","Duration":"0","Time":"12-13-2013 15:48:23","Type":"2"}}
{"Call": {"Number":"+98919116####","Duration":"0","Time":"12-13-2013 15:48:23","Type":"2"}}
{"Application":{"ProcessName":"com.samsung.android.providers.context","Start":"12-13-2013 15:48:15","End":"12-13-2013 15:48:36"}}
{"Application":{"ProcessName":"com.sec.android.provider.logsprovider","Start":"12-13-2013 15:48:16","End":"12-13-2013 15:48:36"}}
{"Application":{"ProcessName":"com.sec.android.provider.snote","Start":"12-13-2013 15:48:15","End":"12-13-2013 15:48:36"}}
{"Application":{"ProcessName":"com.sec.android.app.twdvfs","Start":"12-13-2013 15:48:15","End":"12-13-2013 15:48:36"}}
{"Application":{"ProcessName":"com.android.settings","Start":"12-13-2013 15:48:16","End":"12-13-2013 15:48:36"}}
{"Application":{"ProcessName":"com.android.nfc","Start":"12-13-2013 15:48:15","End":"12-13-2013 15:48:36"}}
{"Application":{"ProcessName":"com.sec.android.app.snotebook","Start":"12-13-2013 15:48:15","End":"12-13-2013 15:48:36"}}
{"Application":{"ProcessName":"com.sec.android.app.sysscope","Start":"12-13-2013 15:48:15","End":"12-13-2013 15:48:36"}}
{"Application":{"ProcessName":"com.sec.android.app.FlashBarService","Start":"12-13-2013 15:48:15","End":"12-13-2013 15:48:36"}}
{"Application":{"ProcessName":"com.samsung.android.providers.context","Start":"12-13-2013 15:51:18","End":"12-13-2013 15:51:28"}}
{"Application":{"ProcessName":"com.sec.android.provider.snote","Start":"12-13-2013 15:51:18","End":"12-13-2013 15:51:28"}}
{"Application":{"ProcessName":"com.sec.android.provider.logsprovider","Start":"12-13-2013 15:51:18","End":"12-13-2013 15:51:28"}}
{"Application":{"ProcessName":"com.sec.android.app.twdvfs","Start":"12-13-2013 15:51:18","End":"12-13-2013 15:51:28"}}
{"Application":{"ProcessName":"com.android.nfc","Start":"12-13-2013 15:51:18","End":"12-13-2013 15:51:28"}}
{"Application":{"ProcessName":"com.android.settings","Start":"12-13-2013 15:51:18","End":"12-13-2013 15:51:28"}}
{"Application":{"ProcessName":"com.sec.android.app.snotebook","Start":"12-13-2013 15:51:18","End":"12-13-2013 15:51:28"}}
{"Application":{"ProcessName":"com.sec.android.app.sysscope","Start":"12-13-2013 15:51:18","End":"12-13-2013 15:51:28"}}
{"Application":{"ProcessName":"com.sec.android.app.FlashBarService","Start":"12-13-2013 15:51:18","End":"12-13-2013 15:51:28"}}
{"Call": {"Number":"+98919116####","Duration":"9","Time":"12-13-2013 15:51:12","Type":"1"}}
{"Call": {"Number":"+98919116####","Duration":"9","Time":"12-13-2013 15:51:12","Type":"1"}}
{"Call": {"Number":"+98919116####","Duration":"9","Time":"12-13-2013 15:51:12","Type":"1"}}
{"Application":{"ProcessName":"com.samsung.android.providers.context","Start":"12-13-2013 15:51:29","End":"12-13-2013 15:51:57"}}
{"Application":{"ProcessName":"com.sec.android.provider.snote","Start":"12-13-2013 15:51:29","End":"12-13-2013 15:51:57"}}
{"Application":{"ProcessName":"com.sec.android.provider.logsprovider","Start":"12-13-2013 15:51:29","End":"12-13-2013 15:51:57"}}
{"Application":{"ProcessName":"com.sec.android.app.twdvfs","Start":"12-13-2013 15:51:29","End":"12-13-2013 15:51:57"}}
{"Application":{"ProcessName":"com.android.nfc","Start":"12-13-2013 15:51:29","End":"12-13-2013 15:51:57"}}
{"Application":{"ProcessName":"com.android.settings","Start":"12-13-2013 15:51:29","End":"12-13-2013 15:51:57"}}
{"Application":{"ProcessName":"com.sec.android.app.snotebook","Start":"12-13-2013 15:51:29","End":"12-13-2013 15:51:57"}}
{"Application":{"ProcessName":"com.sec.android.app.sysscope","Start":"12-13-2013 15:51:29","End":"12-13-2013 15:51:57"}}
{"Application":{"ProcessName":"com.sec.android.app.FlashBarService","Start":"12-13-2013 15:51:29","End":"12-13-2013 15:51:57"}}
{"Application":{"ProcessName":"com.samsung.android.providers.context","Start":"12-13-2013 15:54:44","End":"12-13-2013 15:55:14"}}
{"Application":{"ProcessName":"com.sec.android.provider.snote","Start":"12-13-2013 15:54:44","End":"12-13-2013 15:55:14"}}
{"Application":{"ProcessName":"com.sec.android.provider.logsprovider","Start":"12-13-2013 15:54:44","End":"12-13-2013 15:55:14"}}
{"Application":{"ProcessName":"com.sec.android.app.twdvfs","Start":"12-13-2013 15:54:44","End":"12-13-2013 15:55:14"}}
{"Application":{"ProcessName":"com.android.nfc","Start":"12-13-2013 15:54:44","End":"12-13-2013 15:55:14"}}
{"Application":{"ProcessName":"com.android.settings","Start":"12-13-2013 15:54:44","End":"12-13-2013 15:55:14"}}
{"Application":{"ProcessName":"com.sec.android.app.snotebook","Start":"12-13-2013 15:54:44","End":"12-13-2013 15:55:14"}}
{"Application":{"ProcessName":"com.sec.android.app.sysscope","Start":"12-13-2013 15:54:44","End":"12-13-2013 15:55:14"}}
{"Application":{"ProcessName":"com.sec.android.app.launcher","Start":"12-13-2013 15:54:44","End":"12-13-2013 15:55:14"}}
{"Application":{"ProcessName":"com.sec.android.app.FlashBarService","Start":"12-13-2013 15:54:44","End":"12-13-2013 15:55:14"}}
{"Application":{"ProcessName":"com.android.mms","Start":"12-13-2013 16:15:46","End":"12-13-2013 16:18:16"}}
{"Application":{"ProcessName":"com.samsung.android.providers.context","Start":"12-13-2013 16:15:46","End":"12-13-2013 16:18:47"}}
{"Application":{"ProcessName":"com.sec.android.provider.snote","Start":"12-13-2013 16:15:46","End":"12-13-2013 16:18:47"}}
{"Application":{"ProcessName":"com.sec.android.provider.logsprovider","Start":"12-13-2013 16:15:46","End":"12-13-2013 16:18:47"}}
{"Application":{"ProcessName":"com.sec.android.app.twdvfs","Start":"12-13-2013 16:15:46","End":"12-13-2013 16:18:47"}}
{"Application":{"ProcessName":"com.android.nfc","Start":"12-13-2013 16:15:46","End":"12-13-2013 16:18:47"}}
{"Application":{"ProcessName":"com.android.settings","Start":"12-13-2013 16:15:46","End":"12-13-2013 16:18:47"}}
{"Application":{"ProcessName":"com.sec.android.app.snotebook","Start":"12-13-2013 16:15:46","End":"12-13-2013 16:18:47"}}
{"Application":{"ProcessName":"com.sec.android.app.sysscope","Start":"12-13-2013 16:15:46","End":"12-13-2013 16:18:47"}}
{"Application":{"ProcessName":"com.sec.android.app.launcher","Start":"12-13-2013 16:18:16","End":"12-13-2013 16:18:47"}}
{"Application":{"ProcessName":"com.sec.android.app.FlashBarService","Start":"12-13-2013 16:15:46","End":"12-13-2013 16:18:47"}}
{"Application":{"ProcessName":"com.samsung.android.providers.context","Start":"12-13-2013 18:02:40","End":"12-13-2013 18:04:02"}}
{"Application":{"ProcessName":"com.sec.android.provider.logsprovider","Start":"12-13-2013 18:02:40","End":"12-13-2013 18:04:02"}}
{"Application":{"ProcessName":"com.sec.android.provider.snote","Start":"12-13-2013 18:02:40","End":"12-13-2013 18:04:02"}}
{"Application":{"ProcessName":"com.sec.android.app.GlanceView","Start":"12-13-2013 18:02:40","End":"12-13-2013 18:04:02"}}
{"Application":{"ProcessName":"com.sec.android.app.twdvfs","Start":"12-13-2013 18:02:40","End":"12-13-2013 18:04:02"}}
{"Application":{"ProcessName":"com.android.nfc","Start":"12-13-2013 18:02:40","End":"12-13-2013 18:04:02"}}
{"Application":{"ProcessName":"com.android.settings","Start":"12-13-2013 18:02:40","End":"12-13-2013 18:04:02"}}
{"Application":{"ProcessName":"com.sec.android.app.snotebook","Start":"12-13-2013 18:02:40","End":"12-13-2013 18:04:02"}}
{"Application":{"ProcessName":"com.sec.android.app.sysscope","Start":"12-13-2013 18:02:40","End":"12-13-2013 18:04:02"}}
{"Application":{"ProcessName":"com.sec.android.app.FlashBarService","Start":"12-13-2013 18:02:40","End":"12-13-2013 18:04:02"}}
{"Application":{"ProcessName":"com.google.process.location","Start":"12-13-2013 18:42:57","End":"12-13-2013 18:42:58"}}
{"Application":{"ProcessName":"com.sec.android.widgetapp.dualclockanalog","Start":"12-13-2013 18:42:58","End":"12-13-2013 18:43:08"}}
{"Application":{"ProcessName":"com.samsung.android.providers.context","Start":"12-13-2013 18:42:57","End":"12-13-2013 18:43:38"}}
{"Application":{"ProcessName":"com.sec.android.provider.snote","Start":"12-13-2013 18:42:57","End":"12-13-2013 18:43:38"}}
{"Application":{"ProcessName":"com.sec.android.provider.logsprovider","Start":"12-13-2013 18:42:57","End":"12-13-2013 18:43:38"}}
{"Application":{"ProcessName":"com.sec.android.app.twdvfs","Start":"12-13-2013 18:42:57","End":"12-13-2013 18:43:38"}}
{"Application":{"ProcessName":"com.android.nfc","Start":"12-13-2013 18:42:57","End":"12-13-2013 18:43:38"}}
{"Application":{"ProcessName":"com.android.settings","Start":"12-13-2013 18:42:57","End":"12-13-2013 18:43:38"}}
{"Application":{"ProcessName":"com.sec.android.app.snotebook","Start":"12-13-2013 18:42:57","End":"12-13-2013 18:43:38"}}
{"Application":{"ProcessName":"com.sec.android.app.sysscope","Start":"12-13-2013 18:42:57","End":"12-13-2013 18:43:38"}}
{"Application":{"ProcessName":"com.sec.android.app.FlashBarService","Start":"12-13-2013 18:42:57","End":"12-13-2013 18:43:38"}}
{"Call": {"Number":"+98910211####","Duration":"76","Time":"12-13-2013 18:42:56","Type":"1"}}
{"Call": {"Number":"+98910211####","Duration":"76","Time":"12-13-2013 18:42:56","Type":"1"}}
{"Call": {"Number":"+98910211####","Duration":"76","Time":"12-13-2013 18:42:56","Type":"1"}}
{"Call": {"Number":"+98910211####","Duration":"76","Time":"12-13-2013 18:42:56","Type":"1"}}
{"Call": {"Number":"+98910211####","Duration":"76","Time":"12-13-2013 18:42:56","Type":"1"}}
{"Call": {"Number":"+98910211####","Duration":"76","Time":"12-13-2013 18:42:56","Type":"1"}}
{"Call": {"Number":"+98910211####","Duration":"76","Time":"12-13-2013 18:42:56","Type":"1"}}
{"Call": {"Number":"+98910211####","Duration":"76","Time":"12-13-2013 18:42:56","Type":"1"}}
{"Call": {"Number":"+98910211####","Duration":"76","Time":"12-13-2013 18:42:56","Type":"1"}}
{"Application":{"ProcessName":"com.android.contacts","Start":"12-13-2013 18:48:45","End":"12-13-2013 18:48:55"}}
{"SMS":{"Address":"+98912534####","type":"2","date":"12-13-2013 18:48:58","body":"ANONYMIZED","Type":"2", "metadata": {"name": "Hesam Hatami"}}}
{"Call": {"Number":"+98910211####","Duration":"76","Time":"12-13-2013 18:42:56","Type":"1"}}
{"Call": {"Number":"+98910211####","Duration":"76","Time":"12-13-2013 18:42:56","Type":"1"}}
{"Application":{"ProcessName":"com.sec.android.widgetapp.dualclockanalog","Start":"12-13-2013 18:49:14","End":"12-13-2013 18:49:24"}}
{"Application":{"ProcessName":"com.samsung.android.providers.context","Start":"12-13-2013 18:48:45","End":"12-13-2013 18:49:24"}}
{"Application":{"ProcessName":"com.android.mms","Start":"12-13-2013 18:48:55","End":"12-13-2013 18:49:24"}}
{"Application":{"ProcessName":"com.sec.android.provider.snote","Start":"12-13-2013 18:48:45","End":"12-13-2013 18:49:24"}}
{"Application":{"ProcessName":"com.sec.android.provider.logsprovider","Start":"12-13-2013 18:48:45","End":"12-13-2013 18:49:24"}}
{"Application":{"ProcessName":"com.sec.android.app.twdvfs","Start":"12-13-2013 18:48:45","End":"12-13-2013 18:49:24"}}
{"Application":{"ProcessName":"com.android.nfc","Start":"12-13-2013 18:48:45","End":"12-13-2013 18:49:24"}}
{"Application":{"ProcessName":"com.android.settings","Start":"12-13-2013 18:48:45","End":"12-13-2013 18:49:24"}}
{"Application":{"ProcessName":"com.sec.android.app.snotebook","Start":"12-13-2013 18:48:45","End":"12-13-2013 18:49:24"}}
{"Application":{"ProcessName":"com.sec.android.app.sysscope","Start":"12-13-2013 18:48:45","End":"12-13-2013 18:49:24"}}
{"Application":{"ProcessName":"com.sec.android.app.FlashBarService","Start":"12-13-2013 18:48:45","End":"12-13-2013 18:49:24"}}
{"Application":{"ProcessName":"com.sec.android.inputmethod","Start":"12-13-2013 18:50:44","End":"12-13-2013 18:50:45"}}
{"Application":{"ProcessName":"com.visionobjects.resourcemanager","Start":"12-13-2013 18:50:44","End":"12-13-2013 18:50:45"}}
{"Application":{"ProcessName":"com.sec.android.widgetapp.dualclockanalog","Start":"12-13-2013 18:50:45","End":"12-13-2013 18:50:54"}}
{"SMS":{"Address":"+98919116####","type":"2","date":"12-13-2013 18:50:59","body":"ANONYMIZED","Type":"2", "metadata": {"name": "Mashaei"}}}
{"Application":{"ProcessName":"com.samsung.android.providers.context","Start":"12-13-2013 18:50:44","End":"12-13-2013 18:51:04"}}
{"Application":{"ProcessName":"com.android.mms","Start":"12-13-2013 18:50:44","End":"12-13-2013 18:51:04"}}
{"Application":{"ProcessName":"com.sec.android.provider.snote","Start":"12-13-2013 18:50:44","End":"12-13-2013 18:51:04"}}
{"Application":{"ProcessName":"com.sec.android.provider.logsprovider","Start":"12-13-2013 18:50:44","End":"12-13-2013 18:51:04"}}
{"Application":{"ProcessName":"com.sec.android.app.twdvfs","Start":"12-13-2013 18:50:44","End":"12-13-2013 18:51:04"}}
{"Application":{"ProcessName":"com.android.nfc","Start":"12-13-2013 18:50:44","End":"12-13-2013 18:51:04"}}
{"Application":{"ProcessName":"com.android.settings","Start":"12-13-2013 18:50:44","End":"12-13-2013 18:51:04"}}
{"Application":{"ProcessName":"com.sec.android.app.snotebook","Start":"12-13-2013 18:50:44","End":"12-13-2013 18:51:04"}}
{"Application":{"ProcessName":"com.sec.android.app.sysscope","Start":"12-13-2013 18:50:44","End":"12-13-2013 18:51:04"}}
{"Application":{"ProcessName":"com.sec.android.app.FlashBarService","Start":"12-13-2013 18:50:44","End":"12-13-2013 18:51:04"}}
{"Call": {"Number":"+98910211####","Duration":"76","Time":"12-13-2013 18:42:56","Type":"1"}}
{"Call": {"Number":"+98910211####","Duration":"76","Time":"12-13-2013 18:42:56","Type":"1"}}
{"Application":{"ProcessName":"com.samsung.android.providers.context","Start":"12-13-2013 18:51:20","End":"12-13-2013 18:51:51"}}
{"Application":{"ProcessName":"com.android.mms","Start":"12-13-2013 18:51:20","End":"12-13-2013 18:51:51"}}
{"Application":{"ProcessName":"com.sec.android.provider.snote","Start":"12-13-2013 18:51:20","End":"12-13-2013 18:51:51"}}
{"Application":{"ProcessName":"com.sec.android.provider.logsprovider","Start":"12-13-2013 18:51:20","End":"12-13-2013 18:51:51"}}
{"Application":{"ProcessName":"com.sec.android.app.twdvfs","Start":"12-13-2013 18:51:20","End":"12-13-2013 18:51:51"}}
{"Application":{"ProcessName":"com.android.nfc","Start":"12-13-2013 18:51:20","End":"12-13-2013 18:51:51"}}
{"Application":{"ProcessName":"com.android.settings","Start":"12-13-2013 18:51:20","End":"12-13-2013 18:51:51"}}
{"Application":{"ProcessName":"com.sec.android.app.snotebook","Start":"12-13-2013 18:51:20","End":"12-13-2013 18:51:51"}}
{"Application":{"ProcessName":"com.sec.android.app.sysscope","Start":"12-13-2013 18:51:20","End":"12-13-2013 18:51:51"}}
{"Application":{"ProcessName":"com.sec.android.app.FlashBarService","Start":"12-13-2013 18:51:20","End":"12-13-2013 18:51:51"}}
{"Application":{"ProcessName":"com.android.mms","Start":"12-13-2013 18:52:45","End":"12-13-2013 18:53:05"}}
{"Call": {"Number":"+98910211####","Duration":"76","Time":"12-13-2013 18:42:56","Type":"1"}}
{"Call": {"Number":"+98910211####","Duration":"76","Time":"12-13-2013 18:42:56","Type":"1"}}
{"Call": {"Number":"+98910211####","Duration":"76","Time":"12-13-2013 18:42:56","Type":"1"}}
{"Call": {"Number":"+98910211####","Duration":"76","Time":"12-13-2013 18:42:56","Type":"1"}}
{"Application":{"ProcessName":"com.android.contacts","Start":"12-13-2013 18:53:05","End":"12-13-2013 18:53:15"}}
{"Application":{"ProcessName":"com.samsung.android.providers.context","Start":"12-13-2013 18:52:45","End":"12-13-2013 18:53:45"}}
{"Application":{"ProcessName":"com.sec.android.provider.snote","Start":"12-13-2013 18:52:45","End":"12-13-2013 18:53:45"}}
{"Application":{"ProcessName":"com.sec.android.provider.logsprovider","Start":"12-13-2013 18:52:45","End":"12-13-2013 18:53:45"}}
{"Application":{"ProcessName":"com.sec.android.app.twdvfs","Start":"12-13-2013 18:52:45","End":"12-13-2013 18:53:45"}}
{"Application":{"ProcessName":"com.android.nfc","Start":"12-13-2013 18:52:45","End":"12-13-2013 18:53:45"}}
{"Application":{"ProcessName":"com.android.settings","Start":"12-13-2013 18:52:45","End":"12-13-2013 18:53:45"}}
{"Application":{"ProcessName":"com.sec.android.app.snotebook","Start":"12-13-2013 18:52:45","End":"12-13-2013 18:53:45"}}
{"Application":{"ProcessName":"com.sec.android.app.sysscope","Start":"12-13-2013 18:52:45","End":"12-13-2013 18:53:45"}}
{"Application":{"ProcessName":"com.sec.android.app.FlashBarService","Start":"12-13-2013 18:52:45","End":"12-13-2013 18:53:45"}}
{"Call": {"Number":"+98912534####","Duration":"32","Time":"12-13-2013 18:53:12","Type":"2"}}
{"Call": {"Number":"+98912534####","Duration":"32","Time":"12-13-2013 18:53:12","Type":"2"}}
{"Call": {"Number":"+98912534####","Duration":"32","Time":"12-13-2013 18:53:12","Type":"2"}}
{"Call": {"Number":"+98912534####","Duration":"32","Time":"12-13-2013 18:53:12","Type":"2"}}
{"Call": {"Number":"+98912534####","Duration":"32","Time":"12-13-2013 18:53:12","Type":"2"}}
{"Call": {"Number":"+98912534####","Duration":"32","Time":"12-13-2013 18:53:12","Type":"2"}}
{"Call": {"Number":"+98912534####","Duration":"32","Time":"12-13-2013 18:53:12","Type":"2"}}
{"Application":{"ProcessName":"com.samsung.android.providers.context","Start":"12-13-2013 18:57:22","End":"12-13-2013 18:58:02"}}
{"Application":{"ProcessName":"com.sec.android.provider.snote","Start":"12-13-2013 18:57:22","End":"12-13-2013 18:58:02"}}
{"Application":{"ProcessName":"com.sec.android.provider.logsprovider","Start":"12-13-2013 18:57:22","End":"12-13-2013 18:58:02"}}
{"Application":{"ProcessName":"com.sec.android.app.twdvfs","Start":"12-13-2013 18:57:22","End":"12-13-2013 18:58:02"}}
{"Application":{"ProcessName":"com.android.nfc","Start":"12-13-2013 18:57:22","End":"12-13-2013 18:58:02"}}
{"Application":{"ProcessName":"com.android.settings","Start":"12-13-2013 18:57:22","End":"12-13-2013 18:58:02"}}
{"Application":{"ProcessName":"com.sec.android.app.snotebook","Start":"12-13-2013 18:57:22","End":"12-13-2013 18:58:02"}}
{"Application":{"ProcessName":"com.sec.android.app.sysscope","Start":"12-13-2013 18:57:22","End":"12-13-2013 18:58:02"}}
{"Application":{"ProcessName":"com.sec.android.app.FlashBarService","Start":"12-13-2013 18:57:22","End":"12-13-2013 18:58:02"}}
{"Call": {"Number":"+98912534####","Duration":"40","Time":"12-13-2013 18:57:15","Type":"1"}}
{"Call": {"Number":"+98912534####","Duration":"40","Time":"12-13-2013 18:57:15","Type":"1"}}
{"Call": {"Number":"+98912534####","Duration":"40","Time":"12-13-2013 18:57:15","Type":"1"}}
{"Call": {"Number":"+98912534####","Duration":"40","Time":"12-13-2013 18:57:15","Type":"1"}}
{"Call": {"Number":"+98912534####","Duration":"40","Time":"12-13-2013 18:57:15","Type":"1"}}
{"Call": {"Number":"+98912534####","Duration":"40","Time":"12-13-2013 18:57:15","Type":"1"}}
{"Call": {"Number":"+98912534####","Duration":"40","Time":"12-13-2013 18:57:15","Type":"1"}}
{"Application":{"ProcessName":"com.samsung.android.providers.context","Start":"12-13-2013 18:59:59","End":"12-13-2013 19:00:09"}}
{"Application":{"ProcessName":"com.sec.android.provider.snote","Start":"12-13-2013 18:59:59","End":"12-13-2013 19:00:09"}}
{"Application":{"ProcessName":"com.sec.android.provider.logsprovider","Start":"12-13-2013 18:59:59","End":"12-13-2013 19:00:09"}}
{"Application":{"ProcessName":"com.sec.android.app.twdvfs","Start":"12-13-2013 18:59:59","End":"12-13-2013 19:00:09"}}
{"Application":{"ProcessName":"com.android.nfc","Start":"12-13-2013 18:59:59","End":"12-13-2013 19:00:09"}}
{"Application":{"ProcessName":"com.android.settings","Start":"12-13-2013 18:59:59","End":"12-13-2013 19:00:09"}}
{"Application":{"ProcessName":"com.sec.android.app.snotebook","Start":"12-13-2013 18:59:59","End":"12-13-2013 19:00:09"}}
{"Application":{"ProcessName":"com.sec.android.app.sysscope","Start":"12-13-2013 18:59:59","End":"12-13-2013 19:00:09"}}
{"Application":{"ProcessName":"com.sec.android.app.launcher","Start":"12-13-2013 18:59:59","End":"12-13-2013 19:00:09"}}
{"Application":{"ProcessName":"com.sec.android.app.FlashBarService","Start":"12-13-2013 18:59:59","End":"12-13-2013 19:00:09"}}
{"Call": {"Number":"+98910211####","Duration":"21","Time":"12-13-2013 19:00:03","Type":"2"}}
{"Call": {"Number":"+98910211####","Duration":"21","Time":"12-13-2013 19:00:03","Type":"2"}}
{"Call": {"Number":"+98910211####","Duration":"21","Time":"12-13-2013 19:00:03","Type":"2"}}
{"Call": {"Number":"+98910211####","Duration":"21","Time":"12-13-2013 19:00:03","Type":"2"}}
{"Call": {"Number":"+98910211####","Duration":"21","Time":"12-13-2013 19:00:03","Type":"2"}}
{"Call": {"Number":"+98910211####","Duration":"21","Time":"12-13-2013 19:00:03","Type":"2"}}
{"Call": {"Number":"+98910211####","Duration":"21","Time":"12-13-2013 19:00:03","Type":"2"}}
{"Application":{"ProcessName":"com.android.contacts","Start":"12-13-2013 19:04:33","End":"12-13-2013 19:04:43"}}
{"Call": {"Number":"+98910211####","Duration":"11","Time":"12-13-2013 19:04:40","Type":"2"}}
{"Call": {"Number":"+98910211####","Duration":"11","Time":"12-13-2013 19:04:40","Type":"2"}}
{"Call": {"Number":"+98910211####","Duration":"11","Time":"12-13-2013 19:04:40","Type":"2"}}
{"Application":{"ProcessName":"com.samsung.android.providers.context","Start":"12-13-2013 19:04:33","End":"12-13-2013 19:05:13"}}
{"Application":{"ProcessName":"com.sec.android.provider.logsprovider","Start":"12-13-2013 19:04:33","End":"12-13-2013 19:05:13"}}
{"Application":{"ProcessName":"com.sec.android.provider.snote","Start":"12-13-2013 19:04:33","End":"12-13-2013 19:05:13"}}
{"Application":{"ProcessName":"com.sec.android.app.twdvfs","Start":"12-13-2013 19:04:33","End":"12-13-2013 19:05:13"}}
{"Application":{"ProcessName":"com.android.nfc","Start":"12-13-2013 19:04:33","End":"12-13-2013 19:05:13"}}
{"Application":{"ProcessName":"com.android.settings","Start":"12-13-2013 19:04:33","End":"12-13-2013 19:05:13"}}
{"Application":{"ProcessName":"com.sec.android.app.snotebook","Start":"12-13-2013 19:04:33","End":"12-13-2013 19:05:13"}}
{"Application":{"ProcessName":"com.sec.android.app.sysscope","Start":"12-13-2013 19:04:33","End":"12-13-2013 19:05:13"}}
{"Application":{"ProcessName":"com.sec.android.app.FlashBarService","Start":"12-13-2013 19:04:33","End":"12-13-2013 19:05:13"}}
{"SMS":{"Address":"+98919116####","type":"1","date":"12-13-2013 19:06:14","body":"ANONYMIZED","Type":"1", "metadata": {"name": "Mashaei"}}}
{"Call": {"Number":"+98910211####","Duration":"11","Time":"12-13-2013 19:04:40","Type":"2"}}
{"Call": {"Number":"+98910211####","Duration":"11","Time":"12-13-2013 19:04:40","Type":"2"}}
{"Call": {"Number":"+98910211####","Duration":"11","Time":"12-13-2013 19:04:40","Type":"2"}}
{"Call": {"Number":"+98910211####","Duration":"11","Time":"12-13-2013 19:04:40","Type":"2"}}
{"Application":{"ProcessName":"com.samsung.android.providers.context","Start":"12-13-2013 19:06:19","End":"12-13-2013 19:06:30"}}
{"Application":{"ProcessName":"com.sec.android.provider.snote","Start":"12-13-2013 19:06:19","End":"12-13-2013 19:06:30"}}
{"Application":{"ProcessName":"com.sec.android.provider.logsprovider","Start":"12-13-2013 19:06:19","End":"12-13-2013 19:06:30"}}
{"Application":{"ProcessName":"com.sec.android.app.twdvfs","Start":"12-13-2013 19:06:19","End":"12-13-2013 19:06:30"}}
{"Application":{"ProcessName":"com.android.nfc","Start":"12-13-2013 19:06:19","End":"12-13-2013 19:06:30"}}
{"Application":{"ProcessName":"com.android.settings","Start":"12-13-2013 19:06:19","End":"12-13-2013 19:06:30"}}
{"Application":{"ProcessName":"com.sec.android.app.snotebook","Start":"12-13-2013 19:06:19","End":"12-13-2013 19:06:30"}}
{"Application":{"ProcessName":"com.sec.android.app.sysscope","Start":"12-13-2013 19:06:19","End":"12-13-2013 19:06:30"}}
{"Application":{"ProcessName":"com.sec.android.app.launcher","Start":"12-13-2013 19:06:19","End":"12-13-2013 19:06:30"}}
{"Application":{"ProcessName":"com.sec.android.app.FlashBarService","Start":"12-13-2013 19:06:19","End":"12-13-2013 19:06:30"}}
{"Application":{"ProcessName":"com.samsung.android.providers.context","Start":"12-13-2013 19:34:03","End":"12-13-2013 19:34:36"}}
{"Application":{"ProcessName":"com.sec.android.provider.snote","Start":"12-13-2013 19:34:03","End":"12-13-2013 19:34:36"}}
{"Application":{"ProcessName":"com.sec.android.provider.logsprovider","Start":"12-13-2013 19:34:03","End":"12-13-2013 19:34:36"}}
{"Application":{"ProcessName":"com.sec.android.app.twdvfs","Start":"12-13-2013 19:34:03","End":"12-13-2013 19:34:36"}}
{"Application":{"ProcessName":"com.android.nfc","Start":"12-13-2013 19:34:03","End":"12-13-2013 19:34:36"}}
{"Application":{"ProcessName":"com.android.settings","Start":"12-13-2013 19:34:03","End":"12-13-2013 19:34:36"}}
{"Application":{"ProcessName":"com.sec.android.app.snotebook","Start":"12-13-2013 19:34:03","End":"12-13-2013 19:34:36"}}
{"Application":{"ProcessName":"com.sec.android.app.sysscope","Start":"12-13-2013 19:34:03","End":"12-13-2013 19:34:36"}}
{"Application":{"ProcessName":"com.sec.android.app.launcher","Start":"12-13-2013 19:34:03","End":"12-13-2013 19:34:36"}}
{"Application":{"ProcessName":"com.sec.android.app.FlashBarService","Start":"12-13-2013 19:34:03","End":"12-13-2013 19:34:36"}}
{"Application":{"ProcessName":"com.samsung.android.providers.context","Start":"12-13-2013 19:36:41","End":"12-13-2013 19:37:39"}}
{"Application":{"ProcessName":"com.sec.android.provider.logsprovider","Start":"12-13-2013 19:36:41","End":"12-13-2013 19:37:39"}}
{"Application":{"ProcessName":"com.sec.android.provider.snote","Start":"12-13-2013 19:36:41","End":"12-13-2013 19:37:39"}}
{"Application":{"ProcessName":"com.sec.android.app.GlanceView","Start":"12-13-2013 19:36:41","End":"12-13-2013 19:37:39"}}
{"Application":{"ProcessName":"com.sec.android.app.twdvfs","Start":"12-13-2013 19:36:41","End":"12-13-2013 19:37:39"}}
{"Application":{"ProcessName":"com.android.nfc","Start":"12-13-2013 19:36:41","End":"12-13-2013 19:37:39"}}
{"Application":{"ProcessName":"com.android.settings","Start":"12-13-2013 19:36:41","End":"12-13-2013 19:37:39"}}
{"Application":{"ProcessName":"com.sec.android.app.snotebook","Start":"12-13-2013 19:36:41","End":"12-13-2013 19:37:39"}}
{"Application":{"ProcessName":"com.sec.android.app.sysscope","Start":"12-13-2013 19:36:41","End":"12-13-2013 19:37:39"}}
{"Application":{"ProcessName":"com.sec.android.app.FlashBarService","Start":"12-13-2013 19:36:41","End":"12-13-2013 19:37:39"}}
{"Application":{"ProcessName":"com.sec.android.app.launcher","Start":"12-13-2013 19:41:11","End":"12-13-2013 19:41:21"}}
{"Application":{"ProcessName":"com.samsung.android.providers.context","Start":"12-13-2013 19:41:11","End":"12-13-2013 19:46:12"}}
{"Application":{"ProcessName":"com.sec.android.provider.logsprovider","Start":"12-13-2013 19:41:11","End":"12-13-2013 19:46:12"}}
{"Application":{"ProcessName":"com.sec.android.provider.snote","Start":"12-13-2013 19:41:11","End":"12-13-2013 19:46:12"}}
{"Application":{"ProcessName":"com.sec.android.app.twdvfs","Start":"12-13-2013 19:41:11","End":"12-13-2013 19:46:12"}}
{"Application":{"ProcessName":"com.android.nfc","Start":"12-13-2013 19:41:11","End":"12-13-2013 19:46:12"}}
{"Application":{"ProcessName":"com.android.settings","Start":"12-13-2013 19:41:11","End":"12-13-2013 19:46:12"}}
{"Application":{"ProcessName":"com.sec.android.app.snotebook","Start":"12-13-2013 19:41:11","End":"12-13-2013 19:46:12"}}
{"Application":{"ProcessName":"com.sec.android.app.sysscope","Start":"12-13-2013 19:41:11","End":"12-13-2013 19:46:12"}}
{"Application":{"ProcessName":"com.sec.android.app.FlashBarService","Start":"12-13-2013 19:41:11","End":"12-13-2013 19:46:12"}}
{"Application":{"ProcessName":"com.skgames.trafficracer","Start":"12-13-2013 19:41:21","End":"12-13-2013 19:46:22"}}
{"Application":{"ProcessName":"com.samsung.android.providers.context","Start":"12-13-2013 19:46:12","End":"12-13-2013 19:46:52"}}
{"Application":{"ProcessName":"com.sec.android.provider.logsprovider","Start":"12-13-2013 19:46:12","End":"12-13-2013 19:46:52"}}
{"Application":{"ProcessName":"com.sec.android.provider.snote","Start":"12-13-2013 19:46:12","End":"12-13-2013 19:46:52"}}
{"Application":{"ProcessName":"com.sec.android.app.twdvfs","Start":"12-13-2013 19:46:12","End":"12-13-2013 19:46:52"}}
{"Application":{"ProcessName":"com.android.nfc","Start":"12-13-2013 19:46:12","End":"12-13-2013 19:46:52"}}
{"Application":{"ProcessName":"com.android.settings","Start":"12-13-2013 19:46:12","End":"12-13-2013 19:46:52"}}
{"Application":{"ProcessName":"com.sec.android.app.snotebook","Start":"12-13-2013 19:46:12","End":"12-13-2013 19:46:52"}}
{"Application":{"ProcessName":"com.sec.android.app.sysscope","Start":"12-13-2013 19:46:12","End":"12-13-2013 19:46:52"}}
{"Application":{"ProcessName":"com.skgames.trafficracer","Start":"12-13-2013 19:46:22","End":"12-13-2013 19:46:52"}}
{"Application":{"ProcessName":"com.sec.android.app.FlashBarService","Start":"12-13-2013 19:46:12","End":"12-13-2013 19:46:52"}}
{"Application":{"ProcessName":"com.samsung.android.providers.context","Start":"12-13-2013 20:17:15","End":"12-13-2013 20:22:16"}}
{"Application":{"ProcessName":"com.sec.android.provider.logsprovider","Start":"12-13-2013 20:17:15","End":"12-13-2013 20:22:16"}}
{"Application":{"ProcessName":"com.sec.android.provider.snote","Start":"12-13-2013 20:17:15","End":"12-13-2013 20:22:16"}}
{"Application":{"ProcessName":"com.sec.android.app.twdvfs","Start":"12-13-2013 20:17:15","End":"12-13-2013 20:22:16"}}
{"Application":{"ProcessName":"com.android.nfc","Start":"12-13-2013 20:17:15","End":"12-13-2013 20:22:16"}}
{"Application":{"ProcessName":"com.android.settings","Start":"12-13-2013 20:17:15","End":"12-13-2013 20:22:16"}}
{"Application":{"ProcessName":"com.sec.android.app.snotebook","Start":"12-13-2013 20:17:15","End":"12-13-2013 20:22:16"}}
{"Application":{"ProcessName":"com.sec.android.app.sysscope","Start":"12-13-2013 20:17:15","End":"12-13-2013 20:22:16"}}
{"Application":{"ProcessName":"com.skgames.trafficracer","Start":"12-13-2013 20:17:15","End":"12-13-2013 20:22:16"}}
{"Application":{"ProcessName":"com.sec.android.app.FlashBarService","Start":"12-13-2013 20:17:15","End":"12-13-2013 20:22:16"}}
{"Application":{"ProcessName":"com.google.android.apps.plus","Start":"12-13-2013 20:22:26","End":"12-13-2013 20:22:34"}}
{"Application":{"ProcessName":"com.samsung.android.providers.context","Start":"12-13-2013 20:22:16","End":"12-13-2013 20:27:16"}}
{"Application":{"ProcessName":"com.sec.android.provider.logsprovider","Start":"12-13-2013 20:22:16","End":"12-13-2013 20:27:16"}}
{"Application":{"ProcessName":"com.sec.android.provider.snote","Start":"12-13-2013 20:22:16","End":"12-13-2013 20:27:16"}}
{"Application":{"ProcessName":"com.sec.android.app.twdvfs","Start":"12-13-2013 20:22:16","End":"12-13-2013 20:27:16"}}
{"Application":{"ProcessName":"com.android.nfc","Start":"12-13-2013 20:22:16","End":"12-13-2013 20:27:16"}}
{"Application":{"ProcessName":"com.android.settings","Start":"12-13-2013 20:22:16","End":"12-13-2013 20:27:16"}}
{"Application":{"ProcessName":"com.sec.android.app.snotebook","Start":"12-13-2013 20:22:16","End":"12-13-2013 20:27:16"}}
{"Application":{"ProcessName":"com.sec.android.app.sysscope","Start":"12-13-2013 20:22:16","End":"12-13-2013 20:27:16"}}
{"Application":{"ProcessName":"com.skgames.trafficracer","Start":"12-13-2013 20:22:16","End":"12-13-2013 20:27:16"}}
{"Application":{"ProcessName":"com.sec.android.app.FlashBarService","Start":"12-13-2013 20:22:16","End":"12-13-2013 20:27:16"}}
{"Application":{"ProcessName":"com.samsung.android.providers.context","Start":"12-13-2013 20:27:16","End":"12-13-2013 20:32:16"}}
{"Application":{"ProcessName":"com.sec.android.provider.logsprovider","Start":"12-13-2013 20:27:16","End":"12-13-2013 20:32:16"}}
{"Application":{"ProcessName":"com.sec.android.provider.snote","Start":"12-13-2013 20:27:16","End":"12-13-2013 20:32:16"}}
{"Application":{"ProcessName":"com.sec.android.app.twdvfs","Start":"12-13-2013 20:27:16","End":"12-13-2013 20:32:16"}}
{"Application":{"ProcessName":"com.android.nfc","Start":"12-13-2013 20:27:16","End":"12-13-2013 20:32:16"}}
{"Application":{"ProcessName":"com.android.settings","Start":"12-13-2013 20:27:16","End":"12-13-2013 20:32:16"}}
{"Application":{"ProcessName":"com.sec.android.app.snotebook","Start":"12-13-2013 20:27:16","End":"12-13-2013 20:32:16"}}
{"Application":{"ProcessName":"com.sec.android.app.sysscope","Start":"12-13-2013 20:27:16","End":"12-13-2013 20:32:16"}}
{"Application":{"ProcessName":"com.skgames.trafficracer","Start":"12-13-2013 20:27:16","End":"12-13-2013 20:32:16"}}
{"Application":{"ProcessName":"com.sec.android.app.FlashBarService","Start":"12-13-2013 20:27:16","End":"12-13-2013 20:32:16"}}
{"Application":{"ProcessName":"com.apk.com.lovePositions201208","Start":"12-13-2013 20:33:35","End":"12-13-2013 20:33:45"}}
{"Application":{"ProcessName":"com.skgames.trafficracer","Start":"12-13-2013 20:32:16","End":"12-13-2013 20:35:55"}}
{"Application":{"ProcessName":"com.sec.android.app.camera","Start":"12-13-2013 20:35:55","End":"12-13-2013 20:36:25"}}
{"Application":{"ProcessName":"com.samsung.android.providers.context","Start":"12-13-2013 20:32:16","End":"12-13-2013 20:36:35"}}
{"Application":{"ProcessName":"com.sec.android.provider.logsprovider","Start":"12-13-2013 20:32:16","End":"12-13-2013 20:36:35"}}
{"Application":{"ProcessName":"com.sec.android.provider.snote","Start":"12-13-2013 20:32:16","End":"12-13-2013 20:36:35"}}
{"Application":{"ProcessName":"com.sec.android.app.twdvfs","Start":"12-13-2013 20:32:16","End":"12-13-2013 20:36:35"}}
{"Application":{"ProcessName":"com.android.nfc","Start":"12-13-2013 20:32:16","End":"12-13-2013 20:36:35"}}
{"Application":{"ProcessName":"com.android.settings","Start":"12-13-2013 20:32:16","End":"12-13-2013 20:36:35"}}
{"Application":{"ProcessName":"com.sec.android.app.snotebook","Start":"12-13-2013 20:32:16","End":"12-13-2013 20:36:35"}}
{"Application":{"ProcessName":"com.sec.android.app.sysscope","Start":"12-13-2013 20:32:16","End":"12-13-2013 20:36:35"}}
{"Application":{"ProcessName":"com.sec.android.gallery3d","Start":"12-13-2013 20:36:25","End":"12-13-2013 20:36:35"}}
{"Application":{"ProcessName":"com.sec.android.cloudagent","Start":"12-13-2013 20:36:25","End":"12-13-2013 20:36:35"}}
{"Application":{"ProcessName":"com.sec.android.app.FlashBarService","Start":"12-13-2013 20:32:16","End":"12-13-2013 20:36:35"}}
{"Application":{"ProcessName":"com.sec.android.app.launcher","Start":"12-13-2013 20:39:15","End":"12-13-2013 20:39:25"}}
{"Application":{"ProcessName":"com.samsung.android.providers.context","Start":"12-13-2013 20:39:15","End":"12-13-2013 20:44:16"}}
{"Application":{"ProcessName":"com.sec.android.provider.logsprovider","Start":"12-13-2013 20:39:15","End":"12-13-2013 20:44:16"}}
{"Application":{"ProcessName":"com.sec.android.provider.snote","Start":"12-13-2013 20:39:15","End":"12-13-2013 20:44:16"}}
{"Application":{"ProcessName":"com.sec.android.app.twdvfs","Start":"12-13-2013 20:39:15","End":"12-13-2013 20:44:16"}}
{"Application":{"ProcessName":"com.android.nfc","Start":"12-13-2013 20:39:15","End":"12-13-2013 20:44:16"}}
{"Application":{"ProcessName":"com.android.settings","Start":"12-13-2013 20:39:15","End":"12-13-2013 20:44:16"}}
{"Application":{"ProcessName":"com.sec.android.app.snotebook","Start":"12-13-2013 20:39:15","End":"12-13-2013 20:44:16"}}
{"Application":{"ProcessName":"com.sec.android.app.sysscope","Start":"12-13-2013 20:39:15","End":"12-13-2013 20:44:16"}}
{"Application":{"ProcessName":"com.sec.android.app.FlashBarService","Start":"12-13-2013 20:39:15","End":"12-13-2013 20:44:16"}}
{"Application":{"ProcessName":"com.skgames.trafficracer","Start":"12-13-2013 20:39:25","End":"12-13-2013 20:44:26"}}
{"Application":{"ProcessName":"com.samsung.android.providers.context","Start":"12-13-2013 20:44:16","End":"12-13-2013 20:49:16"}}
{"Application":{"ProcessName":"com.sec.android.provider.logsprovider","Start":"12-13-2013 20:44:16","End":"12-13-2013 20:49:16"}}
{"Application":{"ProcessName":"com.sec.android.provider.snote","Start":"12-13-2013 20:44:16","End":"12-13-2013 20:49:16"}}
{"Application":{"ProcessName":"com.sec.android.app.twdvfs","Start":"12-13-2013 20:44:16","End":"12-13-2013 20:49:16"}}
{"Application":{"ProcessName":"com.android.nfc","Start":"12-13-2013 20:44:16","End":"12-13-2013 20:49:16"}}
{"Application":{"ProcessName":"com.android.settings","Start":"12-13-2013 20:44:16","End":"12-13-2013 20:49:16"}}
{"Application":{"ProcessName":"com.sec.android.app.snotebook","Start":"12-13-2013 20:44:16","End":"12-13-2013 20:49:16"}}
{"Application":{"ProcessName":"com.sec.android.app.sysscope","Start":"12-13-2013 20:44:16","End":"12-13-2013 20:49:16"}}
{"Application":{"ProcessName":"com.sec.android.app.FlashBarService","Start":"12-13-2013 20:44:16","End":"12-13-2013 20:49:16"}}
{"Application":{"ProcessName":"com.skgames.trafficracer","Start":"12-13-2013 20:44:26","End":"12-13-2013 20:49:26"}}
{"Application":{"ProcessName":"com.samsung.android.providers.context","Start":"12-13-2013 20:49:16","End":"12-13-2013 20:49:48"}}
{"Application":{"ProcessName":"com.sec.android.provider.logsprovider","Start":"12-13-2013 20:49:16","End":"12-13-2013 20:49:48"}}
{"Application":{"ProcessName":"com.sec.android.provider.snote","Start":"12-13-2013 20:49:16","End":"12-13-2013 20:49:48"}}
{"Application":{"ProcessName":"com.sec.android.app.twdvfs","Start":"12-13-2013 20:49:16","End":"12-13-2013 20:49:48"}}
{"Application":{"ProcessName":"com.android.nfc","Start":"12-13-2013 20:49:16","End":"12-13-2013 20:49:48"}}
{"Application":{"ProcessName":"com.android.settings","Start":"12-13-2013 20:49:16","End":"12-13-2013 20:49:48"}}
{"Application":{"ProcessName":"com.sec.android.app.snotebook","Start":"12-13-2013 20:49:16","End":"12-13-2013 20:49:48"}}
{"Application":{"ProcessName":"com.sec.android.app.sysscope","Start":"12-13-2013 20:49:16","End":"12-13-2013 20:49:48"}}
{"Application":{"ProcessName":"com.skgames.trafficracer","Start":"12-13-2013 20:49:26","End":"12-13-2013 20:49:48"}}
{"Application":{"ProcessName":"com.sec.android.app.FlashBarService","Start":"12-13-2013 20:49:16","End":"12-13-2013 20:49:48"}}
{"Application":{"ProcessName":"com.samsung.android.providers.context","Start":"12-13-2013 20:51:03","End":"12-13-2013 20:51:54"}}
{"Application":{"ProcessName":"com.sec.android.provider.logsprovider","Start":"12-13-2013 20:51:03","End":"12-13-2013 20:51:54"}}
{"Application":{"ProcessName":"com.sec.android.provider.snote","Start":"12-13-2013 20:51:03","End":"12-13-2013 20:51:54"}}
{"Application":{"ProcessName":"com.sec.android.app.twdvfs","Start":"12-13-2013 20:51:03","End":"12-13-2013 20:51:54"}}
{"Application":{"ProcessName":"com.android.nfc","Start":"12-13-2013 20:51:03","End":"12-13-2013 20:51:54"}}
{"Application":{"ProcessName":"com.android.settings","Start":"12-13-2013 20:51:03","End":"12-13-2013 20:51:54"}}
{"Application":{"ProcessName":"com.sec.android.app.snotebook","Start":"12-13-2013 20:51:03","End":"12-13-2013 20:51:54"}}
{"Application":{"ProcessName":"com.sec.android.app.sysscope","Start":"12-13-2013 20:51:03","End":"12-13-2013 20:51:54"}}
{"Application":{"ProcessName":"com.skgames.trafficracer","Start":"12-13-2013 20:51:03","End":"12-13-2013 20:51:54"}}
{"Application":{"ProcessName":"com.sec.android.app.FlashBarService","Start":"12-13-2013 20:51:03","End":"12-13-2013 20:51:54"}}
{"Application":{"ProcessName":"com.samsung.android.providers.context","Start":"12-13-2013 20:54:50","End":"12-13-2013 20:59:51"}}
{"Application":{"ProcessName":"com.sec.android.provider.logsprovider","Start":"12-13-2013 20:54:50","End":"12-13-2013 20:59:51"}}
{"Application":{"ProcessName":"com.sec.android.provider.snote","Start":"12-13-2013 20:54:50","End":"12-13-2013 20:59:51"}}
{"Application":{"ProcessName":"com.sec.android.app.twdvfs","Start":"12-13-2013 20:54:50","End":"12-13-2013 20:59:51"}}
{"Application":{"ProcessName":"com.android.nfc","Start":"12-13-2013 20:54:50","End":"12-13-2013 20:59:51"}}
{"Application":{"ProcessName":"com.android.settings","Start":"12-13-2013 20:54:50","End":"12-13-2013 20:59:51"}}
{"Application":{"ProcessName":"com.sec.android.app.snotebook","Start":"12-13-2013 20:54:50","End":"12-13-2013 20:59:51"}}
{"Application":{"ProcessName":"com.sec.android.app.sysscope","Start":"12-13-2013 20:54:50","End":"12-13-2013 20:59:51"}}
{"Application":{"ProcessName":"com.skgames.trafficracer","Start":"12-13-2013 20:54:50","End":"12-13-2013 20:59:51"}}
{"Application":{"ProcessName":"com.sec.android.app.FlashBarService","Start":"12-13-2013 20:54:50","End":"12-13-2013 20:59:51"}}
{"Application":{"ProcessName":"com.samsung.android.providers.context","Start":"12-13-2013 20:59:51","End":"12-13-2013 21:04:52"}}
{"Application":{"ProcessName":"com.sec.android.provider.logsprovider","Start":"12-13-2013 20:59:51","End":"12-13-2013 21:04:52"}}
{"Application":{"ProcessName":"com.sec.android.provider.snote","Start":"12-13-2013 20:59:51","End":"12-13-2013 21:04:52"}}
{"Application":{"ProcessName":"com.sec.android.app.twdvfs","Start":"12-13-2013 20:59:51","End":"12-13-2013 21:04:52"}}
{"Application":{"ProcessName":"com.android.nfc","Start":"12-13-2013 20:59:51","End":"12-13-2013 21:04:52"}}
{"Application":{"ProcessName":"com.android.settings","Start":"12-13-2013 20:59:51","End":"12-13-2013 21:04:52"}}
{"Application":{"ProcessName":"com.sec.android.app.snotebook","Start":"12-13-2013 20:59:51","End":"12-13-2013 21:04:52"}}
{"Application":{"ProcessName":"com.sec.android.app.sysscope","Start":"12-13-2013 20:59:51","End":"12-13-2013 21:04:52"}}
{"Application":{"ProcessName":"com.skgames.trafficracer","Start":"12-13-2013 20:59:51","End":"12-13-2013 21:04:52"}}
{"Application":{"ProcessName":"com.sec.android.app.FlashBarService","Start":"12-13-2013 20:59:51","End":"12-13-2013 21:04:52"}}
{"Application":{"ProcessName":"com.skgames.trafficracer","Start":"12-13-2013 21:04:52","End":"12-13-2013 21:05:22"}}
{"Application":{"ProcessName":"com.android.calendar","Start":"12-13-2013 21:05:22","End":"12-13-2013 21:05:23"}}
{"Application":{"ProcessName":"com.samsung.android.providers.context","Start":"12-13-2013 21:04:52","End":"12-13-2013 21:05:32"}}
{"Application":{"ProcessName":"com.sec.android.app.GlanceView","Start":"12-13-2013 21:05:22","End":"12-13-2013 21:05:32"}}
{"Application":{"ProcessName":"com.sec.android.provider.logsprovider","Start":"12-13-2013 21:04:52","End":"12-13-2013 21:05:32"}}
{"Application":{"ProcessName":"com.sec.android.provider.snote","Start":"12-13-2013 21:04:52","End":"12-13-2013 21:05:32"}}
{"Application":{"ProcessName":"com.sec.android.app.twdvfs","Start":"12-13-2013 21:04:52","End":"12-13-2013 21:05:32"}}
{"Application":{"ProcessName":"com.android.nfc","Start":"12-13-2013 21:04:52","End":"12-13-2013 21:05:32"}}
{"Application":{"ProcessName":"com.android.settings","Start":"12-13-2013 21:04:52","End":"12-13-2013 21:05:32"}}
{"Application":{"ProcessName":"com.sec.android.app.snotebook","Start":"12-13-2013 21:04:52","End":"12-13-2013 21:05:32"}}
{"Application":{"ProcessName":"com.sec.android.app.sysscope","Start":"12-13-2013 21:04:52","End":"12-13-2013 21:05:32"}}
{"Application":{"ProcessName":"com.sec.android.app.FlashBarService","Start":"12-13-2013 21:04:52","End":"12-13-2013 21:05:32"}}
{"SMS":{"Address":"+98919116####","type":"1","date":"12-13-2013 21:07:36","body":"ANONYMIZED","Type":"1", "metadata": {"name": "Mashaei"}}}
{"Call": {"Number":"+98910211####","Duration":"11","Time":"12-13-2013 19:04:40","Type":"2"}}
{"Call": {"Number":"+98910211####","Duration":"11","Time":"12-13-2013 19:04:40","Type":"2"}}
{"Call": {"Number":"+98910211####","Duration":"11","Time":"12-13-2013 19:04:40","Type":"2"}}
{"Application":{"ProcessName":"com.samsung.android.providers.context","Start":"12-13-2013 21:07:39","End":"12-13-2013 21:08:32"}}
{"Application":{"ProcessName":"com.sec.android.provider.logsprovider","Start":"12-13-2013 21:07:39","End":"12-13-2013 21:08:32"}}
{"Application":{"ProcessName":"com.sec.android.provider.snote","Start":"12-13-2013 21:07:39","End":"12-13-2013 21:08:32"}}
{"Application":{"ProcessName":"com.sec.android.app.twdvfs","Start":"12-13-2013 21:07:39","End":"12-13-2013 21:08:32"}}
{"Application":{"ProcessName":"com.android.nfc","Start":"12-13-2013 21:07:39","End":"12-13-2013 21:08:32"}}
{"Application":{"ProcessName":"com.android.settings","Start":"12-13-2013 21:07:39","End":"12-13-2013 21:08:32"}}
{"Application":{"ProcessName":"com.sec.android.app.snotebook","Start":"12-13-2013 21:07:39","End":"12-13-2013 21:08:32"}}
{"Application":{"ProcessName":"com.sec.android.app.sysscope","Start":"12-13-2013 21:07:39","End":"12-13-2013 21:08:32"}}
{"Application":{"ProcessName":"com.skgames.trafficracer","Start":"12-13-2013 21:07:39","End":"12-13-2013 21:08:32"}}
{"Application":{"ProcessName":"com.sec.android.app.FlashBarService","Start":"12-13-2013 21:07:39","End":"12-13-2013 21:08:32"}}
{"Application":{"ProcessName":"com.samsung.android.providers.context","Start":"12-13-2013 21:10:34","End":"12-13-2013 21:14:46"}}
{"Application":{"ProcessName":"com.sec.android.provider.snote","Start":"12-13-2013 21:10:34","End":"12-13-2013 21:14:46"}}
{"Application":{"ProcessName":"com.sec.android.provider.logsprovider","Start":"12-13-2013 21:10:34","End":"12-13-2013 21:14:46"}}
{"Application":{"ProcessName":"com.sec.android.app.twdvfs","Start":"12-13-2013 21:10:34","End":"12-13-2013 21:14:46"}}
{"Application":{"ProcessName":"com.android.nfc","Start":"12-13-2013 21:10:34","End":"12-13-2013 21:14:46"}}
{"Application":{"ProcessName":"com.android.settings","Start":"12-13-2013 21:10:34","End":"12-13-2013 21:14:46"}}
{"Application":{"ProcessName":"com.sec.android.app.snotebook","Start":"12-13-2013 21:10:34","End":"12-13-2013 21:14:46"}}
{"Application":{"ProcessName":"com.sec.android.app.sysscope","Start":"12-13-2013 21:10:34","End":"12-13-2013 21:14:46"}}
{"Application":{"ProcessName":"com.skgames.trafficracer","Start":"12-13-2013 21:10:34","End":"12-13-2013 21:14:46"}}
{"Application":{"ProcessName":"com.sec.android.app.FlashBarService","Start":"12-13-2013 21:10:34","End":"12-13-2013 21:14:46"}}
{"Call": {"Number":"+98910211####","Duration":"11","Time":"12-13-2013 19:04:40","Type":"2"}}
{"Application":{"ProcessName":"com.samsung.android.providers.context","Start":"12-13-2013 21:46:54","End":"12-13-2013 21:47:04"}}
{"Application":{"ProcessName":"com.sec.android.provider.snote","Start":"12-13-2013 21:46:54","End":"12-13-2013 21:47:04"}}
{"Application":{"ProcessName":"com.sec.android.provider.logsprovider","Start":"12-13-2013 21:46:54","End":"12-13-2013 21:47:04"}}
{"Application":{"ProcessName":"com.sec.android.app.twdvfs","Start":"12-13-2013 21:46:54","End":"12-13-2013 21:47:04"}}
{"Application":{"ProcessName":"com.android.nfc","Start":"12-13-2013 21:46:54","End":"12-13-2013 21:47:04"}}
{"Application":{"ProcessName":"com.android.settings","Start":"12-13-2013 21:46:54","End":"12-13-2013 21:47:04"}}
{"Application":{"ProcessName":"com.sec.android.app.snotebook","Start":"12-13-2013 21:46:54","End":"12-13-2013 21:47:04"}}
{"Application":{"ProcessName":"com.sec.android.app.sysscope","Start":"12-13-2013 21:46:54","End":"12-13-2013 21:47:04"}}
{"Application":{"ProcessName":"com.sec.android.app.FlashBarService","Start":"12-13-2013 21:46:54","End":"12-13-2013 21:47:04"}}
{"Call": {"Number":"+98919116####","Duration":"30","Time":"12-13-2013 21:46:49","Type":"1"}}
{"Call": {"Number":"+98919116####","Duration":"30","Time":"12-13-2013 21:46:49","Type":"1"}}
{"Call": {"Number":"+98919116####","Duration":"30","Time":"12-13-2013 21:46:49","Type":"1"}}
{"Application":{"ProcessName":"com.samsung.android.providers.context","Start":"12-13-2013 21:47:27","End":"12-13-2013 21:47:57"}}
{"Application":{"ProcessName":"com.sec.android.provider.snote","Start":"12-13-2013 21:47:27","End":"12-13-2013 21:47:57"}}
{"Application":{"ProcessName":"com.sec.android.provider.logsprovider","Start":"12-13-2013 21:47:27","End":"12-13-2013 21:47:57"}}
{"Application":{"ProcessName":"com.sec.android.app.twdvfs","Start":"12-13-2013 21:47:27","End":"12-13-2013 21:47:57"}}
{"Application":{"ProcessName":"com.android.nfc","Start":"12-13-2013 21:47:27","End":"12-13-2013 21:47:57"}}
{"Application":{"ProcessName":"com.android.settings","Start":"12-13-2013 21:47:27","End":"12-13-2013 21:47:57"}}
{"Application":{"ProcessName":"com.sec.android.app.snotebook","Start":"12-13-2013 21:47:27","End":"12-13-2013 21:47:57"}}
{"Application":{"ProcessName":"com.sec.android.app.sysscope","Start":"12-13-2013 21:47:27","End":"12-13-2013 21:47:57"}}
{"Application":{"ProcessName":"com.sec.android.app.FlashBarService","Start":"12-13-2013 21:47:27","End":"12-13-2013 21:47:57"}}
{"Application":{"ProcessName":"com.samsung.android.providers.context","Start":"12-13-2013 22:05:51","End":"12-13-2013 22:06:52"}}
{"Application":{"ProcessName":"com.sec.android.provider.logsprovider","Start":"12-13-2013 22:05:51","End":"12-13-2013 22:06:52"}}
{"Application":{"ProcessName":"com.sec.android.provider.snote","Start":"12-13-2013 22:05:51","End":"12-13-2013 22:06:52"}}
{"Application":{"ProcessName":"com.sec.android.app.twdvfs","Start":"12-13-2013 22:05:51","End":"12-13-2013 22:06:52"}}
{"Application":{"ProcessName":"com.android.nfc","Start":"12-13-2013 22:05:51","End":"12-13-2013 22:06:52"}}
{"Application":{"ProcessName":"com.android.settings","Start":"12-13-2013 22:05:51","End":"12-13-2013 22:06:52"}}
{"Application":{"ProcessName":"com.sec.android.app.snotebook","Start":"12-13-2013 22:05:51","End":"12-13-2013 22:06:52"}}
{"Application":{"ProcessName":"com.sec.android.app.sysscope","Start":"12-13-2013 22:05:51","End":"12-13-2013 22:06:52"}}
{"Application":{"ProcessName":"com.sec.android.app.launcher","Start":"12-13-2013 22:05:51","End":"12-13-2013 22:06:52"}}
{"Application":{"ProcessName":"com.sec.android.app.FlashBarService","Start":"12-13-2013 22:05:51","End":"12-13-2013 22:06:52"}}
{"SMS":{"Address":"+98919116####","type":"2","date":"12-13-2013 22:06:49","body":"ANONYMIZED","Type":"2", "metadata": {"name": "Mashaei"}}}
{"Call": {"Number":"+98919116####","Duration":"30","Time":"12-13-2013 21:46:49","Type":"1"}}
{"Call": {"Number":"+98919116####","Duration":"30","Time":"12-13-2013 21:46:49","Type":"1"}}
{"SMS":{"Address":"+98919116####","type":"1","date":"12-13-2013 22:07:24","body":"ANONYMIZED","Type":"1", "metadata": {"name": "Mashaei"}}}
{"Application":{"ProcessName":"com.samsung.android.providers.context","Start":"12-13-2013 22:07:11","End":"12-13-2013 22:07:26"}}
{"Application":{"ProcessName":"com.android.mms","Start":"12-13-2013 22:07:11","End":"12-13-2013 22:07:26"}}
{"Application":{"ProcessName":"com.sec.android.provider.snote","Start":"12-13-2013 22:07:11","End":"12-13-2013 22:07:26"}}
{"Application":{"ProcessName":"com.sec.android.provider.logsprovider","Start":"12-13-2013 22:07:11","End":"12-13-2013 22:07:26"}}
{"Application":{"ProcessName":"com.sec.android.app.twdvfs","Start":"12-13-2013 22:07:11","End":"12-13-2013 22:07:26"}}
{"Application":{"ProcessName":"com.android.nfc","Start":"12-13-2013 22:07:11","End":"12-13-2013 22:07:26"}}
{"Application":{"ProcessName":"com.android.settings","Start":"12-13-2013 22:07:11","End":"12-13-2013 22:07:26"}}
{"Application":{"ProcessName":"com.sec.android.app.snotebook","Start":"12-13-2013 22:07:11","End":"12-13-2013 22:07:26"}}
{"Application":{"ProcessName":"com.sec.android.app.sysscope","Start":"12-13-2013 22:07:11","End":"12-13-2013 22:07:26"}}
{"Application":{"ProcessName":"com.sec.android.app.FlashBarService","Start":"12-13-2013 22:07:11","End":"12-13-2013 22:07:26"}}
{"Call": {"Number":"+98919116####","Duration":"30","Time":"12-13-2013 21:46:49","Type":"1"}}
{"Call": {"Number":"+98919116####","Duration":"30","Time":"12-13-2013 21:46:49","Type":"1"}}
{"Call": {"Number":"+98919116####","Duration":"30","Time":"12-13-2013 21:46:49","Type":"1"}}
{"Call": {"Number":"+98919116####","Duration":"30","Time":"12-13-2013 21:46:49","Type":"1"}}
{"Application":{"ProcessName":"com.sec.android.provider.badge","Start":"12-13-2013 22:18:39","End":"12-13-2013 22:18:39"}}
{"Application":{"ProcessName":"com.samsung.android.providers.context","Start":"12-13-2013 22:18:39","End":"12-13-2013 22:19:04"}}
{"Application":{"ProcessName":"com.sec.android.provider.snote","Start":"12-13-2013 22:18:39","End":"12-13-2013 22:19:04"}}
{"Application":{"ProcessName":"com.sec.android.provider.logsprovider","Start":"12-13-2013 22:18:39","End":"12-13-2013 22:19:04"}}
{"Application":{"ProcessName":"com.sec.android.app.twdvfs","Start":"12-13-2013 22:18:39","End":"12-13-2013 22:19:04"}}
{"Application":{"ProcessName":"com.android.nfc","Start":"12-13-2013 22:18:39","End":"12-13-2013 22:19:04"}}
{"Application":{"ProcessName":"com.android.settings","Start":"12-13-2013 22:18:39","End":"12-13-2013 22:19:04"}}
{"Application":{"ProcessName":"com.sec.android.app.snotebook","Start":"12-13-2013 22:18:39","End":"12-13-2013 22:19:04"}}
{"Application":{"ProcessName":"com.sec.android.app.sysscope","Start":"12-13-2013 22:18:39","End":"12-13-2013 22:19:04"}}
{"Application":{"ProcessName":"com.sec.android.app.launcher","Start":"12-13-2013 22:18:39","End":"12-13-2013 22:19:04"}}
{"Application":{"ProcessName":"com.sec.android.app.FlashBarService","Start":"12-13-2013 22:18:39","End":"12-13-2013 22:19:04"}}
{"Call": {"Number":"+98919116####","Duration":"11","Time":"12-13-2013 22:59:30","Type":"1"}}
{"Call": {"Number":"+98919116####","Duration":"11","Time":"12-13-2013 22:59:30","Type":"1"}}
{"Call": {"Number":"+98919116####","Duration":"11","Time":"12-13-2013 22:59:30","Type":"1"}}
{"Application":{"ProcessName":"com.samsung.android.providers.context","Start":"12-13-2013 22:59:36","End":"12-13-2013 23:00:28"}}
{"Application":{"ProcessName":"com.sec.android.provider.snote","Start":"12-13-2013 22:59:36","End":"12-13-2013 23:00:28"}}
{"Application":{"ProcessName":"com.sec.android.provider.logsprovider","Start":"12-13-2013 22:59:36","End":"12-13-2013 23:00:28"}}
{"Application":{"ProcessName":"com.sec.android.app.twdvfs","Start":"12-13-2013 22:59:36","End":"12-13-2013 23:00:28"}}
{"Application":{"ProcessName":"com.android.nfc","Start":"12-13-2013 22:59:36","End":"12-13-2013 23:00:28"}}
{"Application":{"ProcessName":"com.android.settings","Start":"12-13-2013 22:59:36","End":"12-13-2013 23:00:28"}}
{"Application":{"ProcessName":"com.sec.android.app.snotebook","Start":"12-13-2013 22:59:36","End":"12-13-2013 23:00:28"}}
{"Application":{"ProcessName":"com.sec.android.app.sysscope","Start":"12-13-2013 22:59:36","End":"12-13-2013 23:00:28"}}
{"Application":{"ProcessName":"com.sec.android.app.launcher","Start":"12-13-2013 22:59:56","End":"12-13-2013 23:00:28"}}
{"Application":{"ProcessName":"com.sec.android.app.FlashBarService","Start":"12-13-2013 22:59:36","End":"12-13-2013 23:00:28"}}
