{"Call": {"Number":"+98936252####","Duration":"0","Time":"11-23-2013 07:03:31","Type":"3"}}
{"Call": {"Number":"+98936252####","Duration":"0","Time":"11-23-2013 07:03:31","Type":"3"}}
{"Location":{"Latitude":"35.7414552","Longtitude":"51.400851","Altitude":"0.0","time":"11-23-2013 07:04:15","Accuracy":"20.0","Provider":"fused","Speed":"0.0"}}
{"Application":{"ProcessName":"com.lslk.sleepbot","Start":"11-23-2013 07:04:19","End":"11-23-2013 07:04:29"}}
{"Call": {"Number":"+98936252####","Duration":"0","Time":"11-23-2013 07:04:20","Type":"3"}}
{"Call": {"Number":"+98936252####","Duration":"0","Time":"11-23-2013 07:04:20","Type":"3"}}
{"Application":{"ProcessName":"com.lslk.sleepbot","Start":"11-23-2013 07:04:49","End":"11-23-2013 07:04:59"}}
{"Application":{"ProcessName":"com.songsoft.cleaner","Start":"11-23-2013 07:04:59","End":"11-23-2013 07:05:09"}}
{"Call": {"Number":"+98936252####","Duration":"0","Time":"11-23-2013 07:04:55","Type":"3"}}
{"Call": {"Number":"+98936252####","Duration":"0","Time":"11-23-2013 07:04:55","Type":"3"}}
{"Application":{"ProcessName":"com.farsitel.bazaar","Start":"11-23-2013 07:05:39","End":"11-23-2013 07:05:49"}}
{"Application":{"ProcessName":"com.lslk.sleepbot","Start":"11-23-2013 07:05:39","End":"11-23-2013 07:05:49"}}
{"Application":{"ProcessName":"com.whatsapp","Start":"11-23-2013 07:05:59","End":"11-23-2013 07:06:09"}}
{"Location":{"Latitude":"35.741465","Longtitude":"51.4008433","Altitude":"0.0","time":"11-23-2013 07:06:15","Accuracy":"72.99","Provider":"fused","Speed":"0.0"}}
{"Application":{"ProcessName":"com.vlingo.midas","Start":"11-23-2013 07:06:09","End":"11-23-2013 07:06:19"}}
{"Call": {"Number":"+98936252####","Duration":"0","Time":"11-23-2013 07:05:44","Type":"3"}}
{"Call": {"Number":"+98936252####","Duration":"0","Time":"11-23-2013 07:05:44","Type":"3"}}
{"Application":{"ProcessName":"com.viber.voip","Start":"11-23-2013 07:06:19","End":"11-23-2013 07:06:29"}}
{"Application":{"ProcessName":"com.sgiggle.production","Start":"11-23-2013 07:06:29","End":"11-23-2013 07:06:39"}}
{"Application":{"ProcessName":"kr.co.vcnc.android.couple","Start":"11-23-2013 07:06:49","End":"11-23-2013 07:06:59"}}
{"Call": {"Number":"+98936252####","Duration":"0","Time":"11-23-2013 07:06:29","Type":"3"}}
{"Call": {"Number":"+98936252####","Duration":"0","Time":"11-23-2013 07:06:29","Type":"3"}}
{"Location":{"Latitude":"35.7414767","Longtitude":"51.4008232","Altitude":"0.0","time":"11-23-2013 07:07:15","Accuracy":"72.738","Provider":"fused","Speed":"0.0"}}
{"Application":{"ProcessName":"com.songsoft.cleaner","Start":"11-23-2013 07:07:09","End":"11-23-2013 07:07:19"}}
{"Application":{"ProcessName":"com.lslk.sleepbot","Start":"11-23-2013 07:07:19","End":"11-23-2013 07:07:29"}}
{"Call": {"Number":"+98936252####","Duration":"0","Time":"11-23-2013 07:07:22","Type":"3"}}
{"Call": {"Number":"+98936252####","Duration":"0","Time":"11-23-2013 07:07:22","Type":"3"}}
{"Application":{"ProcessName":"com.samsung.android.providers.context","Start":"11-23-2013 07:04:19","End":"11-23-2013 07:08:10"}}
{"Application":{"ProcessName":"com.sec.android.provider.logsprovider","Start":"11-23-2013 07:04:19","End":"11-23-2013 07:08:10"}}
{"Application":{"ProcessName":"com.sec.android.app.twdvfs","Start":"11-23-2013 07:04:19","End":"11-23-2013 07:08:10"}}
{"Application":{"ProcessName":"com.android.nfc","Start":"11-23-2013 07:04:19","End":"11-23-2013 07:08:10"}}
{"Application":{"ProcessName":"com.android.settings","Start":"11-23-2013 07:04:19","End":"11-23-2013 07:08:10"}}
{"Application":{"ProcessName":"com.sec.android.app.sysscope","Start":"11-23-2013 07:04:19","End":"11-23-2013 07:08:10"}}
{"Application":{"ProcessName":"com.dropbox.android","Start":"11-23-2013 07:08:00","End":"11-23-2013 07:08:10"}}
{"Application":{"ProcessName":"com.lslk.sleepbot","Start":"11-23-2013 07:08:00","End":"11-23-2013 07:08:10"}}
{"Application":{"ProcessName":"com.sec.android.app.FlashBarService","Start":"11-23-2013 07:04:19","End":"11-23-2013 07:08:10"}}
{"Call": {"Number":"+98936252####","Duration":"0","Time":"11-23-2013 07:12:02","Type":"3"}}
{"Call": {"Number":"+98936252####","Duration":"0","Time":"11-23-2013 07:12:02","Type":"3"}}
{"Application":{"ProcessName":"com.sec.android.provider.badge","Start":"11-23-2013 07:12:40","End":"11-23-2013 07:12:50"}}
{"Application":{"ProcessName":"com.lslk.sleepbot","Start":"11-23-2013 07:12:10","End":"11-23-2013 07:12:50"}}
{"Call": {"Number":"+98936252####","Duration":"0","Time":"11-23-2013 07:12:47","Type":"3"}}
{"Call": {"Number":"+98936252####","Duration":"0","Time":"11-23-2013 07:12:47","Type":"3"}}
{"Application":{"ProcessName":"com.lslk.sleepbot","Start":"11-23-2013 07:13:40","End":"11-23-2013 07:13:50"}}
{"Call": {"Number":"+98936252####","Duration":"0","Time":"11-23-2013 07:13:42","Type":"3"}}
{"Call": {"Number":"+98936252####","Duration":"0","Time":"11-23-2013 07:13:42","Type":"3"}}
{"Application":{"ProcessName":"com.sgiggle.production","Start":"11-23-2013 07:14:20","End":"11-23-2013 07:14:30"}}
{"Application":{"ProcessName":"com.lslk.sleepbot","Start":"11-23-2013 07:14:30","End":"11-23-2013 07:14:40"}}
{"Call": {"Number":"+98936252####","Duration":"0","Time":"11-23-2013 07:14:37","Type":"3"}}
{"Call": {"Number":"+98936252####","Duration":"0","Time":"11-23-2013 07:14:37","Type":"3"}}
{"Application":{"ProcessName":"com.lslk.sleepbot","Start":"11-23-2013 07:15:00","End":"11-23-2013 07:15:41"}}
{"Call": {"Number":"+98936252####","Duration":"0","Time":"11-23-2013 07:15:37","Type":"3"}}
{"Call": {"Number":"+98936252####","Duration":"0","Time":"11-23-2013 07:15:37","Type":"3"}}
{"Call": {"Number":"+98936252####","Duration":"0","Time":"11-23-2013 07:16:28","Type":"3"}}
{"Call": {"Number":"+98936252####","Duration":"0","Time":"11-23-2013 07:16:28","Type":"3"}}
{"Application":{"ProcessName":"com.samsung.android.providers.context","Start":"11-23-2013 07:12:10","End":"11-23-2013 07:17:11"}}
{"Application":{"ProcessName":"com.sec.android.provider.logsprovider","Start":"11-23-2013 07:12:10","End":"11-23-2013 07:17:11"}}
{"Application":{"ProcessName":"com.sec.android.app.twdvfs","Start":"11-23-2013 07:12:10","End":"11-23-2013 07:17:11"}}
{"Application":{"ProcessName":"com.android.nfc","Start":"11-23-2013 07:12:10","End":"11-23-2013 07:17:11"}}
{"Application":{"ProcessName":"com.android.settings","Start":"11-23-2013 07:12:10","End":"11-23-2013 07:17:11"}}
{"Application":{"ProcessName":"com.sec.android.app.sysscope","Start":"11-23-2013 07:12:10","End":"11-23-2013 07:17:11"}}
{"Application":{"ProcessName":"com.sec.android.app.FlashBarService","Start":"11-23-2013 07:12:10","End":"11-23-2013 07:17:11"}}
{"Application":{"ProcessName":"com.viber.voip","Start":"11-23-2013 07:18:08","End":"11-23-2013 07:18:18"}}
{"Application":{"ProcessName":"com.lslk.sleepbot","Start":"11-23-2013 07:18:08","End":"11-23-2013 07:18:18"}}
{"Application":{"ProcessName":"com.samsung.android.providers.context","Start":"11-23-2013 07:18:08","End":"11-23-2013 07:18:48"}}
{"Application":{"ProcessName":"com.sec.android.provider.logsprovider","Start":"11-23-2013 07:18:08","End":"11-23-2013 07:18:48"}}
{"Application":{"ProcessName":"com.sec.android.app.twdvfs","Start":"11-23-2013 07:18:08","End":"11-23-2013 07:18:48"}}
{"Application":{"ProcessName":"com.android.nfc","Start":"11-23-2013 07:18:08","End":"11-23-2013 07:18:48"}}
{"Application":{"ProcessName":"com.android.settings","Start":"11-23-2013 07:18:08","End":"11-23-2013 07:18:48"}}
{"Application":{"ProcessName":"com.sec.android.app.sysscope","Start":"11-23-2013 07:18:08","End":"11-23-2013 07:18:48"}}
{"Application":{"ProcessName":"com.sec.android.app.launcher","Start":"11-23-2013 07:18:18","End":"11-23-2013 07:18:48"}}
{"Application":{"ProcessName":"com.sec.android.app.FlashBarService","Start":"11-23-2013 07:18:08","End":"11-23-2013 07:18:48"}}
{"Application":{"ProcessName":"com.sec.spp.push","Start":"11-23-2013 07:20:19","End":"11-23-2013 07:20:29"}}
{"Call": {"Number":"+98936252####","Duration":"0","Time":"11-23-2013 07:20:02","Type":"3"}}
{"Call": {"Number":"+98936252####","Duration":"0","Time":"11-23-2013 07:20:02","Type":"3"}}
{"Application":{"ProcessName":"com.samsung.android.providers.context","Start":"11-23-2013 07:20:09","End":"11-23-2013 07:21:06"}}
{"Application":{"ProcessName":"com.sec.android.provider.logsprovider","Start":"11-23-2013 07:20:09","End":"11-23-2013 07:21:06"}}
{"Application":{"ProcessName":"com.sec.android.app.twdvfs","Start":"11-23-2013 07:20:09","End":"11-23-2013 07:21:06"}}
{"Application":{"ProcessName":"com.android.nfc","Start":"11-23-2013 07:20:09","End":"11-23-2013 07:21:06"}}
{"Application":{"ProcessName":"com.android.settings","Start":"11-23-2013 07:20:09","End":"11-23-2013 07:21:06"}}
{"Application":{"ProcessName":"com.sec.android.app.sysscope","Start":"11-23-2013 07:20:09","End":"11-23-2013 07:21:06"}}
{"Application":{"ProcessName":"com.sec.android.app.launcher","Start":"11-23-2013 07:20:49","End":"11-23-2013 07:21:06"}}
{"Application":{"ProcessName":"com.sec.android.app.FlashBarService","Start":"11-23-2013 07:20:09","End":"11-23-2013 07:21:06"}}
{"Application":{"ProcessName":"com.sec.android.app.clockpackage","Start":"11-23-2013 07:21:17","End":"11-23-2013 07:21:27"}}
{"Application":{"ProcessName":"com.sec.android.widgetapp.alarmclock","Start":"11-23-2013 07:21:17","End":"11-23-2013 07:21:27"}}
{"Call": {"Number":"+98936252####","Duration":"0","Time":"11-23-2013 07:21:16","Type":"3"}}
{"Call": {"Number":"+98936252####","Duration":"0","Time":"11-23-2013 07:21:16","Type":"3"}}
{"Application":{"ProcessName":"com.sec.android.app.launcher","Start":"11-23-2013 07:22:07","End":"11-23-2013 07:23:00"}}
{"Call": {"Number":"+98936252####","Duration":"0","Time":"11-23-2013 07:22:58","Type":"3"}}
{"Call": {"Number":"+98936252####","Duration":"0","Time":"11-23-2013 07:22:58","Type":"3"}}
{"Application":{"ProcessName":"com.sec.android.app.launcher","Start":"11-23-2013 07:23:50","End":"11-23-2013 07:24:00"}}
{"Call": {"Number":"+98936252####","Duration":"0","Time":"11-23-2013 07:23:56","Type":"3"}}
{"Call": {"Number":"+98936252####","Duration":"0","Time":"11-23-2013 07:23:56","Type":"3"}}
{"Application":{"ProcessName":"com.sec.android.app.launcher","Start":"11-23-2013 07:24:50","End":"11-23-2013 07:25:00"}}
{"Call": {"Number":"+98936252####","Duration":"0","Time":"11-23-2013 07:24:51","Type":"3"}}
{"Call": {"Number":"+98936252####","Duration":"0","Time":"11-23-2013 07:24:51","Type":"3"}}
{"Application":{"ProcessName":"com.sec.android.app.launcher","Start":"11-23-2013 07:25:30","End":"11-23-2013 07:25:40"}}
{"Application":{"ProcessName":"com.lslk.sleepbot","Start":"11-23-2013 07:26:00","End":"11-23-2013 07:26:10"}}
{"Call": {"Number":"+98936252####","Duration":"0","Time":"11-23-2013 07:25:35","Type":"3"}}
{"Call": {"Number":"+98936252####","Duration":"0","Time":"11-23-2013 07:25:35","Type":"3"}}
{"Application":{"ProcessName":"com.samsung.android.providers.context","Start":"11-23-2013 07:21:17","End":"11-23-2013 07:26:20"}}
{"Application":{"ProcessName":"com.sec.android.provider.logsprovider","Start":"11-23-2013 07:21:17","End":"11-23-2013 07:26:20"}}
{"Application":{"ProcessName":"com.sec.android.app.twdvfs","Start":"11-23-2013 07:21:17","End":"11-23-2013 07:26:20"}}
{"Application":{"ProcessName":"com.android.nfc","Start":"11-23-2013 07:21:17","End":"11-23-2013 07:26:20"}}
{"Application":{"ProcessName":"com.android.settings","Start":"11-23-2013 07:21:17","End":"11-23-2013 07:26:20"}}
{"Application":{"ProcessName":"com.sec.android.app.sysscope","Start":"11-23-2013 07:21:17","End":"11-23-2013 07:26:20"}}
{"Application":{"ProcessName":"com.sec.android.app.FlashBarService","Start":"11-23-2013 07:21:17","End":"11-23-2013 07:26:20"}}
{"Application":{"ProcessName":"com.samsung.android.providers.context","Start":"11-23-2013 07:26:20","End":"11-23-2013 07:26:33"}}
{"Application":{"ProcessName":"com.sec.android.provider.logsprovider","Start":"11-23-2013 07:26:20","End":"11-23-2013 07:26:33"}}
{"Application":{"ProcessName":"com.sec.android.app.twdvfs","Start":"11-23-2013 07:26:20","End":"11-23-2013 07:26:33"}}
{"Application":{"ProcessName":"com.android.nfc","Start":"11-23-2013 07:26:20","End":"11-23-2013 07:26:33"}}
{"Application":{"ProcessName":"com.android.settings","Start":"11-23-2013 07:26:20","End":"11-23-2013 07:26:33"}}
{"Application":{"ProcessName":"com.sec.android.app.sysscope","Start":"11-23-2013 07:26:20","End":"11-23-2013 07:26:33"}}
{"Application":{"ProcessName":"com.sec.android.app.launcher","Start":"11-23-2013 07:26:20","End":"11-23-2013 07:26:33"}}
{"Application":{"ProcessName":"com.sec.android.app.FlashBarService","Start":"11-23-2013 07:26:20","End":"11-23-2013 07:26:33"}}
{"Application":{"ProcessName":"com.sec.android.app.clockpackage","Start":"11-23-2013 07:29:46","End":"11-23-2013 07:29:56"}}
{"Application":{"ProcessName":"com.sec.android.widgetapp.alarmclock","Start":"11-23-2013 07:29:46","End":"11-23-2013 07:29:56"}}
{"Application":{"ProcessName":"com.samsung.android.providers.context","Start":"11-23-2013 07:29:46","End":"11-23-2013 07:30:17"}}
{"Application":{"ProcessName":"com.sec.android.provider.logsprovider","Start":"11-23-2013 07:29:46","End":"11-23-2013 07:30:17"}}
{"Application":{"ProcessName":"com.sec.android.app.twdvfs","Start":"11-23-2013 07:29:46","End":"11-23-2013 07:30:17"}}
{"Application":{"ProcessName":"com.android.nfc","Start":"11-23-2013 07:29:46","End":"11-23-2013 07:30:17"}}
{"Application":{"ProcessName":"com.android.settings","Start":"11-23-2013 07:29:46","End":"11-23-2013 07:30:17"}}
{"Application":{"ProcessName":"com.sec.android.app.sysscope","Start":"11-23-2013 07:29:46","End":"11-23-2013 07:30:17"}}
{"Application":{"ProcessName":"com.lslk.sleepbot","Start":"11-23-2013 07:30:07","End":"11-23-2013 07:30:17"}}
{"Application":{"ProcessName":"com.sec.android.app.FlashBarService","Start":"11-23-2013 07:29:46","End":"11-23-2013 07:30:17"}}
{"Call": {"Number":"+98936252####","Duration":"35","Time":"11-23-2013 07:29:45","Type":"1"}}
{"Call": {"Number":"+98936252####","Duration":"35","Time":"11-23-2013 07:29:45","Type":"1"}}
{"Application":{"ProcessName":"com.samsung.android.providers.context","Start":"11-23-2013 07:30:55","End":"11-23-2013 07:31:21"}}
{"Application":{"ProcessName":"com.sec.android.provider.logsprovider","Start":"11-23-2013 07:30:55","End":"11-23-2013 07:31:21"}}
{"Application":{"ProcessName":"com.sec.android.app.twdvfs","Start":"11-23-2013 07:30:55","End":"11-23-2013 07:31:21"}}
{"Application":{"ProcessName":"com.android.nfc","Start":"11-23-2013 07:30:55","End":"11-23-2013 07:31:21"}}
{"Application":{"ProcessName":"com.android.settings","Start":"11-23-2013 07:30:55","End":"11-23-2013 07:31:21"}}
{"Application":{"ProcessName":"com.sec.android.app.sysscope","Start":"11-23-2013 07:30:55","End":"11-23-2013 07:31:21"}}
{"Application":{"ProcessName":"com.sec.android.app.launcher","Start":"11-23-2013 07:30:55","End":"11-23-2013 07:31:21"}}
{"Application":{"ProcessName":"com.sec.android.app.FlashBarService","Start":"11-23-2013 07:30:55","End":"11-23-2013 07:31:21"}}
{"Application":{"ProcessName":"com.sec.android.app.launcher","Start":"11-23-2013 07:35:11","End":"11-23-2013 07:35:21"}}
{"Call": {"Number":"+98936252####","Duration":"35","Time":"11-23-2013 07:29:45","Type":"1"}}
{"Call": {"Number":"+98936252####","Duration":"35","Time":"11-23-2013 07:29:45","Type":"1"}}
{"Call": {"Number":"+98936252####","Duration":"35","Time":"11-23-2013 07:29:45","Type":"1"}}
{"Call": {"Number":"+98936252####","Duration":"35","Time":"11-23-2013 07:29:45","Type":"1"}}
{"Call": {"Number":"+98936252####","Duration":"35","Time":"11-23-2013 07:29:45","Type":"1"}}
{"Call": {"Number":"+98936252####","Duration":"35","Time":"11-23-2013 07:29:45","Type":"1"}}
{"Call": {"Number":"+98936252####","Duration":"35","Time":"11-23-2013 07:29:45","Type":"1"}}
{"Call": {"Number":"+98936252####","Duration":"35","Time":"11-23-2013 07:29:45","Type":"1"}}
