{"Location":{"Latitude":"35.6620759","Longtitude":"51.4507151","Altitude":"0.0","time":"12-29-2013 00:37:49","Accuracy":"1112.0","Provider":"network"}}
{"Application":{"ProcessName":"com.android.providers.telephony","Start":"12-29-2013 00:37:38","End":"12-29-2013 00:37:58"}}
{"Application":{"ProcessName":"com.google.android.apps.maps:GoogleLocationService","Start":"12-29-2013 00:38:08","End":"12-29-2013 00:38:18"}}
{"Location":{"Latitude":"35.6640969","Longtitude":"51.4514274","Altitude":"0.0","time":"12-29-2013 00:38:34","Accuracy":"1112.0","Provider":"network"}}
{"Location":{"Latitude":"35.6651258","Longtitude":"51.4497987","Altitude":"0.0","time":"12-29-2013 00:39:19","Accuracy":"1183.0","Provider":"network"}}
{"Application":{"ProcessName":"com.tencent.mm","Start":"12-29-2013 00:37:38","End":"12-29-2013 00:39:59"}}
{"Location":{"Latitude":"35.6610838","Longtitude":"51.448374","Altitude":"0.0","time":"12-29-2013 00:41:34","Accuracy":"1114.0","Provider":"network"}}
{"Application":{"ProcessName":"com.tencent.mm","Start":"12-29-2013 00:40:09","End":"12-29-2013 00:42:09"}}
{"Application":{"ProcessName":"com.android.htcdialer","Start":"12-29-2013 00:37:38","End":"12-29-2013 00:42:09"}}
{"Location":{"Latitude":"35.6651258","Longtitude":"51.4497987","Altitude":"0.0","time":"12-29-2013 00:42:19","Accuracy":"1183.0","Provider":"network"}}
{"Application":{"ProcessName":"com.tencent.mm","Start":"12-29-2013 00:50:40","End":"12-29-2013 00:50:50"}}
{"Location":{"Latitude":"35.663068","Longtitude":"51.4530562","Altitude":"0.0","time":"12-29-2013 00:51:20","Accuracy":"1112.0","Provider":"network"}}
{"Application":{"ProcessName":"com.android.htcdialer","Start":"12-29-2013 00:50:40","End":"12-29-2013 00:55:40"}}
{"Application":{"ProcessName":"com.tencent.mm","Start":"12-29-2013 00:50:50","End":"12-29-2013 00:55:50"}}
{"Application":{"ProcessName":"com.tencent.mm","Start":"12-29-2013 00:55:50","End":"12-29-2013 00:58:54"}}
{"Application":{"ProcessName":"com.android.htcdialer","Start":"12-29-2013 00:55:40","End":"12-29-2013 00:58:54"}}
{"Location":{"Latitude":"35.6651258","Longtitude":"51.4497987","Altitude":"0.0","time":"12-29-2013 01:00:20","Accuracy":"1183.0","Provider":"network"}}
{"Location":{"Latitude":"35.663068","Longtitude":"51.4530562","Altitude":"0.0","time":"12-29-2013 01:01:05","Accuracy":"1112.0","Provider":"network"}}
{"Application":{"ProcessName":"kik.android","Start":"12-29-2013 01:04:36","End":"12-29-2013 01:04:37"}}
{"Application":{"ProcessName":"com.tencent.mm","Start":"12-29-2013 00:59:55","End":"12-29-2013 01:04:56"}}
{"Application":{"ProcessName":"com.android.htcdialer","Start":"12-29-2013 00:59:55","End":"12-29-2013 01:04:56"}}
{"Location":{"Latitude":"35.6651254","Longtitude":"51.4497935","Altitude":"0.0","time":"12-29-2013 13:38:42","Accuracy":"1182.0","Provider":"network"}}
{"Application":{"ProcessName":"com.android.providers.telephony","Start":"12-29-2013 13:38:31","End":"12-29-2013 13:38:51"}}
{"Application":{"ProcessName":"com.tencent.mm","Start":"12-29-2013 13:38:31","End":"12-29-2013 13:39:51"}}
{"Application":{"ProcessName":"com.android.htcdialer","Start":"12-29-2013 13:38:31","End":"12-29-2013 13:39:51"}}
{"Location":{"Latitude":"35.6630715","Longtitude":"51.4530491","Altitude":"0.0","time":"12-29-2013 13:43:58","Accuracy":"1111.0","Provider":"network"}}
{"Application":{"ProcessName":"com.tencent.mm","Start":"12-29-2013 13:43:20","End":"12-29-2013 13:48:55"}}
{"Application":{"ProcessName":"com.android.htcdialer","Start":"12-29-2013 13:43:20","End":"12-29-2013 13:48:55"}}
{"Location":{"Latitude":"35.6640984","Longtitude":"51.4514213","Altitude":"0.0","time":"12-29-2013 13:50:43","Accuracy":"1111.0","Provider":"network"}}
{"Location":{"Latitude":"35.6651254","Longtitude":"51.4497935","Altitude":"0.0","time":"12-29-2013 13:51:28","Accuracy":"1182.0","Provider":"network"}}
{"Application":{"ProcessName":"com.tencent.mm","Start":"12-29-2013 13:50:16","End":"12-29-2013 13:55:06"}}
{"Application":{"ProcessName":"com.android.htcdialer","Start":"12-29-2013 13:50:16","End":"12-29-2013 13:55:06"}}
{"Location":{"Latitude":"35.6638758","Longtitude":"51.4454433","Altitude":"0.0","time":"12-29-2013 13:55:13","Accuracy":"1248.0","Provider":"network"}}
{"Application":{"ProcessName":"com.tencent.mm","Start":"12-29-2013 13:55:26","End":"12-29-2013 13:57:47"}}
{"Application":{"ProcessName":"com.android.htcdialer","Start":"12-29-2013 13:55:16","End":"12-29-2013 13:57:57"}}
{"Location":{"Latitude":"35.6666039","Longtitude":"51.4434392","Altitude":"0.0","time":"12-29-2013 14:01:22","Accuracy":"1143.0","Provider":"network"}}
{"Application":{"ProcessName":"com.tencent.mm","Start":"12-29-2013 14:01:06","End":"12-29-2013 14:01:51"}}
{"Application":{"ProcessName":"com.android.htcdialer","Start":"12-29-2013 14:00:15","End":"12-29-2013 14:01:51"}}
{"Application":{"ProcessName":"com.android.htcdialer","Start":"12-29-2013 14:02:08","End":"12-29-2013 14:02:27"}}
{"Application":{"ProcessName":"com.tencent.mm","Start":"12-29-2013 14:02:40","End":"12-29-2013 14:03:30"}}
{"Application":{"ProcessName":"com.android.htcdialer","Start":"12-29-2013 14:02:40","End":"12-29-2013 14:04:15"}}
{"Location":{"Latitude":"35.6860479","Longtitude":"51.4326176","Altitude":"0.0","time":"12-29-2013 14:17:20","Accuracy":"1222.0","Provider":"network"}}
{"Application":{"ProcessName":"com.android.providers.telephony","Start":"12-29-2013 14:24:06","End":"12-29-2013 14:24:16"}}
{"Application":{"ProcessName":"com.android.providers.telephony","Start":"12-29-2013 14:24:17","End":"12-29-2013 14:24:47"}}
{"Application":{"ProcessName":"com.android.providers.telephony","Start":"12-29-2013 14:25:27","End":"12-29-2013 14:25:37"}}
{"SMS":{"Address":"+98912770####","type":"2","date":"12-29-2013 14:27:02","body":"ANONYMIZED","Type":"2", "metadata": {"name": "f abji"}}}
{"Application":{"ProcessName":"com.android.mms","Start":"12-29-2013 14:24:06","End":"12-29-2013 14:27:27"}}
{"Application":{"ProcessName":"com.android.providers.telephony","Start":"12-29-2013 14:25:57","End":"12-29-2013 14:27:27"}}
{"Application":{"ProcessName":"com.htc.android.htcime:provider","Start":"12-29-2013 14:27:27","End":"12-29-2013 14:27:27"}}
{"Application":{"ProcessName":"com.htc","Start":"12-29-2013 14:27:27","End":"12-29-2013 14:27:37"}}
{"SMS":{"Address":"+98930837####","type":"2","date":"12-29-2013 14:27:42","body":"ANONYMIZED","Type":"2", "metadata": {"name": "mamad dadash5"}}}
{"Application":{"ProcessName":"com.android.providers.telephony","Start":"12-29-2013 14:27:37","End":"12-29-2013 14:28:17"}}
{"Application":{"ProcessName":"com.android.mms","Start":"12-29-2013 14:27:37","End":"12-29-2013 14:28:27"}}
{"Application":{"ProcessName":"com.htc.android.htcime:provider","Start":"12-29-2013 14:27:37","End":"12-29-2013 14:28:27"}}
{"Application":{"ProcessName":"com.tencent.mm","Start":"12-29-2013 14:28:27","End":"12-29-2013 14:28:37"}}
{"Application":{"ProcessName":"com.android.htcdialer","Start":"12-29-2013 14:23:46","End":"12-29-2013 14:28:37"}}
{"SMS":{"Address":"0935757####","type":"2","date":"12-29-2013 14:28:25","body":"ANONYMIZED","Type":"2", "metadata": {"name": "shahrokh"}}}
{"SMS":{"Address":"+98912770####","type":"1","date":"12-29-2013 14:29:06","body":"ANONYMIZED","Type":"1", "metadata": {"name": "f abji"}}}
{"Location":{"Latitude":"35.6999434","Longtitude":"51.4193299","Altitude":"0.0","time":"12-29-2013 14:29:50","Accuracy":"1308.0","Provider":"network"}}
{"SMS":{"Address":"+98912770####","type":"2","date":"12-29-2013 14:30:03","body":"ANONYMIZED","Type":"2", "metadata": {"name": "f abji"}}}
{"Location":{"Latitude":"35.7020355","Longtitude":"51.4201915","Altitude":"0.0","time":"12-29-2013 14:30:32","Accuracy":"1280.0","Provider":"network"}}
{"Application":{"ProcessName":"com.android.mms","Start":"12-29-2013 14:29:17","End":"12-29-2013 14:30:37"}}
{"Application":{"ProcessName":"com.android.providers.telephony","Start":"12-29-2013 14:29:17","End":"12-29-2013 14:30:37"}}
{"Application":{"ProcessName":"com.htc.android.htcime:provider","Start":"12-29-2013 14:29:17","End":"12-29-2013 14:30:37"}}
{"Application":{"ProcessName":"com.android.htcdialer","Start":"12-29-2013 14:29:17","End":"12-29-2013 14:30:37"}}
{"Location":{"Latitude":"35.760919","Longtitude":"51.4035079","Altitude":"0.0","time":"12-29-2013 15:17:56","Accuracy":"1225.0","Provider":"network"}}
{"Application":{"ProcessName":"com.tencent.mm","Start":"12-29-2013 15:18:12","End":"12-29-2013 15:18:39"}}
{"Application":{"ProcessName":"com.android.htcdialer","Start":"12-29-2013 15:17:59","End":"12-29-2013 15:18:42"}}
{"SMS":{"Address":"+98912770####","type":"1","date":"12-29-2013 14:31:40","body":"ANONYMIZED","Type":"1", "metadata": {"name": "f abji"}}}
{"SMS":{"Address":"+98935255####","type":"1","date":"12-29-2013 15:22:47","body":"ANONYMIZED","Type":"1", "metadata": {"name": "yahyapur shager"}}}
{"Application":{"ProcessName":"com.tencent.mm","Start":"12-29-2013 15:21:44","End":"12-29-2013 15:22:47"}}
{"Location":{"Latitude":"35.7593439","Longtitude":"51.399543","Altitude":"0.0","time":"12-29-2013 15:22:58","Accuracy":"1195.0","Provider":"network"}}
{"Application":{"ProcessName":"com.android.mms","Start":"12-29-2013 15:22:47","End":"12-29-2013 15:23:07"}}
{"Application":{"ProcessName":"com.android.providers.telephony","Start":"12-29-2013 15:22:47","End":"12-29-2013 15:23:07"}}
{"Application":{"ProcessName":"com.android.htcdialer","Start":"12-29-2013 15:21:37","End":"12-29-2013 15:23:16"}}
{"Location":{"Latitude":"35.760919","Longtitude":"51.4035079","Altitude":"0.0","time":"12-29-2013 15:25:55","Accuracy":"1225.0","Provider":"network"}}
{"Application":{"ProcessName":"com.tencent.mm","Start":"12-29-2013 15:25:47","End":"12-29-2013 15:26:17"}}
{"Application":{"ProcessName":"com.android.htcdialer","Start":"12-29-2013 15:25:27","End":"12-29-2013 15:26:17"}}
{"Application":{"ProcessName":"com.tencent.mm","Start":"12-29-2013 15:50:41","End":"12-29-2013 15:52:19"}}
{"Application":{"ProcessName":"com.android.htcdialer","Start":"12-29-2013 15:50:38","End":"12-29-2013 15:52:36"}}
{"Application":{"ProcessName":"com.htc.weather.bg","Start":"12-29-2013 16:14:24","End":"12-29-2013 16:14:31"}}
{"Application":{"ProcessName":"com.htc.lockscreen","Start":"12-29-2013 16:14:24","End":"12-29-2013 16:14:31"}}
{"Application":{"ProcessName":"com.tencent.mm","Start":"12-29-2013 16:14:31","End":"12-29-2013 16:16:27"}}
{"Application":{"ProcessName":"com.android.htcdialer","Start":"12-29-2013 16:14:24","End":"12-29-2013 16:16:27"}}
{"Location":{"Latitude":"35.7593439","Longtitude":"51.399543","Altitude":"0.0","time":"12-29-2013 16:16:53","Accuracy":"1195.0","Provider":"network"}}
{"Application":{"ProcessName":"com.android.htcdialer","Start":"12-29-2013 16:22:12","End":"12-29-2013 16:22:43"}}
{"SMS":{"Address":"+98912614####","type":"1","date":"12-29-2013 17:15:23","body":"ANONYMIZED","Type":"1"}}
{"Application":{"ProcessName":"com.htc.calendar","Start":"12-29-2013 17:15:47","End":"12-29-2013 17:15:47"}}
{"Location":{"Latitude":"35.7593439","Longtitude":"51.399543","Altitude":"0.0","time":"12-29-2013 17:15:47","Accuracy":"1195.0","Provider":"network"}}
{"Application":{"ProcessName":"com.android.mms","Start":"12-29-2013 17:15:47","End":"12-29-2013 17:15:57"}}
{"Application":{"ProcessName":"com.android.htcdialer","Start":"12-29-2013 17:15:47","End":"12-29-2013 17:15:57"}}
{"Application":{"ProcessName":"com.android.providers.telephony","Start":"12-29-2013 17:15:47","End":"12-29-2013 17:15:57"}}
{"Application":{"ProcessName":"com.android.providers.telephony","Start":"12-29-2013 17:18:18","End":"12-29-2013 17:18:18"}}
{"Location":{"Latitude":"35.760919","Longtitude":"51.4035079","Altitude":"0.0","time":"12-29-2013 17:18:48","Accuracy":"1225.0","Provider":"network"}}
{"Application":{"ProcessName":"com.android.htcdialer","Start":"12-29-2013 17:18:18","End":"12-29-2013 17:19:51"}}
{"Application":{"ProcessName":"com.htc.flexnet","Start":"12-29-2013 17:18:18","End":"12-29-2013 17:19:51"}}
{"Location":{"Latitude":"35.7605281","Longtitude":"51.4006525","Altitude":"0.0","time":"12-29-2013 17:22:33","Accuracy":"1193.0","Provider":"network"}}
{"Location":{"Latitude":"35.7593439","Longtitude":"51.399543","Altitude":"0.0","time":"12-29-2013 17:27:49","Accuracy":"1195.0","Provider":"network"}}
{"SMS":{"Address":"+98935356####","type":"1","date":"12-29-2013 17:31:42","body":"ANONYMIZED","Type":"1", "metadata": {"name": "ali rahimi"}}}
{"Application":{"ProcessName":"com.android.htcdialer","Start":"12-29-2013 17:30:35","End":"12-29-2013 17:31:31"}}
{"Application":{"ProcessName":"com.android.mms","Start":"12-29-2013 17:31:51","End":"12-29-2013 17:32:01"}}
{"Application":{"ProcessName":"com.android.providers.telephony","Start":"12-29-2013 17:31:51","End":"12-29-2013 17:32:01"}}
{"Call": {"Number":"+98919306####","Duration":"0","Time":"12-29-2013 17:32:01","Type":"2"}}
{"Call": {"Number":"+98919306####","Duration":"0","Time":"12-29-2013 17:32:01","Type":"2"}}
{"Call": {"Number":"+98919306####","Duration":"0","Time":"12-29-2013 17:32:01","Type":"2"}}
{"Application":{"ProcessName":"com.android.htcdialer","Start":"12-29-2013 17:31:41","End":"12-29-2013 17:32:11"}}
{"Location":{"Latitude":"35.760919","Longtitude":"51.4035079","Altitude":"0.0","time":"12-29-2013 17:32:19","Accuracy":"1225.0","Provider":"network"}}
{"Call": {"Number":"+98935356####","Duration":"39","Time":"12-29-2013 17:32:08","Type":"2"}}
{"Call": {"Number":"+98935356####","Duration":"39","Time":"12-29-2013 17:32:08","Type":"2"}}
{"Call": {"Number":"+98935356####","Duration":"39","Time":"12-29-2013 17:32:08","Type":"2"}}
{"Application":{"ProcessName":"com.android.htcdialer","Start":"12-29-2013 17:33:02","End":"12-29-2013 17:34:12"}}
{"Application":{"ProcessName":"com.psiphon3","Start":"12-29-2013 17:33:12","End":"12-29-2013 17:34:12"}}
{"Application":{"ProcessName":"com.tencent.mm","Start":"12-29-2013 17:35:23","End":"12-29-2013 17:35:33"}}
{"Application":{"ProcessName":"com.psiphon3","Start":"12-29-2013 17:35:43","End":"12-29-2013 17:37:14"}}
{"Location":{"Latitude":"35.7632167","Longtitude":"51.4019409","Altitude":"0.0","time":"12-29-2013 17:37:36","Accuracy":"1220.0","Provider":"network"}}
{"Application":{"ProcessName":"com.tencent.mm","Start":"12-29-2013 17:37:14","End":"12-29-2013 17:38:21"}}
{"Application":{"ProcessName":"com.android.htcdialer","Start":"12-29-2013 17:35:13","End":"12-29-2013 17:38:21"}}
{"Application":{"ProcessName":"com.tencent.mm","Start":"12-29-2013 17:49:12","End":"12-29-2013 17:49:32"}}
{"Application":{"ProcessName":"com.android.providers.telephony","Start":"12-29-2013 17:49:32","End":"12-29-2013 17:49:36"}}
{"Location":{"Latitude":"35.7605281","Longtitude":"51.4006525","Altitude":"0.0","time":"12-29-2013 17:49:38","Accuracy":"1193.0","Provider":"network"}}
{"Application":{"ProcessName":"com.android.mms","Start":"12-29-2013 17:49:32","End":"12-29-2013 17:49:54"}}
{"Application":{"ProcessName":"com.android.providers.telephony","Start":"12-29-2013 17:49:42","End":"12-29-2013 17:49:54"}}
{"Application":{"ProcessName":"com.htc.android.htcime:provider","Start":"12-29-2013 17:49:34","End":"12-29-2013 17:49:54"}}
{"Location":{"Latitude":"35.7620678","Longtitude":"51.4027244","Altitude":"0.0","time":"12-29-2013 17:50:23","Accuracy":"1220.0","Provider":"network"}}
{"Location":{"Latitude":"35.7632167","Longtitude":"51.4019409","Altitude":"0.0","time":"12-29-2013 17:51:08","Accuracy":"1220.0","Provider":"network"}}
{"Application":{"ProcessName":"com.tencent.mm","Start":"12-29-2013 17:49:54","End":"12-29-2013 17:52:12"}}
{"Application":{"ProcessName":"com.android.htcdialer","Start":"12-29-2013 17:49:06","End":"12-29-2013 17:52:12"}}
{"Application":{"ProcessName":"com.tencent.mm:tools","Start":"12-29-2013 17:57:21","End":"12-29-2013 17:57:23"}}
{"Location":{"Latitude":"35.760919","Longtitude":"51.4035079","Altitude":"0.0","time":"12-29-2013 18:06:55","Accuracy":"1225.0","Provider":"network"}}
{"Application":{"ProcessName":"com.android.providers.telephony","Start":"12-29-2013 18:06:55","End":"12-29-2013 18:07:05"}}
{"Application":{"ProcessName":"com.mobiliha.badesaba","Start":"12-29-2013 18:07:25","End":"12-29-2013 18:07:35"}}
{"Application":{"ProcessName":"com.viber.voip","Start":"12-29-2013 18:06:55","End":"12-29-2013 18:09:15"}}
{"Application":{"ProcessName":"com.tencent.mm","Start":"12-29-2013 18:09:15","End":"12-29-2013 18:09:25"}}
{"Location":{"Latitude":"35.7593439","Longtitude":"51.399543","Altitude":"0.0","time":"12-29-2013 18:09:31","Accuracy":"1195.0","Provider":"network"}}
{"Application":{"ProcessName":"com.android.htcdialer","Start":"12-29-2013 18:06:55","End":"12-29-2013 18:10:05"}}
{"Application":{"ProcessName":"com.viber.voip","Start":"12-29-2013 18:09:25","End":"12-29-2013 18:10:05"}}
{"Location":{"Latitude":"35.762293","Longtitude":"51.398308","Altitude":"0.0","time":"12-29-2013 18:11:05","Accuracy":"1302.0","Provider":"network"}}
{"Application":{"ProcessName":"com.viber.voip","Start":"12-29-2013 18:10:57","End":"12-29-2013 18:11:47"}}
{"Location":{"Latitude":"35.760919","Longtitude":"51.4035079","Altitude":"0.0","time":"12-29-2013 18:11:50","Accuracy":"1225.0","Provider":"network"}}
{"Application":{"ProcessName":"com.google.android.partnersetup","Start":"12-29-2013 18:11:58","End":"12-29-2013 18:11:58"}}
{"Application":{"ProcessName":"com.android.chrome","Start":"12-29-2013 18:11:58","End":"12-29-2013 18:14:58"}}
{"Application":{"ProcessName":"com.android.chrome:sandboxed_process0","Start":"12-29-2013 18:11:58","End":"12-29-2013 18:14:58"}}
{"Application":{"ProcessName":"com.tencent.mm","Start":"12-29-2013 18:14:58","End":"12-29-2013 18:15:18"}}
{"Application":{"ProcessName":"com.android.providers.telephony","Start":"12-29-2013 18:15:18","End":"12-29-2013 18:15:28"}}
{"Application":{"ProcessName":"com.android.htcdialer","Start":"12-29-2013 18:10:57","End":"12-29-2013 18:15:38"}}
{"Application":{"ProcessName":"com.viber.voip","Start":"12-29-2013 18:15:18","End":"12-29-2013 18:15:38"}}
{"Application":{"ProcessName":"com.android.htcdialer","Start":"12-29-2013 18:15:48","End":"12-29-2013 18:16:08"}}
{"Location":{"Latitude":"35.7605281","Longtitude":"51.4006525","Altitude":"0.0","time":"12-29-2013 18:16:09","Accuracy":"1193.0","Provider":"network"}}
{"Application":{"ProcessName":"com.tencent.mm","Start":"12-29-2013 18:30:31","End":"12-29-2013 18:31:42"}}
{"Application":{"ProcessName":"com.android.htcdialer","Start":"12-29-2013 18:30:31","End":"12-29-2013 18:31:42"}}
{"Location":{"Latitude":"35.7584814","Longtitude":"51.4031497","Altitude":"0.0","time":"12-29-2013 19:12:39","Accuracy":"1476.0","Provider":"network"}}
{"Application":{"ProcessName":"com.android.providers.telephony","Start":"12-29-2013 19:12:29","End":"12-29-2013 19:12:49"}}
{"Application":{"ProcessName":"com.tencent.mm","Start":"12-29-2013 19:12:29","End":"12-29-2013 19:13:09"}}
{"Location":{"Latitude":"35.7565191","Longtitude":"51.4024284","Altitude":"0.0","time":"12-29-2013 19:13:24","Accuracy":"1310.0","Provider":"network"}}
{"Application":{"ProcessName":"com.android.chrome","Start":"12-29-2013 19:13:09","End":"12-29-2013 19:13:59"}}
{"Application":{"ProcessName":"com.android.chrome:sandboxed_process0","Start":"12-29-2013 19:13:09","End":"12-29-2013 19:13:59"}}
{"Application":{"ProcessName":"com.tencent.mm","Start":"12-29-2013 19:14:09","End":"12-29-2013 19:14:59"}}
{"Application":{"ProcessName":"com.android.htcdialer","Start":"12-29-2013 19:12:29","End":"12-29-2013 19:14:59"}}
{"Location":{"Latitude":"35.7584814","Longtitude":"51.4031497","Altitude":"0.0","time":"12-29-2013 19:17:54","Accuracy":"1476.0","Provider":"network"}}
{"Application":{"ProcessName":"com.tencent.mm","Start":"12-29-2013 19:15:39","End":"12-29-2013 19:18:07"}}
{"Application":{"ProcessName":"com.android.htcdialer","Start":"12-29-2013 19:15:39","End":"12-29-2013 19:18:07"}}
{"Application":{"ProcessName":"com.tencent.mm","Start":"12-29-2013 19:19:53","End":"12-29-2013 19:21:17"}}
{"Application":{"ProcessName":"com.android.htcdialer","Start":"12-29-2013 19:19:43","End":"12-29-2013 19:21:17"}}
{"Location":{"Latitude":"35.7576117","Longtitude":"51.4075321","Altitude":"0.0","time":"12-29-2013 19:23:54","Accuracy":"1509.0","Provider":"network"}}
{"Application":{"ProcessName":"jp.naver.line.android","Start":"12-29-2013 19:26:40","End":"12-29-2013 19:26:40"}}
{"Application":{"ProcessName":"com.htc.weather.bg","Start":"12-29-2013 19:26:40","End":"12-29-2013 19:26:40"}}
{"Application":{"ProcessName":"com.htc.flexnet","Start":"12-29-2013 19:26:40","End":"12-29-2013 19:26:50"}}
{"Location":{"Latitude":"35.7584814","Longtitude":"51.4031497","Altitude":"0.0","time":"12-29-2013 19:26:55","Accuracy":"1476.0","Provider":"network"}}
{"Application":{"ProcessName":"com.tencent.mm","Start":"12-29-2013 19:26:50","End":"12-29-2013 19:27:00"}}
{"Application":{"ProcessName":"com.android.htcdialer","Start":"12-29-2013 19:26:40","End":"12-29-2013 19:27:12"}}
{"Application":{"ProcessName":"com.android.htcdialer","Start":"12-29-2013 19:30:20","End":"12-29-2013 19:30:30"}}
{"Location":{"Latitude":"35.7576117","Longtitude":"51.4075321","Altitude":"0.0","time":"12-29-2013 19:30:40","Accuracy":"1509.0","Provider":"network"}}
{"Call": {"Number":"0936437####","Duration":"0","Time":"12-29-2013 19:32:01","Type":"2"}}
{"Application":{"ProcessName":"com.htc.bg","Start":"12-29-2013 19:32:10","End":"12-29-2013 19:32:20"}}
{"Application":{"ProcessName":"com.tencent.mm:push","Start":"12-29-2013 19:32:20","End":"12-29-2013 19:32:31"}}
{"Application":{"ProcessName":"com.android.htcdialer","Start":"12-29-2013 19:31:50","End":"12-29-2013 19:32:31"}}
{"Application":{"ProcessName":"com.tencent.mm:push","Start":"12-29-2013 19:32:33","End":"12-29-2013 19:32:34"}}
{"Call": {"Number":"0936437####","Duration":"0","Time":"12-29-2013 19:32:27","Type":"2"}}
{"Application":{"ProcessName":"com.android.settings:remote","Start":"12-29-2013 19:32:34","End":"12-29-2013 19:32:42"}}
{"Application":{"ProcessName":"com.android.htcdialer","Start":"12-29-2013 19:32:33","End":"12-29-2013 19:32:53"}}
{"Location":{"Latitude":"35.7564926","Longtitude":"51.4088051","Altitude":"0.0","time":"12-29-2013 19:32:56","Accuracy":"1293.0","Provider":"network"}}
{"Call": {"Number":"0935757####","Duration":"1","Time":"12-29-2013 19:32:47","Type":"2"}}
{"Application":{"ProcessName":"com.tencent.mm:push","Start":"12-29-2013 19:33:35","End":"12-29-2013 19:33:35"}}
{"Application":{"ProcessName":"com.tencent.mm","Start":"12-29-2013 19:33:35","End":"12-29-2013 19:33:45"}}
{"Application":{"ProcessName":"com.android.htcdialer","Start":"12-29-2013 19:33:35","End":"12-29-2013 19:33:45"}}
{"Location":{"Latitude":"35.7561883","Longtitude":"51.4064635","Altitude":"0.0","time":"12-29-2013 19:33:49","Accuracy":"1253.0","Provider":"network"}}
{"Location":{"Latitude":"35.7572423","Longtitude":"51.4072119","Altitude":"0.0","time":"12-29-2013 19:34:29","Accuracy":"1320.0","Provider":"network"}}
{"Location":{"Latitude":"35.7568675","Longtitude":"51.4080085","Altitude":"0.0","time":"12-29-2013 19:35:11","Accuracy":"1293.0","Provider":"network"}}
{"Application":{"ProcessName":"com.android.htcdialer","Start":"12-29-2013 19:35:03","End":"12-29-2013 19:35:14"}}
{"Call": {"Number":"+98935255####","Duration":"37","Time":"12-29-2013 19:35:01","Type":"1"}}
{"Location":{"Latitude":"35.7564926","Longtitude":"51.4088051","Altitude":"0.0","time":"12-29-2013 19:35:59","Accuracy":"1293.0","Provider":"network"}}
{"Call": {"Number":"0935757####","Duration":"0","Time":"12-29-2013 19:35:52","Type":"2"}}
{"Location":{"Latitude":"35.7602855","Longtitude":"51.4248982","Altitude":"0.0","time":"12-29-2013 19:53:29","Accuracy":"1546.0","Provider":"network"}}
{"Application":{"ProcessName":"com.tencent.mm","Start":"12-29-2013 19:57:00","End":"12-29-2013 19:57:10"}}
{"Application":{"ProcessName":"com.android.htcdialer","Start":"12-29-2013 19:57:00","End":"12-29-2013 19:57:10"}}
{"Location":{"Latitude":"35.7587383","Longtitude":"51.4281207","Altitude":"0.0","time":"12-29-2013 19:59:36","Accuracy":"1409.0","Provider":"network"}}
{"Location":{"Latitude":"35.7573646","Longtitude":"51.4315491","Altitude":"0.0","time":"12-29-2013 20:00:35","Accuracy":"1409.0","Provider":"network"}}
{"Application":{"ProcessName":"com.tencent.mm","Start":"12-29-2013 20:00:30","End":"12-29-2013 20:00:40"}}
{"Application":{"ProcessName":"com.android.htcdialer","Start":"12-29-2013 20:00:30","End":"12-29-2013 20:00:40"}}
{"Location":{"Latitude":"35.7559909","Longtitude":"51.4349775","Altitude":"0.0","time":"12-29-2013 20:01:25","Accuracy":"3524.0","Provider":"network"}}
{"Application":{"ProcessName":"com.estrongs.android.pop","Start":"12-29-2013 20:01:11","End":"12-29-2013 20:01:31"}}
{"Application":{"ProcessName":"com.htc.weather.bg","Start":"12-29-2013 20:02:41","End":"12-29-2013 20:02:41"}}
{"Location":{"Latitude":"35.7512327","Longtitude":"51.434508","Altitude":"0.0","time":"12-29-2013 20:05:20","Accuracy":"3361.0","Provider":"network"}}
{"Application":{"ProcessName":"com.infraware.docmaster","Start":"12-29-2013 20:01:31","End":"12-29-2013 20:05:21"}}
{"Application":{"ProcessName":"com.estrongs.android.pop","Start":"12-29-2013 20:05:21","End":"12-29-2013 20:05:31"}}
{"Application":{"ProcessName":"com.tencent.mm","Start":"12-29-2013 20:05:31","End":"12-29-2013 20:06:11"}}
{"Application":{"ProcessName":"com.android.htcdialer","Start":"12-29-2013 20:01:11","End":"12-29-2013 20:06:11"}}
{"Application":{"ProcessName":"com.android.htcdialer","Start":"12-29-2013 20:06:11","End":"12-29-2013 20:06:21"}}
{"Location":{"Latitude":"35.7344105","Longtitude":"51.4282466","Altitude":"0.0","time":"12-29-2013 20:06:41","Accuracy":"3771.0","Provider":"network"}}
{"Location":{"Latitude":"35.7308674","Longtitude":"51.4292408","Altitude":"0.0","time":"12-29-2013 20:08:11","Accuracy":"3805.0","Provider":"network"}}
{"Location":{"Latitude":"35.7370525","Longtitude":"51.427469","Altitude":"0.0","time":"12-29-2013 20:09:48","Accuracy":"3564.0","Provider":"network"}}
{"Location":{"Latitude":"35.7316244","Longtitude":"51.4284044","Altitude":"0.0","time":"12-29-2013 20:10:26","Accuracy":"2509.0","Provider":"network"}}
{"Location":{"Latitude":"35.7299439","Longtitude":"51.4278037","Altitude":"0.0","time":"12-29-2013 20:11:13","Accuracy":"3838.0","Provider":"network"}}
{"Location":{"Latitude":"35.7033496","Longtitude":"51.4293421","Altitude":"0.0","time":"12-29-2013 20:26:05","Accuracy":"3044.0","Provider":"network"}}
{"Call": {"Number":"+98912298####","Duration":"29","Time":"12-29-2013 20:25:50","Type":"1"}}
{"Call": {"Number":"+98912298####","Duration":"29","Time":"12-29-2013 20:25:50","Type":"1"}}
{"Call": {"Number":"+98912298####","Duration":"29","Time":"12-29-2013 20:25:50","Type":"1"}}
{"Application":{"ProcessName":"com.tencent.mm","Start":"12-29-2013 20:26:25","End":"12-29-2013 20:26:45"}}
{"Application":{"ProcessName":"com.android.htcdialer","Start":"12-29-2013 20:26:25","End":"12-29-2013 20:26:45"}}
{"Application":{"ProcessName":"com.htc.calendar","Start":"12-29-2013 20:28:58","End":"12-29-2013 20:28:59"}}
{"Application":{"ProcessName":"com.psiphon3","Start":"12-29-2013 20:28:59","End":"12-29-2013 20:29:08"}}
{"Location":{"Latitude":"35.7043858","Longtitude":"51.4250761","Altitude":"0.0","time":"12-29-2013 20:29:40","Accuracy":"3941.0","Provider":"network"}}
{"Call": {"Number":"+98912298####","Duration":"29","Time":"12-29-2013 20:25:50","Type":"1"}}
{"Call": {"Number":"+98912298####","Duration":"29","Time":"12-29-2013 20:25:50","Type":"1"}}
{"Call": {"Number":"+98912298####","Duration":"29","Time":"12-29-2013 20:25:50","Type":"1"}}
{"Application":{"ProcessName":"com.android.htccontacts","Start":"12-29-2013 20:29:28","End":"12-29-2013 20:29:48"}}
{"Application":{"ProcessName":"com.android.htcdialer","Start":"12-29-2013 20:28:53","End":"12-29-2013 20:29:53"}}
{"Location":{"Latitude":"35.7028002","Longtitude":"51.4340805","Altitude":"0.0","time":"12-29-2013 20:29:54","Accuracy":"3103.0","Provider":"network"}}
{"Location":{"Latitude":"35.6896742","Longtitude":"51.4458399","Altitude":"0.0","time":"12-29-2013 20:36:09","Accuracy":"1294.0","Provider":"network"}}
{"Application":{"ProcessName":"com.android.settings:remote","Start":"12-29-2013 20:36:04","End":"12-29-2013 20:36:10"}}
{"Application":{"ProcessName":"com.psiphon3","Start":"12-29-2013 20:36:14","End":"12-29-2013 20:36:30"}}
{"Application":{"ProcessName":"com.tencent.mm","Start":"12-29-2013 20:36:30","End":"12-29-2013 20:36:44"}}
{"Application":{"ProcessName":"com.android.htcdialer","Start":"12-29-2013 20:36:04","End":"12-29-2013 20:36:44"}}
{"Application":{"ProcessName":"com.android.htcdialer","Start":"12-29-2013 20:42:45","End":"12-29-2013 20:42:55"}}
{"Location":{"Latitude":"35.6791294","Longtitude":"51.4466803","Altitude":"0.0","time":"12-29-2013 20:57:07","Accuracy":"1190.0","Provider":"network"}}
{"Application":{"ProcessName":"com.psiphon3","Start":"12-29-2013 21:03:17","End":"12-29-2013 21:03:37"}}
{"Location":{"Latitude":"35.6683231","Longtitude":"51.4463834","Altitude":"0.0","time":"12-29-2013 21:03:56","Accuracy":"1170.0","Provider":"network"}}
{"Application":{"ProcessName":"com.android.htcdialer","Start":"12-29-2013 21:03:17","End":"12-29-2013 21:03:57"}}
{"Application":{"ProcessName":"com.tencent.mm","Start":"12-29-2013 21:08:03","End":"12-29-2013 21:08:23"}}
{"Application":{"ProcessName":"com.android.htcdialer","Start":"12-29-2013 21:08:03","End":"12-29-2013 21:08:23"}}
{"Application":{"ProcessName":"uk.co.sevendigital.android","Start":"12-29-2013 21:13:54","End":"12-29-2013 21:13:56"}}
{"Application":{"ProcessName":"com.android.htcdialer","Start":"12-29-2013 21:13:44","End":"12-29-2013 21:13:56"}}
{"Call": {"Number":"+98919450####","Duration":"31","Time":"12-29-2013 21:13:49","Type":"2"}}
{"Application":{"ProcessName":"com.android.htcdialer","Start":"12-29-2013 21:14:44","End":"12-29-2013 21:14:54"}}
{"Application":{"ProcessName":"com.psiphon3","Start":"12-29-2013 21:14:46","End":"12-29-2013 21:14:54"}}
{"Application":{"ProcessName":"com.google.android.apps.plus","Start":"12-29-2013 21:14:46","End":"12-29-2013 21:14:54"}}
{"Location":{"Latitude":"35.6658755","Longtitude":"51.4475416","Altitude":"0.0","time":"12-29-2013 21:15:10","Accuracy":"1200.0","Provider":"network"}}
{"Location":{"Latitude":"35.6801528","Longtitude":"51.4494228","Altitude":"0.0","time":"12-29-2013 21:29:27","Accuracy":"1158.0","Provider":"network"}}
{"Application":{"ProcessName":"com.android.htcdialer","Start":"12-29-2013 21:29:18","End":"12-29-2013 21:29:28"}}
{"Call": {"Number":"+98919450####","Duration":"0","Time":"12-29-2013 21:29:25","Type":"2"}}
{"Application":{"ProcessName":"com.android.htcdialer","Start":"12-29-2013 21:30:19","End":"12-29-2013 21:30:28"}}
{"Location":{"Latitude":"35.6826837","Longtitude":"51.4509402","Altitude":"0.0","time":"12-29-2013 21:30:57","Accuracy":"1250.0","Provider":"network"}}
{"Application":{"ProcessName":"com.android.htcdialer","Start":"12-29-2013 21:31:08","End":"12-29-2013 21:31:18"}}
{"Call": {"Number":"+98919450####","Duration":"2","Time":"12-29-2013 21:31:11","Type":"2"}}
{"Application":{"ProcessName":"uk.co.sevendigital.android","Start":"12-29-2013 21:31:28","End":"12-29-2013 21:31:30"}}
