{"Application":{"ProcessName":"com.android.providers.telephony","Start":"11-26-2013 23:57:18","End":"11-26-2013 23:57:38"}}
{"Application":{"ProcessName":"com.estrongs.android.pop","Start":"11-26-2013 23:56:58","End":"11-26-2013 23:58:18"}}
{"Application":{"ProcessName":"com.htc.album","Start":"11-26-2013 23:58:18","End":"11-26-2013 23:58:28"}}
{"Application":{"ProcessName":"com.estrongs.android.pop","Start":"11-26-2013 23:58:38","End":"11-26-2013 23:59:08"}}
{"Application":{"ProcessName":"android:ui","Start":"11-26-2013 23:59:08","End":"11-26-2013 23:59:18"}}
{"Application":{"ProcessName":"com.estrongs.android.pop","Start":"11-26-2013 23:59:18","End":"11-27-2013 00:00:29"}}
{"Application":{"ProcessName":"com.htc.album","Start":"11-27-2013 00:00:39","End":"11-27-2013 00:01:49"}}
{"Application":{"ProcessName":"com.android.htcdialer","Start":"11-26-2013 23:56:58","End":"11-27-2013 00:01:59"}}
{"Application":{"ProcessName":"com.estrongs.android.pop","Start":"11-27-2013 00:01:49","End":"11-27-2013 00:02:49"}}
{"Application":{"ProcessName":"com.tencent.mm","Start":"11-27-2013 00:02:59","End":"11-27-2013 00:03:09"}}
{"Application":{"ProcessName":"com.htc.album","Start":"11-27-2013 00:03:19","End":"11-27-2013 00:03:59"}}
{"Application":{"ProcessName":"com.htc.album","Start":"11-27-2013 00:04:09","End":"11-27-2013 00:04:40"}}
{"Application":{"ProcessName":"com.htc.home.personalize","Start":"11-27-2013 00:05:30","End":"11-27-2013 00:05:31"}}
{"Application":{"ProcessName":"com.htc.album","Start":"11-27-2013 00:04:50","End":"11-27-2013 00:05:40"}}
{"Application":{"ProcessName":"com.android.mms","Start":"11-27-2013 00:05:41","End":"11-27-2013 00:05:50"}}
{"Application":{"ProcessName":"com.android.providers.telephony","Start":"11-27-2013 00:05:41","End":"11-27-2013 00:05:50"}}
{"Application":{"ProcessName":"com.tencent.mm:push","Start":"11-27-2013 00:06:09","End":"11-27-2013 00:06:09"}}
{"Application":{"ProcessName":"com.htc.android.mail:sync","Start":"11-27-2013 00:06:09","End":"11-27-2013 00:06:19"}}
{"Application":{"ProcessName":"com.viber.voip","Start":"11-27-2013 00:06:09","End":"11-27-2013 00:06:19"}}
{"Application":{"ProcessName":"com.android.htcdialer","Start":"11-27-2013 00:01:59","End":"11-27-2013 00:27:05"}}
{"Application":{"ProcessName":"com.google.android.tts","Start":"11-27-2013 00:27:55","End":"11-27-2013 00:28:05"}}
{"Application":{"ProcessName":"com.android.providers.telephony","Start":"11-27-2013 05:22:47","End":"11-27-2013 05:22:57"}}
{"Application":{"ProcessName":"com.tencent.mm","Start":"11-27-2013 05:22:27","End":"11-27-2013 05:23:57"}}
{"Application":{"ProcessName":"com.jetappfactory.jetaudioplus","Start":"11-27-2013 05:23:57","End":"11-27-2013 05:24:07"}}
{"Application":{"ProcessName":"com.viber.voip","Start":"11-27-2013 05:23:57","End":"11-27-2013 05:24:27"}}
{"Application":{"ProcessName":"com.android.htccontacts","Start":"11-27-2013 05:24:37","End":"11-27-2013 05:25:07"}}
{"Application":{"ProcessName":"com.android.providers.telephony","Start":"11-27-2013 05:25:27","End":"11-27-2013 05:25:27"}}
{"Application":{"ProcessName":"com.android.htccontacts","Start":"11-27-2013 05:25:17","End":"11-27-2013 05:25:47"}}
{"Call": {"Number":"0912199####","Duration":"0","Time":"11-27-2013 05:25:50","Type":"2"}}
{"Call": {"Number":"0912199####","Duration":"0","Time":"11-27-2013 05:25:50","Type":"2"}}
{"Call": {"Number":"0912199####","Duration":"0","Time":"11-27-2013 05:25:50","Type":"2"}}
{"Call": {"Number":"####","Duration":"155","Time":"11-26-2013 23:48:35","Type":"2"}}
{"Call": {"Number":"####","Duration":"155","Time":"11-26-2013 23:48:35","Type":"2"}}
{"Call": {"Number":"####","Duration":"155","Time":"11-26-2013 23:48:35","Type":"2"}}
{"Application":{"ProcessName":"com.tencent.mm","Start":"11-27-2013 05:26:07","End":"11-27-2013 05:26:07"}}
{"Application":{"ProcessName":"com.viber.voip","Start":"11-27-2013 05:26:27","End":"11-27-2013 05:26:47"}}
{"Application":{"ProcessName":"com.htc.MediaCacheService","Start":"11-27-2013 05:27:17","End":"11-27-2013 05:27:18"}}
{"Application":{"ProcessName":"com.android.htcdialer","Start":"11-27-2013 05:22:27","End":"11-27-2013 05:27:27"}}
{"Application":{"ProcessName":"com.htc.album","Start":"11-27-2013 05:26:47","End":"11-27-2013 05:27:58"}}
{"Application":{"ProcessName":"com.tencent.mm","Start":"11-27-2013 05:28:18","End":"11-27-2013 05:28:28"}}
{"Application":{"ProcessName":"com.htc.album","Start":"11-27-2013 05:28:28","End":"11-27-2013 05:28:48"}}
{"Application":{"ProcessName":"com.htc.album","Start":"11-27-2013 05:29:18","End":"11-27-2013 05:29:48"}}
{"Application":{"ProcessName":"com.android.htcdialer","Start":"11-27-2013 05:27:28","End":"11-27-2013 05:29:48"}}
{"Application":{"ProcessName":"com.htc.album","Start":"11-27-2013 06:54:59","End":"11-27-2013 06:55:39"}}
{"Application":{"ProcessName":"com.android.providers.telephony","Start":"11-27-2013 06:55:19","End":"11-27-2013 06:55:39"}}
{"Application":{"ProcessName":"com.android.htcdialer","Start":"11-27-2013 06:54:59","End":"11-27-2013 07:00:00"}}
{"Application":{"ProcessName":"uk.co.aifactory.backgammonfree","Start":"11-27-2013 06:55:39","End":"11-27-2013 07:00:40"}}
{"Application":{"ProcessName":"com.android.htcdialer","Start":"11-27-2013 07:00:00","End":"11-27-2013 07:05:01"}}
{"Application":{"ProcessName":"uk.co.aifactory.backgammonfree","Start":"11-27-2013 07:00:40","End":"11-27-2013 07:05:41"}}
{"Application":{"ProcessName":"com.android.htcdialer","Start":"11-27-2013 07:05:01","End":"11-27-2013 07:10:01"}}
{"Application":{"ProcessName":"uk.co.aifactory.backgammonfree","Start":"11-27-2013 07:05:41","End":"11-27-2013 07:10:42"}}
{"Application":{"ProcessName":"uk.co.aifactory.backgammonfree","Start":"11-27-2013 07:10:42","End":"11-27-2013 07:12:43"}}
{"Application":{"ProcessName":"com.android.htcdialer","Start":"11-27-2013 07:10:01","End":"11-27-2013 07:15:03"}}
{"Application":{"ProcessName":"com.htc.album","Start":"11-27-2013 07:12:52","End":"11-27-2013 07:15:13"}}
{"Application":{"ProcessName":"com.android.htcdialer","Start":"11-27-2013 07:15:03","End":"11-27-2013 07:15:23"}}
{"Application":{"ProcessName":"com.android.htcdialer","Start":"11-27-2013 07:16:13","End":"11-27-2013 07:21:14"}}
{"Application":{"ProcessName":"uk.co.aifactory.backgammonfree","Start":"11-27-2013 07:16:13","End":"11-27-2013 07:21:14"}}
{"Application":{"ProcessName":"com.android.htcdialer","Start":"11-27-2013 07:21:14","End":"11-27-2013 07:26:15"}}
{"Application":{"ProcessName":"uk.co.aifactory.backgammonfree","Start":"11-27-2013 07:21:14","End":"11-27-2013 07:26:15"}}
{"Application":{"ProcessName":"ch.smalltech.battery.free","Start":"11-27-2013 07:29:16","End":"11-27-2013 07:29:26"}}
{"Application":{"ProcessName":"com.android.htcdialer","Start":"11-27-2013 07:26:15","End":"11-27-2013 07:31:16"}}
{"Application":{"ProcessName":"uk.co.aifactory.backgammonfree","Start":"11-27-2013 07:26:15","End":"11-27-2013 07:31:16"}}
{"Application":{"ProcessName":"com.android.htcdialer","Start":"11-27-2013 07:31:16","End":"11-27-2013 07:36:17"}}
{"Application":{"ProcessName":"uk.co.aifactory.backgammonfree","Start":"11-27-2013 07:31:16","End":"11-27-2013 07:36:17"}}
{"Call": {"Number":"+98919450####","Duration":"0","Time":"11-27-2013 12:49:36","Type":"3"}}
{"Call": {"Number":"+98919450####","Duration":"0","Time":"11-27-2013 12:49:36","Type":"3"}}
{"Call": {"Number":"+98919450####","Duration":"0","Time":"11-27-2013 12:49:36","Type":"3"}}
{"Call": {"Number":"+98919450####","Duration":"0","Time":"11-27-2013 12:50:22","Type":"3"}}
{"Call": {"Number":"+98919450####","Duration":"0","Time":"11-27-2013 12:50:22","Type":"3"}}
{"Call": {"Number":"+98919450####","Duration":"0","Time":"11-27-2013 12:50:22","Type":"3"}}
{"Application":{"ProcessName":"com.android.htcdialer","Start":"11-27-2013 12:49:41","End":"11-27-2013 15:50:59"}}
{"SMS":{"Address":"+98919499####","type":"1","date":"11-27-2013 15:43:05","body":"ANONYMIZED","Type":"1", "metadata": {"name": "ebi"}}}
{"Call": {"Number":"+98919450####","Duration":"0","Time":"11-27-2013 12:50:22","Type":"3"}}
{"Call": {"Number":"+98919450####","Duration":"0","Time":"11-27-2013 12:50:22","Type":"3"}}
{"Call": {"Number":"+98919450####","Duration":"0","Time":"11-27-2013 12:50:22","Type":"3"}}
{"Application":{"ProcessName":"com.android.htcdialer","Start":"11-27-2013 16:18:34","End":"11-27-2013 16:56:17"}}
{"Application":{"ProcessName":"com.android.htcdialer","Start":"11-27-2013 16:56:17","End":"11-27-2013 17:18:20"}}
{"Application":{"ProcessName":"com.tencent.mm:push","Start":"11-27-2013 17:18:20","End":"11-27-2013 17:18:21"}}
{"Application":{"ProcessName":"com.android.htcdialer","Start":"11-27-2013 17:18:20","End":"11-27-2013 17:23:21"}}
{"Application":{"ProcessName":"uk.co.aifactory.backgammonfree","Start":"11-27-2013 17:18:30","End":"11-27-2013 17:23:31"}}
{"Application":{"ProcessName":"com.android.htcdialer","Start":"11-27-2013 17:23:21","End":"11-27-2013 17:28:22"}}
{"Application":{"ProcessName":"uk.co.aifactory.backgammonfree","Start":"11-27-2013 17:23:31","End":"11-27-2013 17:28:32"}}
{"Application":{"ProcessName":"com.android.htcdialer","Start":"11-27-2013 17:28:22","End":"11-27-2013 17:33:23"}}
{"Application":{"ProcessName":"uk.co.aifactory.backgammonfree","Start":"11-27-2013 17:28:32","End":"11-27-2013 17:33:33"}}
{"Application":{"ProcessName":"com.android.htcdialer","Start":"11-27-2013 17:33:23","End":"11-27-2013 17:38:24"}}
{"Call": {"Number":"+98935877####","Duration":"21","Time":"11-27-2013 20:53:24","Type":"1"}}
{"Application":{"ProcessName":"com.android.htcdialer","Start":"11-27-2013 20:53:33","End":"11-27-2013 20:54:19"}}
{"Application":{"ProcessName":"com.android.htcdialer","Start":"11-27-2013 20:55:40","End":"11-27-2013 21:08:18"}}
{"Application":{"ProcessName":"com.android.htcdialer","Start":"11-27-2013 21:08:18","End":"11-27-2013 21:08:28"}}
{"Call": {"Number":"+98912448####","Duration":"66","Time":"11-27-2013 21:08:24","Type":"2"}}
{"Application":{"ProcessName":"com.htc.flexnet","Start":"11-27-2013 21:09:52","End":"11-27-2013 21:09:52"}}
{"Call": {"Number":"+98933902####","Duration":"0","Time":"11-27-2013 21:09:55","Type":"2"}}
{"Application":{"ProcessName":"com.android.htcdialer","Start":"11-27-2013 21:09:52","End":"11-27-2013 21:10:02"}}
{"Application":{"ProcessName":"com.android.providers.telephony","Start":"11-27-2013 21:09:52","End":"11-27-2013 21:10:02"}}
{"SMS":{"Address":"+98919499####","type":"1","date":"11-27-2013 15:43:05","body":"ANONYMIZED","Type":"1", "metadata": {"name": "ebi"}}}
{"Application":{"ProcessName":"com.android.mms","Start":"11-27-2013 21:30:52","End":"11-27-2013 21:31:08"}}
{"Application":{"ProcessName":"com.android.providers.telephony","Start":"11-27-2013 21:30:52","End":"11-27-2013 21:31:08"}}
{"Application":{"ProcessName":"com.tencent.mm","Start":"11-27-2013 21:31:28","End":"11-27-2013 21:33:10"}}
{"Application":{"ProcessName":"com.android.providers.telephony","Start":"11-27-2013 21:33:10","End":"11-27-2013 21:33:10"}}
{"Application":{"ProcessName":"com.htc.flexnet","Start":"11-27-2013 21:33:10","End":"11-27-2013 21:33:20"}}
{"Application":{"ProcessName":"com.android.htcdialer","Start":"11-27-2013 21:30:42","End":"11-27-2013 21:33:31"}}
{"Application":{"ProcessName":"com.android.htcdialer","Start":"11-27-2013 21:34:49","End":"11-27-2013 21:34:59"}}
{"Application":{"ProcessName":"com.mobiliha.badesaba","Start":"11-27-2013 21:37:38","End":"11-27-2013 21:42:59"}}
{"Application":{"ProcessName":"com.android.htcdialer","Start":"11-27-2013 21:37:28","End":"11-27-2013 21:42:59"}}
{"Application":{"ProcessName":"com.tencent.mm:push","Start":"11-27-2013 21:42:59","End":"11-27-2013 21:42:59"}}
{"Application":{"ProcessName":"com.android.mms","Start":"11-27-2013 21:43:20","End":"11-27-2013 21:44:00"}}
{"Application":{"ProcessName":"com.android.htcdialer","Start":"11-27-2013 21:42:59","End":"11-27-2013 21:44:00"}}
{"Application":{"ProcessName":"com.android.providers.telephony","Start":"11-27-2013 21:43:20","End":"11-27-2013 21:44:00"}}
