{"Application":{"ProcessName":"com.whatsapp","Start":"12-30-2013 00:54:41","End":"12-30-2013 00:54:51"}}
{"Location":{"Latitude":"35.6630666","Longtitude":"51.453063","Altitude":"0.0","time":"12-30-2013 00:55:01","Accuracy":"1113.0","Provider":"network"}}
{"Application":{"ProcessName":"com.android.providers.telephony","Start":"12-30-2013 00:55:22","End":"12-30-2013 00:55:32"}}
{"Application":{"ProcessName":"jp.naver.line.android","Start":"12-30-2013 00:54:51","End":"12-30-2013 00:57:02"}}
{"Application":{"ProcessName":"com.viber.voip","Start":"12-30-2013 00:57:02","End":"12-30-2013 00:57:32"}}
{"Application":{"ProcessName":"com.sgiggle.production","Start":"12-30-2013 00:57:32","End":"12-30-2013 00:57:43"}}
{"Application":{"ProcessName":"com.tencent.mm:push","Start":"12-30-2013 00:57:53","End":"12-30-2013 00:58:03"}}
{"Application":{"ProcessName":"com.tencent.mm","Start":"12-30-2013 00:57:53","End":"12-30-2013 00:59:33"}}
{"Application":{"ProcessName":"com.android.htcdialer","Start":"12-30-2013 00:54:41","End":"12-30-2013 00:59:43"}}
{"Application":{"ProcessName":"kik.android","Start":"12-30-2013 01:02:14","End":"12-30-2013 01:02:24"}}
{"Application":{"ProcessName":"com.android.chrome","Start":"12-30-2013 00:59:43","End":"12-30-2013 01:03:14"}}
{"Application":{"ProcessName":"com.android.chrome:sandboxed_process0","Start":"12-30-2013 00:59:43","End":"12-30-2013 01:03:14"}}
{"Application":{"ProcessName":"com.tencent.mm:sandbox","Start":"12-30-2013 01:03:24","End":"12-30-2013 01:03:34"}}
{"Application":{"ProcessName":"com.sgiggle.production","Start":"12-30-2013 01:03:24","End":"12-30-2013 01:03:34"}}
{"Application":{"ProcessName":"com.tencent.mm","Start":"12-30-2013 01:03:34","End":"12-30-2013 01:04:04"}}
{"Application":{"ProcessName":"com.htc.album","Start":"12-30-2013 01:04:04","End":"12-30-2013 01:04:14"}}
{"Application":{"ProcessName":"com.tencent.mm","Start":"12-30-2013 01:04:14","End":"12-30-2013 01:04:24"}}
{"Application":{"ProcessName":"com.android.htcdialer","Start":"12-30-2013 00:59:43","End":"12-30-2013 01:04:44"}}
{"Application":{"ProcessName":"com.tencent.mm:tools","Start":"12-30-2013 01:04:24","End":"12-30-2013 01:05:04"}}
{"Application":{"ProcessName":"com.tencent.mm","Start":"12-30-2013 01:05:04","End":"12-30-2013 01:08:35"}}
{"Application":{"ProcessName":"com.android.htcdialer","Start":"12-30-2013 01:04:44","End":"12-30-2013 01:09:45"}}
{"Location":{"Latitude":"35.6630666","Longtitude":"51.453063","Altitude":"0.0","time":"12-30-2013 12:38:44","Accuracy":"1113.0","Provider":"network"}}
{"Application":{"ProcessName":"com.tencent.mm","Start":"12-30-2013 12:51:08","End":"12-30-2013 12:51:18"}}
{"Application":{"ProcessName":"com.android.htcdialer","Start":"12-30-2013 12:50:58","End":"12-30-2013 12:51:18"}}
{"Location":{"Latitude":"35.6651291","Longtitude":"51.4497932","Altitude":"0.0","time":"12-30-2013 12:51:31","Accuracy":"1180.0","Provider":"network"}}
{"Application":{"ProcessName":"com.tencent.mm","Start":"12-30-2013 13:25:55","End":"12-30-2013 13:26:55"}}
{"Application":{"ProcessName":"com.android.htcdialer","Start":"12-30-2013 13:25:45","End":"12-30-2013 13:27:17"}}
{"Application":{"ProcessName":"com.tencent.mm","Start":"12-30-2013 14:21:07","End":"12-30-2013 14:21:47"}}
{"Application":{"ProcessName":"com.android.htcdialer","Start":"12-30-2013 14:20:57","End":"12-30-2013 14:22:29"}}
{"Location":{"Latitude":"35.6630666","Longtitude":"51.453063","Altitude":"0.0","time":"12-30-2013 14:25:29","Accuracy":"1113.0","Provider":"network"}}
{"Application":{"ProcessName":"com.android.htcdialer","Start":"12-30-2013 14:24:55","End":"12-30-2013 14:25:34"}}
{"Application":{"ProcessName":"com.tencent.mm","Start":"12-30-2013 14:27:02","End":"12-30-2013 14:28:32"}}
{"Application":{"ProcessName":"com.android.htcdialer","Start":"12-30-2013 14:26:52","End":"12-30-2013 14:29:46"}}
{"Application":{"ProcessName":"com.tencent.mm","Start":"12-30-2013 15:05:15","End":"12-30-2013 15:05:35"}}
{"Application":{"ProcessName":"com.android.htcdialer","Start":"12-30-2013 15:05:05","End":"12-30-2013 15:05:45"}}
{"SMS":{"Address":"+98935356####","type":"1","date":"12-29-2013 17:31:42","body":"ANONYMIZED","Type":"1"}}
{"SMS":{"Address":"+98912702####","type":"1","date":"12-30-2013 15:22:52","body":"ANONYMIZED","Type":"1"}}
{"Application":{"ProcessName":"com.android.providers.telephony","Start":"12-30-2013 15:23:20","End":"12-30-2013 15:23:50"}}
{"Application":{"ProcessName":"com.android.mms","Start":"12-30-2013 15:23:20","End":"12-30-2013 15:24:11"}}
{"Application":{"ProcessName":"com.android.providers.telephony","Start":"12-30-2013 15:24:01","End":"12-30-2013 15:24:11"}}
{"Application":{"ProcessName":"com.tencent.mm","Start":"12-30-2013 15:24:11","End":"12-30-2013 15:24:40"}}
{"Application":{"ProcessName":"com.android.htcdialer","Start":"12-30-2013 15:23:10","End":"12-30-2013 15:24:40"}}
{"Application":{"ProcessName":"com.estrongs.android.pop","Start":"12-30-2013 16:34:10","End":"12-30-2013 16:34:21"}}
{"Application":{"ProcessName":"com.htc.flexnet","Start":"12-30-2013 16:34:10","End":"12-30-2013 16:34:21"}}
{"Application":{"ProcessName":"com.android.htcdialer","Start":"12-30-2013 16:34:10","End":"12-30-2013 16:34:31"}}
{"Application":{"ProcessName":"com.android.htcdialer","Start":"12-30-2013 16:37:01","End":"12-30-2013 16:37:11"}}
{"Location":{"Latitude":"35.6630666","Longtitude":"51.453063","Altitude":"0.0","time":"12-30-2013 16:39:47","Accuracy":"1113.0","Provider":"network"}}
{"Application":{"ProcessName":"com.android.htcdialer","Start":"12-30-2013 16:39:52","End":"12-30-2013 16:40:02"}}
{"Application":{"ProcessName":"com.android.htcdialer","Start":"12-30-2013 16:46:55","End":"12-30-2013 16:47:05"}}
{"Application":{"ProcessName":"com.android.htcdialer","Start":"12-30-2013 16:59:54","End":"12-30-2013 17:00:35"}}
{"Application":{"ProcessName":"com.psiphon3","Start":"12-30-2013 17:00:14","End":"12-30-2013 17:00:35"}}
{"Application":{"ProcessName":"com.psiphon3","Start":"12-30-2013 17:09:46","End":"12-30-2013 17:10:07"}}
{"Application":{"ProcessName":"jp.naver.line.android:sub","Start":"12-30-2013 17:10:27","End":"12-30-2013 17:10:37"}}
{"Application":{"ProcessName":"jp.naver.line.android","Start":"12-30-2013 17:10:07","End":"12-30-2013 17:11:37"}}
{"Application":{"ProcessName":"com.viber.voip","Start":"12-30-2013 17:11:37","End":"12-30-2013 17:11:47"}}
{"Application":{"ProcessName":"com.viber.voip","Start":"12-30-2013 17:11:57","End":"12-30-2013 17:12:28"}}
{"Application":{"ProcessName":"com.sgiggle.production","Start":"12-30-2013 17:12:48","End":"12-30-2013 17:13:38"}}
{"Application":{"ProcessName":"com.whatsapp","Start":"12-30-2013 17:13:38","End":"12-30-2013 17:14:08"}}
{"Application":{"ProcessName":"kik.android","Start":"12-30-2013 17:14:08","End":"12-30-2013 17:14:28"}}
{"Application":{"ProcessName":"com.android.htcdialer","Start":"12-30-2013 17:09:36","End":"12-30-2013 17:14:38"}}
{"Location":{"Latitude":"35.6651291","Longtitude":"51.4497932","Altitude":"0.0","time":"12-30-2013 17:15:04","Accuracy":"1180.0","Provider":"network"}}
{"Application":{"ProcessName":"jp.naver.line.android","Start":"12-30-2013 17:14:38","End":"12-30-2013 17:15:18"}}
{"Location":{"Latitude":"35.6611067","Longtitude":"51.4483662","Altitude":"0.0","time":"12-30-2013 17:15:35","Accuracy":"1115.0","Provider":"network"}}
{"Application":{"ProcessName":"com.viber.voip","Start":"12-30-2013 17:15:28","End":"12-30-2013 17:15:38"}}
{"Application":{"ProcessName":"com.psiphon3","Start":"12-30-2013 17:17:33","End":"12-30-2013 17:17:53"}}
{"Location":{"Latitude":"35.6630666","Longtitude":"51.453063","Altitude":"0.0","time":"12-30-2013 17:17:54","Accuracy":"1113.0","Provider":"network"}}
{"Application":{"ProcessName":"com.android.providers.telephony","Start":"12-30-2013 17:18:14","End":"12-30-2013 17:18:24"}}
{"Location":{"Latitude":"35.6651291","Longtitude":"51.4497932","Altitude":"0.0","time":"12-30-2013 17:19:24","Accuracy":"1180.0","Provider":"network"}}
{"Application":{"ProcessName":"com.psiphon3","Start":"12-30-2013 17:18:04","End":"12-30-2013 17:20:04"}}
{"Application":{"ProcessName":"com.tencent.mm","Start":"12-30-2013 17:20:04","End":"12-30-2013 17:20:14"}}
{"Application":{"ProcessName":"com.psiphon3","Start":"12-30-2013 17:20:24","End":"12-30-2013 17:20:44"}}
{"Application":{"ProcessName":"com.android.htcdialer","Start":"12-30-2013 17:17:33","End":"12-30-2013 17:21:13"}}
{"Location":{"Latitude":"35.6630666","Longtitude":"51.453063","Altitude":"0.0","time":"12-30-2013 17:22:24","Accuracy":"1113.0","Provider":"network"}}
{"Application":{"ProcessName":"com.psiphon3","Start":"12-30-2013 17:22:16","End":"12-30-2013 17:23:36"}}
{"Application":{"ProcessName":"com.tencent.mm","Start":"12-30-2013 17:23:36","End":"12-30-2013 17:24:44"}}
{"Application":{"ProcessName":"com.android.htcdialer","Start":"12-30-2013 17:22:16","End":"12-30-2013 17:24:44"}}
{"Application":{"ProcessName":"com.tencent.mm","Start":"12-30-2013 17:45:06","End":"12-30-2013 17:45:16"}}
{"Location":{"Latitude":"35.6640978","Longtitude":"51.4514281","Altitude":"0.0","time":"12-30-2013 17:45:41","Accuracy":"1113.0","Provider":"network"}}
{"Application":{"ProcessName":"com.estrongs.android.pop","Start":"12-30-2013 17:45:36","End":"12-30-2013 17:46:26"}}
{"Location":{"Latitude":"35.6651291","Longtitude":"51.4497932","Altitude":"0.0","time":"12-30-2013 17:46:26","Accuracy":"1180.0","Provider":"network"}}
{"Application":{"ProcessName":"com.adobe.reader","Start":"12-30-2013 17:46:26","End":"12-30-2013 17:47:06"}}
{"Application":{"ProcessName":"com.estrongs.android.pop","Start":"12-30-2013 17:47:06","End":"12-30-2013 17:47:16"}}
{"Application":{"ProcessName":"com.adobe.reader","Start":"12-30-2013 17:47:16","End":"12-30-2013 17:48:17"}}
{"Application":{"ProcessName":"com.estrongs.android.pop","Start":"12-30-2013 17:48:17","End":"12-30-2013 17:49:07"}}
{"Application":{"ProcessName":"com.rhmsoft.fm","Start":"12-30-2013 17:49:07","End":"12-30-2013 17:49:17"}}
{"Location":{"Latitude":"35.6651291","Longtitude":"51.4497932","Altitude":"0.0","time":"12-30-2013 17:58:20","Accuracy":"1180.0","Provider":"network"}}
{"Application":{"ProcessName":"com.android.providers.telephony","Start":"12-30-2013 17:58:50","End":"12-30-2013 17:59:00"}}
{"Location":{"Latitude":"35.6630666","Longtitude":"51.453063","Altitude":"0.0","time":"12-30-2013 17:59:50","Accuracy":"1113.0","Provider":"network"}}
{"Location":{"Latitude":"35.6651291","Longtitude":"51.4497932","Altitude":"0.0","time":"12-30-2013 18:02:50","Accuracy":"1180.0","Provider":"network"}}
{"Application":{"ProcessName":"com.estrongs.android.pop","Start":"12-30-2013 17:58:10","End":"12-30-2013 18:03:11"}}
{"Application":{"ProcessName":"com.android.htcdialer","Start":"12-30-2013 17:58:10","End":"12-30-2013 18:03:11"}}
{"Location":{"Latitude":"35.6630666","Longtitude":"51.453063","Altitude":"0.0","time":"12-30-2013 18:03:35","Accuracy":"1113.0","Provider":"network"}}
{"Location":{"Latitude":"35.6651291","Longtitude":"51.4497932","Altitude":"0.0","time":"12-30-2013 18:05:05","Accuracy":"1180.0","Provider":"network"}}
{"Application":{"ProcessName":"com.estrongs.android.pop","Start":"12-30-2013 18:03:11","End":"12-30-2013 18:08:12"}}
{"Application":{"ProcessName":"com.android.htcdialer","Start":"12-30-2013 18:03:11","End":"12-30-2013 18:08:12"}}
{"Application":{"ProcessName":"com.estrongs.android.pop","Start":"12-30-2013 18:08:12","End":"12-30-2013 18:08:32"}}
{"Application":{"ProcessName":"com.viber.voip","Start":"12-30-2013 18:08:32","End":"12-30-2013 18:09:02"}}
{"Application":{"ProcessName":"com.tencent.mm","Start":"12-30-2013 18:09:02","End":"12-30-2013 18:09:12"}}
{"Application":{"ProcessName":"com.estrongs.android.pop","Start":"12-30-2013 18:09:22","End":"12-30-2013 18:09:42"}}
{"Application":{"ProcessName":"com.tencent.mm","Start":"12-30-2013 18:09:52","End":"12-30-2013 18:11:33"}}
{"Application":{"ProcessName":"com.android.settings:remote","Start":"12-30-2013 18:11:33","End":"12-30-2013 18:11:43"}}
{"Application":{"ProcessName":"com.android.htcdialer","Start":"12-30-2013 18:08:12","End":"12-30-2013 18:13:20"}}
{"Application":{"ProcessName":"com.android.htcdialer","Start":"12-30-2013 18:23:14","End":"12-30-2013 18:23:52"}}
{"Application":{"ProcessName":"com.tencent.mm","Start":"12-30-2013 18:31:34","End":"12-30-2013 18:32:53"}}
{"Application":{"ProcessName":"com.android.htcdialer","Start":"12-30-2013 18:31:34","End":"12-30-2013 18:32:53"}}
{"Location":{"Latitude":"35.6638291","Longtitude":"51.439824","Altitude":"0.0","time":"12-30-2013 18:50:22","Accuracy":"1079.0","Provider":"network"}}
{"Location":{"Latitude":"35.6665159","Longtitude":"51.4372179","Altitude":"0.0","time":"12-30-2013 19:47:22","Accuracy":"1118.0","Provider":"network"}}
{"Location":{"Latitude":"35.6673453","Longtitude":"51.4355944","Altitude":"0.0","time":"12-30-2013 19:49:38","Accuracy":"1202.0","Provider":"network"}}
{"Application":{"ProcessName":"com.android.mms","Start":"12-30-2013 19:49:26","End":"12-30-2013 19:49:46"}}
{"Application":{"ProcessName":"com.android.providers.telephony","Start":"12-30-2013 19:49:36","End":"12-30-2013 19:49:46"}}
{"Application":{"ProcessName":"com.android.htcdialer","Start":"12-30-2013 19:49:26","End":"12-30-2013 19:49:56"}}
{"Application":{"ProcessName":"com.android.htccontacts","Start":"12-30-2013 20:14:14","End":"12-30-2013 20:14:24"}}
{"Application":{"ProcessName":"com.tencent.mm","Start":"12-30-2013 20:14:34","End":"12-30-2013 20:14:45"}}
{"Application":{"ProcessName":"com.viber.voip","Start":"12-30-2013 20:15:35","End":"12-30-2013 20:15:45"}}
{"Application":{"ProcessName":"com.android.htccontacts","Start":"12-30-2013 20:15:05","End":"12-30-2013 20:16:35"}}
{"Application":{"ProcessName":"com.android.htcdialer","Start":"12-30-2013 20:13:14","End":"12-30-2013 20:18:15"}}
{"Location":{"Latitude":"35.6669306","Longtitude":"51.4364061","Altitude":"0.0","time":"12-30-2013 20:18:54","Accuracy":"1118.0","Provider":"network"}}
{"Location":{"Latitude":"35.6673453","Longtitude":"51.4355944","Altitude":"0.0","time":"12-30-2013 20:19:39","Accuracy":"1202.0","Provider":"network"}}
{"Application":{"ProcessName":"com.android.htccontacts","Start":"12-30-2013 20:16:45","End":"12-30-2013 20:21:46"}}
{"Application":{"ProcessName":"com.android.htcdialer","Start":"12-30-2013 20:18:15","End":"12-30-2013 20:23:16"}}
{"Application":{"ProcessName":"com.android.htccontacts","Start":"12-30-2013 20:21:46","End":"12-30-2013 20:23:46"}}
{"Application":{"ProcessName":"com.android.htcdialer","Start":"12-30-2013 20:23:16","End":"12-30-2013 20:24:10"}}
{"Application":{"ProcessName":"com.android.htcdialer","Start":"12-30-2013 20:26:25","End":"12-30-2013 20:29:24"}}
{"Location":{"Latitude":"35.6665159","Longtitude":"51.4372179","Altitude":"0.0","time":"12-30-2013 20:40:43","Accuracy":"1118.0","Provider":"network"}}
{"Application":{"ProcessName":"com.android.htcdialer","Start":"12-30-2013 20:40:25","End":"12-30-2013 20:40:55"}}
{"Call": {"Number":"+98912298####","Duration":"12","Time":"12-30-2013 20:40:51","Type":"2"}}
{"Location":{"Latitude":"35.6669306","Longtitude":"51.4364061","Altitude":"0.0","time":"12-30-2013 20:41:26","Accuracy":"1118.0","Provider":"network"}}
