{"Application":{"ProcessName":"com.android.providers.telephony","Start":"11-23-2013 00:55:25","End":"11-23-2013 00:56:05"}}
{"Application":{"ProcessName":"com.android.htcdialer","Start":"11-23-2013 00:55:05","End":"11-23-2013 01:00:06"}}
{"Application":{"ProcessName":"com.fractiv.lanesplitter","Start":"11-23-2013 00:55:05","End":"11-23-2013 01:00:06"}}
{"Application":{"ProcessName":"com.android.htcdialer","Start":"11-23-2013 01:00:06","End":"11-23-2013 01:03:32"}}
{"Application":{"ProcessName":"com.fractiv.lanesplitter","Start":"11-23-2013 01:00:06","End":"11-23-2013 01:03:32"}}
{"Application":{"ProcessName":"com.dianxinos.dxhome","Start":"11-23-2013 02:32:24","End":"11-23-2013 02:32:34"}}
{"Application":{"ProcessName":"com.estrongs.android.pop","Start":"11-23-2013 02:32:34","End":"11-23-2013 02:32:44"}}
{"Application":{"ProcessName":"com.android.htcdialer","Start":"11-23-2013 02:32:24","End":"11-23-2013 02:33:04"}}
{"Application":{"ProcessName":"com.dianxinos.dxhome","Start":"11-23-2013 02:32:44","End":"11-23-2013 02:33:04"}}
{"Application":{"ProcessName":"com.android.htcdialer","Start":"11-23-2013 02:40:56","End":"11-23-2013 02:41:06"}}
{"Application":{"ProcessName":"com.dianxinos.dxhome","Start":"11-23-2013 02:40:56","End":"11-23-2013 02:41:06"}}
{"Application":{"ProcessName":"com.dianxinos.dxhome","Start":"11-23-2013 03:04:02","End":"11-23-2013 03:04:12"}}
{"Application":{"ProcessName":"com.android.htcdialer","Start":"11-23-2013 03:04:02","End":"11-23-2013 03:05:22"}}
{"Application":{"ProcessName":"com.jetappfactory.jetaudioplus","Start":"11-23-2013 03:04:12","End":"11-23-2013 03:05:22"}}
{"Application":{"ProcessName":"com.android.htcdialer","Start":"11-23-2013 03:08:23","End":"11-23-2013 03:08:33"}}
{"Application":{"ProcessName":"com.jetappfactory.jetaudioplus","Start":"11-23-2013 03:08:23","End":"11-23-2013 03:08:33"}}
{"Application":{"ProcessName":"com.htc.flexnet","Start":"11-23-2013 03:08:23","End":"11-23-2013 03:08:33"}}
{"Application":{"ProcessName":"com.android.htcdialer","Start":"11-23-2013 03:09:53","End":"11-23-2013 03:13:13"}}
{"Application":{"ProcessName":"com.jetappfactory.jetaudioplus","Start":"11-23-2013 03:09:53","End":"11-23-2013 03:13:13"}}
{"Application":{"ProcessName":"com.android.htcdialer","Start":"11-23-2013 03:27:01","End":"11-23-2013 03:27:11"}}
{"Application":{"ProcessName":"com.jetappfactory.jetaudioplus","Start":"11-23-2013 03:27:01","End":"11-23-2013 03:27:11"}}
{"Application":{"ProcessName":"com.android.providers.telephony","Start":"11-23-2013 04:46:48","End":"11-23-2013 04:47:48"}}
{"Application":{"ProcessName":"com.android.htcdialer","Start":"11-23-2013 04:46:48","End":"11-23-2013 04:51:48"}}
{"Application":{"ProcessName":"com.fractiv.lanesplitter","Start":"11-23-2013 04:46:48","End":"11-23-2013 04:51:48"}}
{"Application":{"ProcessName":"com.android.htcdialer","Start":"11-23-2013 04:51:48","End":"11-23-2013 04:56:49"}}
{"Application":{"ProcessName":"com.fractiv.lanesplitter","Start":"11-23-2013 04:51:48","End":"11-23-2013 04:56:49"}}
{"Application":{"ProcessName":"com.fractiv.lanesplitter","Start":"11-23-2013 04:56:50","End":"11-23-2013 04:58:40"}}
{"Application":{"ProcessName":"com.jetappfactory.jetaudioplus","Start":"11-23-2013 04:58:40","End":"11-23-2013 04:59:40"}}
{"Application":{"ProcessName":"ch.smalltech.battery.free","Start":"11-23-2013 04:59:30","End":"11-23-2013 04:59:40"}}
{"Application":{"ProcessName":"com.android.htcdialer","Start":"11-23-2013 04:56:49","End":"11-23-2013 04:59:50"}}
{"Application":{"ProcessName":"com.dianxinos.dxhome","Start":"11-23-2013 04:59:40","End":"11-23-2013 04:59:50"}}
{"Application":{"ProcessName":"com.android.htcdialer","Start":"11-23-2013 05:03:51","End":"11-23-2013 05:04:41"}}
{"Application":{"ProcessName":"com.jetappfactory.jetaudioplus","Start":"11-23-2013 05:03:51","End":"11-23-2013 05:04:41"}}
{"Application":{"ProcessName":"com.jetappfactory.jetaudioplus","Start":"11-23-2013 05:05:52","End":"11-23-2013 05:09:39"}}
{"Application":{"ProcessName":"com.android.htcdialer","Start":"11-23-2013 05:05:52","End":"11-23-2013 05:09:55"}}
{"Application":{"ProcessName":"com.dianxinos.dxhome","Start":"11-23-2013 05:09:39","End":"11-23-2013 05:09:55"}}
{"SMS":{"Address":"+98919499####","type":"1","date":"11-22-2013 21:52:16","body":"ANONYMIZED","Type":"1"}}
{"SMS":{"Address":"HAMRAH ####","type":"1","date":"11-23-2013 10:24:56","body":"ANONYMIZED","Type":"1"}}
{"Application":{"ProcessName":"com.android.htcdialer","Start":"11-23-2013 11:08:54","End":"11-23-2013 13:22:01"}}
{"Application":{"ProcessName":"com.dianxinos.dxhome","Start":"11-23-2013 11:08:54","End":"11-23-2013 13:22:01"}}
{"Application":{"ProcessName":"ch.smalltech.battery.free","Start":"11-23-2013 11:09:04","End":"11-23-2013 13:22:01"}}
{"Application":{"ProcessName":"com.android.htcdialer","Start":"11-23-2013 13:22:01","End":"11-23-2013 13:22:11"}}
{"Application":{"ProcessName":"com.htc.flexnet","Start":"11-23-2013 13:22:01","End":"11-23-2013 13:22:11"}}
{"Application":{"ProcessName":"com.dianxinos.dxhome","Start":"11-23-2013 13:22:01","End":"11-23-2013 13:22:11"}}
{"Application":{"ProcessName":"com.htc.taskmanager","Start":"11-23-2013 16:28:41","End":"11-23-2013 16:28:51"}}
{"Call": {"Number":"+98919450####","Duration":"20","Time":"11-22-2013 22:06:42","Type":"1"}}
{"Call": {"Number":"+98919450####","Duration":"20","Time":"11-22-2013 22:06:42","Type":"1"}}
{"Call": {"Number":"+98919450####","Duration":"20","Time":"11-22-2013 22:06:42","Type":"1"}}
{"Call": {"Number":"+98919450####","Duration":"20","Time":"11-22-2013 22:06:42","Type":"1"}}
{"Call": {"Number":"+98919450####","Duration":"20","Time":"11-22-2013 22:06:42","Type":"1"}}
{"Call": {"Number":"+98919450####","Duration":"20","Time":"11-22-2013 22:06:42","Type":"1"}}
{"Call": {"Number":"+98919450####","Duration":"20","Time":"11-22-2013 22:06:42","Type":"1"}}
{"Call": {"Number":"+98919450####","Duration":"20","Time":"11-22-2013 22:06:42","Type":"1"}}
{"Call": {"Number":"+98919450####","Duration":"20","Time":"11-22-2013 22:06:42","Type":"1"}}
{"Call": {"Number":"+98919450####","Duration":"20","Time":"11-22-2013 22:06:42","Type":"1"}}
{"Call": {"Number":"+98919450####","Duration":"20","Time":"11-22-2013 22:06:42","Type":"1"}}
{"Call": {"Number":"+98919450####","Duration":"20","Time":"11-22-2013 22:06:42","Type":"1"}}
{"Call": {"Number":"+98919450####","Duration":"20","Time":"11-22-2013 22:06:42","Type":"1"}}
{"Call": {"Number":"+98919450####","Duration":"20","Time":"11-22-2013 22:06:42","Type":"1"}}
{"Application":{"ProcessName":"com.android.settings","Start":"11-23-2013 16:28:51","End":"11-23-2013 16:29:11"}}
{"Application":{"ProcessName":"com.htc.taskmanager","Start":"11-23-2013 16:29:11","End":"11-23-2013 16:29:21"}}
{"SMS":{"Address":"+98912448####","type":"1","date":"11-23-2013 17:18:34","body":"ANONYMIZED","Type":"1"}}
{"Application":{"ProcessName":"com.android.htcdialer","Start":"11-23-2013 16:28:41","End":"11-23-2013 17:22:28"}}
{"Application":{"ProcessName":"com.dianxinos.dxhome","Start":"11-23-2013 16:29:21","End":"11-23-2013 17:22:28"}}
{"Application":{"ProcessName":"com.android.providers.telephony","Start":"11-23-2013 16:29:01","End":"11-23-2013 17:22:28"}}
{"Call": {"Number":"+98919499####","Duration":"37","Time":"11-23-2013 17:28:54","Type":"2"}}
{"Call": {"Number":"+98919499####","Duration":"37","Time":"11-23-2013 17:28:54","Type":"2"}}
{"Call": {"Number":"+98919499####","Duration":"37","Time":"11-23-2013 17:28:54","Type":"2"}}
{"Call": {"Number":"+98919499####","Duration":"37","Time":"11-23-2013 17:28:54","Type":"2"}}
{"Call": {"Number":"+98919499####","Duration":"37","Time":"11-23-2013 17:28:54","Type":"2"}}
{"Call": {"Number":"+98919499####","Duration":"37","Time":"11-23-2013 17:28:54","Type":"2"}}
{"Call": {"Number":"+98919499####","Duration":"37","Time":"11-23-2013 17:28:54","Type":"2"}}
{"Call": {"Number":"+98919499####","Duration":"37","Time":"11-23-2013 17:28:54","Type":"2"}}
{"Call": {"Number":"+98919499####","Duration":"37","Time":"11-23-2013 17:28:54","Type":"2"}}
{"Call": {"Number":"+98919499####","Duration":"37","Time":"11-23-2013 17:28:54","Type":"2"}}
{"Application":{"ProcessName":"com.android.htcdialer","Start":"11-23-2013 17:52:37","End":"11-23-2013 17:52:48"}}
{"Application":{"ProcessName":"com.dianxinos.dxhome","Start":"11-23-2013 17:52:37","End":"11-23-2013 17:52:48"}}
{"Application":{"ProcessName":"com.android.providers.telephony","Start":"11-23-2013 17:52:37","End":"11-23-2013 17:52:48"}}
{"Application":{"ProcessName":"com.htc.flexnet","Start":"11-23-2013 17:52:37","End":"11-23-2013 17:52:48"}}
{"Call": {"Number":"+98919499####","Duration":"37","Time":"11-23-2013 17:28:54","Type":"2"}}
{"Call": {"Number":"+98919499####","Duration":"37","Time":"11-23-2013 17:28:54","Type":"2"}}
{"Call": {"Number":"+98919499####","Duration":"37","Time":"11-23-2013 17:28:54","Type":"2"}}
{"Call": {"Number":"+98919499####","Duration":"37","Time":"11-23-2013 17:28:54","Type":"2"}}
{"Application":{"ProcessName":"com.dianxinos.dxhome","Start":"11-23-2013 17:53:15","End":"11-23-2013 17:53:45"}}
{"Application":{"ProcessName":"com.android.providers.telephony","Start":"11-23-2013 17:53:45","End":"11-23-2013 17:53:55"}}
{"Application":{"ProcessName":"com.android.htcdialer","Start":"11-23-2013 17:53:15","End":"11-23-2013 17:54:35"}}
{"Application":{"ProcessName":"com.dianxinos.dxhome","Start":"11-23-2013 17:53:55","End":"11-23-2013 17:54:35"}}
{"Application":{"ProcessName":"com.android.htcdialer","Start":"11-23-2013 17:56:38","End":"11-23-2013 17:56:48"}}
{"Application":{"ProcessName":"com.google.android.apps.maps:GoogleLocationService","Start":"11-23-2013 17:56:38","End":"11-23-2013 17:56:48"}}
{"Application":{"ProcessName":"com.dianxinos.dxhome","Start":"11-23-2013 17:56:38","End":"11-23-2013 17:56:48"}}
{"Call": {"Number":"+98912448####","Duration":"109","Time":"11-23-2013 17:56:44","Type":"2"}}
{"Call": {"Number":"+98912448####","Duration":"109","Time":"11-23-2013 17:56:44","Type":"2"}}
{"Application":{"ProcessName":"com.android.htcdialer","Start":"11-23-2013 17:59:02","End":"11-23-2013 17:59:42"}}
{"Call": {"Number":"0936307####","Duration":"0","Time":"11-23-2013 17:59:30","Type":"2"}}
{"Call": {"Number":"0936307####","Duration":"0","Time":"11-23-2013 17:59:30","Type":"2"}}
{"Application":{"ProcessName":"com.android.htcdialer","Start":"11-23-2013 18:07:26","End":"11-23-2013 18:11:23"}}
{"Application":{"ProcessName":"com.dianxinos.dxhome","Start":"11-23-2013 18:07:26","End":"11-23-2013 18:11:23"}}
{"Application":{"ProcessName":"com.htc.flexnet","Start":"11-23-2013 18:46:07","End":"11-23-2013 18:46:21"}}
{"Application":{"ProcessName":"com.dianxinos.dxhome","Start":"11-23-2013 18:46:07","End":"11-23-2013 18:46:21"}}
{"Application":{"ProcessName":"com.android.htcdialer","Start":"11-23-2013 18:46:07","End":"11-23-2013 18:46:31"}}
{"Call": {"Number":"+98912448####","Duration":"31","Time":"11-23-2013 18:46:21","Type":"2"}}
{"Application":{"ProcessName":"com.android.htcdialer","Start":"11-23-2013 18:47:06","End":"11-23-2013 18:48:14"}}
{"Application":{"ProcessName":"com.dianxinos.dxhome","Start":"11-23-2013 18:47:06","End":"11-23-2013 18:48:14"}}
{"Call": {"Number":"+98912448####","Duration":"50","Time":"11-23-2013 19:01:11","Type":"1"}}
{"Call": {"Number":"+98912448####","Duration":"11","Time":"11-23-2013 19:33:21","Type":"1"}}
{"Application":{"ProcessName":"com.android.htcdialer","Start":"11-23-2013 19:33:31","End":"11-23-2013 19:34:08"}}
{"Application":{"ProcessName":"com.htc.lockscreen","Start":"11-23-2013 19:33:48","End":"11-23-2013 19:34:08"}}
{"Application":{"ProcessName":"com.android.htcdialer","Start":"11-23-2013 19:39:43","End":"11-23-2013 19:39:53"}}
{"Application":{"ProcessName":"com.htc.flexnet","Start":"11-23-2013 19:39:43","End":"11-23-2013 19:39:53"}}
{"Application":{"ProcessName":"com.dianxinos.dxhome","Start":"11-23-2013 19:39:43","End":"11-23-2013 19:39:53"}}
{"Application":{"ProcessName":"com.android.htcdialer","Start":"11-23-2013 21:24:43","End":"11-23-2013 21:26:14"}}
{"Application":{"ProcessName":"com.dianxinos.dxhome","Start":"11-23-2013 21:24:43","End":"11-23-2013 21:26:14"}}
{"Application":{"ProcessName":"com.android.providers.telephony","Start":"11-23-2013 21:24:43","End":"11-23-2013 21:26:14"}}
{"Call": {"Number":"+98936307####","Duration":"0","Time":"11-23-2013 21:26:52","Type":"3"}}
{"Call": {"Number":"+98936307####","Duration":"0","Time":"11-23-2013 21:26:52","Type":"3"}}
{"Call": {"Number":"+98936307####","Duration":"0","Time":"11-23-2013 21:26:52","Type":"3"}}
{"Application":{"ProcessName":"com.android.htcdialer","Start":"11-23-2013 21:27:00","End":"11-23-2013 21:27:12"}}
{"Application":{"ProcessName":"com.dianxinos.dxhome","Start":"11-23-2013 21:27:00","End":"11-23-2013 21:27:12"}}
{"Call": {"Number":"+98936307####","Duration":"0","Time":"11-23-2013 21:26:52","Type":"3"}}
{"Call": {"Number":"+98936307####","Duration":"0","Time":"11-23-2013 21:26:52","Type":"3"}}
{"Call": {"Number":"+98936307####","Duration":"0","Time":"11-23-2013 21:26:52","Type":"3"}}
{"Application":{"ProcessName":"com.dianxinos.dxhome","Start":"11-23-2013 21:28:58","End":"11-23-2013 21:29:08"}}
{"Application":{"ProcessName":"com.htc.task","Start":"11-23-2013 21:29:08","End":"11-23-2013 21:29:10"}}
{"Application":{"ProcessName":"com.android.htcdialer","Start":"11-23-2013 21:28:58","End":"11-23-2013 21:29:10"}}
{"Call": {"Number":"+98936307####","Duration":"245","Time":"11-23-2013 21:29:08","Type":"2"}}
{"Call": {"Number":"+98936307####","Duration":"245","Time":"11-23-2013 21:29:08","Type":"2"}}
{"Call": {"Number":"+98936307####","Duration":"245","Time":"11-23-2013 21:29:08","Type":"2"}}
{"Application":{"ProcessName":"com.android.htcdialer","Start":"11-23-2013 22:04:36","End":"11-23-2013 22:06:04"}}
{"Application":{"ProcessName":"com.google.android.apps.plus","Start":"11-23-2013 22:04:36","End":"11-23-2013 22:06:04"}}
{"Application":{"ProcessName":"ch.smalltech.battery.free","Start":"11-23-2013 22:04:36","End":"11-23-2013 22:06:04"}}
{"Application":{"ProcessName":"com.android.htcdialer","Start":"11-23-2013 22:08:52","End":"11-23-2013 22:11:20"}}
{"Application":{"ProcessName":"com.dianxinos.dxhome","Start":"11-23-2013 22:08:52","End":"11-23-2013 22:11:20"}}
