{"Call": {"Number":"+98212248####","Duration":"0","Time":"12-3-2013 12:46:09","Type":"3"}}
{"Application":{"ProcessName":"com.android.htcdialer","Start":"12-3-2013 12:46:13","End":"12-3-2013 12:49:48"}}
{"SMS":{"Address":"+98912702####","type":"1","date":"12-3-2013 10:37:09","body":"ANONYMIZED","Type":"1"}}
{"Call": {"Number":"+98212248####","Duration":"0","Time":"12-3-2013 12:46:09","Type":"3"}}
{"Application":{"ProcessName":"com.android.mms","Start":"12-3-2013 12:50:03","End":"12-3-2013 12:50:32"}}
{"Application":{"ProcessName":"com.android.htcdialer","Start":"12-3-2013 12:50:03","End":"12-3-2013 12:50:32"}}
{"Application":{"ProcessName":"com.android.providers.telephony","Start":"12-3-2013 12:50:13","End":"12-3-2013 12:50:32"}}
{"Application":{"ProcessName":"com.htc.task","Start":"12-3-2013 13:55:59","End":"12-3-2013 13:56:09"}}
{"Call": {"Number":"+98935877####","Duration":"0","Time":"12-3-2013 13:55:58","Type":"3"}}
{"Application":{"ProcessName":"com.android.htcdialer","Start":"12-3-2013 13:55:59","End":"12-3-2013 13:58:59"}}
{"Call": {"Number":"+98935877####","Duration":"0","Time":"12-3-2013 13:59:59","Type":"3"}}
{"Application":{"ProcessName":"com.android.htcdialer","Start":"12-3-2013 14:00:02","End":"12-3-2013 14:03:30"}}
{"Call": {"Number":"+98935877####","Duration":"0","Time":"12-3-2013 13:59:59","Type":"3"}}
{"Application":{"ProcessName":"com.android.htccontacts","Start":"12-3-2013 14:16:20","End":"12-3-2013 14:16:40"}}
{"Application":{"ProcessName":"com.android.htcdialer","Start":"12-3-2013 14:16:00","End":"12-3-2013 14:17:47"}}
{"SMS":{"Address":"HAMRAH ####","type":"1","date":"12-3-2013 14:18:06","body":"ANONYMIZED","Type":"1"}}
{"Application":{"ProcessName":"com.htc.android.htcime:provider","Start":"12-3-2013 14:21:11","End":"12-3-2013 14:22:12"}}
{"Application":{"ProcessName":"com.android.mms","Start":"12-3-2013 14:21:01","End":"12-3-2013 14:22:12"}}
{"Application":{"ProcessName":"com.android.providers.telephony","Start":"12-3-2013 14:21:01","End":"12-3-2013 14:22:12"}}
{"Application":{"ProcessName":"com.htc.android.htcime:provider","Start":"12-3-2013 14:22:22","End":"12-3-2013 14:22:32"}}
{"Application":{"ProcessName":"com.android.mms","Start":"12-3-2013 14:22:22","End":"12-3-2013 14:22:32"}}
{"Application":{"ProcessName":"com.android.providers.telephony","Start":"12-3-2013 14:22:22","End":"12-3-2013 14:22:32"}}
{"Application":{"ProcessName":"com.farsitel.qiblacompass","Start":"12-3-2013 14:24:32","End":"12-3-2013 14:24:52"}}
{"Application":{"ProcessName":"com.android.htcdialer","Start":"12-3-2013 14:20:51","End":"12-3-2013 14:25:38"}}
{"Application":{"ProcessName":"com.android.htcdialer","Start":"12-3-2013 14:30:32","End":"12-3-2013 14:30:53"}}
{"Call": {"Number":"+98912309####","Duration":"54","Time":"12-3-2013 14:30:29","Type":"1"}}
{"Application":{"ProcessName":"com.android.htcdialer","Start":"12-3-2013 15:22:50","End":"12-3-2013 15:23:41"}}
{"Application":{"ProcessName":"com.jetappfactory.jetaudioplus","Start":"12-3-2013 15:23:20","End":"12-3-2013 15:23:41"}}
{"Application":{"ProcessName":"com.android.htcdialer","Start":"12-3-2013 15:30:02","End":"12-3-2013 15:30:32"}}
{"Application":{"ProcessName":"com.jetappfactory.jetaudioplus","Start":"12-3-2013 15:30:22","End":"12-3-2013 15:30:32"}}
{"Application":{"ProcessName":"com.android.htcdialer","Start":"12-3-2013 15:37:34","End":"12-3-2013 15:39:14"}}
{"Application":{"ProcessName":"com.jetappfactory.jetaudioplus","Start":"12-3-2013 15:37:34","End":"12-3-2013 15:39:14"}}
{"Application":{"ProcessName":"com.android.htcdialer","Start":"12-3-2013 15:43:15","End":"12-3-2013 15:44:43"}}
{"Application":{"ProcessName":"com.jetappfactory.jetaudioplus","Start":"12-3-2013 15:43:15","End":"12-3-2013 15:44:43"}}
{"Application":{"ProcessName":"com.android.htcdialer","Start":"12-3-2013 15:47:24","End":"12-3-2013 15:47:34"}}
{"Application":{"ProcessName":"com.jetappfactory.jetaudioplus","Start":"12-3-2013 15:47:24","End":"12-3-2013 15:47:34"}}
{"Application":{"ProcessName":"com.android.htcdialer","Start":"12-3-2013 15:51:15","End":"12-3-2013 15:51:45"}}
{"Application":{"ProcessName":"com.jetappfactory.jetaudioplus","Start":"12-3-2013 15:51:15","End":"12-3-2013 15:51:45"}}
{"Application":{"ProcessName":"com.android.htcdialer","Start":"12-3-2013 15:55:56","End":"12-3-2013 15:56:06"}}
{"Application":{"ProcessName":"com.jetappfactory.jetaudioplus","Start":"12-3-2013 15:55:56","End":"12-3-2013 15:56:06"}}
{"Application":{"ProcessName":"com.android.htcdialer","Start":"12-3-2013 15:59:37","End":"12-3-2013 15:59:47"}}
{"Application":{"ProcessName":"com.jetappfactory.jetaudioplus","Start":"12-3-2013 15:59:37","End":"12-3-2013 15:59:47"}}
{"Application":{"ProcessName":"com.android.htcdialer","Start":"12-3-2013 16:03:18","End":"12-3-2013 16:03:38"}}
{"Application":{"ProcessName":"com.jetappfactory.jetaudioplus","Start":"12-3-2013 16:03:18","End":"12-3-2013 16:03:38"}}
{"Application":{"ProcessName":"com.android.htcdialer","Start":"12-3-2013 16:37:56","End":"12-3-2013 16:38:06"}}
{"Application":{"ProcessName":"com.android.providers.telephony","Start":"12-3-2013 16:37:56","End":"12-3-2013 16:38:06"}}
{"Call": {"Number":"0935356####","Duration":"0","Time":"12-3-2013 16:37:54","Type":"2"}}
{"Application":{"ProcessName":"com.android.htcdialer","Start":"12-3-2013 16:39:18","End":"12-3-2013 16:40:04"}}
{"Application":{"ProcessName":"com.android.htccontacts","Start":"12-3-2013 16:57:16","End":"12-3-2013 17:00:56"}}
{"Application":{"ProcessName":"com.persian.dictionary","Start":"12-3-2013 17:01:06","End":"12-3-2013 17:01:26"}}
{"Application":{"ProcessName":"com.android.htcdialer","Start":"12-3-2013 16:56:56","End":"12-3-2013 17:01:56"}}
{"Application":{"ProcessName":"com.android.htccontacts","Start":"12-3-2013 17:01:36","End":"12-3-2013 17:03:46"}}
{"Application":{"ProcessName":"com.android.htcdialer","Start":"12-3-2013 17:01:56","End":"12-3-2013 17:06:07"}}
{"Application":{"ProcessName":"com.android.htcdialer","Start":"12-3-2013 17:11:13","End":"12-3-2013 17:12:53"}}
{"Application":{"ProcessName":"com.android.htcdialer","Start":"12-3-2013 17:13:47","End":"12-3-2013 17:14:42"}}
{"Call": {"Number":"0935356####","Duration":"0","Time":"12-3-2013 16:37:54","Type":"2"}}
{"Call": {"Number":"0935356####","Duration":"0","Time":"12-3-2013 16:37:54","Type":"2"}}
{"Call": {"Number":"0935356####","Duration":"0","Time":"12-3-2013 16:37:54","Type":"2"}}
{"Call": {"Number":"0935356####","Duration":"0","Time":"12-3-2013 16:37:54","Type":"2"}}
{"Call": {"Number":"0935356####","Duration":"0","Time":"12-3-2013 16:37:54","Type":"2"}}
{"Call": {"Number":"0935356####","Duration":"0","Time":"12-3-2013 16:37:54","Type":"2"}}
{"Call": {"Number":"0935356####","Duration":"0","Time":"12-3-2013 16:37:54","Type":"2"}}
{"Call": {"Number":"0935356####","Duration":"0","Time":"12-3-2013 16:37:54","Type":"2"}}
{"Call": {"Number":"0935356####","Duration":"0","Time":"12-3-2013 16:37:54","Type":"2"}}
{"Call": {"Number":"0935356####","Duration":"0","Time":"12-3-2013 16:37:54","Type":"2"}}
{"Call": {"Number":"0935356####","Duration":"0","Time":"12-3-2013 16:37:54","Type":"2"}}
{"Call": {"Number":"0935356####","Duration":"0","Time":"12-3-2013 16:37:54","Type":"2"}}
{"Call": {"Number":"0935356####","Duration":"0","Time":"12-3-2013 16:37:54","Type":"2"}}
{"Call": {"Number":"0935356####","Duration":"0","Time":"12-3-2013 16:37:54","Type":"2"}}
{"Call": {"Number":"0935356####","Duration":"0","Time":"12-3-2013 16:37:54","Type":"2"}}
{"Call": {"Number":"0935356####","Duration":"0","Time":"12-3-2013 16:37:54","Type":"2"}}
{"Call": {"Number":"0935356####","Duration":"0","Time":"12-3-2013 16:37:54","Type":"2"}}
{"Call": {"Number":"0935356####","Duration":"0","Time":"12-3-2013 16:37:54","Type":"2"}}
{"Call": {"Number":"0935356####","Duration":"0","Time":"12-3-2013 16:37:54","Type":"2"}}
{"Call": {"Number":"0935356####","Duration":"0","Time":"12-3-2013 16:37:54","Type":"2"}}
{"Call": {"Number":"0935356####","Duration":"0","Time":"12-3-2013 16:37:54","Type":"2"}}
{"Call": {"Number":"0935356####","Duration":"0","Time":"12-3-2013 16:37:54","Type":"2"}}
{"Call": {"Number":"0935356####","Duration":"0","Time":"12-3-2013 16:37:54","Type":"2"}}
{"Call": {"Number":"0935356####","Duration":"0","Time":"12-3-2013 16:37:54","Type":"2"}}
{"Call": {"Number":"0935356####","Duration":"0","Time":"12-3-2013 16:37:54","Type":"2"}}
{"Call": {"Number":"0935356####","Duration":"0","Time":"12-3-2013 16:37:54","Type":"2"}}
{"Call": {"Number":"0935356####","Duration":"0","Time":"12-3-2013 16:37:54","Type":"2"}}
{"Call": {"Number":"0935356####","Duration":"0","Time":"12-3-2013 16:37:54","Type":"2"}}
{"Call": {"Number":"0935356####","Duration":"0","Time":"12-3-2013 16:37:54","Type":"2"}}
{"Call": {"Number":"0935356####","Duration":"0","Time":"12-3-2013 16:37:54","Type":"2"}}
{"Call": {"Number":"0935356####","Duration":"0","Time":"12-3-2013 16:37:54","Type":"2"}}
{"Call": {"Number":"0935356####","Duration":"0","Time":"12-3-2013 16:37:54","Type":"2"}}
{"Call": {"Number":"0935356####","Duration":"0","Time":"12-3-2013 16:37:54","Type":"2"}}
{"Call": {"Number":"0935356####","Duration":"0","Time":"12-3-2013 16:37:54","Type":"2"}}
{"Call": {"Number":"0935356####","Duration":"0","Time":"12-3-2013 16:37:54","Type":"2"}}
{"Call": {"Number":"0935356####","Duration":"0","Time":"12-3-2013 16:37:54","Type":"2"}}
{"Call": {"Number":"0935356####","Duration":"0","Time":"12-3-2013 16:37:54","Type":"2"}}
{"Call": {"Number":"0935356####","Duration":"0","Time":"12-3-2013 16:37:54","Type":"2"}}
{"Call": {"Number":"0935356####","Duration":"0","Time":"12-3-2013 16:37:54","Type":"2"}}
{"Call": {"Number":"0935356####","Duration":"0","Time":"12-3-2013 16:37:54","Type":"2"}}
{"Call": {"Number":"0935356####","Duration":"0","Time":"12-3-2013 16:37:54","Type":"2"}}
{"Call": {"Number":"0935356####","Duration":"0","Time":"12-3-2013 16:37:54","Type":"2"}}
{"Call": {"Number":"0935356####","Duration":"0","Time":"12-3-2013 16:37:54","Type":"2"}}
{"Call": {"Number":"0935356####","Duration":"0","Time":"12-3-2013 16:37:54","Type":"2"}}
{"Call": {"Number":"0935356####","Duration":"0","Time":"12-3-2013 16:37:54","Type":"2"}}
{"Application":{"ProcessName":"com.android.htcdialer","Start":"12-3-2013 17:18:37","End":"12-3-2013 17:20:03"}}
{"Application":{"ProcessName":"com.android.htccontacts","Start":"12-3-2013 17:19:17","End":"12-3-2013 17:20:03"}}
{"Application":{"ProcessName":"com.android.htcdialer","Start":"12-3-2013 17:20:40","End":"12-3-2013 17:21:54"}}
{"Application":{"ProcessName":"com.android.htccontacts","Start":"12-3-2013 17:20:40","End":"12-3-2013 17:21:54"}}
{"Application":{"ProcessName":"com.android.htcdialer","Start":"12-3-2013 17:26:48","End":"12-3-2013 17:26:58"}}
{"Call": {"Number":"0919499####","Duration":"19","Time":"12-3-2013 17:26:56","Type":"2"}}
{"Application":{"ProcessName":"com.android.htcdialer","Start":"12-3-2013 17:27:32","End":"12-3-2013 17:29:25"}}
{"Call": {"Number":"+98935356####","Duration":"53","Time":"12-3-2013 17:52:38","Type":"1"}}
{"SMS":{"Address":"+98919499####","type":"1","date":"12-3-2013 17:51:41","body":"ANONYMIZED","Type":"1"}}
{"Application":{"ProcessName":"com.android.htcdialer","Start":"12-3-2013 17:53:47","End":"12-3-2013 17:54:15"}}
{"SMS":{"Address":"+98919499####","type":"2","date":"12-3-2013 17:54:28","body":"ANONYMIZED","Type":"2"}}
{"Application":{"ProcessName":"com.android.mms","Start":"12-3-2013 17:54:27","End":"12-3-2013 17:54:41"}}
{"Application":{"ProcessName":"com.android.providers.telephony","Start":"12-3-2013 17:54:27","End":"12-3-2013 17:54:41"}}
{"Application":{"ProcessName":"com.android.htcdialer","Start":"12-3-2013 17:54:27","End":"12-3-2013 17:55:43"}}
{"Application":{"ProcessName":"com.android.mms","Start":"12-3-2013 18:06:26","End":"12-3-2013 18:06:46"}}
{"Application":{"ProcessName":"com.android.providers.telephony","Start":"12-3-2013 18:06:26","End":"12-3-2013 18:06:46"}}
{"Application":{"ProcessName":"com.infraware.docmaster","Start":"12-3-2013 18:07:06","End":"12-3-2013 18:10:16"}}
{"Application":{"ProcessName":"com.android.htcdialer","Start":"12-3-2013 18:06:16","End":"12-3-2013 18:12:16"}}
{"Application":{"ProcessName":"com.android.htcdialer","Start":"12-3-2013 18:55:56","End":"12-3-2013 18:59:52"}}
{"Call": {"Number":"0919450####","Duration":"0","Time":"12-3-2013 19:12:58","Type":"2"}}
{"Call": {"Number":"0919450####","Duration":"0","Time":"12-3-2013 19:13:06","Type":"2"}}
{"Call": {"Number":"0919450####","Duration":"0","Time":"12-3-2013 19:13:11","Type":"2"}}
{"Application":{"ProcessName":"com.android.htcdialer","Start":"12-3-2013 19:12:55","End":"12-3-2013 19:13:45"}}
{"Call": {"Number":"0912301####","Duration":"1117","Time":"12-3-2013 19:13:39","Type":"2"}}
{"Call": {"Number":"0919450####","Duration":"0","Time":"12-3-2013 19:32:39","Type":"2"}}
{"Application":{"ProcessName":"com.android.htcdialer","Start":"12-3-2013 19:33:35","End":"12-3-2013 19:33:45"}}
{"Call": {"Number":"0919450####","Duration":"0","Time":"12-3-2013 19:33:36","Type":"2"}}
{"Call": {"Number":"0919450####","Duration":"0","Time":"12-3-2013 19:33:59","Type":"2"}}
{"Call": {"Number":"0919450####","Duration":"8","Time":"12-3-2013 19:34:33","Type":"2"}}
{"Application":{"ProcessName":"com.android.htcdialer","Start":"12-3-2013 19:35:09","End":"12-3-2013 19:35:19"}}
{"Call": {"Number":"0935757####","Duration":"4","Time":"12-3-2013 19:35:16","Type":"2"}}
{"Call": {"Number":"0933902####","Duration":"0","Time":"12-3-2013 19:35:45","Type":"2"}}
{"Application":{"ProcessName":"com.android.htcdialer","Start":"12-3-2013 19:35:42","End":"12-3-2013 19:36:45"}}
{"Call": {"Number":"+98919450####","Duration":"29","Time":"12-3-2013 19:36:45","Type":"1"}}
{"Application":{"ProcessName":"com.android.htcdialer","Start":"12-3-2013 19:37:19","End":"12-3-2013 19:38:18"}}
{"Application":{"ProcessName":"com.android.htcdialer","Start":"12-3-2013 19:43:45","End":"12-3-2013 19:44:47"}}
{"Call": {"Number":"+98935757####","Duration":"154","Time":"12-3-2013 19:43:38","Type":"1"}}
{"Application":{"ProcessName":"com.android.htcdialer","Start":"12-3-2013 19:46:35","End":"12-3-2013 19:47:05"}}
{"Call": {"Number":"0213371####","Duration":"164","Time":"12-3-2013 19:46:59","Type":"2"}}
{"Application":{"ProcessName":"com.android.htcdialer","Start":"12-3-2013 19:57:19","End":"12-3-2013 19:57:54"}}
{"Call": {"Number":"+98935877####","Duration":"65","Time":"12-3-2013 20:34:27","Type":"1"}}
{"Application":{"ProcessName":"com.android.htcdialer","Start":"12-3-2013 20:32:25","End":"12-3-2013 20:39:38"}}
