{"WiFi":{"SSID":"SaraHardwareCo","BSSID":"00:1f:fb:63:e2:f6","capabilities":"[WEP][ESS]","level":"-78","frequency":"2412","time":"Monday, November 18, 2013 11:52:34 PM Iran Standard Time"}}
{"WiFi":{"SSID":"narges12","BSSID":"2c:54:2d:38:2a:17","capabilities":"[WPA-PSK-TKIP][WPS][ESS]","level":"-66","frequency":"2437","time":"Monday, November 18, 2013 11:52:34 PM Iran Standard Time"}}
{"Application":{"ProcessName":"com.tencent.mm","Start":"11-18-2013 23:52:46","End":"11-18-2013 23:52:56"}}
{"Application":{"ProcessName":"com.sonyericsson.home","Start":"11-18-2013 23:52:46","End":"11-18-2013 23:53:26"}}
{"Application":{"ProcessName":"com.sonyericsson.customization","Start":"11-18-2013 23:52:46","End":"11-18-2013 23:53:26"}}
{"WiFi":{"SSID":"SaraHardwareCo","BSSID":"00:1f:fb:63:e2:f6","capabilities":"[WEP][ESS]","level":"-78","frequency":"2412","time":"Monday, November 18, 2013 11:53:34 PM Iran Standard Time"}}
{"WiFi":{"SSID":"narges12","BSSID":"2c:54:2d:38:2a:17","capabilities":"[WPA-PSK-TKIP][WPS][ESS]","level":"-66","frequency":"2437","time":"Monday, November 18, 2013 11:53:34 PM Iran Standard Time"}}
{"WiFi":{"SSID":"SaraHardwareCo","BSSID":"00:1f:fb:63:e2:f6","capabilities":"[WEP][ESS]","level":"-78","frequency":"2412","time":"Monday, November 18, 2013 11:54:34 PM Iran Standard Time"}}
{"WiFi":{"SSID":"narges12","BSSID":"2c:54:2d:38:2a:17","capabilities":"[WPA-PSK-TKIP][WPS][ESS]","level":"-66","frequency":"2437","time":"Monday, November 18, 2013 11:54:34 PM Iran Standard Time"}}
{"WiFi":{"SSID":"SaraHardwareCo","BSSID":"00:1f:fb:63:e2:f6","capabilities":"[WEP][ESS]","level":"-78","frequency":"2412","time":"Monday, November 18, 2013 11:55:34 PM Iran Standard Time"}}
{"WiFi":{"SSID":"narges12","BSSID":"2c:54:2d:38:2a:17","capabilities":"[WPA-PSK-TKIP][WPS][ESS]","level":"-66","frequency":"2437","time":"Monday, November 18, 2013 11:55:34 PM Iran Standard Time"}}
{"WiFi":{"SSID":"SaraHardwareCo","BSSID":"00:1f:fb:63:e2:f6","capabilities":"[WEP][ESS]","level":"-78","frequency":"2412","time":"Monday, November 18, 2013 11:56:59 PM Iran Standard Time"}}
{"WiFi":{"SSID":"narges12","BSSID":"2c:54:2d:38:2a:17","capabilities":"[WPA-PSK-TKIP][WPS][ESS]","level":"-66","frequency":"2437","time":"Monday, November 18, 2013 11:56:59 PM Iran Standard Time"}}
{"WiFi":{"SSID":"SaraHardwareCo","BSSID":"00:1f:fb:63:e2:f6","capabilities":"[WEP][ESS]","level":"-78","frequency":"2412","time":"Monday, November 18, 2013 11:57:59 PM Iran Standard Time"}}
{"WiFi":{"SSID":"narges12","BSSID":"2c:54:2d:38:2a:17","capabilities":"[WPA-PSK-TKIP][WPS][ESS]","level":"-66","frequency":"2437","time":"Monday, November 18, 2013 11:57:59 PM Iran Standard Time"}}
{"Application":{"ProcessName":"com.tencent.mm","Start":"11-18-2013 23:56:31","End":"11-18-2013 23:59:12"}}
{"Application":{"ProcessName":"com.sonyericsson.home","Start":"11-18-2013 23:56:21","End":"11-18-2013 23:59:12"}}
{"Application":{"ProcessName":"com.sonyericsson.customization","Start":"11-18-2013 23:56:21","End":"11-18-2013 23:59:12"}}
{"WiFi":{"SSID":"SaraHardwareCo","BSSID":"00:1f:fb:63:e2:f6","capabilities":"[WEP][ESS]","level":"-78","frequency":"2412","time":"Monday, November 18, 2013 11:59:19 PM Iran Standard Time"}}
{"WiFi":{"SSID":"narges12","BSSID":"2c:54:2d:38:2a:17","capabilities":"[WPA-PSK-TKIP][WPS][ESS]","level":"-66","frequency":"2437","time":"Monday, November 18, 2013 11:59:19 PM Iran Standard Time"}}
{"WiFi":{"SSID":"SaraHardwareCo","BSSID":"00:1f:fb:63:e2:f6","capabilities":"[WEP][ESS]","level":"-78","frequency":"2412","time":"Tuesday, November 19, 2013 12:00:26 AM Iran Standard Time"}}
{"WiFi":{"SSID":"narges12","BSSID":"2c:54:2d:38:2a:17","capabilities":"[WPA-PSK-TKIP][WPS][ESS]","level":"-66","frequency":"2437","time":"Tuesday, November 19, 2013 12:00:26 AM Iran Standard Time"}}
{"WiFi":{"SSID":"SaraHardwareCo","BSSID":"00:1f:fb:63:e2:f6","capabilities":"[WEP][ESS]","level":"-78","frequency":"2412","time":"Tuesday, November 19, 2013 12:01:26 AM Iran Standard Time"}}
{"WiFi":{"SSID":"narges12","BSSID":"2c:54:2d:38:2a:17","capabilities":"[WPA-PSK-TKIP][WPS][ESS]","level":"-66","frequency":"2437","time":"Tuesday, November 19, 2013 12:01:26 AM Iran Standard Time"}}
{"Application":{"ProcessName":"com.tencent.mm","Start":"11-18-2013 23:59:38","End":"11-19-2013 00:01:28"}}
{"Application":{"ProcessName":"com.sonyericsson.home","Start":"11-18-2013 23:59:38","End":"11-19-2013 00:01:58"}}
{"Application":{"ProcessName":"com.sonyericsson.customization","Start":"11-18-2013 23:59:38","End":"11-19-2013 00:01:58"}}
{"WiFi":{"SSID":"SaraHardwareCo","BSSID":"00:1f:fb:63:e2:f6","capabilities":"[WEP][ESS]","level":"-78","frequency":"2412","time":"Tuesday, November 19, 2013 12:02:26 AM Iran Standard Time"}}
{"WiFi":{"SSID":"narges12","BSSID":"2c:54:2d:38:2a:17","capabilities":"[WPA-PSK-TKIP][WPS][ESS]","level":"-66","frequency":"2437","time":"Tuesday, November 19, 2013 12:02:26 AM Iran Standard Time"}}
{"WiFi":{"SSID":"SaraHardwareCo","BSSID":"00:1f:fb:63:e2:f6","capabilities":"[WEP][ESS]","level":"-78","frequency":"2412","time":"Tuesday, November 19, 2013 12:03:29 AM Iran Standard Time"}}
{"WiFi":{"SSID":"narges12","BSSID":"2c:54:2d:38:2a:17","capabilities":"[WPA-PSK-TKIP][WPS][ESS]","level":"-66","frequency":"2437","time":"Tuesday, November 19, 2013 12:03:29 AM Iran Standard Time"}}
{"WiFi":{"SSID":"SaraHardwareCo","BSSID":"00:1f:fb:63:e2:f6","capabilities":"[WEP][ESS]","level":"-78","frequency":"2412","time":"Tuesday, November 19, 2013 12:05:17 AM Iran Standard Time"}}
{"WiFi":{"SSID":"narges12","BSSID":"2c:54:2d:38:2a:17","capabilities":"[WPA-PSK-TKIP][WPS][ESS]","level":"-66","frequency":"2437","time":"Tuesday, November 19, 2013 12:05:17 AM Iran Standard Time"}}
{"WiFi":{"SSID":"SaraHardwareCo","BSSID":"00:1f:fb:63:e2:f6","capabilities":"[WEP][ESS]","level":"-78","frequency":"2412","time":"Tuesday, November 19, 2013 12:06:17 AM Iran Standard Time"}}
{"WiFi":{"SSID":"narges12","BSSID":"2c:54:2d:38:2a:17","capabilities":"[WPA-PSK-TKIP][WPS][ESS]","level":"-66","frequency":"2437","time":"Tuesday, November 19, 2013 12:06:17 AM Iran Standard Time"}}
{"WiFi":{"SSID":"SaraHardwareCo","BSSID":"00:1f:fb:63:e2:f6","capabilities":"[WEP][ESS]","level":"-78","frequency":"2412","time":"Tuesday, November 19, 2013 12:07:17 AM Iran Standard Time"}}
{"WiFi":{"SSID":"narges12","BSSID":"2c:54:2d:38:2a:17","capabilities":"[WPA-PSK-TKIP][WPS][ESS]","level":"-66","frequency":"2437","time":"Tuesday, November 19, 2013 12:07:17 AM Iran Standard Time"}}
{"SMS":{"Address":"+98912145####","type":"1","date":"11-19-2013 00:08:47","body":"ANONYMIZED","Type":"1"}}
{"WiFi":{"SSID":"SaraHardwareCo","BSSID":"00:1f:fb:63:e2:f6","capabilities":"[WEP][ESS]","level":"-78","frequency":"2412","time":"Tuesday, November 19, 2013 12:09:04 AM Iran Standard Time"}}
{"WiFi":{"SSID":"narges12","BSSID":"2c:54:2d:38:2a:17","capabilities":"[WPA-PSK-TKIP][WPS][ESS]","level":"-66","frequency":"2437","time":"Tuesday, November 19, 2013 12:09:04 AM Iran Standard Time"}}
{"WiFi":{"SSID":"SaraHardwareCo","BSSID":"00:1f:fb:63:e2:f6","capabilities":"[WEP][ESS]","level":"-78","frequency":"2412","time":"Tuesday, November 19, 2013 12:11:08 AM Iran Standard Time"}}
{"WiFi":{"SSID":"narges12","BSSID":"2c:54:2d:38:2a:17","capabilities":"[WPA-PSK-TKIP][WPS][ESS]","level":"-66","frequency":"2437","time":"Tuesday, November 19, 2013 12:11:08 AM Iran Standard Time"}}
{"WiFi":{"SSID":"D-Link","BSSID":"d8:fe:e3:a8:d8:3a","capabilities":"[WPA-PSK-TKIP+CCMP][WPA2-PSK-TKIP+CCMP][WPS][ESS]","level":"-84","frequency":"2462","time":"Tuesday, November 19, 2013 12:12:08 AM Iran Standard Time"}}
{"WiFi":{"SSID":"SaraHardwareCo","BSSID":"00:1f:fb:63:e2:f6","capabilities":"[WEP][ESS]","level":"-79","frequency":"2412","time":"Tuesday, November 19, 2013 12:12:08 AM Iran Standard Time"}}
{"WiFi":{"SSID":"razeghi34","BSSID":"2c:54:2d:38:2a:19","capabilities":"[WPA-PSK-TKIP][WPS][ESS]","level":"-97","frequency":"2437","time":"Tuesday, November 19, 2013 12:12:08 AM Iran Standard Time"}}
{"WiFi":{"SSID":"narges12","BSSID":"2c:54:2d:38:2a:17","capabilities":"[WPA-PSK-TKIP][WPS][ESS]","level":"-77","frequency":"2437","time":"Tuesday, November 19, 2013 12:12:08 AM Iran Standard Time"}}
{"WiFi":{"SSID":"THR","BSSID":"00:1a:dd:b4:89:41","capabilities":"[WPA-PSK-TKIP][ESS]","level":"-93","frequency":"2412","time":"Tuesday, November 19, 2013 12:12:08 AM Iran Standard Time"}}
{"WiFi":{"SSID":"razeghi12","BSSID":"2c:54:2d:38:2a:1f","capabilities":"[WPA-PSK-TKIP][WPS][ESS]","level":"-88","frequency":"2437","time":"Tuesday, November 19, 2013 12:12:08 AM Iran Standard Time"}}
{"WiFi":{"SSID":"aghaghi34","BSSID":"2c:54:2d:38:2a:21","capabilities":"[WPA-PSK-TKIP][WPS][ESS]","level":"-97","frequency":"2437","time":"Tuesday, November 19, 2013 12:12:08 AM Iran Standard Time"}}
{"Application":{"ProcessName":"com.tencent.mm","Start":"11-19-2013 00:19:01","End":"11-19-2013 00:19:51"}}
{"Application":{"ProcessName":"com.sonyericsson.home","Start":"11-19-2013 00:18:31","End":"11-19-2013 00:19:51"}}
{"Application":{"ProcessName":"com.sonyericsson.customization","Start":"11-19-2013 00:18:31","End":"11-19-2013 00:19:51"}}
{"Application":{"ProcessName":"com.sonyericsson.androidapp.smart","Start":"11-19-2013 00:18:31","End":"11-19-2013 00:19:51"}}
{"Application":{"ProcessName":"com.tencent.mm","Start":"11-19-2013 00:20:01","End":"11-19-2013 00:20:32"}}
{"SMS":{"Address":"+98912145####","type":"1","date":"11-19-2013 00:19:11","body":"ANONYMIZED","Type":"1"}}
{"WiFi":{"SSID":"D-Link","BSSID":"d8:fe:e3:a8:d8:3a","capabilities":"[WPA-PSK-TKIP+CCMP][WPA2-PSK-TKIP+CCMP][WPS][ESS]","level":"-84","frequency":"2462","time":"Tuesday, November 19, 2013 12:21:00 AM Iran Standard Time"}}
{"WiFi":{"SSID":"SaraHardwareCo","BSSID":"00:1f:fb:63:e2:f6","capabilities":"[WEP][ESS]","level":"-79","frequency":"2412","time":"Tuesday, November 19, 2013 12:21:00 AM Iran Standard Time"}}
{"WiFi":{"SSID":"razeghi34","BSSID":"2c:54:2d:38:2a:19","capabilities":"[WPA-PSK-TKIP][WPS][ESS]","level":"-97","frequency":"2437","time":"Tuesday, November 19, 2013 12:21:00 AM Iran Standard Time"}}
{"WiFi":{"SSID":"narges12","BSSID":"2c:54:2d:38:2a:17","capabilities":"[WPA-PSK-TKIP][WPS][ESS]","level":"-77","frequency":"2437","time":"Tuesday, November 19, 2013 12:21:00 AM Iran Standard Time"}}
{"WiFi":{"SSID":"THR","BSSID":"00:1a:dd:b4:89:41","capabilities":"[WPA-PSK-TKIP][ESS]","level":"-93","frequency":"2412","time":"Tuesday, November 19, 2013 12:21:00 AM Iran Standard Time"}}
{"WiFi":{"SSID":"razeghi12","BSSID":"2c:54:2d:38:2a:1f","capabilities":"[WPA-PSK-TKIP][WPS][ESS]","level":"-88","frequency":"2437","time":"Tuesday, November 19, 2013 12:21:00 AM Iran Standard Time"}}
{"WiFi":{"SSID":"aghaghi34","BSSID":"2c:54:2d:38:2a:21","capabilities":"[WPA-PSK-TKIP][WPS][ESS]","level":"-97","frequency":"2437","time":"Tuesday, November 19, 2013 12:21:00 AM Iran Standard Time"}}
{"Call": {"Number":"0912145####","Duration":"12","Time":"11-19-2013 00:20:43","Type":"2"}}
{"Call": {"Number":"0912145####","Duration":"12","Time":"11-19-2013 00:20:43","Type":"2"}}
{"Application":{"ProcessName":"com.sonyericsson.androidapp.smart","Start":"11-19-2013 00:20:01","End":"11-19-2013 00:21:17"}}
{"Application":{"ProcessName":"com.sonyericsson.advancedwidget.onoff","Start":"11-19-2013 00:21:17","End":"11-19-2013 00:21:27"}}
{"Application":{"ProcessName":"com.sonyericsson.home","Start":"11-19-2013 00:20:01","End":"11-19-2013 00:21:47"}}
{"Application":{"ProcessName":"com.sonyericsson.customization","Start":"11-19-2013 00:20:01","End":"11-19-2013 00:21:47"}}
{"Call": {"Number":"0912145####","Duration":"585","Time":"11-19-2013 00:21:35","Type":"2"}}
{"Call": {"Number":"0912145####","Duration":"585","Time":"11-19-2013 00:21:35","Type":"2"}}
{"Application":{"ProcessName":"com.sonyericsson.home","Start":"11-19-2013 00:31:36","End":"11-19-2013 00:41:16"}}
{"Application":{"ProcessName":"com.sonyericsson.customization","Start":"11-19-2013 00:31:36","End":"11-19-2013 00:41:16"}}
{"Application":{"ProcessName":"com.sonyericsson.androidapp.smart","Start":"11-19-2013 00:44:43","End":"11-19-2013 00:44:53"}}
{"WiFi":{"SSID":"narges12","BSSID":"2c:54:2d:38:2a:17","capabilities":"[WPA-PSK-TKIP][WPS][ESS]","level":"-59","frequency":"2437","time":"Tuesday, November 19, 2013 12:45:32 AM Iran Standard Time"}}
{"WiFi":{"SSID":"IPDC-Conference","BSSID":"00:02:6f:aa:ef:ab","capabilities":"[ESS]","level":"-90","frequency":"2422","time":"Tuesday, November 19, 2013 12:45:32 AM Iran Standard Time"}}
{"Application":{"ProcessName":"com.tencent.mm","Start":"11-19-2013 00:45:38","End":"11-19-2013 00:45:48"}}
{"Application":{"ProcessName":"com.sonyericsson.advancedwidget.onoff","Start":"11-19-2013 00:45:28","End":"11-19-2013 00:45:58"}}
{"WiFi":{"SSID":"narges12","BSSID":"2c:54:2d:38:2a:17","capabilities":"[WPA-PSK-TKIP][WPS][ESS]","level":"-59","frequency":"2437","time":"Tuesday, November 19, 2013 12:46:33 AM Iran Standard Time"}}
{"WiFi":{"SSID":"IPDC-Conference","BSSID":"00:02:6f:aa:ef:ab","capabilities":"[ESS]","level":"-90","frequency":"2422","time":"Tuesday, November 19, 2013 12:46:33 AM Iran Standard Time"}}
{"Application":{"ProcessName":"com.android.browser","Start":"11-19-2013 00:46:08","End":"11-19-2013 00:46:38"}}
{"WiFi":{"SSID":"narges12","BSSID":"2c:54:2d:38:2a:17","capabilities":"[WPA-PSK-TKIP][WPS][ESS]","level":"-59","frequency":"2437","time":"Tuesday, November 19, 2013 12:47:33 AM Iran Standard Time"}}
{"WiFi":{"SSID":"IPDC-Conference","BSSID":"00:02:6f:aa:ef:ab","capabilities":"[ESS]","level":"-90","frequency":"2422","time":"Tuesday, November 19, 2013 12:47:33 AM Iran Standard Time"}}
{"WiFi":{"SSID":"narges12","BSSID":"2c:54:2d:38:2a:17","capabilities":"[WPA-PSK-TKIP][WPS][ESS]","level":"-59","frequency":"2437","time":"Tuesday, November 19, 2013 12:48:33 AM Iran Standard Time"}}
{"WiFi":{"SSID":"IPDC-Conference","BSSID":"00:02:6f:aa:ef:ab","capabilities":"[ESS]","level":"-90","frequency":"2422","time":"Tuesday, November 19, 2013 12:48:33 AM Iran Standard Time"}}
{"Application":{"ProcessName":"com.tencent.mm","Start":"11-19-2013 00:46:38","End":"11-19-2013 00:48:38"}}
{"Application":{"ProcessName":"com.tencent.mm","Start":"11-19-2013 00:48:48","End":"11-19-2013 00:49:18"}}
{"Application":{"ProcessName":"com.sonyericsson.conversations","Start":"11-19-2013 00:49:18","End":"11-19-2013 00:49:28"}}
{"WiFi":{"SSID":"narges12","BSSID":"2c:54:2d:38:2a:17","capabilities":"[WPA-PSK-TKIP][WPS][ESS]","level":"-59","frequency":"2437","time":"Tuesday, November 19, 2013 12:49:33 AM Iran Standard Time"}}
{"WiFi":{"SSID":"IPDC-Conference","BSSID":"00:02:6f:aa:ef:ab","capabilities":"[ESS]","level":"-90","frequency":"2422","time":"Tuesday, November 19, 2013 12:49:33 AM Iran Standard Time"}}
{"Application":{"ProcessName":"com.sonyericsson.home","Start":"11-19-2013 00:44:43","End":"11-19-2013 00:49:49"}}
{"Application":{"ProcessName":"com.sonyericsson.conversations","Start":"11-19-2013 00:49:39","End":"11-19-2013 00:49:49"}}
{"Application":{"ProcessName":"com.sonyericsson.customization","Start":"11-19-2013 00:44:43","End":"11-19-2013 00:49:49"}}
{"WiFi":{"SSID":"narges12","BSSID":"2c:54:2d:38:2a:17","capabilities":"[WPA-PSK-TKIP][WPS][ESS]","level":"-59","frequency":"2437","time":"Tuesday, November 19, 2013 12:50:33 AM Iran Standard Time"}}
{"WiFi":{"SSID":"IPDC-Conference","BSSID":"00:02:6f:aa:ef:ab","capabilities":"[ESS]","level":"-90","frequency":"2422","time":"Tuesday, November 19, 2013 12:50:33 AM Iran Standard Time"}}
{"Application":{"ProcessName":"com.tencent.mm","Start":"11-19-2013 00:50:39","End":"11-19-2013 00:51:29"}}
{"WiFi":{"SSID":"narges12","BSSID":"2c:54:2d:38:2a:17","capabilities":"[WPA-PSK-TKIP][WPS][ESS]","level":"-59","frequency":"2437","time":"Tuesday, November 19, 2013 12:51:33 AM Iran Standard Time"}}
{"WiFi":{"SSID":"IPDC-Conference","BSSID":"00:02:6f:aa:ef:ab","capabilities":"[ESS]","level":"-90","frequency":"2422","time":"Tuesday, November 19, 2013 12:51:33 AM Iran Standard Time"}}
{"WiFi":{"SSID":"narges12","BSSID":"2c:54:2d:38:2a:17","capabilities":"[WPA-PSK-TKIP][WPS][ESS]","level":"-59","frequency":"2437","time":"Tuesday, November 19, 2013 12:52:33 AM Iran Standard Time"}}
{"WiFi":{"SSID":"IPDC-Conference","BSSID":"00:02:6f:aa:ef:ab","capabilities":"[ESS]","level":"-90","frequency":"2422","time":"Tuesday, November 19, 2013 12:52:33 AM Iran Standard Time"}}
{"Application":{"ProcessName":"com.whatsapp","Start":"11-19-2013 00:52:29","End":"11-19-2013 00:52:59"}}
{"WiFi":{"SSID":"narges12","BSSID":"2c:54:2d:38:2a:17","capabilities":"[WPA-PSK-TKIP][WPS][ESS]","level":"-59","frequency":"2437","time":"Tuesday, November 19, 2013 12:53:33 AM Iran Standard Time"}}
{"WiFi":{"SSID":"IPDC-Conference","BSSID":"00:02:6f:aa:ef:ab","capabilities":"[ESS]","level":"-90","frequency":"2422","time":"Tuesday, November 19, 2013 12:53:33 AM Iran Standard Time"}}
{"Application":{"ProcessName":"com.sonyericsson.home","Start":"11-19-2013 00:49:49","End":"11-19-2013 00:53:59"}}
{"Application":{"ProcessName":"com.sonyericsson.customization","Start":"11-19-2013 00:49:49","End":"11-19-2013 00:53:59"}}
{"WiFi":{"SSID":"narges12","BSSID":"2c:54:2d:38:2a:17","capabilities":"[WPA-PSK-TKIP][WPS][ESS]","level":"-59","frequency":"2437","time":"Tuesday, November 19, 2013 12:55:12 AM Iran Standard Time"}}
{"WiFi":{"SSID":"IPDC-Conference","BSSID":"00:02:6f:aa:ef:ab","capabilities":"[ESS]","level":"-90","frequency":"2422","time":"Tuesday, November 19, 2013 12:55:12 AM Iran Standard Time"}}
{"Application":{"ProcessName":"com.sonyericsson.conversations","Start":"11-19-2013 00:55:29","End":"11-19-2013 00:55:39"}}
{"WiFi":{"SSID":"narges12","BSSID":"2c:54:2d:38:2a:17","capabilities":"[WPA-PSK-TKIP][WPS][ESS]","level":"-59","frequency":"2437","time":"Tuesday, November 19, 2013 12:56:12 AM Iran Standard Time"}}
{"WiFi":{"SSID":"IPDC-Conference","BSSID":"00:02:6f:aa:ef:ab","capabilities":"[ESS]","level":"-90","frequency":"2422","time":"Tuesday, November 19, 2013 12:56:12 AM Iran Standard Time"}}
{"WiFi":{"SSID":"narges12","BSSID":"2c:54:2d:38:2a:17","capabilities":"[WPA-PSK-TKIP][WPS][ESS]","level":"-59","frequency":"2437","time":"Tuesday, November 19, 2013 12:57:12 AM Iran Standard Time"}}
{"WiFi":{"SSID":"IPDC-Conference","BSSID":"00:02:6f:aa:ef:ab","capabilities":"[ESS]","level":"-90","frequency":"2422","time":"Tuesday, November 19, 2013 12:57:12 AM Iran Standard Time"}}
{"WiFi":{"SSID":"narges12","BSSID":"2c:54:2d:38:2a:17","capabilities":"[WPA-PSK-TKIP][WPS][ESS]","level":"-59","frequency":"2437","time":"Tuesday, November 19, 2013 12:58:12 AM Iran Standard Time"}}
{"WiFi":{"SSID":"IPDC-Conference","BSSID":"00:02:6f:aa:ef:ab","capabilities":"[ESS]","level":"-90","frequency":"2422","time":"Tuesday, November 19, 2013 12:58:12 AM Iran Standard Time"}}
{"WiFi":{"SSID":"narges12","BSSID":"2c:54:2d:38:2a:17","capabilities":"[WPA-PSK-TKIP][WPS][ESS]","level":"-59","frequency":"2437","time":"Tuesday, November 19, 2013 12:59:12 AM Iran Standard Time"}}
{"WiFi":{"SSID":"IPDC-Conference","BSSID":"00:02:6f:aa:ef:ab","capabilities":"[ESS]","level":"-90","frequency":"2422","time":"Tuesday, November 19, 2013 12:59:12 AM Iran Standard Time"}}
{"Application":{"ProcessName":"com.sonyericsson.home","Start":"11-19-2013 00:54:59","End":"11-19-2013 01:00:00"}}
{"Application":{"ProcessName":"com.sonyericsson.customization","Start":"11-19-2013 00:54:59","End":"11-19-2013 01:00:00"}}
{"WiFi":{"SSID":"narges12","BSSID":"2c:54:2d:38:2a:17","capabilities":"[WPA-PSK-TKIP][WPS][ESS]","level":"-59","frequency":"2437","time":"Tuesday, November 19, 2013 1:00:12 AM Iran Standard Time"}}
{"WiFi":{"SSID":"IPDC-Conference","BSSID":"00:02:6f:aa:ef:ab","capabilities":"[ESS]","level":"-90","frequency":"2422","time":"Tuesday, November 19, 2013 1:00:12 AM Iran Standard Time"}}
{"WiFi":{"SSID":"narges12","BSSID":"2c:54:2d:38:2a:17","capabilities":"[WPA-PSK-TKIP][WPS][ESS]","level":"-59","frequency":"2437","time":"Tuesday, November 19, 2013 1:01:12 AM Iran Standard Time"}}
{"WiFi":{"SSID":"IPDC-Conference","BSSID":"00:02:6f:aa:ef:ab","capabilities":"[ESS]","level":"-90","frequency":"2422","time":"Tuesday, November 19, 2013 1:01:12 AM Iran Standard Time"}}
{"WiFi":{"SSID":"narges12","BSSID":"2c:54:2d:38:2a:17","capabilities":"[WPA-PSK-TKIP][WPS][ESS]","level":"-59","frequency":"2437","time":"Tuesday, November 19, 2013 1:02:20 AM Iran Standard Time"}}
{"WiFi":{"SSID":"IPDC-Conference","BSSID":"00:02:6f:aa:ef:ab","capabilities":"[ESS]","level":"-90","frequency":"2422","time":"Tuesday, November 19, 2013 1:02:20 AM Iran Standard Time"}}
{"Application":{"ProcessName":"com.sonyericsson.conversations","Start":"11-19-2013 01:02:39","End":"11-19-2013 01:02:49"}}
{"WiFi":{"SSID":"narges12","BSSID":"2c:54:2d:38:2a:17","capabilities":"[WPA-PSK-TKIP][WPS][ESS]","level":"-59","frequency":"2437","time":"Tuesday, November 19, 2013 1:03:20 AM Iran Standard Time"}}
{"WiFi":{"SSID":"IPDC-Conference","BSSID":"00:02:6f:aa:ef:ab","capabilities":"[ESS]","level":"-90","frequency":"2422","time":"Tuesday, November 19, 2013 1:03:20 AM Iran Standard Time"}}
{"Application":{"ProcessName":"com.sonyericsson.home","Start":"11-19-2013 01:00:00","End":"11-19-2013 01:04:12"}}
{"Application":{"ProcessName":"com.sonyericsson.customization","Start":"11-19-2013 01:00:00","End":"11-19-2013 01:04:12"}}
{"WiFi":{"SSID":"narges12","BSSID":"2c:54:2d:38:2a:17","capabilities":"[WPA-PSK-TKIP][WPS][ESS]","level":"-59","frequency":"2437","time":"Tuesday, November 19, 2013 1:04:46 AM Iran Standard Time"}}
{"WiFi":{"SSID":"IPDC-Conference","BSSID":"00:02:6f:aa:ef:ab","capabilities":"[ESS]","level":"-90","frequency":"2422","time":"Tuesday, November 19, 2013 1:04:46 AM Iran Standard Time"}}
{"Application":{"ProcessName":"com.sonyericsson.conversations","Start":"11-19-2013 01:04:45","End":"11-19-2013 01:04:55"}}
{"Application":{"ProcessName":"com.sonyericsson.home","Start":"11-19-2013 01:04:25","End":"11-19-2013 01:05:38"}}
{"Application":{"ProcessName":"com.sonyericsson.customization","Start":"11-19-2013 01:04:25","End":"11-19-2013 01:05:38"}}
{"WiFi":{"SSID":"narges12","BSSID":"2c:54:2d:38:2a:17","capabilities":"[WPA-PSK-TKIP][WPS][ESS]","level":"-59","frequency":"2437","time":"Tuesday, November 19, 2013 1:05:46 AM Iran Standard Time"}}
{"WiFi":{"SSID":"IPDC-Conference","BSSID":"00:02:6f:aa:ef:ab","capabilities":"[ESS]","level":"-90","frequency":"2422","time":"Tuesday, November 19, 2013 1:05:46 AM Iran Standard Time"}}
{"Application":{"ProcessName":"com.sonyericsson.extras.liveware","Start":"11-19-2013 01:05:38","End":"11-19-2013 01:05:49"}}
{"Application":{"ProcessName":"com.sonyericsson.home","Start":"11-19-2013 05:28:34","End":"11-19-2013 05:37:30"}}
{"Application":{"ProcessName":"com.sonyericsson.customization","Start":"11-19-2013 05:28:34","End":"11-19-2013 05:37:30"}}
{"Application":{"ProcessName":"com.google.android.deskclock","Start":"11-19-2013 06:30:08","End":"11-19-2013 06:30:18"}}
{"Application":{"ProcessName":"com.google.android.deskclock","Start":"11-19-2013 06:30:42","End":"11-19-2013 06:30:52"}}
{"Call": {"Number":"+98912145####","Duration":"0","Time":"11-19-2013 06:31:03","Type":"3"}}
{"Call": {"Number":"+98912145####","Duration":"0","Time":"11-19-2013 06:31:03","Type":"3"}}
{"Application":{"ProcessName":"com.android.exchange","Start":"11-19-2013 06:34:16","End":"11-19-2013 06:34:26"}}
{"SMS":{"Address":"0912145####","type":"2","date":"11-19-2013 06:34:38","body":"ANONYMIZED","Type":"2"}}
{"SMS":{"Address":"+98912145####","type":"1","date":"11-19-2013 06:35:26","body":"ANONYMIZED","Type":"1"}}
{"Application":{"ProcessName":"com.sonyericsson.home","Start":"11-19-2013 06:30:08","End":"11-19-2013 06:35:32"}}
{"Application":{"ProcessName":"com.sonyericsson.customization","Start":"11-19-2013 06:30:08","End":"11-19-2013 06:35:32"}}
{"Application":{"ProcessName":"com.sonyericsson.home","Start":"11-19-2013 06:35:46","End":"11-19-2013 06:36:13"}}
{"Application":{"ProcessName":"com.sonyericsson.customization","Start":"11-19-2013 06:35:46","End":"11-19-2013 06:36:13"}}
{"SMS":{"Address":"0912145####","type":"2","date":"11-19-2013 06:36:01","body":"ANONYMIZED","Type":"2"}}
{"Application":{"ProcessName":"com.sonyericsson.home","Start":"11-19-2013 06:41:07","End":"11-19-2013 06:44:01"}}
{"Application":{"ProcessName":"com.sonyericsson.customization","Start":"11-19-2013 06:41:07","End":"11-19-2013 06:44:01"}}
{"Application":{"ProcessName":"com.google.android.deskclock","Start":"11-19-2013 06:41:07","End":"11-19-2013 06:44:01"}}
{"SMS":{"Address":"+98912145####","type":"1","date":"11-19-2013 06:45:58","body":"ANONYMIZED","Type":"1"}}
{"Application":{"ProcessName":"com.google.android.deskclock","Start":"11-19-2013 06:46:09","End":"11-19-2013 06:46:19"}}
{"SMS":{"Address":"0912145####","type":"2","date":"11-19-2013 06:46:41","body":"ANONYMIZED","Type":"2"}}
{"Application":{"ProcessName":"com.sonyericsson.home","Start":"11-19-2013 06:46:09","End":"11-19-2013 06:47:15"}}
{"Application":{"ProcessName":"com.sonyericsson.customization","Start":"11-19-2013 06:46:09","End":"11-19-2013 06:47:15"}}
{"Application":{"ProcessName":"com.google.android.apps.maps","Start":"11-19-2013 06:55:03","End":"11-19-2013 06:55:13"}}
{"Application":{"ProcessName":"com.google.android.deskclock","Start":"11-19-2013 06:55:03","End":"11-19-2013 06:55:13"}}
{"Application":{"ProcessName":"com.sonyericsson.home","Start":"11-19-2013 06:55:03","End":"11-19-2013 06:57:28"}}
{"Application":{"ProcessName":"com.sonyericsson.customization","Start":"11-19-2013 06:55:03","End":"11-19-2013 06:57:28"}}
{"Application":{"ProcessName":"com.google.android.deskclock","Start":"11-19-2013 06:55:23","End":"11-19-2013 06:57:28"}}
{"Application":{"ProcessName":"com.sonyericsson.home","Start":"11-19-2013 07:07:32","End":"11-19-2013 07:08:09"}}
{"Application":{"ProcessName":"com.sonyericsson.customization","Start":"11-19-2013 07:07:32","End":"11-19-2013 07:08:09"}}
{"Application":{"ProcessName":"com.google.android.apps.maps","Start":"11-19-2013 07:19:58","End":"11-19-2013 07:20:08"}}
{"SMS":{"Address":"0912145####","type":"2","date":"11-19-2013 07:20:08","body":"ANONYMIZED","Type":"2"}}
{"Application":{"ProcessName":"com.sonyericsson.home","Start":"11-19-2013 07:19:47","End":"11-19-2013 07:20:38"}}
{"Application":{"ProcessName":"com.sonyericsson.customization","Start":"11-19-2013 07:19:47","End":"11-19-2013 07:20:38"}}
{"SMS":{"Address":"+98912145####","type":"1","date":"11-19-2013 07:20:49","body":"ANONYMIZED","Type":"1"}}
{"Application":{"ProcessName":"com.sonyericsson.home","Start":"11-19-2013 07:20:59","End":"11-19-2013 07:21:29"}}
{"Application":{"ProcessName":"com.sonyericsson.customization","Start":"11-19-2013 07:20:59","End":"11-19-2013 07:21:29"}}
{"Call": {"Number":"+98912145####","Duration":"0","Time":"11-19-2013 07:23:33","Type":"3"}}
{"Application":{"ProcessName":"com.sonyericsson.home","Start":"11-19-2013 07:23:39","End":"11-19-2013 07:24:29"}}
{"Application":{"ProcessName":"com.sonyericsson.customization","Start":"11-19-2013 07:23:39","End":"11-19-2013 07:24:29"}}
{"Call": {"Number":"+98912145####","Duration":"0","Time":"11-19-2013 07:23:33","Type":"3"}}
{"Call": {"Number":"+98912145####","Duration":"0","Time":"11-19-2013 07:29:02","Type":"2"}}
{"Application":{"ProcessName":"com.sonyericsson.home","Start":"11-19-2013 07:29:00","End":"11-19-2013 07:31:18"}}
{"Application":{"ProcessName":"com.sonyericsson.customization","Start":"11-19-2013 07:29:00","End":"11-19-2013 07:31:18"}}
{"Call": {"Number":"+98912145####","Duration":"129","Time":"11-19-2013 07:30:31","Type":"2"}}
{"SMS":{"Address":"+98912145####","type":"1","date":"11-19-2013 07:45:41","body":"ANONYMIZED","Type":"1"}}
{"SMS":{"Address":"0912145####","type":"2","date":"11-19-2013 07:46:09","body":"ANONYMIZED","Type":"2"}}
{"Application":{"ProcessName":"com.sonyericsson.home","Start":"11-19-2013 07:45:57","End":"11-19-2013 07:47:32"}}
{"Application":{"ProcessName":"com.sonyericsson.customization","Start":"11-19-2013 07:45:57","End":"11-19-2013 07:47:32"}}
{"SMS":{"Address":"+98912145####","type":"1","date":"11-19-2013 07:47:38","body":"ANONYMIZED","Type":"1"}}
{"SMS":{"Address":"0912145####","type":"2","date":"11-19-2013 07:47:52","body":"ANONYMIZED","Type":"2"}}
{"SMS":{"Address":"+98912145####","type":"1","date":"11-19-2013 07:48:19","body":"ANONYMIZED","Type":"1"}}
{"Application":{"ProcessName":"com.sonyericsson.home","Start":"11-19-2013 07:47:42","End":"11-19-2013 07:48:24"}}
{"Application":{"ProcessName":"com.sonyericsson.customization","Start":"11-19-2013 07:47:42","End":"11-19-2013 07:48:24"}}
{"Application":{"ProcessName":"com.tencent.mm","Start":"11-19-2013 08:25:33","End":"11-19-2013 08:25:43"}}
{"Application":{"ProcessName":"com.google.android.apps.plus","Start":"11-19-2013 08:26:23","End":"11-19-2013 08:26:33"}}
{"Application":{"ProcessName":"com.android.packageinstaller","Start":"11-19-2013 08:26:13","End":"11-19-2013 08:26:33"}}
{"Application":{"ProcessName":"com.sonyericsson.home","Start":"11-19-2013 08:25:23","End":"11-19-2013 08:28:19"}}
{"Application":{"ProcessName":"com.sonyericsson.customization","Start":"11-19-2013 08:25:23","End":"11-19-2013 08:28:19"}}
{"Application":{"ProcessName":"com.sonyericsson.home","Start":"11-19-2013 09:17:37","End":"11-19-2013 09:28:26"}}
{"Application":{"ProcessName":"com.sonyericsson.customization","Start":"11-19-2013 09:17:37","End":"11-19-2013 09:28:26"}}
{"Application":{"ProcessName":"com.sonyericsson.android.camera","Start":"11-19-2013 09:31:27","End":"11-19-2013 09:31:37"}}
{"Application":{"ProcessName":"com.sonyericsson.album","Start":"11-19-2013 09:31:37","End":"11-19-2013 09:32:35"}}
{"Application":{"ProcessName":"com.sonyericsson.home","Start":"11-19-2013 09:31:27","End":"11-19-2013 09:32:35"}}
{"Application":{"ProcessName":"com.sonyericsson.customization","Start":"11-19-2013 09:31:27","End":"11-19-2013 09:32:35"}}
{"SMS":{"Address":"+98938053####","type":"1","date":"11-19-2013 10:10:20","body":"ANONYMIZED","Type":"1"}}
{"Application":{"ProcessName":"com.sonyericsson.home","Start":"11-19-2013 10:11:25","End":"11-19-2013 10:14:04"}}
{"Application":{"ProcessName":"com.sonyericsson.customization","Start":"11-19-2013 10:11:25","End":"11-19-2013 10:14:04"}}
{"Application":{"ProcessName":"com.sonyericsson.home","Start":"11-19-2013 11:10:45","End":"11-19-2013 11:18:06"}}
{"Application":{"ProcessName":"com.sonyericsson.customization","Start":"11-19-2013 11:10:45","End":"11-19-2013 11:18:06"}}
{"Call": {"Number":"+98913094####","Duration":"0","Time":"11-19-2013 12:26:22","Type":"3"}}
{"Application":{"ProcessName":"com.sonyericsson.home","Start":"11-19-2013 12:26:24","End":"11-19-2013 12:48:15"}}
{"Application":{"ProcessName":"com.sonyericsson.customization","Start":"11-19-2013 12:26:24","End":"11-19-2013 12:48:15"}}
{"Call": {"Number":"+98913094####","Duration":"0","Time":"11-19-2013 12:26:22","Type":"3"}}
{"Application":{"ProcessName":"com.sonyericsson.illumination.service","Start":"11-19-2013 12:48:15","End":"11-19-2013 13:12:01"}}
{"Application":{"ProcessName":"com.sonyericsson.home","Start":"11-19-2013 12:48:15","End":"11-19-2013 13:12:01"}}
{"Application":{"ProcessName":"com.sonyericsson.customization","Start":"11-19-2013 12:48:15","End":"11-19-2013 13:12:01"}}
{"Application":{"ProcessName":"com.sonyericsson.home","Start":"11-19-2013 13:12:01","End":"11-19-2013 13:13:11"}}
{"Application":{"ProcessName":"com.sonyericsson.customization","Start":"11-19-2013 13:12:01","End":"11-19-2013 13:13:11"}}
{"Application":{"ProcessName":"com.sonyericsson.home","Start":"11-19-2013 13:18:12","End":"11-19-2013 13:18:23"}}
{"Application":{"ProcessName":"com.sonyericsson.customization","Start":"11-19-2013 13:18:12","End":"11-19-2013 13:18:23"}}
{"Call": {"Number":"+98913094####","Duration":"134","Time":"11-19-2013 13:27:44","Type":"2"}}
{"Application":{"ProcessName":"com.sonyericsson.home","Start":"11-19-2013 13:30:21","End":"11-19-2013 13:44:05"}}
{"Application":{"ProcessName":"com.sonyericsson.customization","Start":"11-19-2013 13:30:21","End":"11-19-2013 13:44:05"}}
{"Application":{"ProcessName":"com.sonyericsson.home","Start":"11-19-2013 14:27:27","End":"11-19-2013 14:33:28"}}
{"Application":{"ProcessName":"com.sonyericsson.customization","Start":"11-19-2013 14:27:27","End":"11-19-2013 14:33:28"}}
{"Call": {"Number":"+98912403####","Duration":"0","Time":"11-19-2013 15:25:27","Type":"3"}}
{"Application":{"ProcessName":"com.sonyericsson.album","Start":"11-19-2013 16:52:35","End":"11-19-2013 16:53:55"}}
{"Application":{"ProcessName":"com.sonyericsson.home","Start":"11-19-2013 16:52:35","End":"11-19-2013 16:54:25"}}
{"Application":{"ProcessName":"com.sonyericsson.customization","Start":"11-19-2013 16:52:35","End":"11-19-2013 16:54:25"}}
{"Call": {"Number":"+98912403####","Duration":"0","Time":"11-19-2013 16:53:46","Type":"3"}}
{"Application":{"ProcessName":"com.sonyericsson.album","Start":"11-19-2013 16:54:36","End":"11-19-2013 16:55:16"}}
{"Application":{"ProcessName":"com.sonyericsson.video","Start":"11-19-2013 16:55:16","End":"11-19-2013 16:55:26"}}
{"Application":{"ProcessName":"com.sonyericsson.album","Start":"11-19-2013 16:55:26","End":"11-19-2013 16:57:06"}}
{"Call": {"Number":"+98912403####","Duration":"0","Time":"11-19-2013 16:53:46","Type":"3"}}
{"Application":{"ProcessName":"com.sonyericsson.home","Start":"11-19-2013 16:54:36","End":"11-19-2013 17:12:54"}}
{"Application":{"ProcessName":"com.sonyericsson.customization","Start":"11-19-2013 16:54:36","End":"11-19-2013 17:12:54"}}
{"Call": {"Number":"+98913094####","Duration":"0","Time":"11-19-2013 17:15:12","Type":"2"}}
{"Application":{"ProcessName":"com.sonyericsson.home","Start":"11-19-2013 17:15:03","End":"11-19-2013 17:16:46"}}
{"Application":{"ProcessName":"com.sonyericsson.customization","Start":"11-19-2013 17:15:03","End":"11-19-2013 17:16:46"}}
{"Call": {"Number":"+98913094####","Duration":"428","Time":"11-19-2013 17:15:34","Type":"2"}}
{"SMS":{"Address":"+9882####","type":"1","date":"11-19-2013 17:23:01","body":"ANONYMIZED","Type":"1"}}
{"Application":{"ProcessName":"com.sonyericsson.home","Start":"11-19-2013 17:22:56","End":"11-19-2013 17:23:54"}}
{"Application":{"ProcessName":"com.sonyericsson.customization","Start":"11-19-2013 17:22:56","End":"11-19-2013 17:23:54"}}
{"Call": {"Number":"+98913094####","Duration":"199","Time":"11-19-2013 17:23:17","Type":"1"}}
{"Application":{"ProcessName":"com.sonyericsson.illumination.service","Start":"11-19-2013 17:28:36","End":"11-19-2013 17:48:46"}}
{"Application":{"ProcessName":"com.sonyericsson.home","Start":"11-19-2013 17:28:36","End":"11-19-2013 17:48:46"}}
{"Application":{"ProcessName":"com.sonyericsson.customization","Start":"11-19-2013 17:28:36","End":"11-19-2013 17:48:46"}}
{"Call": {"Number":"+98917595####","Duration":"0","Time":"11-19-2013 17:48:47","Type":"3"}}
{"Application":{"ProcessName":"com.sonyericsson.home","Start":"11-19-2013 17:48:56","End":"11-19-2013 17:55:30"}}
{"Application":{"ProcessName":"com.sonyericsson.customization","Start":"11-19-2013 17:48:56","End":"11-19-2013 17:55:30"}}
{"Call": {"Number":"+98917595####","Duration":"0","Time":"11-19-2013 17:48:47","Type":"3"}}
{"Call": {"Number":"+98917595####","Duration":"0","Time":"11-19-2013 17:48:47","Type":"3"}}
{"SMS":{"Address":"0912145####","type":"2","date":"11-19-2013 17:56:38","body":"ANONYMIZED","Type":"2"}}
{"Application":{"ProcessName":"com.sonyericsson.home","Start":"11-19-2013 17:55:30","End":"11-19-2013 17:56:51"}}
{"Application":{"ProcessName":"com.sonyericsson.customization","Start":"11-19-2013 17:55:30","End":"11-19-2013 17:56:51"}}
{"Call": {"Number":"+98917595####","Duration":"0","Time":"11-19-2013 17:57:30","Type":"3"}}
{"Application":{"ProcessName":"com.sonyericsson.home","Start":"11-19-2013 17:57:34","End":"11-19-2013 17:58:25"}}
{"Application":{"ProcessName":"com.sonyericsson.customization","Start":"11-19-2013 17:57:34","End":"11-19-2013 17:58:25"}}
{"Call": {"Number":"+98917595####","Duration":"0","Time":"11-19-2013 17:57:30","Type":"3"}}
{"Call": {"Number":"+98917595####","Duration":"0","Time":"11-19-2013 17:57:30","Type":"3"}}
{"SMS":{"Address":"+9882####","type":"1","date":"11-19-2013 18:14:32","body":"ANONYMIZED","Type":"1"}}
{"SMS":{"Address":"0912145####","type":"2","date":"11-19-2013 18:14:53","body":"ANONYMIZED","Type":"2"}}
{"Call": {"Number":"+98917595####","Duration":"0","Time":"11-19-2013 18:15:01","Type":"2"}}
{"Application":{"ProcessName":"com.sonyericsson.home","Start":"11-19-2013 18:13:30","End":"11-19-2013 18:16:12"}}
{"Application":{"ProcessName":"com.sonyericsson.customization","Start":"11-19-2013 18:13:30","End":"11-19-2013 18:16:12"}}
{"Call": {"Number":"+98917595####","Duration":"52","Time":"11-19-2013 18:15:21","Type":"2"}}
{"Application":{"ProcessName":"com.sonyericsson.home","Start":"11-19-2013 18:16:22","End":"11-19-2013 18:16:42"}}
{"Application":{"ProcessName":"com.sonyericsson.customization","Start":"11-19-2013 18:16:22","End":"11-19-2013 18:16:42"}}
{"Call": {"Number":"+98917595####","Duration":"107","Time":"11-19-2013 18:21:15","Type":"2"}}
{"Application":{"ProcessName":"com.sonyericsson.home","Start":"11-19-2013 18:20:58","End":"11-19-2013 18:38:31"}}
{"Application":{"ProcessName":"com.sonyericsson.customization","Start":"11-19-2013 18:20:58","End":"11-19-2013 18:38:31"}}
{"Call": {"Number":"+98912403####","Duration":"0","Time":"11-19-2013 18:38:29","Type":"3"}}
{"Application":{"ProcessName":"com.sonyericsson.home","Start":"11-19-2013 18:38:31","End":"11-19-2013 18:55:23"}}
{"Application":{"ProcessName":"com.sonyericsson.customization","Start":"11-19-2013 18:38:31","End":"11-19-2013 18:55:23"}}
{"Call": {"Number":"+98912562####","Duration":"0","Time":"11-19-2013 18:57:41","Type":"3"}}
{"Call": {"Number":"+98912562####","Duration":"0","Time":"11-19-2013 18:58:05","Type":"3"}}
{"Call": {"Number":"+98912562####","Duration":"0","Time":"11-19-2013 18:58:05","Type":"3"}}
{"Call": {"Number":"+98912562####","Duration":"0","Time":"11-19-2013 18:58:18","Type":"2"}}
{"Application":{"ProcessName":"com.sonyericsson.android.socialphonebook","Start":"11-19-2013 18:58:46","End":"11-19-2013 18:58:56"}}
{"Call": {"Number":"+98912145####","Duration":"25","Time":"11-19-2013 18:58:55","Type":"2"}}
{"Application":{"ProcessName":"com.sonyericsson.home","Start":"11-19-2013 18:57:44","End":"11-19-2013 18:59:41"}}
{"Application":{"ProcessName":"com.sonyericsson.customization","Start":"11-19-2013 18:57:44","End":"11-19-2013 18:59:41"}}
{"Call": {"Number":"+98912562####","Duration":"329","Time":"11-19-2013 18:59:23","Type":"1"}}
{"Application":{"ProcessName":"com.sonyericsson.home","Start":"11-19-2013 19:01:58","End":"11-19-2013 19:06:12"}}
{"Application":{"ProcessName":"com.sonyericsson.customization","Start":"11-19-2013 19:01:58","End":"11-19-2013 19:06:12"}}
{"SMS":{"Address":"+98912562####","type":"1","date":"11-19-2013 19:06:33","body":"ANONYMIZED","Type":"1"}}
{"SMS":{"Address":"+98912562####","type":"1","date":"11-19-2013 19:07:18","body":"ANONYMIZED","Type":"1"}}
{"Call": {"Number":"+98912145####","Duration":"49","Time":"11-19-2013 19:13:36","Type":"1"}}
{"Application":{"ProcessName":"com.sonyericsson.home","Start":"11-19-2013 19:11:04","End":"11-19-2013 19:14:34"}}
{"Application":{"ProcessName":"com.sonyericsson.customization","Start":"11-19-2013 19:11:04","End":"11-19-2013 19:14:34"}}
{"Application":{"ProcessName":"com.sonyericsson.home","Start":"11-19-2013 19:14:44","End":"11-19-2013 19:17:45"}}
{"Application":{"ProcessName":"com.sonyericsson.customization","Start":"11-19-2013 19:14:44","End":"11-19-2013 19:17:45"}}
{"Call": {"Number":"+98912403####","Duration":"576","Time":"11-19-2013 19:17:40","Type":"1"}}
{"Application":{"ProcessName":"com.sonyericsson.home","Start":"11-19-2013 19:27:21","End":"11-19-2013 19:27:31"}}
{"Application":{"ProcessName":"com.sonyericsson.customization","Start":"11-19-2013 19:27:21","End":"11-19-2013 19:27:31"}}
{"Application":{"ProcessName":"com.sonyericsson.home","Start":"11-19-2013 19:27:47","End":"11-19-2013 19:44:15"}}
{"Application":{"ProcessName":"com.sonyericsson.customization","Start":"11-19-2013 19:27:47","End":"11-19-2013 19:44:15"}}
{"Call": {"Number":"+98912145####","Duration":"0","Time":"11-19-2013 19:44:11","Type":"3"}}
{"Call": {"Number":"+98912145####","Duration":"0","Time":"11-19-2013 19:44:11","Type":"3"}}
{"Application":{"ProcessName":"com.sonyericsson.home","Start":"11-19-2013 19:44:15","End":"11-19-2013 19:48:30"}}
{"Application":{"ProcessName":"com.sonyericsson.customization","Start":"11-19-2013 19:44:15","End":"11-19-2013 19:48:30"}}
{"Call": {"Number":"+98912145####","Duration":"184","Time":"11-19-2013 19:48:17","Type":"2"}}
{"Application":{"ProcessName":"com.sonyericsson.home","Start":"11-19-2013 19:56:43","End":"11-19-2013 19:57:23"}}
{"Application":{"ProcessName":"com.sonyericsson.customization","Start":"11-19-2013 19:56:43","End":"11-19-2013 19:57:23"}}
{"SMS":{"Address":"+98912562####","type":"1","date":"11-19-2013 19:58:34","body":"ANONYMIZED","Type":"1"}}
{"Call": {"Number":"+98913094####","Duration":"249","Time":"11-19-2013 19:56:46","Type":"2"}}
{"SMS":{"Address":"0912562####","type":"2","date":"11-19-2013 20:01:47","body":"ANONYMIZED","Type":"2"}}
{"Application":{"ProcessName":"com.sonyericsson.advancedwidget.onoff","Start":"11-19-2013 20:05:30","End":"11-19-2013 20:05:40"}}
{"Application":{"ProcessName":"com.android.browser","Start":"11-19-2013 20:05:40","End":"11-19-2013 20:06:00"}}
{"WiFi":{"SSID":"narges12","BSSID":"2c:54:2d:38:2a:17","capabilities":"[WPA-PSK-TKIP][WPS][ESS]","level":"-63","frequency":"2437","time":"Tuesday, November 19, 2013 8:06:01 PM Iran Standard Time"}}
{"WiFi":{"SSID":"Cisco16129","BSSID":"98:fc:11:84:7a:d1","capabilities":"[WPA2-PSK-CCMP][WPS][ESS]","level":"-87","frequency":"2412","time":"Tuesday, November 19, 2013 8:06:01 PM Iran Standard Time"}}
{"WiFi":{"SSID":"Mobinnet","BSSID":"00:1f:fb:65:2f:12","capabilities":"[WEP][ESS]","level":"-72","frequency":"2412","time":"Tuesday, November 19, 2013 8:06:01 PM Iran Standard Time"}}
{"Application":{"ProcessName":"com.sonyericsson.advancedwidget.weather","Start":"11-19-2013 20:06:00","End":"11-19-2013 20:06:10"}}
{"Application":{"ProcessName":"com.sonyericsson.home","Start":"11-19-2013 20:01:41","End":"11-19-2013 20:06:40"}}
{"Application":{"ProcessName":"com.sonyericsson.customization","Start":"11-19-2013 20:01:41","End":"11-19-2013 20:06:40"}}
{"WiFi":{"SSID":"narges12","BSSID":"2c:54:2d:38:2a:17","capabilities":"[WPA-PSK-TKIP][WPS][ESS]","level":"-63","frequency":"2437","time":"Tuesday, November 19, 2013 8:09:58 PM Iran Standard Time"}}
{"WiFi":{"SSID":"Cisco16129","BSSID":"98:fc:11:84:7a:d1","capabilities":"[WPA2-PSK-CCMP][WPS][ESS]","level":"-87","frequency":"2412","time":"Tuesday, November 19, 2013 8:09:58 PM Iran Standard Time"}}
{"WiFi":{"SSID":"Mobinnet","BSSID":"00:1f:fb:65:2f:12","capabilities":"[WEP][ESS]","level":"-72","frequency":"2412","time":"Tuesday, November 19, 2013 8:09:58 PM Iran Standard Time"}}
{"Application":{"ProcessName":"com.sonyericsson.home","Start":"11-19-2013 20:21:05","End":"11-19-2013 20:21:35"}}
{"WiFi":{"SSID":"narges12","BSSID":"2c:54:2d:38:2a:17","capabilities":"[WPA-PSK-TKIP][WPS][ESS]","level":"-63","frequency":"2437","time":"Tuesday, November 19, 2013 8:21:42 PM Iran Standard Time"}}
{"WiFi":{"SSID":"Cisco16129","BSSID":"98:fc:11:84:7a:d1","capabilities":"[WPA2-PSK-CCMP][WPS][ESS]","level":"-87","frequency":"2412","time":"Tuesday, November 19, 2013 8:21:42 PM Iran Standard Time"}}
{"WiFi":{"SSID":"Mobinnet","BSSID":"00:1f:fb:65:2f:12","capabilities":"[WEP][ESS]","level":"-72","frequency":"2412","time":"Tuesday, November 19, 2013 8:21:42 PM Iran Standard Time"}}
{"SMS":{"Address":"0912145####","type":"2","date":"11-19-2013 20:22:26","body":"ANONYMIZED","Type":"2"}}
{"WiFi":{"SSID":"narges12","BSSID":"2c:54:2d:38:2a:17","capabilities":"[WPA-PSK-TKIP][WPS][ESS]","level":"-63","frequency":"2437","time":"Tuesday, November 19, 2013 8:22:42 PM Iran Standard Time"}}
{"WiFi":{"SSID":"Cisco16129","BSSID":"98:fc:11:84:7a:d1","capabilities":"[WPA2-PSK-CCMP][WPS][ESS]","level":"-87","frequency":"2412","time":"Tuesday, November 19, 2013 8:22:42 PM Iran Standard Time"}}
{"WiFi":{"SSID":"Mobinnet","BSSID":"00:1f:fb:65:2f:12","capabilities":"[WEP][ESS]","level":"-72","frequency":"2412","time":"Tuesday, November 19, 2013 8:22:42 PM Iran Standard Time"}}
{"WiFi":{"SSID":"narges12","BSSID":"2c:54:2d:38:2a:17","capabilities":"[WPA-PSK-TKIP][WPS][ESS]","level":"-63","frequency":"2437","time":"Tuesday, November 19, 2013 8:23:42 PM Iran Standard Time"}}
{"WiFi":{"SSID":"Cisco16129","BSSID":"98:fc:11:84:7a:d1","capabilities":"[WPA2-PSK-CCMP][WPS][ESS]","level":"-87","frequency":"2412","time":"Tuesday, November 19, 2013 8:23:42 PM Iran Standard Time"}}
{"WiFi":{"SSID":"Mobinnet","BSSID":"00:1f:fb:65:2f:12","capabilities":"[WEP][ESS]","level":"-72","frequency":"2412","time":"Tuesday, November 19, 2013 8:23:42 PM Iran Standard Time"}}
{"WiFi":{"SSID":"narges12","BSSID":"2c:54:2d:38:2a:17","capabilities":"[WPA-PSK-TKIP][WPS][ESS]","level":"-63","frequency":"2437","time":"Tuesday, November 19, 2013 8:24:42 PM Iran Standard Time"}}
{"WiFi":{"SSID":"Cisco16129","BSSID":"98:fc:11:84:7a:d1","capabilities":"[WPA2-PSK-CCMP][WPS][ESS]","level":"-87","frequency":"2412","time":"Tuesday, November 19, 2013 8:24:42 PM Iran Standard Time"}}
{"WiFi":{"SSID":"Mobinnet","BSSID":"00:1f:fb:65:2f:12","capabilities":"[WEP][ESS]","level":"-72","frequency":"2412","time":"Tuesday, November 19, 2013 8:24:42 PM Iran Standard Time"}}
{"Application":{"ProcessName":"com.sonyericsson.home","Start":"11-19-2013 20:21:52","End":"11-19-2013 20:25:17"}}
{"Application":{"ProcessName":"com.sonyericsson.customization","Start":"11-19-2013 20:21:05","End":"11-19-2013 20:25:17"}}
{"WiFi":{"SSID":"narges12","BSSID":"2c:54:2d:38:2a:17","capabilities":"[WPA-PSK-TKIP][WPS][ESS]","level":"-75","frequency":"2437","time":"Tuesday, November 19, 2013 8:32:20 PM Iran Standard Time"}}
{"WiFi":{"SSID":"Mobinnet","BSSID":"00:1f:fb:65:2f:12","capabilities":"[WEP][ESS]","level":"-79","frequency":"2412","time":"Tuesday, November 19, 2013 8:32:20 PM Iran Standard Time"}}
{"SMS":{"Address":"+98912145####","type":"1","date":"11-19-2013 20:28:35","body":"ANONYMIZED","Type":"1"}}
{"SMS":{"Address":"0912145####","type":"2","date":"11-19-2013 20:32:56","body":"ANONYMIZED","Type":"2"}}
{"WiFi":{"SSID":"narges12","BSSID":"2c:54:2d:38:2a:17","capabilities":"[WPA-PSK-TKIP][WPS][ESS]","level":"-75","frequency":"2437","time":"Tuesday, November 19, 2013 8:33:20 PM Iran Standard Time"}}
{"WiFi":{"SSID":"Mobinnet","BSSID":"00:1f:fb:65:2f:12","capabilities":"[WEP][ESS]","level":"-79","frequency":"2412","time":"Tuesday, November 19, 2013 8:33:20 PM Iran Standard Time"}}
{"Application":{"ProcessName":"com.mahmoud.dict","Start":"11-19-2013 20:33:22","End":"11-19-2013 20:34:12"}}
{"WiFi":{"SSID":"narges12","BSSID":"2c:54:2d:38:2a:17","capabilities":"[WPA-PSK-TKIP][WPS][ESS]","level":"-75","frequency":"2437","time":"Tuesday, November 19, 2013 8:34:20 PM Iran Standard Time"}}
{"WiFi":{"SSID":"Mobinnet","BSSID":"00:1f:fb:65:2f:12","capabilities":"[WEP][ESS]","level":"-79","frequency":"2412","time":"Tuesday, November 19, 2013 8:34:20 PM Iran Standard Time"}}
{"SMS":{"Address":"+98912145####","type":"1","date":"11-19-2013 20:34:30","body":"ANONYMIZED","Type":"1"}}
{"Application":{"ProcessName":"com.sonyericsson.home","Start":"11-19-2013 20:29:43","End":"11-19-2013 20:34:43"}}
{"Application":{"ProcessName":"com.sonyericsson.customization","Start":"11-19-2013 20:29:43","End":"11-19-2013 20:34:43"}}
{"Application":{"ProcessName":"com.sonyericsson.album","Start":"11-19-2013 20:34:33","End":"11-19-2013 20:35:03"}}
{"Application":{"ProcessName":"com.sonyericsson.photoeditor","Start":"11-19-2013 20:35:03","End":"11-19-2013 20:35:13"}}
{"WiFi":{"SSID":"narges12","BSSID":"2c:54:2d:38:2a:17","capabilities":"[WPA-PSK-TKIP][WPS][ESS]","level":"-75","frequency":"2437","time":"Tuesday, November 19, 2013 8:35:21 PM Iran Standard Time"}}
{"WiFi":{"SSID":"Mobinnet","BSSID":"00:1f:fb:65:2f:12","capabilities":"[WEP][ESS]","level":"-79","frequency":"2412","time":"Tuesday, November 19, 2013 8:35:21 PM Iran Standard Time"}}
{"WiFi":{"SSID":"narges12","BSSID":"2c:54:2d:38:2a:17","capabilities":"[WPA-PSK-TKIP][WPS][ESS]","level":"-75","frequency":"2437","time":"Tuesday, November 19, 2013 8:36:32 PM Iran Standard Time"}}
{"WiFi":{"SSID":"Mobinnet","BSSID":"00:1f:fb:65:2f:12","capabilities":"[WEP][ESS]","level":"-79","frequency":"2412","time":"Tuesday, November 19, 2013 8:36:32 PM Iran Standard Time"}}
{"Application":{"ProcessName":"com.mahmoud.dict","Start":"11-19-2013 20:35:35","End":"11-19-2013 20:36:35"}}
{"Application":{"ProcessName":"com.sonyericsson.home","Start":"11-19-2013 20:34:43","End":"11-19-2013 20:36:35"}}
{"Application":{"ProcessName":"com.sonyericsson.customization","Start":"11-19-2013 20:34:43","End":"11-19-2013 20:36:35"}}
{"WiFi":{"SSID":"narges12","BSSID":"2c:54:2d:38:2a:17","capabilities":"[WPA-PSK-TKIP][WPS][ESS]","level":"-75","frequency":"2437","time":"Tuesday, November 19, 2013 8:37:32 PM Iran Standard Time"}}
{"WiFi":{"SSID":"Mobinnet","BSSID":"00:1f:fb:65:2f:12","capabilities":"[WEP][ESS]","level":"-79","frequency":"2412","time":"Tuesday, November 19, 2013 8:37:32 PM Iran Standard Time"}}
{"Application":{"ProcessName":"com.mahmoud.dict","Start":"11-19-2013 20:37:06","End":"11-19-2013 20:38:20"}}
{"Application":{"ProcessName":"com.sonyericsson.home","Start":"11-19-2013 20:37:06","End":"11-19-2013 20:38:20"}}
{"Application":{"ProcessName":"com.sonyericsson.customization","Start":"11-19-2013 20:37:06","End":"11-19-2013 20:38:20"}}
{"WiFi":{"SSID":"narges12","BSSID":"2c:54:2d:38:2a:17","capabilities":"[WPA-PSK-TKIP][WPS][ESS]","level":"-75","frequency":"2437","time":"Tuesday, November 19, 2013 8:38:53 PM Iran Standard Time"}}
{"WiFi":{"SSID":"Mobinnet","BSSID":"00:1f:fb:65:2f:12","capabilities":"[WEP][ESS]","level":"-79","frequency":"2412","time":"Tuesday, November 19, 2013 8:38:53 PM Iran Standard Time"}}
{"Application":{"ProcessName":"com.mahmoud.dict","Start":"11-19-2013 20:38:37","End":"11-19-2013 20:39:47"}}
{"Application":{"ProcessName":"com.sonyericsson.home","Start":"11-19-2013 20:38:37","End":"11-19-2013 20:39:47"}}
{"Application":{"ProcessName":"com.sonyericsson.customization","Start":"11-19-2013 20:38:37","End":"11-19-2013 20:39:47"}}
{"WiFi":{"SSID":"narges12","BSSID":"2c:54:2d:38:2a:17","capabilities":"[WPA-PSK-TKIP][WPS][ESS]","level":"-75","frequency":"2437","time":"Tuesday, November 19, 2013 8:39:53 PM Iran Standard Time"}}
{"WiFi":{"SSID":"Mobinnet","BSSID":"00:1f:fb:65:2f:12","capabilities":"[WEP][ESS]","level":"-79","frequency":"2412","time":"Tuesday, November 19, 2013 8:39:53 PM Iran Standard Time"}}
{"Application":{"ProcessName":"com.mahmoud.dict","Start":"11-19-2013 20:43:34","End":"11-19-2013 20:44:14"}}
{"Application":{"ProcessName":"com.sonyericsson.home","Start":"11-19-2013 20:43:34","End":"11-19-2013 20:44:14"}}
{"Application":{"ProcessName":"com.sonyericsson.customization","Start":"11-19-2013 20:43:34","End":"11-19-2013 20:44:14"}}
{"WiFi":{"SSID":"narges12","BSSID":"2c:54:2d:38:2a:17","capabilities":"[WPA-PSK-TKIP][WPS][ESS]","level":"-75","frequency":"2437","time":"Tuesday, November 19, 2013 8:44:27 PM Iran Standard Time"}}
{"WiFi":{"SSID":"Mobinnet","BSSID":"00:1f:fb:65:2f:12","capabilities":"[WEP][ESS]","level":"-79","frequency":"2412","time":"Tuesday, November 19, 2013 8:44:27 PM Iran Standard Time"}}
{"WiFi":{"SSID":"narges12","BSSID":"2c:54:2d:38:2a:17","capabilities":"[WPA-PSK-TKIP][WPS][ESS]","level":"-75","frequency":"2437","time":"Tuesday, November 19, 2013 8:45:57 PM Iran Standard Time"}}
{"WiFi":{"SSID":"Mobinnet","BSSID":"00:1f:fb:65:2f:12","capabilities":"[WEP][ESS]","level":"-79","frequency":"2412","time":"Tuesday, November 19, 2013 8:45:57 PM Iran Standard Time"}}
{"WiFi":{"SSID":"narges12","BSSID":"2c:54:2d:38:2a:17","capabilities":"[WPA-PSK-TKIP][WPS][ESS]","level":"-75","frequency":"2437","time":"Tuesday, November 19, 2013 8:46:57 PM Iran Standard Time"}}
{"WiFi":{"SSID":"Mobinnet","BSSID":"00:1f:fb:65:2f:12","capabilities":"[WEP][ESS]","level":"-79","frequency":"2412","time":"Tuesday, November 19, 2013 8:46:57 PM Iran Standard Time"}}
{"Application":{"ProcessName":"com.mahmoud.dict","Start":"11-19-2013 20:45:59","End":"11-19-2013 20:47:33"}}
{"WiFi":{"SSID":"narges12","BSSID":"2c:54:2d:38:2a:17","capabilities":"[WPA-PSK-TKIP][WPS][ESS]","level":"-75","frequency":"2437","time":"Tuesday, November 19, 2013 8:48:19 PM Iran Standard Time"}}
{"WiFi":{"SSID":"Mobinnet","BSSID":"00:1f:fb:65:2f:12","capabilities":"[WEP][ESS]","level":"-79","frequency":"2412","time":"Tuesday, November 19, 2013 8:48:19 PM Iran Standard Time"}}
{"WiFi":{"SSID":"narges12","BSSID":"2c:54:2d:38:2a:17","capabilities":"[WPA-PSK-TKIP][WPS][ESS]","level":"-75","frequency":"2437","time":"Tuesday, November 19, 2013 8:49:19 PM Iran Standard Time"}}
{"WiFi":{"SSID":"Mobinnet","BSSID":"00:1f:fb:65:2f:12","capabilities":"[WEP][ESS]","level":"-79","frequency":"2412","time":"Tuesday, November 19, 2013 8:49:19 PM Iran Standard Time"}}
{"WiFi":{"SSID":"narges12","BSSID":"2c:54:2d:38:2a:17","capabilities":"[WPA-PSK-TKIP][WPS][ESS]","level":"-75","frequency":"2437","time":"Tuesday, November 19, 2013 8:50:19 PM Iran Standard Time"}}
{"WiFi":{"SSID":"Mobinnet","BSSID":"00:1f:fb:65:2f:12","capabilities":"[WEP][ESS]","level":"-79","frequency":"2412","time":"Tuesday, November 19, 2013 8:50:19 PM Iran Standard Time"}}
{"Application":{"ProcessName":"com.sonyericsson.home","Start":"11-19-2013 20:45:59","End":"11-19-2013 20:51:03"}}
{"Application":{"ProcessName":"com.sonyericsson.customization","Start":"11-19-2013 20:45:59","End":"11-19-2013 20:51:03"}}
{"WiFi":{"SSID":"narges12","BSSID":"2c:54:2d:38:2a:17","capabilities":"[WPA-PSK-TKIP][WPS][ESS]","level":"-75","frequency":"2437","time":"Tuesday, November 19, 2013 8:51:19 PM Iran Standard Time"}}
{"WiFi":{"SSID":"Mobinnet","BSSID":"00:1f:fb:65:2f:12","capabilities":"[WEP][ESS]","level":"-79","frequency":"2412","time":"Tuesday, November 19, 2013 8:51:19 PM Iran Standard Time"}}
{"WiFi":{"SSID":"narges12","BSSID":"2c:54:2d:38:2a:17","capabilities":"[WPA-PSK-TKIP][WPS][ESS]","level":"-75","frequency":"2437","time":"Tuesday, November 19, 2013 8:52:19 PM Iran Standard Time"}}
{"WiFi":{"SSID":"Mobinnet","BSSID":"00:1f:fb:65:2f:12","capabilities":"[WEP][ESS]","level":"-79","frequency":"2412","time":"Tuesday, November 19, 2013 8:52:19 PM Iran Standard Time"}}
{"WiFi":{"SSID":"narges12","BSSID":"2c:54:2d:38:2a:17","capabilities":"[WPA-PSK-TKIP][WPS][ESS]","level":"-75","frequency":"2437","time":"Tuesday, November 19, 2013 8:53:19 PM Iran Standard Time"}}
{"WiFi":{"SSID":"Mobinnet","BSSID":"00:1f:fb:65:2f:12","capabilities":"[WEP][ESS]","level":"-79","frequency":"2412","time":"Tuesday, November 19, 2013 8:53:19 PM Iran Standard Time"}}
{"WiFi":{"SSID":"narges12","BSSID":"2c:54:2d:38:2a:17","capabilities":"[WPA-PSK-TKIP][WPS][ESS]","level":"-75","frequency":"2437","time":"Tuesday, November 19, 2013 8:54:19 PM Iran Standard Time"}}
{"WiFi":{"SSID":"Mobinnet","BSSID":"00:1f:fb:65:2f:12","capabilities":"[WEP][ESS]","level":"-79","frequency":"2412","time":"Tuesday, November 19, 2013 8:54:19 PM Iran Standard Time"}}
{"WiFi":{"SSID":"narges12","BSSID":"2c:54:2d:38:2a:17","capabilities":"[WPA-PSK-TKIP][WPS][ESS]","level":"-75","frequency":"2437","time":"Tuesday, November 19, 2013 8:55:19 PM Iran Standard Time"}}
{"WiFi":{"SSID":"Mobinnet","BSSID":"00:1f:fb:65:2f:12","capabilities":"[WEP][ESS]","level":"-79","frequency":"2412","time":"Tuesday, November 19, 2013 8:55:19 PM Iran Standard Time"}}
{"Application":{"ProcessName":"com.sonyericsson.home","Start":"11-19-2013 20:51:03","End":"11-19-2013 20:56:04"}}
{"Application":{"ProcessName":"com.sonyericsson.customization","Start":"11-19-2013 20:51:03","End":"11-19-2013 20:56:04"}}
{"WiFi":{"SSID":"narges12","BSSID":"2c:54:2d:38:2a:17","capabilities":"[WPA-PSK-TKIP][WPS][ESS]","level":"-75","frequency":"2437","time":"Tuesday, November 19, 2013 8:56:19 PM Iran Standard Time"}}
{"WiFi":{"SSID":"Mobinnet","BSSID":"00:1f:fb:65:2f:12","capabilities":"[WEP][ESS]","level":"-79","frequency":"2412","time":"Tuesday, November 19, 2013 8:56:19 PM Iran Standard Time"}}
{"WiFi":{"SSID":"narges12","BSSID":"2c:54:2d:38:2a:17","capabilities":"[WPA-PSK-TKIP][WPS][ESS]","level":"-75","frequency":"2437","time":"Tuesday, November 19, 2013 8:57:19 PM Iran Standard Time"}}
{"WiFi":{"SSID":"Mobinnet","BSSID":"00:1f:fb:65:2f:12","capabilities":"[WEP][ESS]","level":"-79","frequency":"2412","time":"Tuesday, November 19, 2013 8:57:19 PM Iran Standard Time"}}
{"WiFi":{"SSID":"narges12","BSSID":"2c:54:2d:38:2a:17","capabilities":"[WPA-PSK-TKIP][WPS][ESS]","level":"-75","frequency":"2437","time":"Tuesday, November 19, 2013 8:58:19 PM Iran Standard Time"}}
{"WiFi":{"SSID":"Mobinnet","BSSID":"00:1f:fb:65:2f:12","capabilities":"[WEP][ESS]","level":"-79","frequency":"2412","time":"Tuesday, November 19, 2013 8:58:19 PM Iran Standard Time"}}
{"WiFi":{"SSID":"narges12","BSSID":"2c:54:2d:38:2a:17","capabilities":"[WPA-PSK-TKIP][WPS][ESS]","level":"-75","frequency":"2437","time":"Tuesday, November 19, 2013 8:59:19 PM Iran Standard Time"}}
{"WiFi":{"SSID":"Mobinnet","BSSID":"00:1f:fb:65:2f:12","capabilities":"[WEP][ESS]","level":"-79","frequency":"2412","time":"Tuesday, November 19, 2013 8:59:19 PM Iran Standard Time"}}
{"SMS":{"Address":"+98912145####","type":"1","date":"11-19-2013 21:00:01","body":"ANONYMIZED","Type":"1"}}
{"WiFi":{"SSID":"narges12","BSSID":"2c:54:2d:38:2a:17","capabilities":"[WPA-PSK-TKIP][WPS][ESS]","level":"-75","frequency":"2437","time":"Tuesday, November 19, 2013 9:00:27 PM Iran Standard Time"}}
{"WiFi":{"SSID":"Mobinnet","BSSID":"00:1f:fb:65:2f:12","capabilities":"[WEP][ESS]","level":"-79","frequency":"2412","time":"Tuesday, November 19, 2013 9:00:27 PM Iran Standard Time"}}
{"Application":{"ProcessName":"com.sonyericsson.home","Start":"11-19-2013 20:56:04","End":"11-19-2013 21:00:52"}}
{"Application":{"ProcessName":"com.sonyericsson.customization","Start":"11-19-2013 20:56:04","End":"11-19-2013 21:00:52"}}
{"WiFi":{"SSID":"narges12","BSSID":"2c:54:2d:38:2a:17","capabilities":"[WPA-PSK-TKIP][WPS][ESS]","level":"-75","frequency":"2437","time":"Tuesday, November 19, 2013 9:01:42 PM Iran Standard Time"}}
{"WiFi":{"SSID":"Mobinnet","BSSID":"00:1f:fb:65:2f:12","capabilities":"[WEP][ESS]","level":"-79","frequency":"2412","time":"Tuesday, November 19, 2013 9:01:42 PM Iran Standard Time"}}
{"WiFi":{"SSID":"narges12","BSSID":"2c:54:2d:38:2a:17","capabilities":"[WPA-PSK-TKIP][WPS][ESS]","level":"-75","frequency":"2437","time":"Tuesday, November 19, 2013 9:02:45 PM Iran Standard Time"}}
{"WiFi":{"SSID":"Mobinnet","BSSID":"00:1f:fb:65:2f:12","capabilities":"[WEP][ESS]","level":"-79","frequency":"2412","time":"Tuesday, November 19, 2013 9:02:45 PM Iran Standard Time"}}
{"SMS":{"Address":"0912562####","type":"2","date":"11-19-2013 21:02:43","body":"ANONYMIZED","Type":"2"}}
{"WiFi":{"SSID":"narges12","BSSID":"2c:54:2d:38:2a:17","capabilities":"[WPA-PSK-TKIP][WPS][ESS]","level":"-75","frequency":"2437","time":"Tuesday, November 19, 2013 9:04:00 PM Iran Standard Time"}}
{"WiFi":{"SSID":"Mobinnet","BSSID":"00:1f:fb:65:2f:12","capabilities":"[WEP][ESS]","level":"-79","frequency":"2412","time":"Tuesday, November 19, 2013 9:04:00 PM Iran Standard Time"}}
{"SMS":{"Address":"0912145####","type":"2","date":"11-19-2013 21:04:16","body":"ANONYMIZED","Type":"2"}}
{"SMS":{"Address":"091-240-3####","type":"2","date":"11-19-2013 21:04:59","body":"ANONYMIZED","Type":"2"}}
{"WiFi":{"SSID":"narges12","BSSID":"2c:54:2d:38:2a:17","capabilities":"[WPA-PSK-TKIP][WPS][ESS]","level":"-75","frequency":"2437","time":"Tuesday, November 19, 2013 9:05:05 PM Iran Standard Time"}}
{"WiFi":{"SSID":"Mobinnet","BSSID":"00:1f:fb:65:2f:12","capabilities":"[WEP][ESS]","level":"-79","frequency":"2412","time":"Tuesday, November 19, 2013 9:05:05 PM Iran Standard Time"}}
{"Application":{"ProcessName":"com.sonyericsson.home","Start":"11-19-2013 21:01:17","End":"11-19-2013 21:06:00"}}
{"Application":{"ProcessName":"com.sonyericsson.customization","Start":"11-19-2013 21:01:17","End":"11-19-2013 21:06:00"}}
{"SMS":{"Address":"+98912145####","type":"1","date":"11-19-2013 21:06:23","body":"ANONYMIZED","Type":"1"}}
{"WiFi":{"SSID":"narges12","BSSID":"2c:54:2d:38:2a:17","capabilities":"[WPA-PSK-TKIP][WPS][ESS]","level":"-75","frequency":"2437","time":"Tuesday, November 19, 2013 9:08:34 PM Iran Standard Time"}}
{"WiFi":{"SSID":"Mobinnet","BSSID":"00:1f:fb:65:2f:12","capabilities":"[WEP][ESS]","level":"-79","frequency":"2412","time":"Tuesday, November 19, 2013 9:08:34 PM Iran Standard Time"}}
{"WiFi":{"SSID":"narges12","BSSID":"2c:54:2d:38:2a:17","capabilities":"[WPA-PSK-TKIP][WPS][ESS]","level":"-75","frequency":"2437","time":"Tuesday, November 19, 2013 9:09:34 PM Iran Standard Time"}}
{"WiFi":{"SSID":"Mobinnet","BSSID":"00:1f:fb:65:2f:12","capabilities":"[WEP][ESS]","level":"-79","frequency":"2412","time":"Tuesday, November 19, 2013 9:09:34 PM Iran Standard Time"}}
{"SMS":{"Address":"0912145####","type":"2","date":"11-19-2013 21:09:45","body":"ANONYMIZED","Type":"2"}}
{"WiFi":{"SSID":"narges12","BSSID":"2c:54:2d:38:2a:17","capabilities":"[WPA-PSK-TKIP][WPS][ESS]","level":"-75","frequency":"2437","time":"Tuesday, November 19, 2013 9:10:35 PM Iran Standard Time"}}
{"WiFi":{"SSID":"Mobinnet","BSSID":"00:1f:fb:65:2f:12","capabilities":"[WEP][ESS]","level":"-79","frequency":"2412","time":"Tuesday, November 19, 2013 9:10:35 PM Iran Standard Time"}}
{"Application":{"ProcessName":"com.sonyericsson.home","Start":"11-19-2013 21:08:52","End":"11-19-2013 21:11:13"}}
{"Application":{"ProcessName":"com.sonyericsson.customization","Start":"11-19-2013 21:08:52","End":"11-19-2013 21:11:13"}}
{"Application":{"ProcessName":"com.cloudmosa.puffin","Start":"11-19-2013 21:10:43","End":"11-19-2013 21:11:13"}}
{"WiFi":{"SSID":"narges12","BSSID":"2c:54:2d:38:2a:17","capabilities":"[WPA-PSK-TKIP][WPS][ESS]","level":"-75","frequency":"2437","time":"Tuesday, November 19, 2013 9:11:35 PM Iran Standard Time"}}
{"WiFi":{"SSID":"Mobinnet","BSSID":"00:1f:fb:65:2f:12","capabilities":"[WEP][ESS]","level":"-79","frequency":"2412","time":"Tuesday, November 19, 2013 9:11:35 PM Iran Standard Time"}}
{"WiFi":{"SSID":"narges12","BSSID":"2c:54:2d:38:2a:17","capabilities":"[WPA-PSK-TKIP][WPS][ESS]","level":"-75","frequency":"2437","time":"Tuesday, November 19, 2013 9:12:35 PM Iran Standard Time"}}
{"WiFi":{"SSID":"Mobinnet","BSSID":"00:1f:fb:65:2f:12","capabilities":"[WEP][ESS]","level":"-79","frequency":"2412","time":"Tuesday, November 19, 2013 9:12:35 PM Iran Standard Time"}}
{"Application":{"ProcessName":"com.cloudmosa.puffin","Start":"11-19-2013 21:11:23","End":"11-19-2013 21:12:44"}}
{"Application":{"ProcessName":"com.pixlr.express","Start":"11-19-2013 21:26:43","End":"11-19-2013 21:26:54"}}
{"SMS":{"Address":"+98912145####","type":"1","date":"11-19-2013 21:23:53","body":"ANONYMIZED","Type":"1"}}
{"WiFi":{"SSID":"Mobinnet","BSSID":"00:1f:fb:65:2f:12","capabilities":"[WEP][ESS]","level":"-78","frequency":"2412","time":"Tuesday, November 19, 2013 9:27:22 PM Iran Standard Time"}}
{"WiFi":{"SSID":"LevelOne","BSSID":"00:11:6b:ea:6f:c0","capabilities":"[WPA-PSK-TKIP][ESS]","level":"-93","frequency":"2447","time":"Tuesday, November 19, 2013 9:27:22 PM Iran Standard Time"}}
{"WiFi":{"SSID":"GEP","BSSID":"c8:6c:87:3d:6c:10","capabilities":"[WPA2-PSK-TKIP][WPS][ESS]","level":"-97","frequency":"2457","time":"Tuesday, November 19, 2013 9:27:22 PM Iran Standard Time"}}
{"WiFi":{"SSID":"razeghi12","BSSID":"2c:54:2d:38:2a:1f","capabilities":"[WPA-PSK-TKIP][WPS][ESS]","level":"-95","frequency":"2437","time":"Tuesday, November 19, 2013 9:27:22 PM Iran Standard Time"}}
{"WiFi":{"SSID":"BM632w-42BFD6","BSSID":"28:3c:e4:42:bf:d7","capabilities":"[WPA-PSK-TKIP+CCMP][WPA2-PSK-TKIP+CCMP][ESS]","level":"-94","frequency":"2422","time":"Tuesday, November 19, 2013 9:27:22 PM Iran Standard Time"}}
{"SMS":{"Address":"0912145####","type":"2","date":"11-19-2013 21:27:22","body":"ANONYMIZED","Type":"2"}}
{"SMS":{"Address":"+98912145####","type":"1","date":"11-19-2013 21:28:21","body":"ANONYMIZED","Type":"1"}}
{"WiFi":{"SSID":"Mobinnet","BSSID":"00:1f:fb:65:2f:12","capabilities":"[WEP][ESS]","level":"-82","frequency":"2412","time":"Tuesday, November 19, 2013 9:28:25 PM Iran Standard Time"}}
{"Call": {"Number":"+98938258####","Duration":"0","Time":"11-19-2013 21:27:58","Type":"3"}}
{"SMS":{"Address":"0912145####","type":"2","date":"11-19-2013 21:29:28","body":"ANONYMIZED","Type":"2"}}
{"Call": {"Number":"+98938258####","Duration":"0","Time":"11-19-2013 21:27:58","Type":"3"}}
{"WiFi":{"SSID":"Mobinnet","BSSID":"00:1f:fb:65:2f:12","capabilities":"[WEP][ESS]","level":"-62","frequency":"2412","time":"Tuesday, November 19, 2013 9:29:37 PM Iran Standard Time"}}
{"WiFi":{"SSID":"narges34","BSSID":"2c:54:2d:38:2a:27","capabilities":"[WPA-PSK-TKIP][WPS][ESS]","level":"-51","frequency":"2437","time":"Tuesday, November 19, 2013 9:29:37 PM Iran Standard Time"}}
{"WiFi":{"SSID":"narges12","BSSID":"2c:54:2d:38:2a:17","capabilities":"[WPA-PSK-TKIP][WPS][ESS]","level":"-54","frequency":"2437","time":"Tuesday, November 19, 2013 9:29:37 PM Iran Standard Time"}}
{"WiFi":{"SSID":"GEP","BSSID":"c8:6c:87:3d:6c:10","capabilities":"[WPA2-PSK-TKIP][WPS][ESS]","level":"-87","frequency":"2457","time":"Tuesday, November 19, 2013 9:29:37 PM Iran Standard Time"}}
{"Application":{"ProcessName":"com.sonyericsson.home","Start":"11-19-2013 21:26:43","End":"11-19-2013 21:30:05"}}
{"Application":{"ProcessName":"com.sonyericsson.customization","Start":"11-19-2013 21:26:43","End":"11-19-2013 21:30:05"}}
{"Call": {"Number":"+98938258####","Duration":"0","Time":"11-19-2013 21:29:37","Type":"2"}}
{"WiFi":{"SSID":"Mobinnet","BSSID":"00:1f:fb:65:2f:12","capabilities":"[WEP][ESS]","level":"-62","frequency":"2412","time":"Tuesday, November 19, 2013 9:30:37 PM Iran Standard Time"}}
{"WiFi":{"SSID":"narges34","BSSID":"2c:54:2d:38:2a:27","capabilities":"[WPA-PSK-TKIP][WPS][ESS]","level":"-48","frequency":"2437","time":"Tuesday, November 19, 2013 9:30:37 PM Iran Standard Time"}}
{"WiFi":{"SSID":"narges12","BSSID":"2c:54:2d:38:2a:17","capabilities":"[WPA-PSK-TKIP][WPS][ESS]","level":"-54","frequency":"2437","time":"Tuesday, November 19, 2013 9:30:37 PM Iran Standard Time"}}
{"WiFi":{"SSID":"GEP","BSSID":"c8:6c:87:3d:6c:10","capabilities":"[WPA2-PSK-TKIP][WPS][ESS]","level":"-87","frequency":"2457","time":"Tuesday, November 19, 2013 9:30:37 PM Iran Standard Time"}}
{"WiFi":{"SSID":"LevelOne","BSSID":"00:11:6b:ea:6f:c0","capabilities":"[WPA-PSK-TKIP][ESS]","level":"-90","frequency":"2447","time":"Tuesday, November 19, 2013 9:30:37 PM Iran Standard Time"}}
{"WiFi":{"SSID":"razeghi12","BSSID":"2c:54:2d:38:2a:1f","capabilities":"[WPA-PSK-TKIP][WPS][ESS]","level":"-91","frequency":"2437","time":"Tuesday, November 19, 2013 9:30:37 PM Iran Standard Time"}}
{"WiFi":{"SSID":"IMPASCO","BSSID":"00:11:6b:ea:6f:c4","capabilities":"[WPA2-PSK-CCMP][ESS]","level":"-94","frequency":"2462","time":"Tuesday, November 19, 2013 9:30:37 PM Iran Standard Time"}}
{"Application":{"ProcessName":"com.sonyericsson.home","Start":"11-19-2013 21:30:15","End":"11-19-2013 21:30:45"}}
{"Application":{"ProcessName":"com.sonyericsson.customization","Start":"11-19-2013 21:30:15","End":"11-19-2013 21:30:45"}}
{"WiFi":{"SSID":"Mobinnet","BSSID":"00:1f:fb:65:2f:12","capabilities":"[WEP][ESS]","level":"-73","frequency":"2412","time":"Tuesday, November 19, 2013 9:32:15 PM Iran Standard Time"}}
{"WiFi":{"SSID":"narges34","BSSID":"2c:54:2d:38:2a:27","capabilities":"[WPA-PSK-TKIP][WPS][ESS]","level":"-64","frequency":"2437","time":"Tuesday, November 19, 2013 9:32:15 PM Iran Standard Time"}}
{"WiFi":{"SSID":"IMPASCO","BSSID":"00:11:6b:ea:6f:c4","capabilities":"[WPA2-PSK-CCMP][ESS]","level":"-93","frequency":"2462","time":"Tuesday, November 19, 2013 9:32:15 PM Iran Standard Time"}}
{"WiFi":{"SSID":"narges12","BSSID":"2c:54:2d:38:2a:17","capabilities":"[WPA-PSK-TKIP][WPS][ESS]","level":"-68","frequency":"2437","time":"Tuesday, November 19, 2013 9:32:15 PM Iran Standard Time"}}
{"WiFi":{"SSID":"IPDC-Conference","BSSID":"00:02:6f:aa:ef:ab","capabilities":"[ESS]","level":"-90","frequency":"2422","time":"Tuesday, November 19, 2013 9:32:15 PM Iran Standard Time"}}
{"WiFi":{"SSID":"GEP","BSSID":"c8:6c:87:3d:6c:10","capabilities":"[WPA2-PSK-TKIP][WPS][ESS]","level":"-93","frequency":"2457","time":"Tuesday, November 19, 2013 9:32:15 PM Iran Standard Time"}}
{"SMS":{"Address":"+98912145####","type":"1","date":"11-19-2013 21:33:13","body":"ANONYMIZED","Type":"1"}}
{"Call": {"Number":"+98938258####","Duration":"180","Time":"11-19-2013 21:30:36","Type":"2"}}
{"Application":{"ProcessName":"com.sonyericsson.conversations","Start":"11-19-2013 21:33:57","End":"11-19-2013 21:34:07"}}
{"Application":{"ProcessName":"com.sonyericsson.home","Start":"11-19-2013 21:33:57","End":"11-19-2013 21:34:27"}}
{"Application":{"ProcessName":"com.sonyericsson.customization","Start":"11-19-2013 21:33:57","End":"11-19-2013 21:34:27"}}
{"SMS":{"Address":"0912145####","type":"2","date":"11-19-2013 21:34:22","body":"ANONYMIZED","Type":"2"}}
{"SMS":{"Address":"+98912145####","type":"1","date":"11-19-2013 21:35:39","body":"ANONYMIZED","Type":"1"}}
{"SMS":{"Address":"0912145####","type":"2","date":"11-19-2013 21:37:52","body":"ANONYMIZED","Type":"2"}}
{"Application":{"ProcessName":"com.sonyericsson.home","Start":"11-19-2013 21:37:41","End":"11-19-2013 21:38:26"}}
{"Application":{"ProcessName":"com.sonyericsson.customization","Start":"11-19-2013 21:37:41","End":"11-19-2013 21:38:26"}}
{"SMS":{"Address":"+98912145####","type":"1","date":"11-19-2013 21:38:49","body":"ANONYMIZED","Type":"1"}}
{"SMS":{"Address":"0912145####","type":"2","date":"11-19-2013 21:41:24","body":"ANONYMIZED","Type":"2"}}
{"Application":{"ProcessName":"com.sonyericsson.home","Start":"11-19-2013 21:39:55","End":"11-19-2013 21:41:56"}}
{"Application":{"ProcessName":"com.sonyericsson.customization","Start":"11-19-2013 21:39:55","End":"11-19-2013 21:41:56"}}
{"SMS":{"Address":"091-240-3####","type":"2","date":"11-19-2013 21:51:18","body":"ANONYMIZED","Type":"2"}}
{"SMS":{"Address":"0912562####","type":"2","date":"11-19-2013 21:51:30","body":"ANONYMIZED","Type":"2"}}
{"Application":{"ProcessName":"com.sonyericsson.home","Start":"11-19-2013 21:46:42","End":"11-19-2013 21:51:44"}}
{"Application":{"ProcessName":"com.sonyericsson.customization","Start":"11-19-2013 21:46:42","End":"11-19-2013 21:51:44"}}
{"SMS":{"Address":"0913094####","type":"2","date":"11-19-2013 21:52:14","body":"ANONYMIZED","Type":"2"}}
{"SMS":{"Address":"0912317####","type":"2","date":"11-19-2013 21:53:18","body":"ANONYMIZED","Type":"2"}}
{"SMS":{"Address":"+98912145####","type":"1","date":"11-19-2013 21:53:25","body":"ANONYMIZED","Type":"1"}}
{"SMS":{"Address":"0912145####","type":"2","date":"11-19-2013 21:54:12","body":"ANONYMIZED","Type":"2"}}
{"SMS":{"Address":"+98912145####","type":"1","date":"11-19-2013 21:57:22","body":"ANONYMIZED","Type":"1"}}
{"Application":{"ProcessName":"com.sonyericsson.home","Start":"11-19-2013 21:51:44","End":"11-19-2013 21:57:25"}}
{"Application":{"ProcessName":"com.sonyericsson.customization","Start":"11-19-2013 21:51:44","End":"11-19-2013 21:57:25"}}
{"SMS":{"Address":"0912145####","type":"2","date":"11-19-2013 21:57:55","body":"ANONYMIZED","Type":"2"}}
{"Application":{"ProcessName":"com.sonyericsson.home","Start":"11-19-2013 21:57:38","End":"11-19-2013 21:58:56"}}
{"Application":{"ProcessName":"com.sonyericsson.customization","Start":"11-19-2013 21:57:38","End":"11-19-2013 21:58:56"}}
{"SMS":{"Address":"+98912145####","type":"1","date":"11-19-2013 22:00:50","body":"ANONYMIZED","Type":"1"}}
{"SMS":{"Address":"0912145####","type":"2","date":"11-19-2013 22:04:17","body":"ANONYMIZED","Type":"2"}}
{"SMS":{"Address":"+98912145####","type":"1","date":"11-19-2013 22:05:43","body":"ANONYMIZED","Type":"1"}}
{"Application":{"ProcessName":"com.sonyericsson.home","Start":"11-19-2013 22:03:48","End":"11-19-2013 22:05:44"}}
{"Application":{"ProcessName":"com.sonyericsson.advancedwidget.weather","Start":"11-19-2013 22:04:49","End":"11-19-2013 22:05:44"}}
{"Application":{"ProcessName":"com.sonyericsson.customization","Start":"11-19-2013 22:03:48","End":"11-19-2013 22:05:44"}}
{"SMS":{"Address":"0912145####","type":"2","date":"11-19-2013 22:07:08","body":"ANONYMIZED","Type":"2"}}
{"Application":{"ProcessName":"com.sonyericsson.album","Start":"11-19-2013 22:07:37","End":"11-19-2013 22:08:07"}}
{"SMS":{"Address":"+98912145####","type":"1","date":"11-19-2013 22:08:40","body":"ANONYMIZED","Type":"1"}}
{"Application":{"ProcessName":"com.google.android.deskclock","Start":"11-19-2013 22:08:07","End":"11-19-2013 22:08:47"}}
{"SMS":{"Address":"0912145####","type":"2","date":"11-19-2013 22:09:05","body":"ANONYMIZED","Type":"2"}}
{"Application":{"ProcessName":"com.sonyericsson.home","Start":"11-19-2013 22:06:05","End":"11-19-2013 22:10:05"}}
{"Application":{"ProcessName":"com.sonyericsson.customization","Start":"11-19-2013 22:06:05","End":"11-19-2013 22:10:05"}}
{"SMS":{"Address":"+98912145####","type":"1","date":"11-19-2013 22:10:29","body":"ANONYMIZED","Type":"1"}}
{"SMS":{"Address":"0912145####","type":"2","date":"11-19-2013 22:11:43","body":"ANONYMIZED","Type":"2"}}
{"Application":{"ProcessName":"com.sonyericsson.home","Start":"11-19-2013 22:11:34","End":"11-19-2013 22:12:43"}}
{"Application":{"ProcessName":"com.sonyericsson.customization","Start":"11-19-2013 22:11:34","End":"11-19-2013 22:12:43"}}
{"SMS":{"Address":"+98912145####","type":"1","date":"11-19-2013 22:14:21","body":"ANONYMIZED","Type":"1"}}
{"SMS":{"Address":"0912145####","type":"2","date":"11-19-2013 22:14:39","body":"ANONYMIZED","Type":"2"}}
{"SMS":{"Address":"+98912145####","type":"1","date":"11-19-2013 22:16:13","body":"ANONYMIZED","Type":"1"}}
{"Application":{"ProcessName":"com.sonyericsson.home","Start":"11-19-2013 22:13:56","End":"11-19-2013 22:16:16"}}
{"Application":{"ProcessName":"com.sonyericsson.customization","Start":"11-19-2013 22:13:56","End":"11-19-2013 22:16:16"}}
{"SMS":{"Address":"+98912562####","type":"1","date":"11-19-2013 22:38:21","body":"ANONYMIZED","Type":"1"}}
{"Application":{"ProcessName":"com.sonyericsson.home","Start":"11-19-2013 22:25:17","End":"11-19-2013 22:38:23"}}
{"Application":{"ProcessName":"com.sonyericsson.customization","Start":"11-19-2013 22:25:17","End":"11-19-2013 22:38:23"}}
{"SMS":{"Address":"0912562####","type":"2","date":"11-19-2013 22:44:58","body":"ANONYMIZED","Type":"2"}}
{"SMS":{"Address":"+98912562####","type":"1","date":"11-19-2013 22:46:41","body":"ANONYMIZED","Type":"1"}}
{"Application":{"ProcessName":"com.sonyericsson.home","Start":"11-19-2013 22:44:35","End":"11-19-2013 22:47:51"}}
{"Application":{"ProcessName":"com.sonyericsson.customization","Start":"11-19-2013 22:44:35","End":"11-19-2013 22:47:51"}}
