{"SMS":{"Address":"+98936258####","type":"1","date":"11-13-2013 23:58:30","body":"ANONYMIZED","Type":"1"}}
{"SMS":{"Address":"0936258####","type":"2","date":"11-13-2013 23:59:03","body":"ANONYMIZED","Type":"2"}}
{"Application":{"ProcessName":"com.sonyericsson.home","Start":"11-13-2013 23:58:40","End":"11-13-2013 23:59:33"}}
{"Application":{"ProcessName":"com.sonyericsson.customization","Start":"11-13-2013 23:58:40","End":"11-13-2013 23:59:33"}}
{"Application":{"ProcessName":"com.sonyericsson.androidapp.smart","Start":"11-13-2013 23:58:40","End":"11-13-2013 23:59:33"}}
{"SMS":{"Address":"+98912145####","type":"1","date":"11-13-2013 23:59:33","body":"ANONYMIZED","Type":"1"}}
{"SMS":{"Address":"+98936258####","type":"1","date":"11-13-2013 23:59:47","body":"ANONYMIZED","Type":"1"}}
{"SMS":{"Address":"0936258####","type":"2","date":"11-14-2013 00:00:30","body":"ANONYMIZED","Type":"2"}}
{"Application":{"ProcessName":"com.sonyericsson.home","Start":"11-13-2013 23:59:55","End":"11-14-2013 00:01:13"}}
{"Application":{"ProcessName":"com.sonyericsson.customization","Start":"11-13-2013 23:59:55","End":"11-14-2013 00:01:13"}}
{"Application":{"ProcessName":"com.sonyericsson.androidapp.smart","Start":"11-13-2013 23:59:55","End":"11-14-2013 00:01:13"}}
{"SMS":{"Address":"+98936258####","type":"1","date":"11-14-2013 00:01:13","body":"ANONYMIZED","Type":"1"}}
{"Application":{"ProcessName":"com.sonyericsson.lockscreen.notifications","Start":"11-14-2013 00:01:49","End":"11-14-2013 00:01:59"}}
{"Application":{"ProcessName":"com.sonyericsson.home","Start":"11-14-2013 00:01:49","End":"11-14-2013 00:02:16"}}
{"Application":{"ProcessName":"com.sonyericsson.customization","Start":"11-14-2013 00:01:49","End":"11-14-2013 00:02:16"}}
{"Application":{"ProcessName":"com.sonyericsson.androidapp.smart","Start":"11-14-2013 00:01:49","End":"11-14-2013 00:02:16"}}
{"SMS":{"Address":"0936258####","type":"2","date":"11-14-2013 00:02:05","body":"ANONYMIZED","Type":"2"}}
{"SMS":{"Address":"+98936258####","type":"1","date":"11-14-2013 00:02:58","body":"ANONYMIZED","Type":"1"}}
{"SMS":{"Address":"0936258####","type":"2","date":"11-14-2013 00:04:19","body":"ANONYMIZED","Type":"2"}}
{"Application":{"ProcessName":"com.sonyericsson.home","Start":"11-14-2013 00:03:54","End":"11-14-2013 00:04:24"}}
{"Application":{"ProcessName":"com.sonyericsson.customization","Start":"11-14-2013 00:03:54","End":"11-14-2013 00:04:24"}}
{"Application":{"ProcessName":"com.sonyericsson.androidapp.smart","Start":"11-14-2013 00:03:54","End":"11-14-2013 00:04:24"}}
{"Application":{"ProcessName":"com.sonyericsson.album","Start":"11-14-2013 00:22:31","End":"11-14-2013 00:22:52"}}
{"Application":{"ProcessName":"com.sonyericsson.album","Start":"11-14-2013 00:23:02","End":"11-14-2013 00:23:22"}}
{"Application":{"ProcessName":"com.android.settings","Start":"11-14-2013 00:23:32","End":"11-14-2013 00:23:42"}}
{"Application":{"ProcessName":"com.sonyericsson.androidapp.smart","Start":"11-14-2013 00:19:33","End":"11-14-2013 00:24:33"}}
{"Application":{"ProcessName":"com.sonyericsson.home","Start":"11-14-2013 00:19:33","End":"11-14-2013 00:24:33"}}
{"Application":{"ProcessName":"com.sonyericsson.customization","Start":"11-14-2013 00:19:33","End":"11-14-2013 00:24:33"}}
{"Application":{"ProcessName":"com.sonyericsson.album","Start":"11-14-2013 00:23:42","End":"11-14-2013 00:24:43"}}
{"Application":{"ProcessName":"com.sonyericsson.androidapp.smart","Start":"11-14-2013 00:24:33","End":"11-14-2013 00:24:53"}}
{"Application":{"ProcessName":"com.sonyericsson.home","Start":"11-14-2013 00:24:33","End":"11-14-2013 00:25:48"}}
{"Application":{"ProcessName":"com.sonyericsson.customization","Start":"11-14-2013 00:24:33","End":"11-14-2013 00:25:48"}}
{"Call": {"Number":"0912145####","Duration":"192","Time":"11-14-2013 00:24:56","Type":"2"}}
{"Call": {"Number":"0912145####","Duration":"192","Time":"11-14-2013 00:24:56","Type":"2"}}
{"Call": {"Number":"0913572####","Duration":"23","Time":"11-14-2013 00:30:44","Type":"1"}}
{"Call": {"Number":"0913572####","Duration":"23","Time":"11-14-2013 00:30:44","Type":"1"}}
{"Application":{"ProcessName":"com.tencent.mm","Start":"11-14-2013 00:31:16","End":"11-14-2013 00:35:48"}}
{"Application":{"ProcessName":"com.sonyericsson.home","Start":"11-14-2013 00:28:22","End":"11-14-2013 00:35:48"}}
{"Application":{"ProcessName":"com.sonyericsson.customization","Start":"11-14-2013 00:28:22","End":"11-14-2013 00:35:48"}}
{"Application":{"ProcessName":"com.sonyericsson.androidapp.smart","Start":"11-14-2013 00:31:16","End":"11-14-2013 00:36:09"}}
{"Application":{"ProcessName":"com.sonyericsson.home","Start":"11-14-2013 00:35:49","End":"11-14-2013 00:36:09"}}
{"Application":{"ProcessName":"com.sonyericsson.customization","Start":"11-14-2013 00:35:49","End":"11-14-2013 00:36:09"}}
{"Call": {"Number":"+98913112####","Duration":"0","Time":"11-14-2013 00:35:58","Type":"2"}}
{"Call": {"Number":"+98913112####","Duration":"0","Time":"11-14-2013 00:35:58","Type":"2"}}
{"Application":{"ProcessName":"com.sonyericsson.androidapp.smart","Start":"11-14-2013 00:36:19","End":"11-14-2013 00:36:39"}}
{"Application":{"ProcessName":"com.sonyericsson.home","Start":"11-14-2013 00:36:19","End":"11-14-2013 00:36:39"}}
{"Application":{"ProcessName":"com.sonyericsson.customization","Start":"11-14-2013 00:36:19","End":"11-14-2013 00:36:39"}}
{"Application":{"ProcessName":"com.sonyericsson.album","Start":"11-14-2013 00:44:00","End":"11-14-2013 00:45:00"}}
{"Application":{"ProcessName":"com.sonyericsson.androidapp.smart","Start":"11-14-2013 00:43:49","End":"11-14-2013 00:45:00"}}
{"Application":{"ProcessName":"com.sonyericsson.home","Start":"11-14-2013 00:43:49","End":"11-14-2013 00:45:00"}}
{"Application":{"ProcessName":"com.sonyericsson.customization","Start":"11-14-2013 00:43:49","End":"11-14-2013 00:45:00"}}
{"Call": {"Number":"+98913112####","Duration":"0","Time":"11-14-2013 00:35:58","Type":"2"}}
{"Application":{"ProcessName":"com.sonyericsson.infiniteview","Start":"11-14-2013 00:45:47","End":"11-14-2013 00:45:57"}}
{"Call": {"Number":"0913111####","Duration":"15","Time":"11-14-2013 00:45:47","Type":"2"}}
{"Call": {"Number":"0913111####","Duration":"15","Time":"11-14-2013 00:45:47","Type":"2"}}
{"Call": {"Number":"0913111####","Duration":"0","Time":"11-14-2013 00:46:30","Type":"2"}}
{"Call": {"Number":"0913111####","Duration":"0","Time":"11-14-2013 00:46:30","Type":"2"}}
{"Application":{"ProcessName":"com.sonyericsson.androidapp.smart","Start":"11-14-2013 00:46:41","End":"11-14-2013 00:47:11"}}
{"Application":{"ProcessName":"com.sonyericsson.home","Start":"11-14-2013 00:45:37","End":"11-14-2013 00:47:11"}}
{"Application":{"ProcessName":"com.sonyericsson.customization","Start":"11-14-2013 00:45:37","End":"11-14-2013 00:47:11"}}
{"Call": {"Number":"0913111####","Duration":"30","Time":"11-14-2013 00:47:14","Type":"1"}}
{"Call": {"Number":"0913111####","Duration":"30","Time":"11-14-2013 00:47:14","Type":"1"}}
{"Application":{"ProcessName":"com.sonyericsson.androidapp.smart","Start":"11-14-2013 00:47:46","End":"11-14-2013 00:48:44"}}
{"Application":{"ProcessName":"com.sonyericsson.infiniteview","Start":"11-14-2013 00:50:21","End":"11-14-2013 00:50:31"}}
{"Application":{"ProcessName":"com.sonyericsson.home","Start":"11-14-2013 00:47:46","End":"11-14-2013 00:50:41"}}
{"Application":{"ProcessName":"com.sonyericsson.customization","Start":"11-14-2013 00:47:46","End":"11-14-2013 00:50:41"}}
{"Call": {"Number":"0913411####","Duration":"0","Time":"11-14-2013 00:51:05","Type":"3"}}
{"Call": {"Number":"0913411####","Duration":"0","Time":"11-14-2013 00:51:05","Type":"3"}}
{"Call": {"Number":"0913411####","Duration":"0","Time":"11-14-2013 00:51:05","Type":"3"}}
{"Call": {"Number":"0913411####","Duration":"0","Time":"11-14-2013 00:51:05","Type":"3"}}
{"Application":{"ProcessName":"com.sonyericsson.home","Start":"11-14-2013 00:51:11","End":"11-14-2013 00:52:02"}}
{"Application":{"ProcessName":"com.sonyericsson.customization","Start":"11-14-2013 00:51:11","End":"11-14-2013 00:52:02"}}
{"Call": {"Number":"0913411####","Duration":"35","Time":"11-14-2013 00:52:03","Type":"1"}}
{"Call": {"Number":"0913411####","Duration":"35","Time":"11-14-2013 00:52:03","Type":"1"}}
{"Application":{"ProcessName":"com.sonyericsson.infiniteview","Start":"11-14-2013 00:52:42","End":"11-14-2013 00:52:52"}}
{"Application":{"ProcessName":"com.sonyericsson.androidapp.smart","Start":"11-14-2013 00:52:42","End":"11-14-2013 00:52:52"}}
{"Application":{"ProcessName":"com.sonyericsson.home","Start":"11-14-2013 00:52:42","End":"11-14-2013 00:52:52"}}
{"Application":{"ProcessName":"com.sonyericsson.customization","Start":"11-14-2013 00:52:42","End":"11-14-2013 00:52:52"}}
{"Application":{"ProcessName":"com.sonyericsson.infiniteview","Start":"11-14-2013 00:53:03","End":"11-14-2013 00:55:53"}}
{"Application":{"ProcessName":"com.sonyericsson.androidapp.smart","Start":"11-14-2013 00:53:03","End":"11-14-2013 00:55:53"}}
{"Application":{"ProcessName":"com.sonyericsson.home","Start":"11-14-2013 00:53:03","End":"11-14-2013 00:55:53"}}
{"Application":{"ProcessName":"com.sonyericsson.customization","Start":"11-14-2013 00:53:03","End":"11-14-2013 00:55:53"}}
{"Application":{"ProcessName":"com.sonyericsson.androidapp.smart","Start":"11-14-2013 00:59:54","End":"11-14-2013 01:00:32"}}
{"Application":{"ProcessName":"com.sonyericsson.home","Start":"11-14-2013 00:59:54","End":"11-14-2013 01:00:32"}}
{"Application":{"ProcessName":"com.sonyericsson.customization","Start":"11-14-2013 00:59:54","End":"11-14-2013 01:00:32"}}
{"Call": {"Number":"0913411####","Duration":"35","Time":"11-14-2013 00:52:03","Type":"1"}}
{"Call": {"Number":"0913111####","Duration":"0","Time":"11-14-2013 01:15:59","Type":"2"}}
{"Call": {"Number":"0913111####","Duration":"0","Time":"11-14-2013 01:15:59","Type":"2"}}
{"Application":{"ProcessName":"com.sonyericsson.androidapp.smart","Start":"11-14-2013 01:14:22","End":"11-14-2013 01:16:04"}}
{"SMS":{"Address":"0913111####","type":"2","date":"11-14-2013 01:16:26","body":"ANONYMIZED","Type":"2"}}
{"Call": {"Number":"0912145####","Duration":"0","Time":"11-14-2013 01:16:40","Type":"2"}}
{"Call": {"Number":"0912145####","Duration":"0","Time":"11-14-2013 01:16:40","Type":"2"}}
{"Call": {"Number":"0912145####","Duration":"157","Time":"11-14-2013 01:18:08","Type":"1"}}
{"Call": {"Number":"0912145####","Duration":"157","Time":"11-14-2013 01:18:08","Type":"1"}}
{"Application":{"ProcessName":"com.sonyericsson.home","Start":"11-14-2013 01:14:22","End":"11-14-2013 01:20:54"}}
{"Application":{"ProcessName":"com.sonyericsson.customization","Start":"11-14-2013 01:14:22","End":"11-14-2013 01:20:54"}}
{"Application":{"ProcessName":"com.sonyericsson.androidapp.smart","Start":"11-14-2013 01:16:25","End":"11-14-2013 01:25:25"}}
{"Application":{"ProcessName":"com.sonyericsson.home","Start":"11-14-2013 01:20:54","End":"11-14-2013 01:25:25"}}
{"Application":{"ProcessName":"com.sonyericsson.customization","Start":"11-14-2013 01:20:54","End":"11-14-2013 01:25:25"}}
{"SMS":{"Address":"+98912145####","type":"1","date":"11-14-2013 01:25:21","body":"ANONYMIZED","Type":"1"}}
{"SMS":{"Address":"+98912145####","type":"1","date":"11-14-2013 01:26:27","body":"ANONYMIZED","Type":"1"}}
{"SMS":{"Address":"0912145####","type":"2","date":"11-14-2013 01:28:13","body":"ANONYMIZED","Type":"2"}}
{"Application":{"ProcessName":"com.sonyericsson.androidapp.smart","Start":"11-14-2013 01:27:32","End":"11-14-2013 01:28:43"}}
{"Application":{"ProcessName":"com.sonyericsson.home","Start":"11-14-2013 01:27:32","End":"11-14-2013 01:28:43"}}
{"Application":{"ProcessName":"com.sonyericsson.customization","Start":"11-14-2013 01:27:32","End":"11-14-2013 01:28:43"}}
{"SMS":{"Address":"+98912145####","type":"1","date":"11-14-2013 01:28:42","body":"ANONYMIZED","Type":"1"}}
{"SMS":{"Address":"0912145####","type":"2","date":"11-14-2013 01:29:00","body":"ANONYMIZED","Type":"2"}}
{"Application":{"ProcessName":"com.sonyericsson.androidapp.smart","Start":"11-14-2013 01:28:56","End":"11-14-2013 01:29:30"}}
{"Application":{"ProcessName":"com.sonyericsson.home","Start":"11-14-2013 01:28:56","End":"11-14-2013 01:29:30"}}
{"Application":{"ProcessName":"com.sonyericsson.customization","Start":"11-14-2013 01:28:56","End":"11-14-2013 01:29:30"}}
{"SMS":{"Address":"+98912145####","type":"1","date":"11-14-2013 01:29:34","body":"ANONYMIZED","Type":"1"}}
{"SMS":{"Address":"0912145####","type":"2","date":"11-14-2013 01:30:04","body":"ANONYMIZED","Type":"2"}}
{"SMS":{"Address":"+98912145####","type":"1","date":"11-14-2013 01:31:17","body":"ANONYMIZED","Type":"1"}}
{"Application":{"ProcessName":"com.sonyericsson.androidapp.smart","Start":"11-14-2013 01:29:44","End":"11-14-2013 01:31:19"}}
{"Application":{"ProcessName":"com.sonyericsson.home","Start":"11-14-2013 01:29:44","End":"11-14-2013 01:31:19"}}
{"Application":{"ProcessName":"com.sonyericsson.customization","Start":"11-14-2013 01:29:44","End":"11-14-2013 01:31:19"}}
{"Call": {"Number":"0913837####","Duration":"159","Time":"11-14-2013 01:30:37","Type":"2"}}
{"Call": {"Number":"0913837####","Duration":"159","Time":"11-14-2013 01:30:37","Type":"2"}}
{"SMS":{"Address":"0912145####","type":"2","date":"11-14-2013 01:34:36","body":"ANONYMIZED","Type":"2"}}
{"Call": {"Number":"+98913112####","Duration":"0","Time":"11-14-2013 01:35:33","Type":"2"}}
{"Call": {"Number":"+98913112####","Duration":"0","Time":"11-14-2013 01:35:33","Type":"2"}}
{"SMS":{"Address":"+98912145####","type":"1","date":"11-14-2013 01:35:55","body":"ANONYMIZED","Type":"1"}}
{"Application":{"ProcessName":"com.sonyericsson.androidapp.smart","Start":"11-14-2013 01:33:48","End":"11-14-2013 01:36:00"}}
{"SMS":{"Address":"+98912145####","type":"1","date":"11-14-2013 01:36:02","body":"ANONYMIZED","Type":"1"}}
{"SMS":{"Address":"0912145####","type":"2","date":"11-14-2013 01:36:28","body":"ANONYMIZED","Type":"2"}}
{"SMS":{"Address":"+98912145####","type":"1","date":"11-14-2013 01:37:17","body":"ANONYMIZED","Type":"1"}}
{"Application":{"ProcessName":"com.sonyericsson.androidapp.smart","Start":"11-14-2013 01:36:13","End":"11-14-2013 01:37:21"}}
{"Application":{"ProcessName":"com.sonyericsson.home","Start":"11-14-2013 01:33:48","End":"11-14-2013 01:37:21"}}
{"Application":{"ProcessName":"com.sonyericsson.customization","Start":"11-14-2013 01:33:48","End":"11-14-2013 01:37:21"}}
{"SMS":{"Address":"0912145####","type":"2","date":"11-14-2013 01:38:04","body":"ANONYMIZED","Type":"2"}}
{"SMS":{"Address":"+98912145####","type":"1","date":"11-14-2013 01:38:59","body":"ANONYMIZED","Type":"1"}}
{"Application":{"ProcessName":"com.sonyericsson.androidapp.smart","Start":"11-14-2013 01:37:54","End":"11-14-2013 01:39:32"}}
{"Application":{"ProcessName":"com.sonyericsson.home","Start":"11-14-2013 01:37:54","End":"11-14-2013 01:39:32"}}
{"Application":{"ProcessName":"com.sonyericsson.customization","Start":"11-14-2013 01:37:54","End":"11-14-2013 01:39:32"}}
{"Application":{"ProcessName":"com.sonyericsson.androidapp.smart","Start":"11-14-2013 01:40:13","End":"11-14-2013 01:40:58"}}
{"Application":{"ProcessName":"com.sonyericsson.home","Start":"11-14-2013 01:40:13","End":"11-14-2013 01:40:58"}}
{"Application":{"ProcessName":"com.sonyericsson.customization","Start":"11-14-2013 01:40:13","End":"11-14-2013 01:40:58"}}
{"Call": {"Number":"0912145####","Duration":"219","Time":"11-14-2013 01:40:30","Type":"2"}}
{"Call": {"Number":"0912145####","Duration":"219","Time":"11-14-2013 01:40:30","Type":"2"}}
{"Application":{"ProcessName":"com.sonyericsson.androidapp.smart","Start":"11-14-2013 01:44:22","End":"11-14-2013 01:44:32"}}
{"Application":{"ProcessName":"com.sonyericsson.home","Start":"11-14-2013 01:44:22","End":"11-14-2013 01:44:32"}}
{"Application":{"ProcessName":"com.sonyericsson.customization","Start":"11-14-2013 01:44:22","End":"11-14-2013 01:44:32"}}
{"Call": {"Number":"0913117####","Duration":"0","Time":"11-14-2013 01:44:23","Type":"2"}}
{"Call": {"Number":"0913117####","Duration":"0","Time":"11-14-2013 01:44:23","Type":"2"}}
{"Application":{"ProcessName":"com.sonyericsson.androidapp.smart","Start":"11-14-2013 01:45:22","End":"11-14-2013 01:45:42"}}
{"Application":{"ProcessName":"com.sonyericsson.home","Start":"11-14-2013 01:45:22","End":"11-14-2013 01:46:41"}}
{"Application":{"ProcessName":"com.sonyericsson.customization","Start":"11-14-2013 01:45:22","End":"11-14-2013 01:46:41"}}
{"Application":{"ProcessName":"com.sonyericsson.home","Start":"11-14-2013 02:00:36","End":"11-14-2013 02:01:06"}}
{"Application":{"ProcessName":"com.sonyericsson.extras.liveware","Start":"11-14-2013 02:00:36","End":"11-14-2013 02:01:06"}}
{"Application":{"ProcessName":"com.sonyericsson.customization","Start":"11-14-2013 02:00:36","End":"11-14-2013 02:01:06"}}
{"Application":{"ProcessName":"com.sonyericsson.androidapp.smart","Start":"11-14-2013 02:01:16","End":"11-14-2013 02:01:26"}}
{"Application":{"ProcessName":"com.sonyericsson.extras.liveware","Start":"11-14-2013 02:01:16","End":"11-14-2013 02:01:26"}}
{"Application":{"ProcessName":"com.google.android.deskclock","Start":"11-14-2013 02:01:26","End":"11-14-2013 02:01:36"}}
{"Application":{"ProcessName":"com.sonyericsson.home","Start":"11-14-2013 02:01:16","End":"11-14-2013 02:01:36"}}
{"Application":{"ProcessName":"com.sonyericsson.customization","Start":"11-14-2013 02:01:16","End":"11-14-2013 02:01:36"}}
{"Application":{"ProcessName":"com.sonyericsson.lockscreen.notifications","Start":"11-14-2013 10:11:49","End":"11-14-2013 10:11:59"}}
{"Call": {"Number":"0311439####","Duration":"47","Time":"11-14-2013 10:10:52","Type":"1"}}
{"Application":{"ProcessName":"com.sonyericsson.infiniteview","Start":"11-14-2013 10:11:59","End":"11-14-2013 10:15:14"}}
{"Call": {"Number":"0311439####","Duration":"47","Time":"11-14-2013 10:10:52","Type":"1"}}
{"Application":{"ProcessName":"com.sonyericsson.androidapp.smart","Start":"11-14-2013 10:10:58","End":"11-14-2013 10:15:24"}}
{"Application":{"ProcessName":"com.sonyericsson.home","Start":"11-14-2013 10:10:58","End":"11-14-2013 10:16:04"}}
{"Application":{"ProcessName":"com.sonyericsson.customization","Start":"11-14-2013 10:10:58","End":"11-14-2013 10:16:04"}}
{"Call": {"Number":"0913837####","Duration":"0","Time":"11-14-2013 10:15:21","Type":"2"}}
{"Call": {"Number":"0913837####","Duration":"0","Time":"11-14-2013 10:15:21","Type":"2"}}
{"Application":{"ProcessName":"com.sonyericsson.androidapp.smart","Start":"11-14-2013 10:16:34","End":"11-14-2013 10:17:04"}}
{"Application":{"ProcessName":"com.sonyericsson.home","Start":"11-14-2013 10:16:04","End":"11-14-2013 10:17:04"}}
{"Application":{"ProcessName":"com.sonyericsson.customization","Start":"11-14-2013 10:16:04","End":"11-14-2013 10:17:04"}}
{"Call": {"Number":"0912145####","Duration":"0","Time":"11-14-2013 10:16:19","Type":"2"}}
{"Call": {"Number":"0912145####","Duration":"0","Time":"11-14-2013 10:16:19","Type":"2"}}
{"Application":{"ProcessName":"com.sonyericsson.androidapp.smart","Start":"11-14-2013 10:17:14","End":"11-14-2013 10:17:34"}}
{"Application":{"ProcessName":"com.sonyericsson.home","Start":"11-14-2013 10:17:14","End":"11-14-2013 10:17:34"}}
{"Application":{"ProcessName":"com.sonyericsson.customization","Start":"11-14-2013 10:17:14","End":"11-14-2013 10:17:34"}}
{"Call": {"Number":"0913305####","Duration":"0","Time":"11-14-2013 10:17:25","Type":"2"}}
{"Call": {"Number":"0913305####","Duration":"0","Time":"11-14-2013 10:17:25","Type":"2"}}
{"Application":{"ProcessName":"com.sonyericsson.android.socialphonebook","Start":"11-14-2013 10:18:26","End":"11-14-2013 10:18:36"}}
{"Call": {"Number":"0312523####","Duration":"0","Time":"11-14-2013 10:18:39","Type":"2"}}
{"Call": {"Number":"0312523####","Duration":"0","Time":"11-14-2013 10:18:39","Type":"2"}}
{"Application":{"ProcessName":"com.sonyericsson.infiniteview","Start":"11-14-2013 10:19:46","End":"11-14-2013 10:19:56"}}
{"Application":{"ProcessName":"com.sonyericsson.android.socialphonebook","Start":"11-14-2013 10:19:56","End":"11-14-2013 10:20:06"}}
{"Application":{"ProcessName":"com.sonyericsson.androidapp.smart","Start":"11-14-2013 10:18:26","End":"11-14-2013 10:20:57"}}
{"Application":{"ProcessName":"com.sonyericsson.home","Start":"11-14-2013 10:18:26","End":"11-14-2013 10:20:57"}}
{"Application":{"ProcessName":"com.sonyericsson.customization","Start":"11-14-2013 10:18:26","End":"11-14-2013 10:20:57"}}
{"Application":{"ProcessName":"com.sonyericsson.androidapp.smart","Start":"11-14-2013 10:24:38","End":"11-14-2013 10:26:05"}}
{"Application":{"ProcessName":"com.sonyericsson.home","Start":"11-14-2013 10:24:38","End":"11-14-2013 10:26:05"}}
{"Application":{"ProcessName":"com.sonyericsson.customization","Start":"11-14-2013 10:24:38","End":"11-14-2013 10:26:05"}}
{"Call": {"Number":"0912145####","Duration":"114","Time":"11-14-2013 10:24:35","Type":"1"}}
{"Call": {"Number":"0912145####","Duration":"114","Time":"11-14-2013 10:24:35","Type":"1"}}
{"Application":{"ProcessName":"com.tencent.mm","Start":"11-14-2013 10:28:28","End":"11-14-2013 10:28:38"}}
{"Application":{"ProcessName":"com.sonyericsson.androidapp.smart","Start":"11-14-2013 10:26:30","End":"11-14-2013 10:29:37"}}
{"Application":{"ProcessName":"com.tencent.mm","Start":"11-14-2013 10:28:48","End":"11-14-2013 10:29:37"}}
{"Application":{"ProcessName":"com.sonyericsson.home","Start":"11-14-2013 10:26:30","End":"11-14-2013 10:29:37"}}
{"Application":{"ProcessName":"com.sonyericsson.customization","Start":"11-14-2013 10:26:30","End":"11-14-2013 10:29:37"}}
{"Application":{"ProcessName":"com.sonyericsson.androidapp.smart","Start":"11-14-2013 10:51:22","End":"11-14-2013 10:56:30"}}
{"Application":{"ProcessName":"com.sonyericsson.home","Start":"11-14-2013 10:51:22","End":"11-14-2013 10:56:30"}}
{"Application":{"ProcessName":"com.sonyericsson.customization","Start":"11-14-2013 10:51:22","End":"11-14-2013 10:56:30"}}
{"Application":{"ProcessName":"com.sonyericsson.androidapp.smart","Start":"11-14-2013 10:56:30","End":"11-14-2013 10:57:39"}}
{"Application":{"ProcessName":"com.sonyericsson.home","Start":"11-14-2013 10:56:30","End":"11-14-2013 10:57:39"}}
{"Application":{"ProcessName":"com.sonyericsson.customization","Start":"11-14-2013 10:56:30","End":"11-14-2013 10:57:39"}}
{"Application":{"ProcessName":"com.sonyericsson.illumination.service","Start":"11-14-2013 11:02:14","End":"11-14-2013 11:02:24"}}
{"SMS":{"Address":"+98912145####","type":"1","date":"11-14-2013 11:03:58","body":"ANONYMIZED","Type":"1"}}
{"Application":{"ProcessName":"com.sonyericsson.androidapp.smart","Start":"11-14-2013 11:02:14","End":"11-14-2013 11:05:27"}}
{"Application":{"ProcessName":"com.sonyericsson.home","Start":"11-14-2013 11:02:14","End":"11-14-2013 11:05:27"}}
{"Application":{"ProcessName":"com.sonyericsson.customization","Start":"11-14-2013 11:02:14","End":"11-14-2013 11:05:27"}}
{"SMS":{"Address":"+98913305####","type":"1","date":"11-14-2013 11:05:26","body":"ANONYMIZED","Type":"1"}}
{"Application":{"ProcessName":"com.sonyericsson.home","Start":"11-14-2013 11:09:14","End":"11-14-2013 11:14:16"}}
{"Application":{"ProcessName":"com.sonyericsson.customization","Start":"11-14-2013 11:09:14","End":"11-14-2013 11:14:16"}}
{"Application":{"ProcessName":"com.sonyericsson.androidapp.smart","Start":"11-14-2013 11:09:24","End":"11-14-2013 11:18:09"}}
{"Application":{"ProcessName":"me.pou.app","Start":"11-14-2013 11:09:24","End":"11-14-2013 11:18:09"}}
{"Application":{"ProcessName":"com.sonyericsson.home","Start":"11-14-2013 11:14:16","End":"11-14-2013 11:18:09"}}
{"Application":{"ProcessName":"com.sonyericsson.customization","Start":"11-14-2013 11:14:16","End":"11-14-2013 11:18:09"}}
{"Application":{"ProcessName":"com.sonyericsson.androidapp.smart","Start":"11-14-2013 11:20:26","End":"11-14-2013 11:20:36"}}
{"Application":{"ProcessName":"com.sonyericsson.android.camera","Start":"11-14-2013 11:20:36","End":"11-14-2013 11:22:06"}}
{"Application":{"ProcessName":"com.sonyericsson.android.camera","Start":"11-14-2013 11:22:16","End":"11-14-2013 11:22:36"}}
{"Application":{"ProcessName":"com.sonyericsson.album","Start":"11-14-2013 11:22:36","End":"11-14-2013 11:24:39"}}
{"SMS":{"Address":"0913305####","type":"2","date":"11-14-2013 11:25:13","body":"ANONYMIZED","Type":"2"}}
{"Application":{"ProcessName":"com.sonyericsson.home","Start":"11-14-2013 11:20:26","End":"11-14-2013 11:25:48"}}
{"Application":{"ProcessName":"com.sonyericsson.customization","Start":"11-14-2013 11:20:26","End":"11-14-2013 11:25:48"}}
{"Application":{"ProcessName":"me.pou.app","Start":"11-14-2013 11:27:15","End":"11-14-2013 11:27:26"}}
{"Call": {"Number":"+98933425####","Duration":"0","Time":"11-14-2013 11:27:51","Type":"2"}}
{"Call": {"Number":"+98933425####","Duration":"0","Time":"11-14-2013 11:27:51","Type":"2"}}
{"Call": {"Number":"+98933425####","Duration":"0","Time":"11-14-2013 11:28:07","Type":"2"}}
{"Call": {"Number":"+98933425####","Duration":"0","Time":"11-14-2013 11:28:07","Type":"2"}}
{"Application":{"ProcessName":"com.sonyericsson.androidapp.smart","Start":"11-14-2013 11:28:16","End":"11-14-2013 11:28:47"}}
{"Application":{"ProcessName":"com.sonyericsson.home","Start":"11-14-2013 11:26:35","End":"11-14-2013 11:28:47"}}
{"Application":{"ProcessName":"com.sonyericsson.customization","Start":"11-14-2013 11:26:35","End":"11-14-2013 11:28:47"}}
{"Call": {"Number":"+98933425####","Duration":"0","Time":"11-14-2013 11:28:32","Type":"2"}}
{"Call": {"Number":"+98933425####","Duration":"0","Time":"11-14-2013 11:28:32","Type":"2"}}
{"Application":{"ProcessName":"com.sonyericsson.infiniteview","Start":"11-14-2013 11:29:07","End":"11-14-2013 11:29:17"}}
{"Application":{"ProcessName":"com.sonyericsson.eventstream","Start":"11-14-2013 11:29:07","End":"11-14-2013 11:29:17"}}
{"Call": {"Number":"0937250####","Duration":"0","Time":"11-14-2013 11:29:08","Type":"2"}}
{"Call": {"Number":"0937250####","Duration":"0","Time":"11-14-2013 11:29:08","Type":"2"}}
{"Application":{"ProcessName":"com.sonyericsson.androidapp.smart","Start":"11-14-2013 11:29:07","End":"11-14-2013 11:30:01"}}
{"Application":{"ProcessName":"com.sonyericsson.home","Start":"11-14-2013 11:29:07","End":"11-14-2013 11:30:01"}}
{"Application":{"ProcessName":"com.sonyericsson.customization","Start":"11-14-2013 11:29:07","End":"11-14-2013 11:30:01"}}
{"Application":{"ProcessName":"com.sonyericsson.android.camera","Start":"11-14-2013 11:40:22","End":"11-14-2013 11:40:42"}}
{"Application":{"ProcessName":"com.sonyericsson.androidapp.smart","Start":"11-14-2013 11:40:12","End":"11-14-2013 11:41:04"}}
{"Application":{"ProcessName":"com.sonyericsson.home","Start":"11-14-2013 11:40:12","End":"11-14-2013 11:41:04"}}
{"Application":{"ProcessName":"com.sonyericsson.customization","Start":"11-14-2013 11:40:12","End":"11-14-2013 11:41:04"}}
{"Call": {"Number":"0913117####","Duration":"46","Time":"11-14-2013 11:41:00","Type":"1"}}
{"Call": {"Number":"0913117####","Duration":"46","Time":"11-14-2013 11:41:00","Type":"1"}}
{"Application":{"ProcessName":"com.sonyericsson.androidapp.smart","Start":"11-14-2013 11:41:51","End":"11-14-2013 11:49:57"}}
{"Application":{"ProcessName":"com.sonyericsson.home","Start":"11-14-2013 11:41:51","End":"11-14-2013 11:49:57"}}
{"Application":{"ProcessName":"com.sonyericsson.customization","Start":"11-14-2013 11:41:51","End":"11-14-2013 11:49:57"}}
{"Application":{"ProcessName":"com.sonyericsson.androidapp.smart","Start":"11-14-2013 11:50:47","End":"11-14-2013 11:52:04"}}
{"Application":{"ProcessName":"com.sonyericsson.home","Start":"11-14-2013 11:50:47","End":"11-14-2013 11:52:04"}}
{"Application":{"ProcessName":"com.sonyericsson.customization","Start":"11-14-2013 11:50:47","End":"11-14-2013 11:52:04"}}
{"Application":{"ProcessName":"com.sonyericsson.home","Start":"11-14-2013 11:54:24","End":"11-14-2013 11:54:34"}}
{"Application":{"ProcessName":"com.sonyericsson.customization","Start":"11-14-2013 11:54:24","End":"11-14-2013 11:54:34"}}
{"Call": {"Number":"+98913112####","Duration":"0","Time":"11-14-2013 11:54:22","Type":"2"}}
{"Call": {"Number":"+98913112####","Duration":"0","Time":"11-14-2013 11:54:22","Type":"2"}}
{"Application":{"ProcessName":"com.sonyericsson.home","Start":"11-14-2013 11:54:45","End":"11-14-2013 12:00:01"}}
{"Application":{"ProcessName":"com.sonyericsson.customization","Start":"11-14-2013 11:54:45","End":"11-14-2013 12:00:01"}}
{"Application":{"ProcessName":"com.sonyericsson.androidapp.smart","Start":"11-14-2013 12:00:11","End":"11-14-2013 12:01:10"}}
{"Application":{"ProcessName":"com.sonyericsson.home","Start":"11-14-2013 12:00:11","End":"11-14-2013 12:01:10"}}
{"Application":{"ProcessName":"com.sonyericsson.customization","Start":"11-14-2013 12:00:11","End":"11-14-2013 12:01:10"}}
{"Call": {"Number":"0912145####","Duration":"100","Time":"11-14-2013 12:00:09","Type":"2"}}
{"Call": {"Number":"0912145####","Duration":"100","Time":"11-14-2013 12:00:09","Type":"2"}}
{"Application":{"ProcessName":"com.sonyericsson.androidapp.smart","Start":"11-14-2013 12:01:43","End":"11-14-2013 12:10:01"}}
{"Application":{"ProcessName":"com.sonyericsson.home","Start":"11-14-2013 12:01:43","End":"11-14-2013 12:10:01"}}
{"Application":{"ProcessName":"com.sonyericsson.customization","Start":"11-14-2013 12:01:43","End":"11-14-2013 12:10:01"}}
{"Call": {"Number":"0913411####","Duration":"38","Time":"11-14-2013 12:14:19","Type":"1"}}
{"Call": {"Number":"0913411####","Duration":"38","Time":"11-14-2013 12:14:19","Type":"1"}}
{"Call": {"Number":"0913117####","Duration":"42","Time":"11-14-2013 12:15:31","Type":"2"}}
{"Call": {"Number":"0913117####","Duration":"42","Time":"11-14-2013 12:15:31","Type":"2"}}
{"Application":{"ProcessName":"com.sonyericsson.androidapp.smart","Start":"11-14-2013 12:15:34","End":"11-14-2013 12:17:11"}}
{"Application":{"ProcessName":"com.sonyericsson.home","Start":"11-14-2013 12:15:34","End":"11-14-2013 12:17:11"}}
{"Application":{"ProcessName":"com.sonyericsson.customization","Start":"11-14-2013 12:15:34","End":"11-14-2013 12:17:11"}}
{"Call": {"Number":"0913837####","Duration":"0","Time":"11-14-2013 12:17:43","Type":"2"}}
{"Call": {"Number":"0913837####","Duration":"0","Time":"11-14-2013 12:17:43","Type":"2"}}
{"Call": {"Number":"0913837####","Duration":"0","Time":"11-14-2013 12:18:16","Type":"2"}}
{"Call": {"Number":"0913837####","Duration":"0","Time":"11-14-2013 12:18:16","Type":"2"}}
{"Call": {"Number":"0913837####","Duration":"0","Time":"11-14-2013 12:18:21","Type":"2"}}
{"Call": {"Number":"0913837####","Duration":"0","Time":"11-14-2013 12:18:21","Type":"2"}}
{"Call": {"Number":"0913837####","Duration":"0","Time":"11-14-2013 12:18:44","Type":"2"}}
{"Call": {"Number":"0913837####","Duration":"0","Time":"11-14-2013 12:18:44","Type":"2"}}
{"Application":{"ProcessName":"com.sonyericsson.androidapp.smart","Start":"11-14-2013 12:17:45","End":"11-14-2013 12:20:02"}}
{"Application":{"ProcessName":"com.sonyericsson.home","Start":"11-14-2013 12:17:45","End":"11-14-2013 12:20:02"}}
{"Application":{"ProcessName":"com.sonyericsson.customization","Start":"11-14-2013 12:17:45","End":"11-14-2013 12:20:02"}}
{"Call": {"Number":"0913411####","Duration":"0","Time":"11-14-2013 12:26:34","Type":"2"}}
{"Call": {"Number":"0913411####","Duration":"0","Time":"11-14-2013 12:26:34","Type":"2"}}
{"Call": {"Number":"0913411####","Duration":"0","Time":"11-14-2013 12:27:08","Type":"2"}}
{"Call": {"Number":"0913411####","Duration":"0","Time":"11-14-2013 12:27:08","Type":"2"}}
{"Application":{"ProcessName":"com.sonyericsson.androidapp.smart","Start":"11-14-2013 12:26:29","End":"11-14-2013 12:29:51"}}
{"Application":{"ProcessName":"com.sonyericsson.home","Start":"11-14-2013 12:26:29","End":"11-14-2013 12:29:51"}}
{"Application":{"ProcessName":"com.sonyericsson.customization","Start":"11-14-2013 12:26:29","End":"11-14-2013 12:29:51"}}
{"Call": {"Number":"0913411####","Duration":"0","Time":"11-14-2013 12:29:48","Type":"2"}}
{"Call": {"Number":"0913411####","Duration":"0","Time":"11-14-2013 12:29:48","Type":"2"}}
{"Application":{"ProcessName":"com.sonyericsson.androidapp.smart","Start":"11-14-2013 12:30:01","End":"11-14-2013 12:30:11"}}
{"Application":{"ProcessName":"com.sonyericsson.home","Start":"11-14-2013 12:30:01","End":"11-14-2013 12:30:11"}}
{"Application":{"ProcessName":"com.sonyericsson.customization","Start":"11-14-2013 12:30:01","End":"11-14-2013 12:30:11"}}
{"Application":{"ProcessName":"com.sonyericsson.androidapp.smart","Start":"11-14-2013 12:30:22","End":"11-14-2013 12:30:32"}}
{"Application":{"ProcessName":"com.sonyericsson.home","Start":"11-14-2013 12:30:22","End":"11-14-2013 12:30:32"}}
{"Application":{"ProcessName":"com.sonyericsson.customization","Start":"11-14-2013 12:30:22","End":"11-14-2013 12:30:32"}}
{"Call": {"Number":"0913411####","Duration":"0","Time":"11-14-2013 12:30:05","Type":"2"}}
{"Call": {"Number":"0913411####","Duration":"0","Time":"11-14-2013 12:30:05","Type":"2"}}
{"Application":{"ProcessName":"com.sonyericsson.home","Start":"11-14-2013 12:31:18","End":"11-14-2013 12:31:28"}}
{"Application":{"ProcessName":"com.sonyericsson.customization","Start":"11-14-2013 12:31:18","End":"11-14-2013 12:31:28"}}
{"Call": {"Number":"0913411####","Duration":"24","Time":"11-14-2013 12:31:45","Type":"2"}}
{"Call": {"Number":"0913411####","Duration":"24","Time":"11-14-2013 12:31:45","Type":"2"}}
{"Application":{"ProcessName":"com.sonyericsson.home","Start":"11-14-2013 12:32:27","End":"11-14-2013 12:36:57"}}
{"Application":{"ProcessName":"com.sonyericsson.customization","Start":"11-14-2013 12:32:27","End":"11-14-2013 12:36:57"}}
{"SMS":{"Address":"+98933502####","type":"1","date":"11-14-2013 12:36:55","body":"ANONYMIZED","Type":"1"}}
{"Application":{"ProcessName":"com.sonyericsson.androidapp.smart","Start":"11-14-2013 12:37:07","End":"11-14-2013 12:39:59"}}
{"Application":{"ProcessName":"com.sonyericsson.home","Start":"11-14-2013 12:37:07","End":"11-14-2013 12:39:59"}}
{"Application":{"ProcessName":"com.sonyericsson.customization","Start":"11-14-2013 12:37:07","End":"11-14-2013 12:39:59"}}
{"Application":{"ProcessName":"com.sonyericsson.androidapp.smart","Start":"11-14-2013 12:47:21","End":"11-14-2013 12:49:04"}}
{"Application":{"ProcessName":"com.sonyericsson.home","Start":"11-14-2013 12:47:21","End":"11-14-2013 12:49:04"}}
{"Application":{"ProcessName":"com.sonyericsson.customization","Start":"11-14-2013 12:47:21","End":"11-14-2013 12:49:04"}}
{"Call": {"Number":"0913411####","Duration":"0","Time":"11-14-2013 12:49:33","Type":"2"}}
{"Call": {"Number":"0913411####","Duration":"0","Time":"11-14-2013 12:49:33","Type":"2"}}
{"Application":{"ProcessName":"com.sonyericsson.androidapp.smart","Start":"11-14-2013 12:50:05","End":"11-14-2013 12:50:35"}}
{"Application":{"ProcessName":"com.sonyericsson.home","Start":"11-14-2013 12:49:35","End":"11-14-2013 12:50:35"}}
{"Application":{"ProcessName":"com.sonyericsson.customization","Start":"11-14-2013 12:49:35","End":"11-14-2013 12:50:35"}}
{"Call": {"Number":"0913837####","Duration":"0","Time":"11-14-2013 12:49:52","Type":"2"}}
{"Call": {"Number":"0913837####","Duration":"0","Time":"11-14-2013 12:49:52","Type":"2"}}
{"Application":{"ProcessName":"com.sonyericsson.androidapp.smart","Start":"11-14-2013 12:50:45","End":"11-14-2013 12:51:40"}}
{"Application":{"ProcessName":"com.sonyericsson.home","Start":"11-14-2013 12:50:45","End":"11-14-2013 12:52:20"}}
{"Application":{"ProcessName":"com.sonyericsson.customization","Start":"11-14-2013 12:50:45","End":"11-14-2013 12:52:20"}}
{"Call": {"Number":"0913837####","Duration":"0","Time":"11-14-2013 12:51:41","Type":"2"}}
{"Call": {"Number":"0913837####","Duration":"0","Time":"11-14-2013 12:51:41","Type":"2"}}
{"Application":{"ProcessName":"com.sonyericsson.androidapp.smart","Start":"11-14-2013 12:56:35","End":"11-14-2013 12:56:45"}}
{"Application":{"ProcessName":"com.sonyericsson.home","Start":"11-14-2013 12:56:25","End":"11-14-2013 12:56:45"}}
{"Application":{"ProcessName":"com.sonyericsson.customization","Start":"11-14-2013 12:56:25","End":"11-14-2013 12:56:45"}}
{"Call": {"Number":"0913117####","Duration":"1","Time":"11-14-2013 12:56:32","Type":"2"}}
{"Call": {"Number":"0913117####","Duration":"1","Time":"11-14-2013 12:56:32","Type":"2"}}
{"Application":{"ProcessName":"com.sonyericsson.androidapp.smart","Start":"11-14-2013 12:56:56","End":"11-14-2013 12:59:05"}}
{"Application":{"ProcessName":"com.sonyericsson.home","Start":"11-14-2013 12:56:56","End":"11-14-2013 12:59:05"}}
{"Application":{"ProcessName":"com.sonyericsson.customization","Start":"11-14-2013 12:56:56","End":"11-14-2013 12:59:05"}}
{"Call": {"Number":"0913117####","Duration":"125","Time":"11-14-2013 12:57:09","Type":"1"}}
{"Call": {"Number":"0913117####","Duration":"125","Time":"11-14-2013 12:57:09","Type":"1"}}
{"Call": {"Number":"0913837####","Duration":"0","Time":"11-14-2013 13:03:48","Type":"2"}}
{"Call": {"Number":"0913837####","Duration":"0","Time":"11-14-2013 13:03:48","Type":"2"}}
{"Application":{"ProcessName":"com.sonyericsson.androidapp.smart","Start":"11-14-2013 13:03:44","End":"11-14-2013 13:04:14"}}
{"Application":{"ProcessName":"com.sonyericsson.home","Start":"11-14-2013 13:03:44","End":"11-14-2013 13:04:14"}}
{"Application":{"ProcessName":"com.sonyericsson.customization","Start":"11-14-2013 13:03:44","End":"11-14-2013 13:04:14"}}
{"Call": {"Number":"0913837####","Duration":"0","Time":"11-14-2013 13:04:07","Type":"2"}}
{"Call": {"Number":"0913837####","Duration":"0","Time":"11-14-2013 13:04:07","Type":"2"}}
{"Call": {"Number":"0913837####","Duration":"0","Time":"11-14-2013 13:04:51","Type":"2"}}
{"Call": {"Number":"0913837####","Duration":"0","Time":"11-14-2013 13:04:51","Type":"2"}}
{"SMS":{"Address":"0913117####","type":"2","date":"11-14-2013 13:05:48","body":"ANONYMIZED","Type":"2"}}
{"Application":{"ProcessName":"com.sonyericsson.androidapp.smart","Start":"11-14-2013 13:04:24","End":"11-14-2013 13:06:25"}}
{"Application":{"ProcessName":"com.sonyericsson.home","Start":"11-14-2013 13:04:24","End":"11-14-2013 13:06:25"}}
{"Application":{"ProcessName":"com.sonyericsson.customization","Start":"11-14-2013 13:04:24","End":"11-14-2013 13:06:25"}}
{"Call": {"Number":"0913117####","Duration":"119","Time":"11-14-2013 13:06:20","Type":"1"}}
{"Call": {"Number":"0913117####","Duration":"119","Time":"11-14-2013 13:06:20","Type":"1"}}
{"Call": {"Number":"0913837####","Duration":"0","Time":"11-14-2013 13:08:36","Type":"2"}}
{"Call": {"Number":"0913837####","Duration":"0","Time":"11-14-2013 13:08:36","Type":"2"}}
{"Application":{"ProcessName":"com.sonyericsson.androidapp.smart","Start":"11-14-2013 13:08:25","End":"11-14-2013 13:10:04"}}
{"Application":{"ProcessName":"com.sonyericsson.home","Start":"11-14-2013 13:08:25","End":"11-14-2013 13:10:04"}}
{"Application":{"ProcessName":"com.sonyericsson.customization","Start":"11-14-2013 13:08:25","End":"11-14-2013 13:10:04"}}
{"Call": {"Number":"0913837####","Duration":"47","Time":"11-14-2013 13:09:35","Type":"1"}}
{"Call": {"Number":"0913837####","Duration":"47","Time":"11-14-2013 13:09:35","Type":"1"}}
{"Call": {"Number":"0913837####","Duration":"11","Time":"11-14-2013 13:12:28","Type":"2"}}
{"Call": {"Number":"0913837####","Duration":"11","Time":"11-14-2013 13:12:28","Type":"2"}}
{"Call": {"Number":"0913837####","Duration":"7","Time":"11-14-2013 13:13:03","Type":"2"}}
{"Call": {"Number":"0913837####","Duration":"7","Time":"11-14-2013 13:13:03","Type":"2"}}
{"Call": {"Number":"0913837####","Duration":"0","Time":"11-14-2013 13:13:24","Type":"2"}}
{"Call": {"Number":"0913837####","Duration":"0","Time":"11-14-2013 13:13:24","Type":"2"}}
{"Call": {"Number":"0913837####","Duration":"0","Time":"11-14-2013 13:13:37","Type":"2"}}
{"Call": {"Number":"0913837####","Duration":"0","Time":"11-14-2013 13:13:37","Type":"2"}}
{"Call": {"Number":"0913837####","Duration":"67","Time":"11-14-2013 13:14:05","Type":"2"}}
{"Call": {"Number":"0913837####","Duration":"67","Time":"11-14-2013 13:14:05","Type":"2"}}
{"Application":{"ProcessName":"com.sonyericsson.androidapp.smart","Start":"11-14-2013 13:10:23","End":"11-14-2013 13:15:55"}}
{"Application":{"ProcessName":"com.sonyericsson.home","Start":"11-14-2013 13:10:23","End":"11-14-2013 13:15:55"}}
{"Application":{"ProcessName":"com.sonyericsson.customization","Start":"11-14-2013 13:10:23","End":"11-14-2013 13:15:55"}}
{"Call": {"Number":"0913837####","Duration":"0","Time":"11-14-2013 13:16:33","Type":"2"}}
{"Call": {"Number":"0913837####","Duration":"0","Time":"11-14-2013 13:16:33","Type":"2"}}
{"Call": {"Number":"0913837####","Duration":"0","Time":"11-14-2013 13:16:45","Type":"2"}}
{"Call": {"Number":"0913837####","Duration":"0","Time":"11-14-2013 13:16:45","Type":"2"}}
{"Call": {"Number":"0913837####","Duration":"0","Time":"11-14-2013 13:17:01","Type":"2"}}
{"Call": {"Number":"0913837####","Duration":"0","Time":"11-14-2013 13:17:01","Type":"2"}}
{"Call": {"Number":"0913837####","Duration":"27","Time":"11-14-2013 13:17:12","Type":"1"}}
{"Call": {"Number":"0913837####","Duration":"27","Time":"11-14-2013 13:17:12","Type":"1"}}
{"Application":{"ProcessName":"com.sonyericsson.androidapp.smart","Start":"11-14-2013 13:16:36","End":"11-14-2013 13:19:04"}}
{"Application":{"ProcessName":"com.sonyericsson.home","Start":"11-14-2013 13:16:36","End":"11-14-2013 13:19:04"}}
{"Application":{"ProcessName":"com.sonyericsson.customization","Start":"11-14-2013 13:16:36","End":"11-14-2013 13:19:04"}}
{"Call": {"Number":"0913837####","Duration":"27","Time":"11-14-2013 13:19:32","Type":"2"}}
{"Call": {"Number":"0913837####","Duration":"27","Time":"11-14-2013 13:19:32","Type":"2"}}
{"Call": {"Number":"0913837####","Duration":"6","Time":"11-14-2013 13:20:45","Type":"2"}}
{"Call": {"Number":"0913837####","Duration":"6","Time":"11-14-2013 13:20:45","Type":"2"}}
{"Application":{"ProcessName":"com.sonyericsson.androidapp.smart","Start":"11-14-2013 13:19:36","End":"11-14-2013 13:21:46"}}
{"Application":{"ProcessName":"com.sonyericsson.home","Start":"11-14-2013 13:19:36","End":"11-14-2013 13:21:46"}}
{"Application":{"ProcessName":"com.sonyericsson.customization","Start":"11-14-2013 13:19:36","End":"11-14-2013 13:21:46"}}
{"Call": {"Number":"0913117####","Duration":"38","Time":"11-14-2013 13:25:24","Type":"2"}}
{"Call": {"Number":"0913117####","Duration":"38","Time":"11-14-2013 13:25:24","Type":"2"}}
{"Call": {"Number":"0913411####","Duration":"17","Time":"11-14-2013 13:29:24","Type":"1"}}
{"Call": {"Number":"0913411####","Duration":"17","Time":"11-14-2013 13:29:24","Type":"1"}}
{"Application":{"ProcessName":"com.sonyericsson.androidapp.smart","Start":"11-14-2013 13:25:02","End":"11-14-2013 13:30:02"}}
{"Application":{"ProcessName":"com.sonyericsson.home","Start":"11-14-2013 13:25:02","End":"11-14-2013 13:30:02"}}
{"Application":{"ProcessName":"com.sonyericsson.customization","Start":"11-14-2013 13:25:02","End":"11-14-2013 13:30:02"}}
{"Call": {"Number":"0913094####","Duration":"0","Time":"11-14-2013 13:34:30","Type":"2"}}
{"Call": {"Number":"0913094####","Duration":"0","Time":"11-14-2013 13:34:30","Type":"2"}}
{"Call": {"Number":"0913411####","Duration":"0","Time":"11-14-2013 13:37:23","Type":"2"}}
{"Call": {"Number":"0913411####","Duration":"0","Time":"11-14-2013 13:37:23","Type":"2"}}
{"Application":{"ProcessName":"com.sonyericsson.androidapp.smart","Start":"11-14-2013 13:34:16","End":"11-14-2013 13:38:09"}}
{"Application":{"ProcessName":"com.sonyericsson.home","Start":"11-14-2013 13:34:16","End":"11-14-2013 13:38:09"}}
{"Application":{"ProcessName":"com.sonyericsson.customization","Start":"11-14-2013 13:34:16","End":"11-14-2013 13:38:09"}}
{"Application":{"ProcessName":"com.sonyericsson.androidapp.smart","Start":"11-14-2013 13:39:34","End":"11-14-2013 13:40:05"}}
{"Application":{"ProcessName":"com.sonyericsson.home","Start":"11-14-2013 13:39:34","End":"11-14-2013 13:40:05"}}
{"Application":{"ProcessName":"com.sonyericsson.customization","Start":"11-14-2013 13:39:34","End":"11-14-2013 13:40:05"}}
{"Call": {"Number":"0913117####","Duration":"45","Time":"11-14-2013 13:54:01","Type":"1"}}
{"Call": {"Number":"0913117####","Duration":"45","Time":"11-14-2013 13:54:01","Type":"1"}}
{"Application":{"ProcessName":"com.sonyericsson.lockscreen.notifications","Start":"11-14-2013 13:58:45","End":"11-14-2013 13:58:55"}}
{"Application":{"ProcessName":"com.sonyericsson.androidapp.smart","Start":"11-14-2013 13:54:05","End":"11-14-2013 13:59:05"}}
{"Application":{"ProcessName":"com.sonyericsson.home","Start":"11-14-2013 13:54:05","End":"11-14-2013 13:59:05"}}
{"Application":{"ProcessName":"com.sonyericsson.customization","Start":"11-14-2013 13:54:05","End":"11-14-2013 13:59:05"}}
{"Call": {"Number":"0913837####","Duration":"35","Time":"11-14-2013 13:58:53","Type":"2"}}
{"Call": {"Number":"0913837####","Duration":"35","Time":"11-14-2013 13:58:53","Type":"2"}}
{"Call": {"Number":"0913837####","Duration":"0","Time":"11-14-2013 14:01:12","Type":"3"}}
{"Call": {"Number":"0913837####","Duration":"0","Time":"11-14-2013 14:01:12","Type":"3"}}
{"Call": {"Number":"0913837####","Duration":"0","Time":"11-14-2013 14:01:12","Type":"3"}}
{"Call": {"Number":"0913117####","Duration":"20","Time":"11-14-2013 14:02:26","Type":"2"}}
{"Call": {"Number":"0913117####","Duration":"20","Time":"11-14-2013 14:02:26","Type":"2"}}
{"Application":{"ProcessName":"com.sonyericsson.androidapp.smart","Start":"11-14-2013 13:59:05","End":"11-14-2013 14:03:04"}}
{"Application":{"ProcessName":"com.sonyericsson.home","Start":"11-14-2013 13:59:05","End":"11-14-2013 14:05:17"}}
{"Application":{"ProcessName":"com.sonyericsson.customization","Start":"11-14-2013 13:59:05","End":"11-14-2013 14:05:17"}}
{"Call": {"Number":"0913117####","Duration":"8","Time":"11-14-2013 14:05:15","Type":"1"}}
{"Call": {"Number":"0913117####","Duration":"8","Time":"11-14-2013 14:05:15","Type":"1"}}
{"Application":{"ProcessName":"com.sonyericsson.androidapp.smart","Start":"11-14-2013 14:03:24","End":"11-14-2013 14:08:38"}}
{"Application":{"ProcessName":"com.sonyericsson.home","Start":"11-14-2013 14:05:17","End":"11-14-2013 14:08:38"}}
{"Application":{"ProcessName":"com.sonyericsson.customization","Start":"11-14-2013 14:05:17","End":"11-14-2013 14:08:38"}}
{"Application":{"ProcessName":"com.sonyericsson.androidapp.smart","Start":"11-14-2013 14:11:15","End":"11-14-2013 14:12:04"}}
{"Application":{"ProcessName":"com.sonyericsson.home","Start":"11-14-2013 14:11:15","End":"11-14-2013 14:12:04"}}
{"Application":{"ProcessName":"com.sonyericsson.customization","Start":"11-14-2013 14:11:15","End":"11-14-2013 14:12:04"}}
{"Call": {"Number":"0912145####","Duration":"0","Time":"11-14-2013 14:19:16","Type":"3"}}
{"Call": {"Number":"0912145####","Duration":"0","Time":"11-14-2013 14:19:16","Type":"3"}}
{"Application":{"ProcessName":"com.sonyericsson.androidapp.smart","Start":"11-14-2013 14:19:18","End":"11-14-2013 14:30:00"}}
{"Application":{"ProcessName":"com.sonyericsson.home","Start":"11-14-2013 14:19:18","End":"11-14-2013 14:30:00"}}
{"Application":{"ProcessName":"com.sonyericsson.customization","Start":"11-14-2013 14:19:18","End":"11-14-2013 14:30:00"}}
{"Call": {"Number":"0312522####","Duration":"0","Time":"11-14-2013 14:54:50","Type":"3"}}
{"Call": {"Number":"0312522####","Duration":"0","Time":"11-14-2013 14:54:50","Type":"3"}}
{"Application":{"ProcessName":"com.sonyericsson.androidapp.smart","Start":"11-14-2013 14:54:52","End":"11-14-2013 14:59:08"}}
{"Application":{"ProcessName":"com.sonyericsson.home","Start":"11-14-2013 14:54:52","End":"11-14-2013 14:59:08"}}
{"Application":{"ProcessName":"com.sonyericsson.customization","Start":"11-14-2013 14:54:52","End":"11-14-2013 14:59:08"}}
{"Call": {"Number":"0312522####","Duration":"0","Time":"11-14-2013 14:59:29","Type":"3"}}
{"Call": {"Number":"0312522####","Duration":"0","Time":"11-14-2013 14:59:29","Type":"3"}}
{"Application":{"ProcessName":"com.sonyericsson.androidapp.smart","Start":"11-14-2013 14:59:36","End":"11-14-2013 15:01:42"}}
{"Application":{"ProcessName":"com.sonyericsson.home","Start":"11-14-2013 14:59:36","End":"11-14-2013 15:01:42"}}
{"Application":{"ProcessName":"com.sonyericsson.customization","Start":"11-14-2013 14:59:36","End":"11-14-2013 15:01:42"}}
{"SMS":{"Address":"+98912145####","type":"1","date":"11-14-2013 15:01:54","body":"ANONYMIZED","Type":"1"}}
{"Call": {"Number":"0913411####","Duration":"0","Time":"11-14-2013 15:02:36","Type":"3"}}
{"Call": {"Number":"0913411####","Duration":"0","Time":"11-14-2013 15:02:36","Type":"3"}}
{"Application":{"ProcessName":"com.sonyericsson.androidapp.smart","Start":"11-14-2013 15:02:38","End":"11-14-2013 15:07:48"}}
{"Application":{"ProcessName":"com.sonyericsson.home","Start":"11-14-2013 15:02:38","End":"11-14-2013 15:07:48"}}
{"Application":{"ProcessName":"com.sonyericsson.customization","Start":"11-14-2013 15:02:38","End":"11-14-2013 15:07:48"}}
{"SMS":{"Address":"+98913411####","type":"1","date":"11-14-2013 15:08:13","body":"ANONYMIZED","Type":"1"}}
{"Call": {"Number":"0312522####","Duration":"0","Time":"11-14-2013 15:07:46","Type":"3"}}
{"Call": {"Number":"0312522####","Duration":"0","Time":"11-14-2013 15:07:46","Type":"3"}}
{"Call": {"Number":"0913411####","Duration":"0","Time":"11-14-2013 15:09:22","Type":"3"}}
{"Call": {"Number":"0913411####","Duration":"0","Time":"11-14-2013 15:09:22","Type":"3"}}
{"Application":{"ProcessName":"com.sonyericsson.androidapp.smart","Start":"11-14-2013 15:07:48","End":"11-14-2013 15:16:01"}}
{"Application":{"ProcessName":"com.sonyericsson.home","Start":"11-14-2013 15:07:48","End":"11-14-2013 15:16:01"}}
{"Application":{"ProcessName":"com.sonyericsson.customization","Start":"11-14-2013 15:07:48","End":"11-14-2013 15:16:01"}}
{"Call": {"Number":"0913411####","Duration":"0","Time":"11-14-2013 15:09:22","Type":"3"}}
{"Call": {"Number":"0913411####","Duration":"0","Time":"11-14-2013 15:09:22","Type":"3"}}
{"Call": {"Number":"0913094####","Duration":"0","Time":"11-14-2013 15:16:07","Type":"2"}}
{"Call": {"Number":"0913094####","Duration":"0","Time":"11-14-2013 15:16:07","Type":"2"}}
{"Application":{"ProcessName":"com.sonyericsson.androidapp.smart","Start":"11-14-2013 15:16:01","End":"11-14-2013 15:16:52"}}
{"Application":{"ProcessName":"com.sonyericsson.home","Start":"11-14-2013 15:16:01","End":"11-14-2013 15:16:52"}}
{"Application":{"ProcessName":"com.sonyericsson.customization","Start":"11-14-2013 15:16:01","End":"11-14-2013 15:16:52"}}
{"Call": {"Number":"0913411####","Duration":"103","Time":"11-14-2013 15:16:46","Type":"1"}}
{"Call": {"Number":"0913411####","Duration":"103","Time":"11-14-2013 15:16:46","Type":"1"}}
{"Application":{"ProcessName":"com.sonyericsson.androidapp.smart","Start":"11-14-2013 15:17:17","End":"11-14-2013 15:18:57"}}
{"Application":{"ProcessName":"com.sonyericsson.album","Start":"11-14-2013 15:58:22","End":"11-14-2013 15:58:42"}}
{"Application":{"ProcessName":"com.sonyericsson.home","Start":"11-14-2013 15:58:22","End":"11-14-2013 16:00:05"}}
{"Application":{"ProcessName":"com.sonyericsson.customization","Start":"11-14-2013 15:58:22","End":"11-14-2013 16:00:05"}}
{"Application":{"ProcessName":"com.sonyericsson.home","Start":"11-14-2013 16:04:16","End":"11-14-2013 16:04:39"}}
{"Application":{"ProcessName":"com.sonyericsson.customization","Start":"11-14-2013 16:04:16","End":"11-14-2013 16:04:39"}}
{"SMS":{"Address":"+98936057####","type":"1","date":"11-14-2013 16:04:59","body":"ANONYMIZED","Type":"1"}}
{"Call": {"Number":"0933502####","Duration":"0","Time":"11-14-2013 16:04:40","Type":"3"}}
{"Call": {"Number":"0933502####","Duration":"0","Time":"11-14-2013 16:04:40","Type":"3"}}
{"Application":{"ProcessName":"com.sonyericsson.home","Start":"11-14-2013 16:05:31","End":"11-14-2013 16:10:03"}}
{"Application":{"ProcessName":"com.sonyericsson.customization","Start":"11-14-2013 16:05:31","End":"11-14-2013 16:10:03"}}
{"Application":{"ProcessName":"com.sonyericsson.androidapp.smart","Start":"11-14-2013 16:05:31","End":"11-14-2013 16:10:03"}}
{"Call": {"Number":"0933502####","Duration":"0","Time":"11-14-2013 16:04:40","Type":"3"}}
{"Application":{"ProcessName":"com.sonyericsson.home","Start":"11-14-2013 16:10:46","End":"11-14-2013 16:15:28"}}
{"Application":{"ProcessName":"com.sonyericsson.customization","Start":"11-14-2013 16:10:46","End":"11-14-2013 16:15:28"}}
{"Application":{"ProcessName":"com.sonyericsson.androidapp.smart","Start":"11-14-2013 16:10:46","End":"11-14-2013 16:15:28"}}
{"Call": {"Number":"0312522####","Duration":"0","Time":"11-14-2013 16:15:16","Type":"2"}}
{"Call": {"Number":"0312522####","Duration":"0","Time":"11-14-2013 16:15:16","Type":"2"}}
{"Application":{"ProcessName":"com.sonyericsson.home","Start":"11-14-2013 16:15:48","End":"11-14-2013 16:15:58"}}
{"Application":{"ProcessName":"com.sonyericsson.customization","Start":"11-14-2013 16:15:48","End":"11-14-2013 16:15:58"}}
{"Application":{"ProcessName":"com.sonyericsson.androidapp.smart","Start":"11-14-2013 16:15:48","End":"11-14-2013 16:15:58"}}
{"Call": {"Number":"0913837####","Duration":"25","Time":"11-14-2013 16:15:52","Type":"2"}}
{"Call": {"Number":"0913837####","Duration":"25","Time":"11-14-2013 16:15:52","Type":"2"}}
{"Application":{"ProcessName":"com.sonyericsson.home","Start":"11-14-2013 16:16:30","End":"11-14-2013 16:20:03"}}
{"Application":{"ProcessName":"com.sonyericsson.customization","Start":"11-14-2013 16:16:30","End":"11-14-2013 16:20:03"}}
{"Application":{"ProcessName":"com.sonyericsson.androidapp.smart","Start":"11-14-2013 16:16:30","End":"11-14-2013 16:20:03"}}
{"Call": {"Number":"0913837####","Duration":"3","Time":"11-14-2013 16:31:04","Type":"2"}}
{"Call": {"Number":"0913837####","Duration":"3","Time":"11-14-2013 16:31:04","Type":"2"}}
{"Application":{"ProcessName":"com.sonyericsson.androidapp.smart","Start":"11-14-2013 16:31:20","End":"11-14-2013 16:32:57"}}
{"Application":{"ProcessName":"com.sonyericsson.home","Start":"11-14-2013 16:31:20","End":"11-14-2013 16:33:56"}}
{"Application":{"ProcessName":"com.sonyericsson.customization","Start":"11-14-2013 16:31:20","End":"11-14-2013 16:33:56"}}
{"Call": {"Number":"0913411####","Duration":"102","Time":"11-14-2013 16:33:13","Type":"2"}}
{"Call": {"Number":"0913411####","Duration":"102","Time":"11-14-2013 16:33:13","Type":"2"}}
{"SMS":{"Address":"+98936057####","type":"2","date":"11-14-2013 16:37:52","body":"ANONYMIZED","Type":"2"}}
{"SMS":{"Address":"+98936057####","type":"1","date":"11-14-2013 16:38:57","body":"ANONYMIZED","Type":"1"}}
{"SMS":{"Address":"+98936057####","type":"2","date":"11-14-2013 16:39:28","body":"ANONYMIZED","Type":"2"}}
{"Call": {"Number":"0913117####","Duration":"0","Time":"11-14-2013 16:39:38","Type":"2"}}
{"Call": {"Number":"0913117####","Duration":"0","Time":"11-14-2013 16:39:38","Type":"2"}}
{"Application":{"ProcessName":"com.sonyericsson.androidapp.smart","Start":"11-14-2013 16:35:25","End":"11-14-2013 16:40:04"}}
{"Call": {"Number":"0937250####","Duration":"0","Time":"11-14-2013 16:40:14","Type":"2"}}
{"Call": {"Number":"0937250####","Duration":"0","Time":"11-14-2013 16:40:14","Type":"2"}}
{"Application":{"ProcessName":"com.sonyericsson.infiniteview","Start":"11-14-2013 16:40:14","End":"11-14-2013 16:40:24"}}
{"Application":{"ProcessName":"com.sonyericsson.home","Start":"11-14-2013 16:35:15","End":"11-14-2013 16:40:24"}}
{"Application":{"ProcessName":"com.sonyericsson.customization","Start":"11-14-2013 16:35:15","End":"11-14-2013 16:40:24"}}
{"Application":{"ProcessName":"com.sonyericsson.eventstream","Start":"11-14-2013 16:40:14","End":"11-14-2013 16:40:24"}}
{"SMS":{"Address":"+98936057####","type":"1","date":"11-14-2013 16:40:34","body":"ANONYMIZED","Type":"1"}}
{"SMS":{"Address":"+98936057####","type":"2","date":"11-14-2013 16:41:02","body":"ANONYMIZED","Type":"2"}}
{"Application":{"ProcessName":"com.sonyericsson.androidapp.smart","Start":"11-14-2013 16:40:14","End":"11-14-2013 16:41:36"}}
{"Application":{"ProcessName":"com.sonyericsson.home","Start":"11-14-2013 16:40:24","End":"11-14-2013 16:41:36"}}
{"Application":{"ProcessName":"com.sonyericsson.customization","Start":"11-14-2013 16:40:24","End":"11-14-2013 16:41:36"}}
{"SMS":{"Address":"+98936057####","type":"1","date":"11-14-2013 16:42:04","body":"ANONYMIZED","Type":"1"}}
{"Call": {"Number":"0913117####","Duration":"367","Time":"11-14-2013 16:41:31","Type":"1"}}
{"Call": {"Number":"0913117####","Duration":"367","Time":"11-14-2013 16:41:31","Type":"1"}}
{"Application":{"ProcessName":"com.android.exchange","Start":"11-14-2013 16:47:42","End":"11-14-2013 16:47:52"}}
{"SMS":{"Address":"+98936057####","type":"2","date":"11-14-2013 16:50:20","body":"ANONYMIZED","Type":"2"}}
{"Application":{"ProcessName":"com.sonyericsson.androidapp.smart","Start":"11-14-2013 16:47:42","End":"11-14-2013 16:50:55"}}
{"Application":{"ProcessName":"com.sonyericsson.album","Start":"11-14-2013 16:51:05","End":"11-14-2013 16:52:33"}}
{"Application":{"ProcessName":"com.sonyericsson.home","Start":"11-14-2013 16:47:42","End":"11-14-2013 16:52:43"}}
{"Application":{"ProcessName":"com.sonyericsson.customization","Start":"11-14-2013 16:47:42","End":"11-14-2013 16:52:43"}}
{"Call": {"Number":"0912145####","Duration":"0","Time":"11-14-2013 16:52:29","Type":"2"}}
{"Call": {"Number":"0912145####","Duration":"0","Time":"11-14-2013 16:52:29","Type":"2"}}
{"SMS":{"Address":"+98933502####","type":"1","date":"11-14-2013 16:54:05","body":"ANONYMIZED","Type":"1"}}
{"Application":{"ProcessName":"com.sonyericsson.androidapp.smart","Start":"11-14-2013 16:53:23","End":"11-14-2013 16:54:09"}}
{"Application":{"ProcessName":"com.sonyericsson.home","Start":"11-14-2013 16:52:43","End":"11-14-2013 16:54:09"}}
{"Application":{"ProcessName":"com.sonyericsson.customization","Start":"11-14-2013 16:52:43","End":"11-14-2013 16:54:09"}}
{"Call": {"Number":"0913219####","Duration":"146","Time":"11-14-2013 16:54:10","Type":"1"}}
{"Call": {"Number":"0913219####","Duration":"146","Time":"11-14-2013 16:54:10","Type":"1"}}
{"SMS":{"Address":"0933502####","type":"2","date":"11-14-2013 16:57:22","body":"ANONYMIZED","Type":"2"}}
{"Application":{"ProcessName":"com.sonyericsson.androidapp.smart","Start":"11-14-2013 16:56:47","End":"11-14-2013 17:00:07"}}
{"Application":{"ProcessName":"com.sonyericsson.home","Start":"11-14-2013 16:56:47","End":"11-14-2013 17:00:07"}}
{"Application":{"ProcessName":"com.sonyericsson.customization","Start":"11-14-2013 16:56:47","End":"11-14-2013 17:00:07"}}
{"Call": {"Number":"0312522####","Duration":"449","Time":"11-14-2013 17:01:29","Type":"1"}}
{"Call": {"Number":"0312522####","Duration":"449","Time":"11-14-2013 17:01:29","Type":"1"}}
{"Call": {"Number":"0912145####","Duration":"0","Time":"11-14-2013 17:09:16","Type":"2"}}
{"Call": {"Number":"0912145####","Duration":"0","Time":"11-14-2013 17:09:16","Type":"2"}}
{"Application":{"ProcessName":"com.sonyericsson.androidapp.smart","Start":"11-14-2013 17:09:17","End":"11-14-2013 17:09:57"}}
{"Application":{"ProcessName":"com.sonyericsson.home","Start":"11-14-2013 17:09:17","End":"11-14-2013 17:09:57"}}
{"Application":{"ProcessName":"com.sonyericsson.customization","Start":"11-14-2013 17:09:17","End":"11-14-2013 17:09:57"}}
{"SMS":{"Address":"+44786123####","type":"1","date":"11-14-2013 17:14:10","body":"ANONYMIZED","Type":"1"}}
{"Application":{"ProcessName":"com.sonyericsson.androidapp.smart","Start":"11-14-2013 17:15:11","End":"11-14-2013 17:16:02"}}
{"Application":{"ProcessName":"com.sonyericsson.home","Start":"11-14-2013 17:15:11","End":"11-14-2013 17:16:02"}}
{"Application":{"ProcessName":"com.sonyericsson.customization","Start":"11-14-2013 17:15:11","End":"11-14-2013 17:16:02"}}
{"Application":{"ProcessName":"com.sonyericsson.androidapp.smart","Start":"11-14-2013 17:28:45","End":"11-14-2013 17:29:55"}}
{"Application":{"ProcessName":"com.sonyericsson.home","Start":"11-14-2013 17:28:45","End":"11-14-2013 17:29:55"}}
{"Application":{"ProcessName":"com.sonyericsson.customization","Start":"11-14-2013 17:28:45","End":"11-14-2013 17:29:55"}}
{"Call": {"Number":"0912145####","Duration":"94","Time":"11-14-2013 17:31:41","Type":"2"}}
{"Call": {"Number":"0912145####","Duration":"94","Time":"11-14-2013 17:31:41","Type":"2"}}
{"Application":{"ProcessName":"com.sonyericsson.androidapp.smart","Start":"11-14-2013 17:30:05","End":"11-14-2013 17:34:44"}}
{"Application":{"ProcessName":"com.sonyericsson.metadatacleanup","Start":"11-14-2013 17:47:55","End":"11-14-2013 17:48:05"}}
{"Application":{"ProcessName":"com.kiloo.subwaysurf","Start":"11-14-2013 17:47:45","End":"11-14-2013 17:49:58"}}
{"Application":{"ProcessName":"com.sonyericsson.home","Start":"11-14-2013 17:47:45","End":"11-14-2013 17:50:56"}}
{"Application":{"ProcessName":"com.sonyericsson.customization","Start":"11-14-2013 17:47:45","End":"11-14-2013 17:50:56"}}
{"Application":{"ProcessName":"com.sonyericsson.soundenhancement","Start":"11-14-2013 17:53:00","End":"11-14-2013 17:53:10"}}
{"Application":{"ProcessName":"com.sonyericsson.home","Start":"11-14-2013 17:53:00","End":"11-14-2013 17:55:20"}}
{"Application":{"ProcessName":"com.sonyericsson.customization","Start":"11-14-2013 17:53:00","End":"11-14-2013 17:55:20"}}
{"Call": {"Number":"0933502####","Duration":"20","Time":"11-14-2013 17:56:01","Type":"1"}}
{"Call": {"Number":"0933502####","Duration":"20","Time":"11-14-2013 17:56:01","Type":"1"}}
{"Application":{"ProcessName":"com.sonyericsson.home","Start":"11-14-2013 17:56:28","End":"11-14-2013 17:56:38"}}
{"Application":{"ProcessName":"com.sonyericsson.customization","Start":"11-14-2013 17:56:28","End":"11-14-2013 17:56:38"}}
{"Call": {"Number":"0933502####","Duration":"38","Time":"11-14-2013 17:56:36","Type":"1"}}
{"Call": {"Number":"0933502####","Duration":"38","Time":"11-14-2013 17:56:36","Type":"1"}}
{"Call": {"Number":"0913307####","Duration":"111","Time":"11-14-2013 17:56:49","Type":"1"}}
{"Call": {"Number":"0913307####","Duration":"111","Time":"11-14-2013 17:56:49","Type":"1"}}
{"Application":{"ProcessName":"com.sonyericsson.home","Start":"11-14-2013 17:59:08","End":"11-14-2013 18:02:56"}}
{"Application":{"ProcessName":"com.sonyericsson.customization","Start":"11-14-2013 17:59:08","End":"11-14-2013 18:02:56"}}
{"Application":{"ProcessName":"com.sonyericsson.androidapp.smart","Start":"11-14-2013 17:59:08","End":"11-14-2013 18:02:56"}}
{"Call": {"Number":"0312523####","Duration":"50","Time":"11-14-2013 18:02:57","Type":"1"}}
{"Call": {"Number":"0312523####","Duration":"50","Time":"11-14-2013 18:02:57","Type":"1"}}
{"Application":{"ProcessName":"com.sonyericsson.music","Start":"11-14-2013 18:03:52","End":"11-14-2013 18:04:02"}}
{"Application":{"ProcessName":"com.sonyericsson.androidapp.smart","Start":"11-14-2013 18:03:52","End":"11-14-2013 18:04:02"}}
{"Application":{"ProcessName":"com.sonyericsson.home","Start":"11-14-2013 18:03:52","End":"11-14-2013 18:04:43"}}
{"Application":{"ProcessName":"com.sonyericsson.customization","Start":"11-14-2013 18:03:52","End":"11-14-2013 18:04:43"}}
{"Application":{"ProcessName":"com.sonyericsson.androidapp.smart","Start":"11-14-2013 18:04:12","End":"11-14-2013 18:04:43"}}
{"Application":{"ProcessName":"com.sonyericsson.illumination.service","Start":"11-14-2013 18:49:31","End":"11-14-2013 18:54:38"}}
{"Application":{"ProcessName":"com.sonyericsson.home","Start":"11-14-2013 18:49:31","End":"11-14-2013 18:54:38"}}
{"Application":{"ProcessName":"com.sonyericsson.customization","Start":"11-14-2013 18:49:31","End":"11-14-2013 18:54:38"}}
{"Application":{"ProcessName":"com.sonyericsson.androidapp.smart","Start":"11-14-2013 18:49:31","End":"11-14-2013 18:54:38"}}
{"Application":{"ProcessName":"com.sonyericsson.home","Start":"11-14-2013 19:08:12","End":"11-14-2013 19:09:36"}}
{"Application":{"ProcessName":"com.sonyericsson.customization","Start":"11-14-2013 19:08:12","End":"11-14-2013 19:09:36"}}
{"Call": {"Number":"0912145####","Duration":"123","Time":"11-14-2013 19:08:04","Type":"1"}}
{"Call": {"Number":"0912145####","Duration":"123","Time":"11-14-2013 19:08:04","Type":"1"}}
{"Application":{"ProcessName":"com.sonyericsson.home","Start":"11-14-2013 19:10:57","End":"11-14-2013 19:14:41"}}
{"Application":{"ProcessName":"com.sonyericsson.customization","Start":"11-14-2013 19:10:57","End":"11-14-2013 19:14:41"}}
{"Application":{"ProcessName":"com.sonyericsson.home","Start":"11-14-2013 19:23:58","End":"11-14-2013 19:24:36"}}
{"Application":{"ProcessName":"com.sonyericsson.customization","Start":"11-14-2013 19:23:58","End":"11-14-2013 19:24:36"}}
{"Application":{"ProcessName":"com.sonyericsson.androidapp.smart","Start":"11-14-2013 19:23:58","End":"11-14-2013 19:24:36"}}
{"Application":{"ProcessName":"com.sonyericsson.home","Start":"11-14-2013 19:25:03","End":"11-14-2013 19:28:32"}}
{"Application":{"ProcessName":"com.sonyericsson.customization","Start":"11-14-2013 19:25:03","End":"11-14-2013 19:28:32"}}
{"Application":{"ProcessName":"me.pou.app","Start":"11-14-2013 19:25:13","End":"11-14-2013 19:28:32"}}
{"Application":{"ProcessName":"com.sonyericsson.androidapp.smart","Start":"11-14-2013 19:25:03","End":"11-14-2013 19:28:32"}}
{"Application":{"ProcessName":"com.sonyericsson.home","Start":"11-14-2013 19:44:32","End":"11-14-2013 19:44:42"}}
{"Application":{"ProcessName":"com.sonyericsson.customization","Start":"11-14-2013 19:44:32","End":"11-14-2013 19:44:42"}}
{"Application":{"ProcessName":"com.sonyericsson.androidapp.smart","Start":"11-14-2013 19:44:32","End":"11-14-2013 19:44:42"}}
{"Application":{"ProcessName":"com.sonyericsson.androidapp.smart","Start":"11-14-2013 19:50:17","End":"11-14-2013 19:50:27"}}
{"Call": {"Number":"0912145####","Duration":"123","Time":"11-14-2013 19:08:04","Type":"1"}}
{"Call": {"Number":"0912145####","Duration":"123","Time":"11-14-2013 19:08:04","Type":"1"}}
{"Application":{"ProcessName":"com.sonyericsson.home","Start":"11-14-2013 19:50:17","End":"11-14-2013 19:54:42"}}
{"Application":{"ProcessName":"com.sonyericsson.customization","Start":"11-14-2013 19:50:17","End":"11-14-2013 19:54:42"}}
{"Call": {"Number":"0933502####","Duration":"334","Time":"11-14-2013 19:50:49","Type":"2"}}
{"Call": {"Number":"0933502####","Duration":"334","Time":"11-14-2013 19:50:49","Type":"2"}}
{"SMS":{"Address":"+9882####","type":"1","date":"11-14-2013 19:56:46","body":"ANONYMIZED","Type":"1"}}
{"Call": {"Number":"0913117####","Duration":"197","Time":"11-14-2013 19:56:46","Type":"2"}}
{"Call": {"Number":"0913117####","Duration":"197","Time":"11-14-2013 19:56:46","Type":"2"}}
{"Application":{"ProcessName":"com.sonyericsson.androidapp.smart","Start":"11-14-2013 19:57:00","End":"11-14-2013 20:00:43"}}
{"Application":{"ProcessName":"com.sonyericsson.advancedwidget.onoff","Start":"11-14-2013 20:00:43","End":"11-14-2013 20:02:12"}}
{"Application":{"ProcessName":"com.sonyericsson.home","Start":"11-14-2013 19:56:50","End":"11-14-2013 20:02:12"}}
{"Application":{"ProcessName":"com.sonyericsson.customization","Start":"11-14-2013 19:56:50","End":"11-14-2013 20:02:12"}}
{"Call": {"Number":"0913117####","Duration":"403","Time":"11-14-2013 20:01:05","Type":"1"}}
{"Call": {"Number":"0913117####","Duration":"403","Time":"11-14-2013 20:01:05","Type":"1"}}
{"Application":{"ProcessName":"com.sonyericsson.home","Start":"11-14-2013 20:07:53","End":"11-14-2013 20:14:40"}}
{"Application":{"ProcessName":"com.sonyericsson.customization","Start":"11-14-2013 20:07:53","End":"11-14-2013 20:14:40"}}
{"Application":{"ProcessName":"com.sonyericsson.home","Start":"11-14-2013 20:31:43","End":"11-14-2013 20:34:40"}}
{"Application":{"ProcessName":"com.sonyericsson.customization","Start":"11-14-2013 20:31:43","End":"11-14-2013 20:34:40"}}
{"Application":{"ProcessName":"com.sonyericsson.androidapp.smart","Start":"11-14-2013 20:31:43","End":"11-14-2013 20:34:40"}}
{"Application":{"ProcessName":"com.sonyericsson.home","Start":"11-14-2013 21:08:15","End":"11-14-2013 21:10:05"}}
{"Application":{"ProcessName":"com.sonyericsson.customization","Start":"11-14-2013 21:08:15","End":"11-14-2013 21:10:05"}}
{"Application":{"ProcessName":"com.sonyericsson.androidapp.smart","Start":"11-14-2013 21:08:15","End":"11-14-2013 21:10:05"}}
{"Application":{"ProcessName":"com.sonyericsson.home","Start":"11-14-2013 21:10:15","End":"11-14-2013 21:14:00"}}
{"Application":{"ProcessName":"com.sonyericsson.customization","Start":"11-14-2013 21:10:15","End":"11-14-2013 21:14:00"}}
{"Application":{"ProcessName":"com.sonyericsson.androidapp.smart","Start":"11-14-2013 21:10:15","End":"11-14-2013 21:14:00"}}
{"Application":{"ProcessName":"com.sonyericsson.home","Start":"11-14-2013 21:14:11","End":"11-14-2013 21:14:42"}}
{"Application":{"ProcessName":"com.sonyericsson.customization","Start":"11-14-2013 21:14:11","End":"11-14-2013 21:14:42"}}
{"Application":{"ProcessName":"com.sonyericsson.androidapp.smart","Start":"11-14-2013 21:14:11","End":"11-14-2013 21:14:42"}}
{"Call": {"Number":"0913411####","Duration":"22","Time":"11-14-2013 21:17:04","Type":"1"}}
{"Call": {"Number":"0913411####","Duration":"22","Time":"11-14-2013 21:17:04","Type":"1"}}
{"Application":{"ProcessName":"com.sonyericsson.home","Start":"11-14-2013 21:17:09","End":"11-14-2013 21:17:37"}}
{"Application":{"ProcessName":"com.sonyericsson.customization","Start":"11-14-2013 21:17:09","End":"11-14-2013 21:17:37"}}
{"Application":{"ProcessName":"com.sonyericsson.androidapp.smart","Start":"11-14-2013 21:17:09","End":"11-14-2013 21:17:37"}}
{"Application":{"ProcessName":"com.sonyericsson.album","Start":"11-14-2013 21:19:51","End":"11-14-2013 21:20:41"}}
{"Application":{"ProcessName":"com.sonyericsson.photoeditor","Start":"11-14-2013 21:20:41","End":"11-14-2013 21:21:21"}}
{"Application":{"ProcessName":"com.sonyericsson.album","Start":"11-14-2013 21:21:32","End":"11-14-2013 21:21:52"}}
{"Application":{"ProcessName":"com.sonyericsson.androidapp.smart","Start":"11-14-2013 21:19:40","End":"11-14-2013 21:22:02"}}
{"Application":{"ProcessName":"com.sonyericsson.photoeditor","Start":"11-14-2013 21:21:52","End":"11-14-2013 21:22:02"}}
{"Application":{"ProcessName":"com.sonyericsson.album","Start":"11-14-2013 21:22:12","End":"11-14-2013 21:22:32"}}
{"Application":{"ProcessName":"com.sonyericsson.photoeditor","Start":"11-14-2013 21:22:32","End":"11-14-2013 21:22:42"}}
{"Application":{"ProcessName":"com.sonyericsson.home","Start":"11-14-2013 21:19:40","End":"11-14-2013 21:24:36"}}
{"Application":{"ProcessName":"com.sonyericsson.customization","Start":"11-14-2013 21:19:40","End":"11-14-2013 21:24:36"}}
{"Call": {"Number":"0913307####","Duration":"26","Time":"11-14-2013 21:27:18","Type":"1"}}
{"Call": {"Number":"0913307####","Duration":"26","Time":"11-14-2013 21:27:18","Type":"1"}}
{"SMS":{"Address":"+98913307####","type":"1","date":"11-14-2013 21:29:13","body":"ANONYMIZED","Type":"1"}}
{"Application":{"ProcessName":"com.sonyericsson.androidapp.smart","Start":"11-14-2013 21:29:30","End":"11-14-2013 21:30:18"}}
{"Application":{"ProcessName":"com.sonyericsson.home","Start":"11-14-2013 21:25:17","End":"11-14-2013 21:30:18"}}
{"Application":{"ProcessName":"com.sonyericsson.customization","Start":"11-14-2013 21:25:17","End":"11-14-2013 21:30:18"}}
{"Application":{"ProcessName":"com.sonyericsson.androidapp.smart","Start":"11-14-2013 21:36:48","End":"11-14-2013 21:39:36"}}
{"Application":{"ProcessName":"com.sonyericsson.home","Start":"11-14-2013 21:36:48","End":"11-14-2013 21:39:36"}}
{"Application":{"ProcessName":"com.sonyericsson.customization","Start":"11-14-2013 21:36:48","End":"11-14-2013 21:39:36"}}
{"Application":{"ProcessName":"com.google.android.apps.maps","Start":"11-14-2013 21:48:53","End":"11-14-2013 21:49:03"}}
{"Application":{"ProcessName":"com.sonyericsson.androidapp.smart","Start":"11-14-2013 21:48:53","End":"11-14-2013 21:49:03"}}
{"Application":{"ProcessName":"com.sonyericsson.android.camera","Start":"11-14-2013 21:49:03","End":"11-14-2013 21:49:13"}}
{"Application":{"ProcessName":"com.sonyericsson.home","Start":"11-14-2013 21:48:53","End":"11-14-2013 21:50:33"}}
{"Application":{"ProcessName":"com.sonyericsson.android.camera","Start":"11-14-2013 21:50:11","End":"11-14-2013 21:50:33"}}
{"Application":{"ProcessName":"com.sonyericsson.customization","Start":"11-14-2013 21:48:53","End":"11-14-2013 21:50:33"}}
{"Call": {"Number":"0912145####","Duration":"0","Time":"11-14-2013 21:50:34","Type":"3"}}
{"Call": {"Number":"0912145####","Duration":"0","Time":"11-14-2013 21:50:34","Type":"3"}}
{"Application":{"ProcessName":"com.sonyericsson.android.camera","Start":"11-14-2013 21:51:23","End":"11-14-2013 21:51:33"}}
{"Call": {"Number":"0912145####","Duration":"0","Time":"11-14-2013 21:51:31","Type":"3"}}
{"Call": {"Number":"0912145####","Duration":"0","Time":"11-14-2013 21:51:31","Type":"3"}}
{"Application":{"ProcessName":"com.sonyericsson.androidapp.smart","Start":"11-14-2013 21:51:33","End":"11-14-2013 21:54:46"}}
{"Application":{"ProcessName":"com.sonyericsson.home","Start":"11-14-2013 21:50:43","End":"11-14-2013 21:54:46"}}
{"Application":{"ProcessName":"com.sonyericsson.android.camera","Start":"11-14-2013 21:52:23","End":"11-14-2013 21:54:46"}}
{"Application":{"ProcessName":"com.sonyericsson.customization","Start":"11-14-2013 21:50:43","End":"11-14-2013 21:54:46"}}
{"Call": {"Number":"0912145####","Duration":"0","Time":"11-14-2013 21:51:31","Type":"3"}}
{"Application":{"ProcessName":"com.sonyericsson.android.camera","Start":"11-14-2013 21:57:16","End":"11-14-2013 21:57:26"}}
{"Application":{"ProcessName":"com.sonyericsson.android.camera","Start":"11-14-2013 21:57:46","End":"11-14-2013 21:58:16"}}
{"Application":{"ProcessName":"com.sonyericsson.androidapp.smart","Start":"11-14-2013 21:57:16","End":"11-14-2013 22:00:11"}}
{"Application":{"ProcessName":"com.sonyericsson.home","Start":"11-14-2013 21:57:16","End":"11-14-2013 22:00:11"}}
{"Application":{"ProcessName":"com.sonyericsson.customization","Start":"11-14-2013 21:57:16","End":"11-14-2013 22:00:11"}}
{"Call": {"Number":"0912145####","Duration":"0","Time":"11-14-2013 22:09:04","Type":"3"}}
{"Call": {"Number":"0912145####","Duration":"0","Time":"11-14-2013 22:09:04","Type":"3"}}
{"Call": {"Number":"0912145####","Duration":"0","Time":"11-14-2013 22:09:04","Type":"3"}}
{"Call": {"Number":"0912145####","Duration":"5","Time":"11-14-2013 22:11:29","Type":"2"}}
{"Call": {"Number":"0912145####","Duration":"5","Time":"11-14-2013 22:11:29","Type":"2"}}
{"Call": {"Number":"0912145####","Duration":"47","Time":"11-14-2013 22:11:52","Type":"1"}}
{"Call": {"Number":"0912145####","Duration":"47","Time":"11-14-2013 22:11:52","Type":"1"}}
{"Application":{"ProcessName":"com.sonyericsson.androidapp.smart","Start":"11-14-2013 22:09:05","End":"11-14-2013 22:12:54"}}
{"Application":{"ProcessName":"com.sonyericsson.android.camera","Start":"11-14-2013 22:12:54","End":"11-14-2013 22:13:44"}}
{"Application":{"ProcessName":"com.sonyericsson.album","Start":"11-14-2013 22:13:44","End":"11-14-2013 22:13:54"}}
{"Application":{"ProcessName":"com.sonyericsson.home","Start":"11-14-2013 22:09:05","End":"11-14-2013 22:14:14"}}
{"Application":{"ProcessName":"com.sonyericsson.customization","Start":"11-14-2013 22:09:05","End":"11-14-2013 22:14:14"}}
{"Application":{"ProcessName":"com.sonyericsson.android.camera","Start":"11-14-2013 22:13:54","End":"11-14-2013 22:14:24"}}
{"Application":{"ProcessName":"com.sonyericsson.album","Start":"11-14-2013 22:14:24","End":"11-14-2013 22:14:34"}}
{"Application":{"ProcessName":"com.sonyericsson.android.camera","Start":"11-14-2013 22:14:34","End":"11-14-2013 22:15:24"}}
{"Application":{"ProcessName":"com.sonyericsson.album","Start":"11-14-2013 22:15:24","End":"11-14-2013 22:15:34"}}
{"Application":{"ProcessName":"com.sonyericsson.android.camera","Start":"11-14-2013 22:15:34","End":"11-14-2013 22:15:44"}}
{"Application":{"ProcessName":"com.sonyericsson.android.camera","Start":"11-14-2013 22:15:54","End":"11-14-2013 22:16:55"}}
{"Application":{"ProcessName":"com.sonyericsson.album","Start":"11-14-2013 22:16:55","End":"11-14-2013 22:17:35"}}
{"Application":{"ProcessName":"com.sonyericsson.androidapp.smart","Start":"11-14-2013 22:13:04","End":"11-14-2013 22:24:46"}}
{"Application":{"ProcessName":"com.sonyericsson.home","Start":"11-14-2013 22:14:14","End":"11-14-2013 22:24:46"}}
{"Application":{"ProcessName":"com.sonyericsson.customization","Start":"11-14-2013 22:14:14","End":"11-14-2013 22:24:46"}}
{"Application":{"ProcessName":"com.sonyericsson.androidapp.smart","Start":"11-14-2013 22:40:01","End":"11-14-2013 22:44:49"}}
{"Application":{"ProcessName":"com.sonyericsson.home","Start":"11-14-2013 22:40:01","End":"11-14-2013 22:44:49"}}
{"Application":{"ProcessName":"com.sonyericsson.customization","Start":"11-14-2013 22:40:01","End":"11-14-2013 22:44:49"}}
{"SMS":{"Address":"+98936258####","type":"1","date":"11-14-2013 22:46:43","body":"ANONYMIZED","Type":"1"}}
{"Application":{"ProcessName":"com.sonyericsson.androidapp.smart","Start":"11-14-2013 22:46:05","End":"11-14-2013 22:47:26"}}
{"Application":{"ProcessName":"com.sonyericsson.home","Start":"11-14-2013 22:46:05","End":"11-14-2013 22:47:26"}}
{"Application":{"ProcessName":"com.sonyericsson.android.camera","Start":"11-14-2013 22:46:15","End":"11-14-2013 22:47:26"}}
{"Application":{"ProcessName":"com.sonyericsson.customization","Start":"11-14-2013 22:46:05","End":"11-14-2013 22:47:26"}}
{"Application":{"ProcessName":"com.sonyericsson.androidapp.smart","Start":"11-14-2013 22:47:41","End":"11-14-2013 22:52:43"}}
{"Application":{"ProcessName":"com.sonyericsson.home","Start":"11-14-2013 22:47:41","End":"11-14-2013 22:52:43"}}
{"Application":{"ProcessName":"com.sonyericsson.customization","Start":"11-14-2013 22:47:41","End":"11-14-2013 22:52:43"}}
{"Application":{"ProcessName":"com.sonyericsson.home","Start":"11-14-2013 23:09:43","End":"11-14-2013 23:10:03"}}
{"Application":{"ProcessName":"com.sonyericsson.customization","Start":"11-14-2013 23:09:43","End":"11-14-2013 23:10:03"}}
{"Call": {"Number":"0913837####","Duration":"16","Time":"11-14-2013 23:11:20","Type":"1"}}
{"Call": {"Number":"0913837####","Duration":"16","Time":"11-14-2013 23:11:20","Type":"1"}}
{"Application":{"ProcessName":"com.sonyericsson.androidapp.smart","Start":"11-14-2013 23:11:21","End":"11-14-2013 23:13:13"}}
{"Application":{"ProcessName":"com.sonyericsson.home","Start":"11-14-2013 23:11:21","End":"11-14-2013 23:13:24"}}
{"Application":{"ProcessName":"com.sonyericsson.customization","Start":"11-14-2013 23:11:21","End":"11-14-2013 23:13:24"}}
{"Call": {"Number":"0913837####","Duration":"8","Time":"11-14-2013 23:13:22","Type":"2"}}
{"Call": {"Number":"0913837####","Duration":"8","Time":"11-14-2013 23:13:22","Type":"2"}}
{"Application":{"ProcessName":"com.sonyericsson.home","Start":"11-14-2013 23:13:37","End":"11-14-2013 23:13:48"}}
{"Application":{"ProcessName":"com.sonyericsson.customization","Start":"11-14-2013 23:13:37","End":"11-14-2013 23:13:48"}}
{"Application":{"ProcessName":"com.sonyericsson.androidapp.smart","Start":"11-14-2013 23:13:37","End":"11-14-2013 23:13:48"}}
{"Call": {"Number":"0913837####","Duration":"19","Time":"11-14-2013 23:13:43","Type":"2"}}
{"Call": {"Number":"0913837####","Duration":"19","Time":"11-14-2013 23:13:43","Type":"2"}}
{"Application":{"ProcessName":"com.sonyericsson.infiniteview","Start":"11-14-2013 23:14:22","End":"11-14-2013 23:14:32"}}
{"Call": {"Number":"0913837####","Duration":"7","Time":"11-14-2013 23:14:52","Type":"2"}}
{"Call": {"Number":"0913837####","Duration":"7","Time":"11-14-2013 23:14:52","Type":"2"}}
{"Application":{"ProcessName":"com.sonyericsson.infiniteview","Start":"11-14-2013 23:15:13","End":"11-14-2013 23:22:56"}}
{"Application":{"ProcessName":"com.sonyericsson.androidapp.smart","Start":"11-14-2013 23:14:12","End":"11-14-2013 23:22:56"}}
{"Application":{"ProcessName":"com.sonyericsson.home","Start":"11-14-2013 23:14:12","End":"11-14-2013 23:22:56"}}
{"Application":{"ProcessName":"com.sonyericsson.customization","Start":"11-14-2013 23:14:12","End":"11-14-2013 23:22:56"}}
{"Application":{"ProcessName":"com.google.android.apps.maps","Start":"11-14-2013 23:22:56","End":"11-14-2013 23:23:06"}}
{"Application":{"ProcessName":"com.sonyericsson.androidapp.smart","Start":"11-14-2013 23:22:56","End":"11-14-2013 23:23:06"}}
{"Application":{"ProcessName":"com.sonyericsson.illumination.service","Start":"11-14-2013 23:22:56","End":"11-14-2013 23:23:06"}}
{"Application":{"ProcessName":"com.sonyericsson.album","Start":"11-14-2013 23:23:06","End":"11-14-2013 23:23:16"}}
{"Application":{"ProcessName":"com.sonyericsson.video","Start":"11-14-2013 23:23:16","End":"11-14-2013 23:24:47"}}
{"Application":{"ProcessName":"com.sonyericsson.home","Start":"11-14-2013 23:22:56","End":"11-14-2013 23:24:47"}}
{"Application":{"ProcessName":"com.sonyericsson.customization","Start":"11-14-2013 23:22:56","End":"11-14-2013 23:24:47"}}
{"Call": {"Number":"0912145####","Duration":"26","Time":"11-14-2013 23:24:47","Type":"1"}}
{"Call": {"Number":"0912145####","Duration":"26","Time":"11-14-2013 23:24:47","Type":"1"}}
{"Application":{"ProcessName":"com.sonyericsson.album","Start":"11-14-2013 23:30:41","End":"11-14-2013 23:32:41"}}
{"Application":{"ProcessName":"com.sonyericsson.androidapp.smart","Start":"11-14-2013 23:30:30","End":"11-14-2013 23:32:41"}}
{"Application":{"ProcessName":"com.sonyericsson.home","Start":"11-14-2013 23:30:20","End":"11-14-2013 23:32:41"}}
{"Application":{"ProcessName":"com.sonyericsson.customization","Start":"11-14-2013 23:30:20","End":"11-14-2013 23:32:41"}}
{"Application":{"ProcessName":"com.sonyericsson.androidapp.smart","Start":"11-14-2013 23:34:47","End":"11-14-2013 23:35:58"}}
{"SMS":{"Address":"+9882####","type":"1","date":"11-14-2013 23:39:52","body":"ANONYMIZED","Type":"1"}}
{"Application":{"ProcessName":"com.sonyericsson.home","Start":"11-14-2013 23:34:47","End":"11-14-2013 23:39:56"}}
{"Application":{"ProcessName":"com.sonyericsson.customization","Start":"11-14-2013 23:34:47","End":"11-14-2013 23:39:56"}}
{"SMS":{"Address":"+98913165####","type":"2","date":"11-14-2013 23:40:04","body":"ANONYMIZED","Type":"2"}}
{"Application":{"ProcessName":"com.sonyericsson.androidapp.smart","Start":"11-14-2013 23:40:18","End":"11-14-2013 23:44:43"}}
{"Application":{"ProcessName":"com.sonyericsson.home","Start":"11-14-2013 23:39:56","End":"11-14-2013 23:44:43"}}
{"Application":{"ProcessName":"com.sonyericsson.customization","Start":"11-14-2013 23:39:56","End":"11-14-2013 23:44:43"}}
